%!PS-Adobe-3.0 EPSF-3.0
%%Creator: MATLAB, The MathWorks, Inc. Version 8.1.0.604 (R2013a). Operating System: Linux 2.6.18-408.el5 #1 SMP Tue Jan 19 08:38:14 CST 2016 x86_64.
%%Title: /a/msulx1/lcl/msu/home/m1hxw02/jmp/beliefirf.eps
%%CreationDate: 02/26/2016  17:53:55
%%DocumentNeededFonts: Helvetica
%%DocumentProcessColors: Cyan Magenta Yellow Black
%%LanguageLevel: 2
%%Pages: 1
%%BoundingBox:   -45     8   529   159
%%EndComments

%%BeginProlog
% MathWorks dictionary
/MathWorks 160 dict begin
% definition operators
/bdef {bind def} bind def
/ldef {load def} bind def
/xdef {exch def} bdef
/xstore {exch store} bdef
% operator abbreviations
/c  /clip ldef
/cc /concat ldef
/cp /closepath ldef
/gr /grestore ldef
/gs /gsave ldef
/mt /moveto ldef
/np /newpath ldef
/cm /currentmatrix ldef
/sm /setmatrix ldef
/rm /rmoveto ldef
/rl /rlineto ldef
/s {show newpath} bdef
/sc {setcmykcolor} bdef
/sr /setrgbcolor ldef
/sg /setgray ldef
/w /setlinewidth ldef
/j /setlinejoin ldef
/cap /setlinecap ldef
/rc {rectclip} bdef
/rf {rectfill} bdef
% page state control
/pgsv () def
/bpage {/pgsv save def} bdef
/epage {pgsv restore} bdef
/bplot /gsave ldef
/eplot {stroke grestore} bdef
% orientation switch
/portraitMode 0 def /landscapeMode 1 def /rotateMode 2 def
% coordinate system mappings
/dpi2point 0 def
% font control
/FontSize 0 def
/FMS {/FontSize xstore findfont [FontSize 0 0 FontSize neg 0 0]
  makefont setfont} bdef
/reencode {exch dup where {pop load} {pop StandardEncoding} ifelse
  exch dup 3 1 roll findfont dup length dict begin
  { 1 index /FID ne {def}{pop pop} ifelse } forall
  /Encoding exch def currentdict end definefont pop} bdef
/isroman {findfont /CharStrings get /Agrave known} bdef
/FMSR {3 1 roll 1 index dup isroman {reencode} {pop pop} ifelse
  exch FMS} bdef
/csm {1 dpi2point div -1 dpi2point div scale neg translate
 dup landscapeMode eq {pop -90 rotate}
  {rotateMode eq {90 rotate} if} ifelse} bdef
% line types: solid, dotted, dashed, dotdash
/SO { [] 0 setdash } bdef
/DO { [.5 dpi2point mul 4 dpi2point mul] 0 setdash } bdef
/DA { [6 dpi2point mul] 0 setdash } bdef
/DD { [.5 dpi2point mul 4 dpi2point mul 6 dpi2point mul 4
  dpi2point mul] 0 setdash } bdef
% macros for lines and objects
/L {lineto stroke} bdef
/MP {3 1 roll moveto 1 sub {rlineto} repeat} bdef
/AP {{rlineto} repeat} bdef
/PDlw -1 def
/W {/PDlw currentlinewidth def setlinewidth} def
/PP {closepath eofill} bdef
/DP {closepath stroke} bdef
/MR {4 -2 roll moveto dup  0 exch rlineto exch 0 rlineto
  neg 0 exch rlineto closepath} bdef
/FR {MR stroke} bdef
/PR {MR fill} bdef
/L1i {{currentfile picstr readhexstring pop} image} bdef
/tMatrix matrix def
/MakeOval {newpath tMatrix currentmatrix pop translate scale
0 0 1 0 360 arc tMatrix setmatrix} bdef
/FO {MakeOval stroke} bdef
/PO {MakeOval fill} bdef
/PD {currentlinewidth 2 div 0 360 arc fill
   PDlw -1 eq not {PDlw w /PDlw -1 def} if} def
/FA {newpath tMatrix currentmatrix pop translate scale
  0 0 1 5 -2 roll arc tMatrix setmatrix stroke} bdef
/PA {newpath tMatrix currentmatrix pop	translate 0 0 moveto scale
  0 0 1 5 -2 roll arc closepath tMatrix setmatrix fill} bdef
/FAn {newpath tMatrix currentmatrix pop translate scale
  0 0 1 5 -2 roll arcn tMatrix setmatrix stroke} bdef
/PAn {newpath tMatrix currentmatrix pop translate 0 0 moveto scale
  0 0 1 5 -2 roll arcn closepath tMatrix setmatrix fill} bdef
/vradius 0 def /hradius 0 def /lry 0 def
/lrx 0 def /uly 0 def /ulx 0 def /rad 0 def
/MRR {/vradius xdef /hradius xdef /lry xdef /lrx xdef /uly xdef
  /ulx xdef newpath tMatrix currentmatrix pop ulx hradius add uly
  vradius add translate hradius vradius scale 0 0 1 180 270 arc 
  tMatrix setmatrix lrx hradius sub uly vradius add translate
  hradius vradius scale 0 0 1 270 360 arc tMatrix setmatrix
  lrx hradius sub lry vradius sub translate hradius vradius scale
  0 0 1 0 90 arc tMatrix setmatrix ulx hradius add lry vradius sub
  translate hradius vradius scale 0 0 1 90 180 arc tMatrix setmatrix
  closepath} bdef
/FRR {MRR stroke } bdef
/PRR {MRR fill } bdef
/MlrRR {/lry xdef /lrx xdef /uly xdef /ulx xdef /rad lry uly sub 2 div def
  newpath tMatrix currentmatrix pop ulx rad add uly rad add translate
  rad rad scale 0 0 1 90 270 arc tMatrix setmatrix lrx rad sub lry rad
  sub translate rad rad scale 0 0 1 270 90 arc tMatrix setmatrix
  closepath} bdef
/FlrRR {MlrRR stroke } bdef
/PlrRR {MlrRR fill } bdef
/MtbRR {/lry xdef /lrx xdef /uly xdef /ulx xdef /rad lrx ulx sub 2 div def
  newpath tMatrix currentmatrix pop ulx rad add uly rad add translate
  rad rad scale 0 0 1 180 360 arc tMatrix setmatrix lrx rad sub lry rad
  sub translate rad rad scale 0 0 1 0 180 arc tMatrix setmatrix
  closepath} bdef
/FtbRR {MtbRR stroke } bdef
/PtbRR {MtbRR fill } bdef
/stri 6 array def /dtri 6 array def
/smat 6 array def /dmat 6 array def
/tmat1 6 array def /tmat2 6 array def /dif 3 array def
/asub {/ind2 exch def /ind1 exch def dup dup
  ind1 get exch ind2 get sub exch } bdef
/tri_to_matrix {
  2 0 asub 3 1 asub 4 0 asub 5 1 asub
  dup 0 get exch 1 get 7 -1 roll astore } bdef
/compute_transform {
  dmat dtri tri_to_matrix tmat1 invertmatrix 
  smat stri tri_to_matrix tmat2 concatmatrix } bdef
/ds {stri astore pop} bdef
/dt {dtri astore pop} bdef
/db {2 copy /cols xdef /rows xdef mul dup 3 mul string
  currentfile 
  3 index 0 eq {/ASCIIHexDecode filter}
  {/ASCII85Decode filter 3 index 2 eq {/RunLengthDecode filter} if }
  ifelse exch readstring pop
  dup 0 3 index getinterval /rbmap xdef
  dup 2 index dup getinterval /gbmap xdef
  1 index dup 2 mul exch getinterval /bbmap xdef pop pop}bdef
/it {gs np dtri aload pop moveto lineto lineto cp c
  cols rows 8 compute_transform 
  rbmap gbmap bbmap true 3 colorimage gr}bdef
/il {newpath moveto lineto stroke}bdef
currentdict end def
%%EndProlog

%%BeginSetup
MathWorks begin

0 cap

end
%%EndSetup

%%Page: 1 1
%%BeginPageSetup
%%PageBoundingBox:   -45     8   529   159
MathWorks begin
bpage
%%EndPageSetup

%%BeginObject: obj1
bplot

/dpi2point 12 def
portraitMode -0540 1908 csm

    0     0  6890  1812 rc
85 dict begin %Colortable dictionary
/c0 { 0.000000 0.000000 0.000000 sr} bdef
/c1 { 1.000000 1.000000 1.000000 sr} bdef
/c2 { 0.900000 0.000000 0.000000 sr} bdef
/c3 { 0.000000 0.820000 0.000000 sr} bdef
/c4 { 0.000000 0.000000 0.800000 sr} bdef
/c5 { 0.910000 0.820000 0.320000 sr} bdef
/c6 { 1.000000 0.260000 0.820000 sr} bdef
/c7 { 0.000000 0.820000 0.820000 sr} bdef
c0
1 j
1 sg
   0    0 6891 1813 rf
6 w
0 1473 1340 0 0 -1473 123 1657 4 MP
PP
-1340 0 0 1473 1340 0 0 -1473 123 1657 5 MP stroke
4 w
DO
SO
6 w
0 sg
 123 1657 mt 1463 1657 L
 123 1657 mt  123  184 L
 391 1657 mt  391 1642 L
%%IncludeResource: font Helvetica
/Helvetica /ISOLatin1Encoding 120 FMSR

 358 1802 mt 
(4) s
 748 1657 mt  748 1642 L
 715 1802 mt 
(8) s
1105 1657 mt 1105 1642 L
1039 1802 mt 
(12) s
1463 1657 mt 1463 1642 L
1397 1802 mt 
(16) s
 123 1469 mt  137 1469 L
  22 1513 mt 
(0) s
 123 1174 mt  137 1174 L
  22 1218 mt 
(2) s
 123  878 mt  137  878 L
  22  922 mt 
(4) s
 123  583 mt  137  583 L
  22  627 mt 
(6) s
 123  288 mt  137  288 L
  22  332 mt 
(8) s
gs 123 184 1341 1474 rc
24 w
/c8 { 1.000000 0.000000 0.000000 sr} bdef
c8
90 68 89 76 89 87 90 100 89 114 89 121 90 123 89 120 
89 101 90 57 89 -21 89 -139 90 -294 89 -467 89 -512 123 1657 16 MP stroke
DA
/c9 { 0.000000 0.000000 1.000000 sr} bdef
c9
89 -2 89 -2 90 -2 89 -2 89 -2 90 -1 301 678 7 MP stroke
/c10 { 0.000000 0.500000 0.000000 sr} bdef
c10
89 -6 89 -7 90 -7 89 -7 89 -6 90 -7 569 224 7 MP stroke
SO
6 w
0 sg
90 0 89 0 89 0 90 0 89 0 89 0 90 0 89 0 
89 0 90 0 89 0 89 0 90 0 89 0 89 0 123 1469 16 MP stroke
gr

 466   89 mt 
(Stock prices) s
1 sg
0 1473 1340 0 0 -1473 1901 1657 4 MP
PP
-1340 0 0 1473 1340 0 0 -1473 1901 1657 5 MP stroke
4 w
DO
SO
6 w
0 sg
1901 1657 mt 3241 1657 L
1901 1657 mt 1901  184 L
2169 1657 mt 2169 1642 L
2136 1802 mt 
(4) s
2526 1657 mt 2526 1642 L
2493 1802 mt 
(8) s
2883 1657 mt 2883 1642 L
2817 1802 mt 
(12) s
3241 1657 mt 3241 1642 L
3175 1802 mt 
(16) s
1901 1657 mt 1915 1657 L
1800 1701 mt 
(0) s
1901 1403 mt 1915 1403 L
1700 1447 mt 
(0.2) s
1901 1150 mt 1915 1150 L
1700 1194 mt 
(0.4) s
1901  897 mt 1915  897 L
1700  941 mt 
(0.6) s
1901  644 mt 1915  644 L
1700  688 mt 
(0.8) s
1901  391 mt 1915  391 L
1800  435 mt 
(1) s
gs 1901 184 1341 1474 rc
24 w
c8
90 47 89 52 89 58 90 69 89 78 89 81 90 91 89 99 
89 105 90 97 89 71 89 -2 90 -215 89 -898 89 301 1901 1088 16 MP stroke
DA
c9
89 44 89 50 90 59 89 89 89 312 90 -307 2079 491 7 MP stroke
c10
89 28 89 31 90 35 89 41 89 61 90 115 2347 345 7 MP stroke
SO
6 w
0 sg
90 0 89 0 89 0 90 0 89 0 89 0 90 0 89 0 
89 0 90 0 89 0 89 0 90 0 89 0 89 0 1901 1657 16 MP stroke
gr

2390   89 mt 
(Output) s
1 sg
0 1473 1340 0 0 -1473 3679 1657 4 MP
PP
-1340 0 0 1473 1340 0 0 -1473 3679 1657 5 MP stroke
4 w
DO
SO
6 w
0 sg
3679 1657 mt 5019 1657 L
3679 1657 mt 3679  184 L
3947 1657 mt 3947 1642 L
3914 1802 mt 
(4) s
4304 1657 mt 4304 1642 L
4271 1802 mt 
(8) s
4661 1657 mt 4661 1642 L
4595 1802 mt 
(12) s
5019 1657 mt 5019 1642 L
4953 1802 mt 
(16) s
3679 1635 mt 3693 1635 L
3578 1679 mt 
(0) s
3679 1357 mt 3693 1357 L
3478 1401 mt 
(0.5) s
3679 1080 mt 3693 1080 L
3578 1124 mt 
(1) s
3679  802 mt 3693  802 L
3478  846 mt 
(1.5) s
3679  525 mt 3693  525 L
3578  569 mt 
(2) s
3679  247 mt 3693  247 L
3478  291 mt 
(2.5) s
gs 3679 184 1341 1474 rc
24 w
c8
90 75 89 83 89 98 90 113 89 134 89 145 90 150 89 150 
89 132 90 88 89 0 89 -135 90 -318 89 -504 89 -516 3679 1657 16 MP stroke
DA
c9
89 12 89 12 90 11 89 12 89 11 90 14 3857 637 7 MP stroke
c10
89 16 89 16 90 17 89 16 89 17 90 17 4125 184 7 MP stroke
SO
6 w
0 sg
90 0 89 0 89 0 90 0 89 0 89 0 90 0 89 0 
89 0 90 0 89 0 89 0 90 0 89 0 89 0 3679 1635 16 MP stroke
gr

4057   89 mt 
(Investment) s
1 sg
0 1473 1340 0 0 -1473 5457 1657 4 MP
PP
-1340 0 0 1473 1340 0 0 -1473 5457 1657 5 MP stroke
4 w
DO
SO
6 w
0 sg
5457 1657 mt 6797 1657 L
5457 1657 mt 5457  184 L
5725 1657 mt 5725 1642 L
5692 1802 mt 
(4) s
6082 1657 mt 6082 1642 L
6049 1802 mt 
(8) s
6439 1657 mt 6439 1642 L
6373 1802 mt 
(12) s
6797 1657 mt 6797 1642 L
6731 1802 mt 
(16) s
5457 1657 mt 5471 1657 L
5356 1701 mt 
(0) s
5457 1258 mt 5471 1258 L
5256 1302 mt 
(0.2) s
5457  860 mt 5471  860 L
5256  904 mt 
(0.4) s
5457  462 mt 5471  462 L
5256  506 mt 
(0.6) s
gs 5457 184 1341 1474 rc
24 w
c8
90 26 89 25 89 23 90 21 89 20 89 20 90 21 89 26 
89 36 90 55 89 83 89 120 90 151 89 117 89 -224 5457 408 16 MP stroke
DA
c9
89 39 89 46 90 53 89 64 89 85 90 204 5635 301 7 MP stroke
c10
89 10 89 13 90 18 89 22 89 29 90 43 5903 655 7 MP stroke
SO
6 w
0 sg
90 0 89 0 89 0 90 0 89 0 89 0 90 0 89 0 
89 0 90 0 89 0 89 0 90 0 89 0 89 0 5457 1657 16 MP stroke
gr

5773   89 mt 
(Consumption) s

end %%Color Dict

eplot
%%EndObject

epage
end

showpage

%%Trailer
%%EOF
