%!PS-Adobe-3.0 EPSF-3.0
%%Creator: MATLAB, The MathWorks, Inc. Version 8.1.0.604 (R2013a). Operating System: Linux 2.6.18-407.el5 #1 SMP Wed Nov 11 08:39:12 CST 2015 x86_64.
%%Title: /a/msulx1/lcl/msu/home/m1hxw02/jmp/c-sweep.eps
%%CreationDate: 01/13/2016  15:12:58
%%DocumentNeededFonts: Helvetica
%%DocumentProcessColors: Cyan Magenta Yellow Black
%%LanguageLevel: 2
%%Pages: 1
%%BoundingBox:     6    10   473   351
%%EndComments

%%BeginProlog
% MathWorks dictionary
/MathWorks 160 dict begin
% definition operators
/bdef {bind def} bind def
/ldef {load def} bind def
/xdef {exch def} bdef
/xstore {exch store} bdef
% operator abbreviations
/c  /clip ldef
/cc /concat ldef
/cp /closepath ldef
/gr /grestore ldef
/gs /gsave ldef
/mt /moveto ldef
/np /newpath ldef
/cm /currentmatrix ldef
/sm /setmatrix ldef
/rm /rmoveto ldef
/rl /rlineto ldef
/s {show newpath} bdef
/sc {setcmykcolor} bdef
/sr /setrgbcolor ldef
/sg /setgray ldef
/w /setlinewidth ldef
/j /setlinejoin ldef
/cap /setlinecap ldef
/rc {rectclip} bdef
/rf {rectfill} bdef
% page state control
/pgsv () def
/bpage {/pgsv save def} bdef
/epage {pgsv restore} bdef
/bplot /gsave ldef
/eplot {stroke grestore} bdef
% orientation switch
/portraitMode 0 def /landscapeMode 1 def /rotateMode 2 def
% coordinate system mappings
/dpi2point 0 def
% font control
/FontSize 0 def
/FMS {/FontSize xstore findfont [FontSize 0 0 FontSize neg 0 0]
  makefont setfont} bdef
/reencode {exch dup where {pop load} {pop StandardEncoding} ifelse
  exch dup 3 1 roll findfont dup length dict begin
  { 1 index /FID ne {def}{pop pop} ifelse } forall
  /Encoding exch def currentdict end definefont pop} bdef
/isroman {findfont /CharStrings get /Agrave known} bdef
/FMSR {3 1 roll 1 index dup isroman {reencode} {pop pop} ifelse
  exch FMS} bdef
/csm {1 dpi2point div -1 dpi2point div scale neg translate
 dup landscapeMode eq {pop -90 rotate}
  {rotateMode eq {90 rotate} if} ifelse} bdef
% line types: solid, dotted, dashed, dotdash
/dom { dpi2point 1 currentlinewidth 0.08 mul add mul mul } bdef/dam { dpi2point 2 currentlinewidth 0.04 mul add mul mul } bdef/SO { [] 0 setdash 0 setlinecap } bdef/DO { [1 dom 1.2 dom] 0 setdash 0 setlinecap } bdef/DA { [4 dam 1.5 dam] 0 setdash 0 setlinecap } bdef/DD { [1 dom 1.2 dom 4 dam 1.2 dom] 0 setdash 0 setlinecap } bdef/GR { [0 dpi2point mul 4 dpi2point mul] 0 setdash 1 setlinecap } bdef% macros for lines and objects
/L {lineto stroke} bdef
/MP {3 1 roll moveto 1 sub {rlineto} repeat} bdef
/AP {{rlineto} repeat} bdef
/PDlw -1 def
/W {/PDlw currentlinewidth def setlinewidth} def
/PP {closepath eofill} bdef
/DP {closepath stroke} bdef
/MR {4 -2 roll moveto dup  0 exch rlineto exch 0 rlineto
  neg 0 exch rlineto closepath} bdef
/FR {MR stroke} bdef
/PR {MR fill} bdef
/L1i {{currentfile picstr readhexstring pop} image} bdef
/tMatrix matrix def
/MakeOval {newpath tMatrix currentmatrix pop translate scale
0 0 1 0 360 arc tMatrix setmatrix} bdef
/FO {MakeOval stroke} bdef
/PO {MakeOval fill} bdef
/PD {currentlinewidth 2 div 0 360 arc fill
   PDlw -1 eq not {PDlw w /PDlw -1 def} if} def
/FA {newpath tMatrix currentmatrix pop translate scale
  0 0 1 5 -2 roll arc tMatrix setmatrix stroke} bdef
/PA {newpath tMatrix currentmatrix pop	translate 0 0 moveto scale
  0 0 1 5 -2 roll arc closepath tMatrix setmatrix fill} bdef
/FAn {newpath tMatrix currentmatrix pop translate scale
  0 0 1 5 -2 roll arcn tMatrix setmatrix stroke} bdef
/PAn {newpath tMatrix currentmatrix pop translate 0 0 moveto scale
  0 0 1 5 -2 roll arcn closepath tMatrix setmatrix fill} bdef
/vradius 0 def /hradius 0 def /lry 0 def
/lrx 0 def /uly 0 def /ulx 0 def /rad 0 def
/MRR {/vradius xdef /hradius xdef /lry xdef /lrx xdef /uly xdef
  /ulx xdef newpath tMatrix currentmatrix pop ulx hradius add uly
  vradius add translate hradius vradius scale 0 0 1 180 270 arc 
  tMatrix setmatrix lrx hradius sub uly vradius add translate
  hradius vradius scale 0 0 1 270 360 arc tMatrix setmatrix
  lrx hradius sub lry vradius sub translate hradius vradius scale
  0 0 1 0 90 arc tMatrix setmatrix ulx hradius add lry vradius sub
  translate hradius vradius scale 0 0 1 90 180 arc tMatrix setmatrix
  closepath} bdef
/FRR {MRR stroke } bdef
/PRR {MRR fill } bdef
/MlrRR {/lry xdef /lrx xdef /uly xdef /ulx xdef /rad lry uly sub 2 div def
  newpath tMatrix currentmatrix pop ulx rad add uly rad add translate
  rad rad scale 0 0 1 90 270 arc tMatrix setmatrix lrx rad sub lry rad
  sub translate rad rad scale 0 0 1 270 90 arc tMatrix setmatrix
  closepath} bdef
/FlrRR {MlrRR stroke } bdef
/PlrRR {MlrRR fill } bdef
/MtbRR {/lry xdef /lrx xdef /uly xdef /ulx xdef /rad lrx ulx sub 2 div def
  newpath tMatrix currentmatrix pop ulx rad add uly rad add translate
  rad rad scale 0 0 1 180 360 arc tMatrix setmatrix lrx rad sub lry rad
  sub translate rad rad scale 0 0 1 0 180 arc tMatrix setmatrix
  closepath} bdef
/FtbRR {MtbRR stroke } bdef
/PtbRR {MtbRR fill } bdef
/stri 6 array def /dtri 6 array def
/smat 6 array def /dmat 6 array def
/tmat1 6 array def /tmat2 6 array def /dif 3 array def
/asub {/ind2 exch def /ind1 exch def dup dup
  ind1 get exch ind2 get sub exch } bdef
/tri_to_matrix {
  2 0 asub 3 1 asub 4 0 asub 5 1 asub
  dup 0 get exch 1 get 7 -1 roll astore } bdef
/compute_transform {
  dmat dtri tri_to_matrix tmat1 invertmatrix 
  smat stri tri_to_matrix tmat2 concatmatrix } bdef
/ds {stri astore pop} bdef
/dt {dtri astore pop} bdef
/db {2 copy /cols xdef /rows xdef mul dup 3 mul string
  currentfile 
  3 index 0 eq {/ASCIIHexDecode filter}
  {/ASCII85Decode filter 3 index 2 eq {/RunLengthDecode filter} if }
  ifelse exch readstring pop
  dup 0 3 index getinterval /rbmap xdef
  dup 2 index dup getinterval /gbmap xdef
  1 index dup 2 mul exch getinterval /bbmap xdef pop pop}bdef
/it {gs np dtri aload pop moveto lineto lineto cp c
  cols rows 8 compute_transform 
  rbmap gbmap bbmap true 3 colorimage gr}bdef
/il {newpath moveto lineto stroke}bdef
currentdict end def
%%EndProlog

%%BeginSetup
MathWorks begin

0 cap

end
%%EndSetup

%%Page: 1 1
%%BeginPageSetup
%%PageBoundingBox:     6    10   473   351
MathWorks begin
bpage
%%EndPageSetup

%%BeginObject: obj1
bplot

/dpi2point 12 def
portraitMode 0072 4212 csm

    0     0  5608  4090 rc
80 dict begin %Colortable dictionary
/c0 { 0.000000 0.000000 0.000000 sr} bdef
/c1 { 1.000000 1.000000 1.000000 sr} bdef
/c2 { 0.900000 0.000000 0.000000 sr} bdef
/c3 { 0.000000 0.820000 0.000000 sr} bdef
/c4 { 0.000000 0.000000 0.800000 sr} bdef
/c5 { 0.910000 0.820000 0.320000 sr} bdef
/c6 { 1.000000 0.260000 0.820000 sr} bdef
/c7 { 0.000000 0.820000 0.820000 sr} bdef
c0
1 j
1 sg
   0    0 5609 4091 rf
6 w
0 1431 4979 0 0 -1431 504 1691 4 MP
PP
-4979 0 0 1431 4979 0 0 -1431 504 1691 5 MP stroke
4 w
DO
6 w
SO
0 sg
 504 1691 mt 5483 1691 L
 504  260 mt 5483  260 L
 504 1691 mt  504  260 L
5483 1691 mt 5483  260 L
 504 1691 mt 5483 1691 L
 504 1691 mt  504  260 L
 504 1691 mt  504 1641 L
 504  260 mt  504  309 L
%%IncludeResource: font Helvetica
/Helvetica /ISOLatin1Encoding 168 FMSR

 458 1881 mt 
(0) s
1215 1691 mt 1215 1641 L
1215  260 mt 1215  309 L
1099 1881 mt 
(0.1) s
1926 1691 mt 1926 1641 L
1926  260 mt 1926  309 L
1810 1881 mt 
(0.2) s
2637 1691 mt 2637 1641 L
2637  260 mt 2637  309 L
2521 1881 mt 
(0.3) s
3349 1691 mt 3349 1641 L
3349  260 mt 3349  309 L
3233 1881 mt 
(0.4) s
4060 1691 mt 4060 1641 L
4060  260 mt 4060  309 L
3944 1881 mt 
(0.5) s
4771 1691 mt 4771 1641 L
4771  260 mt 4771  309 L
4655 1881 mt 
(0.6) s
5483 1691 mt 5483 1641 L
5483  260 mt 5483  309 L
5367 1881 mt 
(0.7) s
 504 1691 mt  553 1691 L
5483 1691 mt 5433 1691 L
 376 1753 mt 
(0) s
 504 1030 mt  553 1030 L
5483 1030 mt 5433 1030 L
 376 1092 mt 
(5) s
 504  369 mt  553  369 L
5483  369 mt 5433  369 L
 283  431 mt 
(10) s
 504 1691 mt 5483 1691 L
 504  260 mt 5483  260 L
 504 1691 mt  504  260 L
5483 1691 mt 5483  260 L
gs 504 260 4980 1432 rc
24 w
/c8 { 1.000000 0.000000 0.000000 sr} bdef
c8
83 305 83 321 83 140 83 30 83 -28 83 -56 83 -66 83 -68 
83 -65 83 -59 83 -55 83 -49 83 -43 83 -40 83 -36 83 -32 
83 -29 83 -27 83 -24 83 -23 83 -20 83 -20 83 -18 83 -17 
83 -15 83 -15 83 -14 83 -14 83 -12 83 -13 83 -11 83 -11 
83 -11 83 -10 83 -9 83 -10 83 -8 83 -9 83 -8 83 -8 
83 -7 83 -7 83 -7 83 -6 83 -6 83 -6 83 -5 83 -5 
83 -5 83 -4 83 -3 83 -4 83 -3 83 -2 83 -3 83 -2 
83 -1 83 -1 82 -1 504 1529 60 MP stroke
DA
/c9 { 0.000000 0.000000 1.000000 sr} bdef
c9
83 0 83 0 83 0 83 0 83 -1 83 0 83 0 83 0 
83 -1 83 0 83 0 83 -1 83 0 83 -1 83 0 83 -1 
83 0 83 -1 83 0 83 -1 83 0 83 -1 83 0 83 -1 
83 0 83 -1 83 0 83 -1 83 0 83 -1 83 0 83 0 
83 -1 83 0 83 -1 83 0 83 0 83 -1 83 0 83 0 
83 -1 83 0 83 0 83 -1 83 0 83 0 83 -1 83 0 
83 0 83 0 83 -1 83 0 83 0 83 0 83 -1 83 0 
83 0 83 0 83 0 82 -1 504 1677 61 MP stroke
6 w
DO
0 sg
0 -1431 4995 1691 2 MP stroke
gr

DO
 191 1568 mt  -90 rotate
(sd. rel. to output) s
90 rotate
2536  128 mt 
(Stock prices) s
SO
1 sg
0 1431 4979 0 0 -1431 504 3678 4 MP
PP
-4979 0 0 1431 4979 0 0 -1431 504 3678 5 MP stroke
4 w
DO
6 w
SO
0 sg
 504 3678 mt 5483 3678 L
 504 2247 mt 5483 2247 L
 504 3678 mt  504 2247 L
5483 3678 mt 5483 2247 L
 504 3678 mt 5483 3678 L
 504 3678 mt  504 2247 L
 504 3678 mt  504 3628 L
 504 2247 mt  504 2296 L
 458 3868 mt 
(0) s
1215 3678 mt 1215 3628 L
1215 2247 mt 1215 2296 L
1099 3868 mt 
(0.1) s
1926 3678 mt 1926 3628 L
1926 2247 mt 1926 2296 L
1810 3868 mt 
(0.2) s
2637 3678 mt 2637 3628 L
2637 2247 mt 2637 2296 L
2521 3868 mt 
(0.3) s
3349 3678 mt 3349 3628 L
3349 2247 mt 3349 2296 L
3233 3868 mt 
(0.4) s
4060 3678 mt 4060 3628 L
4060 2247 mt 4060 2296 L
3944 3868 mt 
(0.5) s
4771 3678 mt 4771 3628 L
4771 2247 mt 4771 2296 L
4655 3868 mt 
(0.6) s
5483 3678 mt 5483 3628 L
5483 2247 mt 5483 2296 L
5367 3868 mt 
(0.7) s
 504 3678 mt  553 3678 L
5483 3678 mt 5433 3678 L
 376 3740 mt 
(0) s
 504 3153 mt  553 3153 L
5483 3153 mt 5433 3153 L
 376 3215 mt 
(2) s
 504 2628 mt  553 2628 L
5483 2628 mt 5433 2628 L
 376 2690 mt 
(4) s
 504 3678 mt 5483 3678 L
 504 2247 mt 5483 2247 L
 504 3678 mt  504 2247 L
5483 3678 mt 5483 2247 L
gs 504 2247 4980 1432 rc
24 w
c8
83 160 83 17 83 -56 83 -73 83 -77 83 -75 83 -70 83 -64 
83 -57 83 -50 83 -45 83 -39 83 -36 83 -31 83 -29 83 -26 
83 -23 83 -22 83 -20 83 -18 83 -17 83 -17 83 -15 83 -14 
83 -14 83 -13 83 -12 83 -12 83 -11 83 -11 83 -11 83 -10 
83 -9 83 -10 83 -9 83 -8 83 -9 83 -7 83 -8 83 -7 
83 -6 83 -7 83 -5 83 -5 83 -5 83 -4 83 -4 83 -3 
83 -2 83 -2 83 -1 83 0 83 0 83 1 83 1 83 1 
83 2 83 3 82 2 504 3554 60 MP stroke
DA
c9
83 -11 83 -13 83 -14 83 -14 83 -16 83 -18 83 -18 83 -19 
83 -21 83 -21 83 -22 83 -23 83 -23 83 -24 83 -24 83 -24 
83 -24 83 -24 83 -25 83 -24 83 -24 83 -23 83 -23 83 -23 
83 -22 83 -22 83 -22 83 -20 83 -21 83 -19 83 -20 83 -18 
83 -18 83 -17 83 -17 83 -16 83 -15 83 -15 83 -14 83 -13 
83 -13 83 -12 83 -11 83 -10 83 -9 83 -9 83 -8 83 -7 
83 -6 83 -5 83 -4 83 -3 83 -2 83 -2 83 -1 83 0 
83 1 83 2 83 2 82 2 504 3485 61 MP stroke
6 w
DO
0 sg
0 -1431 4995 3678 2 MP stroke
gr

DO
 284 3555 mt  -90 rotate
(sd. rel. to output) s
90 rotate
2455 2115 mt 
(Exp. dividends) s
%%IncludeResource: font Symbol
/Symbol /ISOLatin1Encoding 168 FMSR

2951 4038 mt 
(z) s
%%IncludeResource: font Helvetica
/Helvetica /ISOLatin1Encoding 120 FMSR

 487 3721 mt 
( ) s
5467 2289 mt 
( ) s
SO
1 sg
0 492 1114 0 0 -492 717 1007 4 MP
PP
-1114 0 0 492 1114 0 0 -492 717 1007 5 MP stroke
4 w
DO
6 w
SO
0 sg
 717 1007 mt 1831 1007 L
 717  515 mt 1831  515 L
 717 1007 mt  717  515 L
1831 1007 mt 1831  515 L
 717 1007 mt 1831 1007 L
 717 1007 mt  717  515 L
 717 1007 mt 1831 1007 L
 717  515 mt 1831  515 L
 717 1007 mt  717  515 L
1831 1007 mt 1831  515 L
%%IncludeResource: font Helvetica
/Helvetica /ISOLatin1Encoding 168 FMSR

1185  709 mt 
(learning) s
gs 717 515 1115 493 rc
24 w
c8
360 0 788 648 2 MP stroke
gr

24 w
c8
0 sg
1185  934 mt 
(RE) s
gs 717 515 1115 493 rc
DA
c9
360 0 788 873 2 MP stroke
6 w
SO
gr

6 w
c9

end %%Color Dict

eplot
%%EndObject

epage
end

showpage

%%Trailer
%%EOF
