%!PS-Adobe-3.0 EPSF-3.0
%%Creator: MATLAB, The MathWorks, Inc. Version 8.1.0.604 (R2013a). Operating System: Linux 2.6.18-412.el5 #1 SMP Wed Aug 31 05:40:53 CDT 2016 x86_64.
%%Title: /a/msulx1/lcl/msu/home/m1hxw02/jmp/ferrpath.eps
%%CreationDate: 10/14/2016  12:01:47
%%DocumentNeededFonts: Helvetica
%%DocumentProcessColors: Cyan Magenta Yellow Black
%%LanguageLevel: 2
%%Pages: 1
%%BoundingBox:     0    -1   724   208
%%EndComments

%%BeginProlog
% MathWorks dictionary
/MathWorks 160 dict begin
% definition operators
/bdef {bind def} bind def
/ldef {load def} bind def
/xdef {exch def} bdef
/xstore {exch store} bdef
% operator abbreviations
/c  /clip ldef
/cc /concat ldef
/cp /closepath ldef
/gr /grestore ldef
/gs /gsave ldef
/mt /moveto ldef
/np /newpath ldef
/cm /currentmatrix ldef
/sm /setmatrix ldef
/rm /rmoveto ldef
/rl /rlineto ldef
/s {show newpath} bdef
/sc {setcmykcolor} bdef
/sr /setrgbcolor ldef
/sg /setgray ldef
/w /setlinewidth ldef
/j /setlinejoin ldef
/cap /setlinecap ldef
/rc {rectclip} bdef
/rf {rectfill} bdef
% page state control
/pgsv () def
/bpage {/pgsv save def} bdef
/epage {pgsv restore} bdef
/bplot /gsave ldef
/eplot {stroke grestore} bdef
% orientation switch
/portraitMode 0 def /landscapeMode 1 def /rotateMode 2 def
% coordinate system mappings
/dpi2point 0 def
% font control
/FontSize 0 def
/FMS {/FontSize xstore findfont [FontSize 0 0 FontSize neg 0 0]
  makefont setfont} bdef
/reencode {exch dup where {pop load} {pop StandardEncoding} ifelse
  exch dup 3 1 roll findfont dup length dict begin
  { 1 index /FID ne {def}{pop pop} ifelse } forall
  /Encoding exch def currentdict end definefont pop} bdef
/isroman {findfont /CharStrings get /Agrave known} bdef
/FMSR {3 1 roll 1 index dup isroman {reencode} {pop pop} ifelse
  exch FMS} bdef
/csm {1 dpi2point div -1 dpi2point div scale neg translate
 dup landscapeMode eq {pop -90 rotate}
  {rotateMode eq {90 rotate} if} ifelse} bdef
% line types: solid, dotted, dashed, dotdash
/dom { dpi2point 1 currentlinewidth 0.08 mul add mul mul } bdef/dam { dpi2point 2 currentlinewidth 0.04 mul add mul mul } bdef/SO { [] 0 setdash 0 setlinecap } bdef/DO { [1 dom 1.2 dom] 0 setdash 0 setlinecap } bdef/DA { [4 dam 1.5 dam] 0 setdash 0 setlinecap } bdef/DD { [1 dom 1.2 dom 4 dam 1.2 dom] 0 setdash 0 setlinecap } bdef/GR { [0 dpi2point mul 4 dpi2point mul] 0 setdash 1 setlinecap } bdef% macros for lines and objects
/L {lineto stroke} bdef
/MP {3 1 roll moveto 1 sub {rlineto} repeat} bdef
/AP {{rlineto} repeat} bdef
/PDlw -1 def
/W {/PDlw currentlinewidth def setlinewidth} def
/PP {closepath eofill} bdef
/DP {closepath stroke} bdef
/MR {4 -2 roll moveto dup  0 exch rlineto exch 0 rlineto
  neg 0 exch rlineto closepath} bdef
/FR {MR stroke} bdef
/PR {MR fill} bdef
/L1i {{currentfile picstr readhexstring pop} image} bdef
/tMatrix matrix def
/MakeOval {newpath tMatrix currentmatrix pop translate scale
0 0 1 0 360 arc tMatrix setmatrix} bdef
/FO {MakeOval stroke} bdef
/PO {MakeOval fill} bdef
/PD {currentlinewidth 2 div 0 360 arc fill
   PDlw -1 eq not {PDlw w /PDlw -1 def} if} def
/FA {newpath tMatrix currentmatrix pop translate scale
  0 0 1 5 -2 roll arc tMatrix setmatrix stroke} bdef
/PA {newpath tMatrix currentmatrix pop	translate 0 0 moveto scale
  0 0 1 5 -2 roll arc closepath tMatrix setmatrix fill} bdef
/FAn {newpath tMatrix currentmatrix pop translate scale
  0 0 1 5 -2 roll arcn tMatrix setmatrix stroke} bdef
/PAn {newpath tMatrix currentmatrix pop translate 0 0 moveto scale
  0 0 1 5 -2 roll arcn closepath tMatrix setmatrix fill} bdef
/vradius 0 def /hradius 0 def /lry 0 def
/lrx 0 def /uly 0 def /ulx 0 def /rad 0 def
/MRR {/vradius xdef /hradius xdef /lry xdef /lrx xdef /uly xdef
  /ulx xdef newpath tMatrix currentmatrix pop ulx hradius add uly
  vradius add translate hradius vradius scale 0 0 1 180 270 arc 
  tMatrix setmatrix lrx hradius sub uly vradius add translate
  hradius vradius scale 0 0 1 270 360 arc tMatrix setmatrix
  lrx hradius sub lry vradius sub translate hradius vradius scale
  0 0 1 0 90 arc tMatrix setmatrix ulx hradius add lry vradius sub
  translate hradius vradius scale 0 0 1 90 180 arc tMatrix setmatrix
  closepath} bdef
/FRR {MRR stroke } bdef
/PRR {MRR fill } bdef
/MlrRR {/lry xdef /lrx xdef /uly xdef /ulx xdef /rad lry uly sub 2 div def
  newpath tMatrix currentmatrix pop ulx rad add uly rad add translate
  rad rad scale 0 0 1 90 270 arc tMatrix setmatrix lrx rad sub lry rad
  sub translate rad rad scale 0 0 1 270 90 arc tMatrix setmatrix
  closepath} bdef
/FlrRR {MlrRR stroke } bdef
/PlrRR {MlrRR fill } bdef
/MtbRR {/lry xdef /lrx xdef /uly xdef /ulx xdef /rad lrx ulx sub 2 div def
  newpath tMatrix currentmatrix pop ulx rad add uly rad add translate
  rad rad scale 0 0 1 180 360 arc tMatrix setmatrix lrx rad sub lry rad
  sub translate rad rad scale 0 0 1 0 180 arc tMatrix setmatrix
  closepath} bdef
/FtbRR {MtbRR stroke } bdef
/PtbRR {MtbRR fill } bdef
/stri 6 array def /dtri 6 array def
/smat 6 array def /dmat 6 array def
/tmat1 6 array def /tmat2 6 array def /dif 3 array def
/asub {/ind2 exch def /ind1 exch def dup dup
  ind1 get exch ind2 get sub exch } bdef
/tri_to_matrix {
  2 0 asub 3 1 asub 4 0 asub 5 1 asub
  dup 0 get exch 1 get 7 -1 roll astore } bdef
/compute_transform {
  dmat dtri tri_to_matrix tmat1 invertmatrix 
  smat stri tri_to_matrix tmat2 concatmatrix } bdef
/ds {stri astore pop} bdef
/dt {dtri astore pop} bdef
/db {2 copy /cols xdef /rows xdef mul dup 3 mul string
  currentfile 
  3 index 0 eq {/ASCIIHexDecode filter}
  {/ASCII85Decode filter 3 index 2 eq {/RunLengthDecode filter} if }
  ifelse exch readstring pop
  dup 0 3 index getinterval /rbmap xdef
  dup 2 index dup getinterval /gbmap xdef
  1 index dup 2 mul exch getinterval /bbmap xdef pop pop}bdef
/it {gs np dtri aload pop moveto lineto lineto cp c
  cols rows 8 compute_transform 
  rbmap gbmap bbmap true 3 colorimage gr}bdef
/il {newpath moveto lineto stroke}bdef
currentdict end def
%%EndProlog

%%BeginSetup
MathWorks begin

0 cap

end
%%EndSetup

%%Page: 1 1
%%BeginPageSetup
%%PageBoundingBox:     0    -1   724   208
MathWorks begin
bpage
%%EndPageSetup

%%BeginObject: obj1
bplot

/dpi2point 12 def
portraitMode 0000 2496 csm

    0     0  8697  2511 rc
85 dict begin %Colortable dictionary
/c0 { 0.000000 0.000000 0.000000 sr} bdef
/c1 { 1.000000 1.000000 1.000000 sr} bdef
/c2 { 0.900000 0.000000 0.000000 sr} bdef
/c3 { 0.000000 0.820000 0.000000 sr} bdef
/c4 { 0.000000 0.000000 0.800000 sr} bdef
/c5 { 0.910000 0.820000 0.320000 sr} bdef
/c6 { 1.000000 0.260000 0.820000 sr} bdef
/c7 { 0.000000 0.820000 0.820000 sr} bdef
c0
1 j
1 sg
   0    0 8698 2512 rf
6 w
0 1874 1638 0 0 -1874 410 2164 4 MP
PP
-1638 0 0 1874 1638 0 0 -1874 410 2164 5 MP stroke
4 w
DO
6 w
SO
0 sg
 410 2164 mt 2048 2164 L
 410  290 mt 2048  290 L
 410 2164 mt  410  290 L
2048 2164 mt 2048  290 L
 410 2164 mt 2048 2164 L
 410 2164 mt  410  290 L
 737 2164 mt  737 2145 L
 737  290 mt  737  308 L
%%IncludeResource: font Helvetica
/Helvetica /ISOLatin1Encoding 120 FMSR

 704 2309 mt 
(4) s
1174 2164 mt 1174 2145 L
1174  290 mt 1174  308 L
1141 2309 mt 
(8) s
1611 2164 mt 1611 2145 L
1611  290 mt 1611  308 L
1545 2309 mt 
(12) s
2048 2164 mt 2048 2145 L
2048  290 mt 2048  308 L
1982 2309 mt 
(16) s
 410 2164 mt  428 2164 L
2048 2164 mt 2029 2164 L
 309 2208 mt 
(0) s
 410 1795 mt  428 1795 L
2048 1795 mt 2029 1795 L
 309 1839 mt 
(2) s
 410 1426 mt  428 1426 L
2048 1426 mt 2029 1426 L
 309 1470 mt 
(4) s
 410 1058 mt  428 1058 L
2048 1058 mt 2029 1058 L
 309 1102 mt 
(6) s
 410  689 mt  428  689 L
2048  689 mt 2029  689 L
 309  733 mt 
(8) s
 410  321 mt  428  321 L
2048  321 mt 2029  321 L
 242  365 mt 
(10) s
 410 2164 mt 2048 2164 L
 410  290 mt 2048  290 L
 410 2164 mt  410  290 L
2048 2164 mt 2048  290 L
gs 410 290 1639 1875 rc
24 w
/c8 { 1.000000 0.000000 0.000000 sr} bdef
c8
110 106 109 125 109 145 109 167 109 187 110 209 109 226 109 223 
109 191 109 127 110 26 109 -117 109 -296 109 -526 109 -879 410 2125 16 MP stroke
12 w
DO
/c9 { 0.000000 0.000000 1.000000 sr} bdef
c9
109 -4 110 -5 109 -4 109 -5 109 -4 519 1246 6 MP stroke
109 -7 109 -7 110 -7 109 -7 109 -7 628 720 6 MP stroke
110 -8 109 -9 109 -8 109 -9 109 -9 956 333 6 MP stroke
109 -5 109 -6 109 -6 110 -6 109 -6 1283 874 6 MP stroke
110 -2 109 -3 109 -3 109 -3 1611 1496 5 MP stroke
6 w
SO
0 sg
110 0 109 0 109 0 109 0 109 0 110 0 109 0 109 0 
109 0 109 0 110 0 109 0 109 0 109 0 109 0 410 2164 16 MP stroke
gr

 902  195 mt 
(Stock prices) s
1 sg
0 1874 1639 0 0 -1874 2579 2164 4 MP
PP
-1639 0 0 1874 1639 0 0 -1874 2579 2164 5 MP stroke
4 w
DO
6 w
SO
0 sg
2579 2164 mt 4218 2164 L
2579  290 mt 4218  290 L
2579 2164 mt 2579  290 L
4218 2164 mt 4218  290 L
2579 2164 mt 4218 2164 L
2579 2164 mt 2579  290 L
2906 2164 mt 2906 2145 L
2906  290 mt 2906  308 L
2873 2309 mt 
(4) s
3343 2164 mt 3343 2145 L
3343  290 mt 3343  308 L
3310 2309 mt 
(8) s
3780 2164 mt 3780 2145 L
3780  290 mt 3780  308 L
3714 2309 mt 
(12) s
4218 2164 mt 4218 2145 L
4218  290 mt 4218  308 L
4152 2309 mt 
(16) s
2579 2164 mt 2597 2164 L
4218 2164 mt 4199 2164 L
2478 2208 mt 
(0) s
2579 1758 mt 2597 1758 L
4218 1758 mt 4199 1758 L
2378 1802 mt 
(0.5) s
2579 1353 mt 2597 1353 L
4218 1353 mt 4199 1353 L
2478 1397 mt 
(1) s
2579  948 mt 2597  948 L
4218  948 mt 4199  948 L
2378  992 mt 
(1.5) s
2579  542 mt 2597  542 L
4218  542 mt 4199  542 L
2478  586 mt 
(2) s
2579 2164 mt 4218 2164 L
2579  290 mt 4218  290 L
2579 2164 mt 2579  290 L
4218 2164 mt 4218  290 L
gs 2579 290 1640 1875 rc
24 w
c8
110 95 109 115 109 134 110 157 109 176 109 201 109 221 110 224 
109 199 109 141 109 46 110 -93 109 -270 109 -493 109 -810 2579 1956 16 MP stroke
12 w
DO
c9
109 2 109 2 110 1 109 -1 109 -7 2688 1146 6 MP stroke
109 7 109 7 109 6 110 5 109 1 2797 653 6 MP stroke
109 12 109 11 110 11 109 10 109 10 3125 336 6 MP stroke
109 8 110 7 109 8 109 6 109 8 3453 900 6 MP stroke
110 3 109 3 109 3 110 3 3780 1498 5 MP stroke
6 w
SO
0 sg
110 0 109 0 109 0 110 0 109 0 109 0 109 0 110 0 
109 0 109 0 109 0 110 0 109 0 109 0 109 0 2579 2164 16 MP stroke
gr

3107  195 mt 
(Investment) s
1 sg
0 1874 1638 0 0 -1874 4749 2164 4 MP
PP
-1638 0 0 1874 1638 0 0 -1874 4749 2164 5 MP stroke
4 w
DO
6 w
SO
0 sg
4749 2164 mt 6387 2164 L
4749  290 mt 6387  290 L
4749 2164 mt 4749  290 L
6387 2164 mt 6387  290 L
4749 2164 mt 6387 2164 L
4749 2164 mt 4749  290 L
5076 2164 mt 5076 2145 L
5076  290 mt 5076  308 L
5043 2309 mt 
(4) s
5513 2164 mt 5513 2145 L
5513  290 mt 5513  308 L
5480 2309 mt 
(8) s
5950 2164 mt 5950 2145 L
5950  290 mt 5950  308 L
5884 2309 mt 
(12) s
6387 2164 mt 6387 2145 L
6387  290 mt 6387  308 L
6321 2309 mt 
(16) s
4749 2164 mt 4767 2164 L
6387 2164 mt 6368 2164 L
4648 2208 mt 
(0) s
4749 1853 mt 4767 1853 L
6387 1853 mt 6368 1853 L
4548 1897 mt 
(0.1) s
4749 1542 mt 4767 1542 L
6387 1542 mt 6368 1542 L
4548 1586 mt 
(0.2) s
4749 1231 mt 4767 1231 L
6387 1231 mt 6368 1231 L
4548 1275 mt 
(0.3) s
4749  921 mt 4767  921 L
6387  921 mt 6368  921 L
4548  965 mt 
(0.4) s
4749  610 mt 4767  610 L
6387  610 mt 6368  610 L
4548  654 mt 
(0.5) s
4749  299 mt 4767  299 L
6387  299 mt 6368  299 L
4548  343 mt 
(0.6) s
4749 2164 mt 6387 2164 L
4749  290 mt 6387  290 L
4749 2164 mt 4749  290 L
6387 2164 mt 6387  290 L
gs 4749 290 1639 1875 rc
24 w
c8
110 77 109 82 109 88 109 90 109 96 110 98 109 97 109 90 
109 78 109 66 110 49 109 36 109 28 109 13 109 -36 4749 367 16 MP stroke
12 w
DO
c9
109 95 110 111 109 123 109 167 109 -41 4858 331 6 MP stroke
109 67 109 79 110 90 109 121 109 -3 4967 344 6 MP stroke
110 32 109 39 109 47 109 54 109 81 5295 457 6 MP stroke
109 32 109 38 109 46 110 46 109 121 5622 691 6 MP stroke
110 41 109 48 109 49 109 108 5950 982 5 MP stroke
6 w
SO
0 sg
110 0 109 0 109 0 109 0 109 0 110 0 109 0 109 0 
109 0 109 0 110 0 109 0 109 0 109 0 109 0 4749 2164 16 MP stroke
gr

5214  195 mt 
(Consumption) s
1 sg
0 1874 1638 0 0 -1874 6919 2164 4 MP
PP
-1638 0 0 1874 1638 0 0 -1874 6919 2164 5 MP stroke
4 w
DO
6 w
SO
0 sg
6919 2164 mt 8557 2164 L
6919  290 mt 8557  290 L
6919 2164 mt 6919  290 L
8557 2164 mt 8557  290 L
6919 2164 mt 8557 2164 L
6919 2164 mt 6919  290 L
7246 2164 mt 7246 2145 L
7246  290 mt 7246  308 L
7213 2309 mt 
(4) s
7683 2164 mt 7683 2145 L
7683  290 mt 7683  308 L
7650 2309 mt 
(8) s
8120 2164 mt 8120 2145 L
8120  290 mt 8120  308 L
8054 2309 mt 
(12) s
8557 2164 mt 8557 2145 L
8557  290 mt 8557  308 L
8491 2309 mt 
(16) s
6919 2164 mt 6937 2164 L
8557 2164 mt 8538 2164 L
6818 2208 mt 
(0) s
6919 1822 mt 6937 1822 L
8557 1822 mt 8538 1822 L
6718 1866 mt 
(0.2) s
6919 1481 mt 6937 1481 L
8557 1481 mt 8538 1481 L
6718 1525 mt 
(0.4) s
6919 1139 mt 6937 1139 L
8557 1139 mt 8538 1139 L
6718 1183 mt 
(0.6) s
6919  798 mt 6937  798 L
8557  798 mt 8538  798 L
6718  842 mt 
(0.8) s
6919  457 mt 6937  457 L
8557  457 mt 8538  457 L
6818  501 mt 
(1) s
6919 2164 mt 8557 2164 L
6919  290 mt 8557  290 L
6919 2164 mt 6919  290 L
8557 2164 mt 8557  290 L
gs 6919 290 1639 1875 rc
24 w
c8
110 49 109 55 109 59 109 74 109 74 110 84 109 100 109 124 
109 140 109 151 110 161 109 153 109 134 109 116 109 -842 6919 1132 16 MP stroke
12 w
DO
c9
109 60 110 63 109 100 109 -138 109 769 7028 290 6 MP stroke
109 47 109 51 110 76 109 -70 109 499 7137 406 6 MP stroke
110 30 109 33 109 35 109 59 109 -26 7465 854 6 MP stroke
109 26 109 29 109 25 110 103 109 -188 7792 1269 6 MP stroke
110 27 109 24 109 84 109 -134 8120 1527 5 MP stroke
6 w
SO
0 sg
110 0 109 0 109 0 109 0 109 0 110 0 109 0 109 0 
109 0 109 0 110 0 109 0 109 0 109 0 109 0 6919 2164 16 MP stroke
gr

7557  195 mt 
(Output) s

end %%Color Dict

eplot
%%EndObject

epage
end

showpage

%%Trailer
%%EOF
