%!PS-Adobe-3.0 EPSF-3.0
%%Creator: MATLAB, The MathWorks, Inc. Version 8.1.0.604 (R2013a). Operating System: Linux 2.6.18-407.el5 #1 SMP Wed Nov 11 08:39:12 CST 2015 x86_64.
%%Title: ./irf_epsi2.eps
%%CreationDate: 12/18/2015  17:07:58
%%DocumentNeededFonts: Helvetica
%%DocumentProcessColors: Cyan Magenta Yellow Black
%%LanguageLevel: 2
%%Pages: 1
%%BoundingBox:    69   215   548   602
%%EndComments

%%BeginProlog
% MathWorks dictionary
/MathWorks 160 dict begin
% definition operators
/bdef {bind def} bind def
/ldef {load def} bind def
/xdef {exch def} bdef
/xstore {exch store} bdef
% operator abbreviations
/c  /clip ldef
/cc /concat ldef
/cp /closepath ldef
/gr /grestore ldef
/gs /gsave ldef
/mt /moveto ldef
/np /newpath ldef
/cm /currentmatrix ldef
/sm /setmatrix ldef
/rm /rmoveto ldef
/rl /rlineto ldef
/s {show newpath} bdef
/sc {setcmykcolor} bdef
/sr /setrgbcolor ldef
/sg /setgray ldef
/w /setlinewidth ldef
/j /setlinejoin ldef
/cap /setlinecap ldef
/rc {rectclip} bdef
/rf {rectfill} bdef
% page state control
/pgsv () def
/bpage {/pgsv save def} bdef
/epage {pgsv restore} bdef
/bplot /gsave ldef
/eplot {stroke grestore} bdef
% orientation switch
/portraitMode 0 def /landscapeMode 1 def /rotateMode 2 def
% coordinate system mappings
/dpi2point 0 def
% font control
/FontSize 0 def
/FMS {/FontSize xstore findfont [FontSize 0 0 FontSize neg 0 0]
  makefont setfont} bdef
/reencode {exch dup where {pop load} {pop StandardEncoding} ifelse
  exch dup 3 1 roll findfont dup length dict begin
  { 1 index /FID ne {def}{pop pop} ifelse } forall
  /Encoding exch def currentdict end definefont pop} bdef
/isroman {findfont /CharStrings get /Agrave known} bdef
/FMSR {3 1 roll 1 index dup isroman {reencode} {pop pop} ifelse
  exch FMS} bdef
/csm {1 dpi2point div -1 dpi2point div scale neg translate
 dup landscapeMode eq {pop -90 rotate}
  {rotateMode eq {90 rotate} if} ifelse} bdef
% line types: solid, dotted, dashed, dotdash
/dom { dpi2point 1 currentlinewidth 0.08 mul add mul mul } bdef/dam { dpi2point 2 currentlinewidth 0.04 mul add mul mul } bdef/SO { [] 0 setdash 0 setlinecap } bdef/DO { [1 dom 1.2 dom] 0 setdash 0 setlinecap } bdef/DA { [4 dam 1.5 dam] 0 setdash 0 setlinecap } bdef/DD { [1 dom 1.2 dom 4 dam 1.2 dom] 0 setdash 0 setlinecap } bdef/GR { [0 dpi2point mul 4 dpi2point mul] 0 setdash 1 setlinecap } bdef% macros for lines and objects
/L {lineto stroke} bdef
/MP {3 1 roll moveto 1 sub {rlineto} repeat} bdef
/AP {{rlineto} repeat} bdef
/PDlw -1 def
/W {/PDlw currentlinewidth def setlinewidth} def
/PP {closepath eofill} bdef
/DP {closepath stroke} bdef
/MR {4 -2 roll moveto dup  0 exch rlineto exch 0 rlineto
  neg 0 exch rlineto closepath} bdef
/FR {MR stroke} bdef
/PR {MR fill} bdef
/L1i {{currentfile picstr readhexstring pop} image} bdef
/tMatrix matrix def
/MakeOval {newpath tMatrix currentmatrix pop translate scale
0 0 1 0 360 arc tMatrix setmatrix} bdef
/FO {MakeOval stroke} bdef
/PO {MakeOval fill} bdef
/PD {currentlinewidth 2 div 0 360 arc fill
   PDlw -1 eq not {PDlw w /PDlw -1 def} if} def
/FA {newpath tMatrix currentmatrix pop translate scale
  0 0 1 5 -2 roll arc tMatrix setmatrix stroke} bdef
/PA {newpath tMatrix currentmatrix pop	translate 0 0 moveto scale
  0 0 1 5 -2 roll arc closepath tMatrix setmatrix fill} bdef
/FAn {newpath tMatrix currentmatrix pop translate scale
  0 0 1 5 -2 roll arcn tMatrix setmatrix stroke} bdef
/PAn {newpath tMatrix currentmatrix pop translate 0 0 moveto scale
  0 0 1 5 -2 roll arcn closepath tMatrix setmatrix fill} bdef
/vradius 0 def /hradius 0 def /lry 0 def
/lrx 0 def /uly 0 def /ulx 0 def /rad 0 def
/MRR {/vradius xdef /hradius xdef /lry xdef /lrx xdef /uly xdef
  /ulx xdef newpath tMatrix currentmatrix pop ulx hradius add uly
  vradius add translate hradius vradius scale 0 0 1 180 270 arc 
  tMatrix setmatrix lrx hradius sub uly vradius add translate
  hradius vradius scale 0 0 1 270 360 arc tMatrix setmatrix
  lrx hradius sub lry vradius sub translate hradius vradius scale
  0 0 1 0 90 arc tMatrix setmatrix ulx hradius add lry vradius sub
  translate hradius vradius scale 0 0 1 90 180 arc tMatrix setmatrix
  closepath} bdef
/FRR {MRR stroke } bdef
/PRR {MRR fill } bdef
/MlrRR {/lry xdef /lrx xdef /uly xdef /ulx xdef /rad lry uly sub 2 div def
  newpath tMatrix currentmatrix pop ulx rad add uly rad add translate
  rad rad scale 0 0 1 90 270 arc tMatrix setmatrix lrx rad sub lry rad
  sub translate rad rad scale 0 0 1 270 90 arc tMatrix setmatrix
  closepath} bdef
/FlrRR {MlrRR stroke } bdef
/PlrRR {MlrRR fill } bdef
/MtbRR {/lry xdef /lrx xdef /uly xdef /ulx xdef /rad lrx ulx sub 2 div def
  newpath tMatrix currentmatrix pop ulx rad add uly rad add translate
  rad rad scale 0 0 1 180 360 arc tMatrix setmatrix lrx rad sub lry rad
  sub translate rad rad scale 0 0 1 0 180 arc tMatrix setmatrix
  closepath} bdef
/FtbRR {MtbRR stroke } bdef
/PtbRR {MtbRR fill } bdef
/stri 6 array def /dtri 6 array def
/smat 6 array def /dmat 6 array def
/tmat1 6 array def /tmat2 6 array def /dif 3 array def
/asub {/ind2 exch def /ind1 exch def dup dup
  ind1 get exch ind2 get sub exch } bdef
/tri_to_matrix {
  2 0 asub 3 1 asub 4 0 asub 5 1 asub
  dup 0 get exch 1 get 7 -1 roll astore } bdef
/compute_transform {
  dmat dtri tri_to_matrix tmat1 invertmatrix 
  smat stri tri_to_matrix tmat2 concatmatrix } bdef
/ds {stri astore pop} bdef
/dt {dtri astore pop} bdef
/db {2 copy /cols xdef /rows xdef mul dup 3 mul string
  currentfile 
  3 index 0 eq {/ASCIIHexDecode filter}
  {/ASCII85Decode filter 3 index 2 eq {/RunLengthDecode filter} if }
  ifelse exch readstring pop
  dup 0 3 index getinterval /rbmap xdef
  dup 2 index dup getinterval /gbmap xdef
  1 index dup 2 mul exch getinterval /bbmap xdef pop pop}bdef
/it {gs np dtri aload pop moveto lineto lineto cp c
  cols rows 8 compute_transform 
  rbmap gbmap bbmap true 3 colorimage gr}bdef
/il {newpath moveto lineto stroke}bdef
currentdict end def
%%EndProlog

%%BeginSetup
MathWorks begin

0 cap

end
%%EndSetup

%%Page: 1 1
%%BeginPageSetup
%%PageBoundingBox:    69   215   548   602
MathWorks begin
bpage
%%EndPageSetup

%%BeginObject: obj1
bplot

/dpi2point 12 def
portraitMode 0216 7344 csm

  617   110  5748  4651 rc
85 dict begin %Colortable dictionary
/c0 { 0.000000 0.000000 0.000000 sr} bdef
/c1 { 1.000000 1.000000 1.000000 sr} bdef
/c2 { 0.900000 0.000000 0.000000 sr} bdef
/c3 { 0.000000 0.820000 0.000000 sr} bdef
/c4 { 0.000000 0.000000 0.800000 sr} bdef
/c5 { 0.910000 0.820000 0.320000 sr} bdef
/c6 { 1.000000 0.260000 0.820000 sr} bdef
/c7 { 0.000000 0.820000 0.820000 sr} bdef
c0
1 j
1 sg
   0    0 6918 5186 rf
6 w
0 1769 987 0 0 -1769 952 2158 4 MP
PP
-987 0 0 1769 987 0 0 -1769 952 2158 5 MP stroke
4 w
DO
6 w
SO
0 sg
 952 2158 mt 1939 2158 L
 952  389 mt 1939  389 L
 952 2158 mt  952  389 L
1939 2158 mt 1939  389 L
 952 2158 mt 1939 2158 L
 952 2158 mt  952  389 L
 952 2158 mt  952 2140 L
 952  389 mt  952  406 L
%%IncludeResource: font Helvetica
/Helvetica /ISOLatin1Encoding 120 FMSR

 919 2303 mt 
(0) s
1445 2158 mt 1445 2140 L
1445  389 mt 1445  406 L
1379 2303 mt 
(50) s
1939 2158 mt 1939 2140 L
1939  389 mt 1939  406 L
1839 2303 mt 
(100) s
 952 2158 mt  969 2158 L
1939 2158 mt 1921 2158 L
 851 2202 mt 
(0) s
 952 1715 mt  969 1715 L
1939 1715 mt 1921 1715 L
 684 1759 mt 
(0.02) s
 952 1273 mt  969 1273 L
1939 1273 mt 1921 1273 L
 684 1317 mt 
(0.04) s
 952  831 mt  969  831 L
1939  831 mt 1921  831 L
 684  875 mt 
(0.06) s
 952  389 mt  969  389 L
1939  389 mt 1921  389 L
 684  433 mt 
(0.08) s
 952 2158 mt 1939 2158 L
 952  389 mt 1939  389 L
 952 2158 mt  952  389 L
1939 2158 mt 1939  389 L
gs 952 389 988 1770 rc
10 0 10 0 10 0 9 0 10 0 10 0 10 0 10 0 
10 0 10 0 9 0 10 0 10 0 10 0 10 0 10 0 
10 0 10 0 9 0 10 0 10 0 10 0 10 0 10 0 
10 0 10 0 9 0 10 0 10 0 10 0 10 0 10 0 
10 0 9 0 10 0 10 0 10 0 10 0 10 0 10 0 
10 0 9 0 10 0 10 0 10 0 10 0 10 0 10 0 
10 0 9 0 10 0 10 0 10 0 10 0 10 0 10 0 
9 0 10 0 10 0 10 0 10 0 10 0 10 0 10 0 
9 0 10 0 10 0 10 0 10 0 10 0 10 0 10 0 
9 0 10 0 10 0 10 0 10 0 10 0 10 0 961 2158 80 MP stroke
12 w
DO
10 0 10 1 10 0 9 0 10 0 10 0 10 1 10 0 
10 0 10 0 9 0 10 0 10 0 10 1 10 0 10 0 
10 0 10 0 9 0 10 0 10 0 10 0 10 0 10 0 
10 0 10 0 9 -1 10 0 10 0 10 0 10 0 10 0 
10 -1 9 0 10 0 10 -1 10 0 10 0 10 -1 10 0 
10 -1 9 0 10 -1 10 0 10 -1 10 -1 10 0 10 -1 
10 -1 9 0 10 -1 10 -1 10 -1 10 0 10 -1 10 -1 
9 -1 10 -1 10 0 10 -1 10 0 10 -1 10 0 10 0 
9 0 10 1 10 1 10 2 10 2 10 4 10 5 10 8 
9 10 10 13 10 20 10 28 10 41 10 65 10 -224 961 2158 80 MP stroke
24 w
DA
/c8 { 0.000000 0.000000 1.000000 sr} bdef
c8
10 0 10 0 10 0 9 0 10 0 10 0 10 1 10 0 
10 0 10 0 9 0 10 0 10 1 10 0 10 0 10 0 
10 0 10 0 9 1 10 0 10 0 10 0 10 0 10 0 
10 1 10 0 9 0 10 0 10 0 10 0 10 1 10 0 
10 0 9 0 10 0 10 1 10 0 10 0 10 0 10 0 
10 1 9 0 10 0 10 0 10 0 10 1 10 0 10 0 
10 0 9 1 10 0 10 0 10 0 10 0 10 1 10 0 
9 0 10 0 10 1 10 0 10 0 10 1 10 0 10 0 
9 1 10 0 10 1 10 0 10 1 10 1 10 0 10 1 
9 2 10 1 10 2 10 3 10 4 10 11 10 -54 961 2158 80 MP stroke
SO
/c9 { 1.000000 0.000000 0.000000 sr} bdef
c9
10 1 10 0 10 1 9 1 10 1 10 0 10 1 10 1 
10 1 10 1 9 0 10 1 10 1 10 1 10 1 10 1 
10 1 10 1 9 1 10 1 10 1 10 1 10 1 10 2 
10 1 10 1 9 1 10 2 10 1 10 1 10 2 10 1 
10 1 9 2 10 1 10 2 10 1 10 1 10 2 10 2 
10 1 9 2 10 2 10 1 10 2 10 2 10 2 10 3 
10 2 9 2 10 3 10 3 10 3 10 4 10 4 10 4 
9 4 10 8 10 7 10 6 10 11 10 10 10 16 10 21 
9 27 10 37 10 39 10 50 10 56 10 81 10 118 10 130 
9 108 10 181 10 197 10 209 10 217 10 -101 10 -1518 961 2158 80 MP stroke
gr

24 w
c9
0 sg
1119  294 mt 
(Stock prices) s
6 w
1 sg
0 1769 986 0 0 -1769 2378 2158 4 MP
PP
-986 0 0 1769 986 0 0 -1769 2378 2158 5 MP stroke
4 w
DO
6 w
SO
0 sg
2378 2158 mt 3364 2158 L
2378  389 mt 3364  389 L
2378 2158 mt 2378  389 L
3364 2158 mt 3364  389 L
2378 2158 mt 3364 2158 L
2378 2158 mt 2378  389 L
2378 2158 mt 2378 2140 L
2378  389 mt 2378  406 L
2345 2303 mt 
(0) s
2871 2158 mt 2871 2140 L
2871  389 mt 2871  406 L
2805 2303 mt 
(50) s
3364 2158 mt 3364 2140 L
3364  389 mt 3364  406 L
3264 2303 mt 
(100) s
2378 2158 mt 2395 2158 L
3364 2158 mt 3346 2158 L
2277 2202 mt 
(0) s
2378 1715 mt 2395 1715 L
3364 1715 mt 3346 1715 L
2110 1759 mt 
(0.02) s
2378 1273 mt 2395 1273 L
3364 1273 mt 3346 1273 L
2110 1317 mt 
(0.04) s
2378  831 mt 2395  831 L
3364  831 mt 3346  831 L
2110  875 mt 
(0.06) s
2378  389 mt 2395  389 L
3364  389 mt 3346  389 L
2110  433 mt 
(0.08) s
2378 2158 mt 3364 2158 L
2378  389 mt 3364  389 L
2378 2158 mt 2378  389 L
3364 2158 mt 3364  389 L
gs 2378 389 987 1770 rc
10 0 9 0 10 0 10 0 10 0 10 0 10 0 10 0 
9 0 10 0 10 0 10 0 10 0 10 0 10 0 9 0 
10 0 10 0 10 0 10 0 10 0 10 0 9 0 10 0 
10 0 10 0 10 0 10 0 10 0 9 0 10 0 10 0 
10 0 10 0 10 0 10 0 10 0 9 0 10 0 10 0 
10 0 10 0 10 0 10 0 9 0 10 0 10 0 10 0 
10 0 10 0 10 0 9 0 10 0 10 0 10 0 10 0 
10 0 10 0 9 0 10 0 10 0 10 0 10 0 10 0 
10 0 9 0 10 0 10 0 10 0 10 0 10 0 10 0 
9 0 10 0 10 0 10 0 10 0 10 0 10 0 2387 2158 80 MP stroke
12 w
DO
10 0 9 0 10 0 10 0 10 0 10 1 10 0 10 0 
9 0 10 0 10 1 10 0 10 0 10 0 10 1 9 0 
10 0 10 0 10 1 10 0 10 0 10 1 9 0 10 0 
10 1 10 0 10 1 10 0 10 1 9 0 10 1 10 0 
10 1 10 0 10 1 10 0 10 1 9 0 10 1 10 1 
10 0 10 1 10 1 10 0 9 1 10 1 10 1 10 1 
10 1 10 1 10 1 9 1 10 1 10 2 10 1 10 2 
10 2 10 3 9 2 10 4 10 4 10 5 10 6 10 7 
10 9 9 12 10 14 10 18 10 23 10 29 10 38 10 51 
9 68 10 96 10 140 10 215 10 348 10 594 10 -1720 2387 2158 80 MP stroke
24 w
DA
c8
10 0 9 1 10 0 10 1 10 0 10 0 10 1 10 0 
9 1 10 0 10 0 10 1 10 0 10 1 10 0 9 0 
10 1 10 0 10 1 10 0 10 0 10 1 9 0 10 1 
10 0 10 1 10 0 10 0 10 1 9 0 10 1 10 0 
10 1 10 0 10 1 10 0 10 0 9 1 10 0 10 1 
10 0 10 0 10 1 10 0 9 1 10 0 10 1 10 0 
10 1 10 1 10 0 9 1 10 0 10 1 10 1 10 1 
10 1 10 2 9 1 10 2 10 3 10 3 10 4 10 4 
10 6 9 7 10 9 10 11 10 13 10 17 10 21 10 27 
9 33 10 44 10 64 10 116 10 287 10 939 10 -1675 2387 2158 80 MP stroke
SO
c9
10 1 9 0 10 1 10 0 10 0 10 1 10 0 10 1 
9 0 10 1 10 -1 10 1 10 0 10 1 10 0 9 1 
10 0 10 1 10 0 10 1 10 0 10 0 9 1 10 0 
10 1 10 0 10 1 10 0 10 1 9 -1 10 2 10 0 
10 0 10 1 10 0 10 1 10 0 9 1 10 1 10 0 
10 0 10 2 10 -1 10 1 9 1 10 0 10 0 10 2 
10 1 10 -2 10 0 9 4 10 -1 10 1 10 1 10 0 
10 -4 10 12 9 -1 10 -10 10 11 10 -13 10 17 10 3 
10 0 9 28 10 -18 10 13 10 -32 10 32 10 83 10 69 
9 -251 10 201 10 42 10 -12 10 494 10 791 10 -1519 2387 2158 80 MP stroke
gr

24 w
c9
0 sg
2486  294 mt 
(Exp. dividends) s
6 w
1 sg
0 1769 987 0 0 -1769 3803 2158 4 MP
PP
-987 0 0 1769 987 0 0 -1769 3803 2158 5 MP stroke
4 w
DO
6 w
SO
0 sg
3803 2158 mt 4790 2158 L
3803  389 mt 4790  389 L
3803 2158 mt 3803  389 L
4790 2158 mt 4790  389 L
3803 2158 mt 4790 2158 L
3803 2158 mt 3803  389 L
3803 2158 mt 3803 2140 L
3803  389 mt 3803  406 L
3770 2303 mt 
(0) s
4296 2158 mt 4296 2140 L
4296  389 mt 4296  406 L
4230 2303 mt 
(50) s
4790 2158 mt 4790 2140 L
4790  389 mt 4790  406 L
4690 2303 mt 
(100) s
3803 2158 mt 3820 2158 L
4790 2158 mt 4772 2158 L
3702 2202 mt 
(0) s
3803 1804 mt 3820 1804 L
4790 1804 mt 4772 1804 L
3602 1848 mt 
(0.5) s
3803 1450 mt 3820 1450 L
4790 1450 mt 4772 1450 L
3702 1494 mt 
(1) s
3803 1096 mt 3820 1096 L
4790 1096 mt 4772 1096 L
3602 1140 mt 
(1.5) s
3803  742 mt 3820  742 L
4790  742 mt 4772  742 L
3702  786 mt 
(2) s
3803  389 mt 3820  389 L
4790  389 mt 4772  389 L
3602  433 mt 
(2.5) s
3803  335 mt 
(x 10) s
%%IncludeResource: font Helvetica
/Helvetica /ISOLatin1Encoding 80 FMSR

4029  261 mt 
(-3) s
3803 2158 mt 4790 2158 L
3803  389 mt 4790  389 L
3803 2158 mt 3803  389 L
4790 2158 mt 4790  389 L
gs 3803 389 988 1770 rc
10 0 10 0 10 0 9 0 10 0 10 0 10 0 10 0 
10 0 10 0 9 0 10 0 10 0 10 0 10 0 10 0 
10 0 10 0 9 0 10 0 10 0 10 0 10 0 10 0 
10 0 10 0 9 0 10 0 10 0 10 0 10 0 10 0 
10 0 9 0 10 0 10 0 10 0 10 0 10 0 10 0 
10 0 9 0 10 0 10 0 10 0 10 0 10 0 10 0 
10 0 9 0 10 0 10 0 10 0 10 0 10 0 10 0 
9 0 10 0 10 0 10 0 10 0 10 0 10 0 10 0 
9 0 10 0 10 0 10 0 10 0 10 0 10 0 10 0 
9 0 10 0 10 0 10 0 10 0 10 0 10 0 3812 2158 80 MP stroke
12 w
DO
10 8 10 9 10 9 9 9 10 9 10 9 10 9 10 9 
10 9 10 10 9 10 10 9 10 10 10 10 10 10 10 10 
10 11 10 10 9 11 10 10 10 11 10 11 10 11 10 11 
10 11 10 12 9 11 10 12 10 12 10 12 10 12 10 12 
10 12 9 13 10 12 10 13 10 13 10 13 10 13 10 14 
10 13 9 14 10 14 10 14 10 14 10 14 10 14 10 15 
10 14 9 15 10 15 10 15 10 15 10 15 10 15 10 14 
9 15 10 15 10 14 10 15 10 13 10 13 10 12 10 11 
9 9 10 7 10 4 10 1 10 -4 10 -10 10 -18 10 -28 
9 -44 10 -65 10 -95 10 -145 10 -225 10 -362 10 -611 3812 2158 80 MP stroke
24 w
DA
c8
10 8 10 8 10 9 9 8 10 9 10 9 10 9 10 9 
10 9 10 9 9 9 10 10 10 9 10 10 10 10 10 9 
10 10 10 10 9 11 10 10 10 10 10 11 10 11 10 11 
10 11 10 11 9 11 10 11 10 12 10 12 10 11 10 12 
10 12 9 13 10 12 10 13 10 13 10 13 10 13 10 13 
10 14 9 13 10 14 10 14 10 15 10 14 10 15 10 14 
10 15 9 15 10 16 10 15 10 16 10 16 10 15 10 16 
9 16 10 16 10 16 10 16 10 16 10 15 10 14 10 14 
9 13 10 11 10 10 10 7 10 4 10 0 10 -4 10 -11 
9 -18 10 -30 10 -46 10 -78 10 -165 10 -463 10 -822 3812 2158 80 MP stroke
SO
c9
10 8 10 8 10 8 9 9 10 8 10 8 10 9 10 9 
10 9 10 8 9 9 10 9 10 10 10 9 10 9 10 10 
10 9 10 10 9 10 10 10 10 10 10 10 10 10 10 11 
10 10 10 11 9 11 10 10 10 12 10 11 10 11 10 11 
10 12 9 12 10 12 10 12 10 12 10 12 10 13 10 12 
10 13 9 13 10 13 10 14 10 13 10 14 10 14 10 14 
10 14 9 14 10 15 10 16 10 15 10 15 10 15 10 16 
9 16 10 18 10 15 10 15 10 18 10 16 10 21 10 18 
9 20 10 20 10 13 10 18 10 15 10 33 10 28 10 7 
9 -29 10 47 10 -1 10 -29 10 -78 10 -563 10 -1073 3812 2158 80 MP stroke
gr

24 w
c9
0 sg
%%IncludeResource: font Helvetica
/Helvetica /ISOLatin1Encoding 120 FMSR

3957  294 mt 
(Nominal rate) s
6 w
1 sg
0 1769 987 0 0 -1769 5229 2158 4 MP
PP
-987 0 0 1769 987 0 0 -1769 5229 2158 5 MP stroke
4 w
DO
6 w
SO
0 sg
5229 2158 mt 6216 2158 L
5229  389 mt 6216  389 L
5229 2158 mt 5229  389 L
6216 2158 mt 6216  389 L
5229 2158 mt 6216 2158 L
5229 2158 mt 5229  389 L
5229 2158 mt 5229 2140 L
5229  389 mt 5229  406 L
5196 2303 mt 
(0) s
5722 2158 mt 5722 2140 L
5722  389 mt 5722  406 L
5656 2303 mt 
(50) s
6216 2158 mt 6216 2140 L
6216  389 mt 6216  406 L
6116 2303 mt 
(100) s
5229 2158 mt 5246 2158 L
6216 2158 mt 6198 2158 L
4891 2202 mt 
(-0.02) s
5229 1804 mt 5246 1804 L
6216 1804 mt 6198 1804 L
5128 1848 mt 
(0) s
5229 1450 mt 5246 1450 L
6216 1450 mt 6198 1450 L
4961 1494 mt 
(0.02) s
5229 1096 mt 5246 1096 L
6216 1096 mt 6198 1096 L
4961 1140 mt 
(0.04) s
5229  742 mt 5246  742 L
6216  742 mt 6198  742 L
4961  786 mt 
(0.06) s
5229  389 mt 5246  389 L
6216  389 mt 6198  389 L
4961  433 mt 
(0.08) s
5229 2158 mt 6216 2158 L
5229  389 mt 6216  389 L
5229 2158 mt 5229  389 L
6216 2158 mt 6216  389 L
gs 5229 389 988 1770 rc
10 0 10 0 10 0 9 0 10 0 10 0 10 0 10 0 
10 0 10 0 9 0 10 0 10 0 10 0 10 0 10 0 
10 0 10 0 9 0 10 0 10 0 10 0 10 0 10 0 
10 0 10 0 9 0 10 0 10 0 10 0 10 0 10 0 
10 0 9 0 10 0 10 0 10 0 10 0 10 0 10 0 
10 0 9 0 10 0 10 0 10 0 10 0 10 0 10 0 
10 0 9 0 10 0 10 0 10 0 10 0 10 0 10 0 
9 0 10 0 10 0 10 0 10 0 10 0 10 0 10 0 
9 0 10 0 10 0 10 0 10 0 10 0 10 0 10 0 
9 0 10 0 10 0 10 0 10 0 10 0 10 0 5238 1804 80 MP stroke
12 w
DO
10 0 10 0 10 0 9 0 10 0 10 0 10 0 10 0 
10 0 10 0 9 0 10 0 10 0 10 0 10 0 10 0 
10 0 10 0 9 0 10 0 10 0 10 0 10 0 10 0 
10 0 10 0 9 0 10 0 10 0 10 0 10 0 10 0 
10 0 9 0 10 0 10 0 10 0 10 0 10 0 10 0 
10 0 9 0 10 0 10 0 10 0 10 0 10 0 10 0 
10 0 9 0 10 0 10 0 10 0 10 0 10 0 10 0 
9 0 10 0 10 0 10 0 10 0 10 0 10 0 10 -1 
9 0 10 0 10 -1 10 -1 10 0 10 -2 10 -1 10 -2 
9 -3 10 -5 10 -7 10 -11 10 -18 10 232 10 -180 5238 1804 80 MP stroke
24 w
DA
c8
10 0 10 0 10 0 9 0 10 0 10 0 10 0 10 0 
10 0 10 0 9 0 10 0 10 0 10 0 10 0 10 0 
10 0 10 0 9 0 10 0 10 0 10 0 10 0 10 0 
10 0 10 0 9 0 10 0 10 0 10 0 10 0 10 0 
10 0 9 0 10 0 10 0 10 0 10 0 10 0 10 0 
10 0 9 0 10 0 10 0 10 0 10 0 10 0 10 0 
10 0 9 0 10 0 10 0 10 0 10 0 10 0 10 0 
9 0 10 0 10 0 10 0 10 0 10 0 10 0 10 0 
9 0 10 0 10 0 10 0 10 0 10 0 10 0 10 0 
9 0 10 0 10 0 10 0 10 0 10 48 10 -48 5238 1804 80 MP stroke
SO
c9
10 0 10 0 10 0 9 0 10 0 10 0 10 0 10 0 
10 0 10 0 9 0 10 0 10 0 10 0 10 0 10 0 
10 0 10 0 9 0 10 0 10 0 10 0 10 -1 10 0 
10 0 10 0 9 0 10 0 10 1 10 -1 10 0 10 0 
10 0 9 0 10 0 10 0 10 0 10 0 10 0 10 0 
10 0 9 0 10 0 10 0 10 0 10 0 10 -1 10 0 
10 1 9 -1 10 0 10 0 10 -1 10 0 10 0 10 0 
9 -3 10 0 10 1 10 -3 10 0 10 -5 10 -4 10 -4 
9 -9 10 -2 10 -9 10 -5 10 -21 10 -29 10 -11 10 17 
9 -59 10 -13 10 -11 10 -6 10 260 10 1137 10 -1218 5238 1804 80 MP stroke
gr

24 w
c9
0 sg
5540  294 mt 
(Return) s
6 w
1 sg
0 1769 987 0 0 -1769 952 4615 4 MP
PP
-987 0 0 1769 987 0 0 -1769 952 4615 5 MP stroke
4 w
DO
6 w
SO
0 sg
 952 4615 mt 1939 4615 L
 952 2846 mt 1939 2846 L
 952 4615 mt  952 2846 L
1939 4615 mt 1939 2846 L
 952 4615 mt 1939 4615 L
 952 4615 mt  952 2846 L
 952 4615 mt  952 4597 L
 952 2846 mt  952 2863 L
 919 4760 mt 
(0) s
1445 4615 mt 1445 4597 L
1445 2846 mt 1445 2863 L
1379 4760 mt 
(50) s
1939 4615 mt 1939 4597 L
1939 2846 mt 1939 2863 L
1839 4760 mt 
(100) s
 952 4615 mt  969 4615 L
1939 4615 mt 1921 4615 L
 851 4659 mt 
(0) s
 952 4261 mt  969 4261 L
1939 4261 mt 1921 4261 L
 617 4305 mt 
(0.005) s
 952 3907 mt  969 3907 L
1939 3907 mt 1921 3907 L
 684 3951 mt 
(0.01) s
 952 3553 mt  969 3553 L
1939 3553 mt 1921 3553 L
 617 3597 mt 
(0.015) s
 952 3199 mt  969 3199 L
1939 3199 mt 1921 3199 L
 684 3243 mt 
(0.02) s
 952 2846 mt  969 2846 L
1939 2846 mt 1921 2846 L
 617 2890 mt 
(0.025) s
 952 4615 mt 1939 4615 L
 952 2846 mt 1939 2846 L
 952 4615 mt  952 2846 L
1939 4615 mt 1939 2846 L
gs 952 2846 988 1770 rc
10 0 10 0 10 0 9 0 10 0 10 0 10 0 10 0 
10 0 10 0 9 0 10 0 10 0 10 0 10 0 10 0 
10 0 10 0 9 0 10 0 10 0 10 0 10 0 10 0 
10 0 10 0 9 0 10 0 10 0 10 0 10 0 10 0 
10 0 9 0 10 0 10 0 10 0 10 0 10 0 10 0 
10 0 9 0 10 0 10 0 10 0 10 0 10 0 10 0 
10 0 9 0 10 0 10 0 10 0 10 0 10 0 10 0 
9 0 10 0 10 0 10 0 10 0 10 0 10 0 10 0 
9 0 10 0 10 0 10 0 10 0 10 0 10 0 10 0 
9 0 10 0 10 0 10 0 10 0 10 0 10 0 961 4615 80 MP stroke
12 w
DO
10 1 10 1 10 1 9 1 10 2 10 1 10 1 10 1 
10 1 10 1 9 1 10 1 10 1 10 1 10 1 10 1 
10 1 10 1 9 1 10 1 10 1 10 1 10 1 10 1 
10 1 10 1 9 1 10 1 10 1 10 0 10 1 10 1 
10 1 9 1 10 1 10 0 10 1 10 1 10 0 10 1 
10 1 9 0 10 1 10 0 10 1 10 0 10 1 10 0 
10 1 9 0 10 0 10 1 10 0 10 0 10 1 10 0 
9 0 10 1 10 0 10 1 10 1 10 1 10 1 10 2 
9 3 10 3 10 5 10 5 10 8 10 10 10 12 10 17 
9 23 10 30 10 42 10 60 10 90 10 140 10 -591 961 4615 80 MP stroke
24 w
DA
c8
10 1 10 1 10 1 9 1 10 2 10 1 10 1 10 1 
10 1 10 1 9 2 10 1 10 1 10 1 10 1 10 2 
10 1 10 1 9 1 10 2 10 1 10 1 10 2 10 1 
10 1 10 1 9 2 10 1 10 1 10 2 10 1 10 1 
10 2 9 1 10 1 10 2 10 1 10 1 10 1 10 2 
10 1 9 1 10 2 10 1 10 1 10 1 10 2 10 1 
10 1 9 2 10 1 10 2 10 1 10 1 10 2 10 2 
9 2 10 2 10 2 10 2 10 3 10 4 10 4 10 5 
9 6 10 8 10 9 10 11 10 14 10 17 10 22 10 27 
9 34 10 48 10 74 10 159 10 458 10 -126 10 -957 961 4615 80 MP stroke
SO
c9
10 1 10 1 10 1 9 2 10 1 10 2 10 1 10 2 
10 1 10 2 9 1 10 2 10 1 10 2 10 1 10 2 
10 2 10 1 9 2 10 2 10 1 10 2 10 2 10 2 
10 2 10 1 9 2 10 2 10 2 10 2 10 2 10 2 
10 2 9 2 10 2 10 2 10 2 10 2 10 2 10 2 
10 2 9 2 10 2 10 3 10 2 10 2 10 2 10 3 
10 2 9 2 10 2 10 3 10 3 10 2 10 3 10 2 
9 2 10 5 10 3 10 3 10 4 10 -1 10 6 10 2 
9 7 10 12 10 9 10 11 10 -5 10 21 10 41 10 57 
9 -6 10 58 10 83 10 169 10 733 10 292 10 -1713 961 4615 80 MP stroke
gr

24 w
c9
0 sg
1265 2751 mt 
(Output) s
6 w
1 sg
0 1769 986 0 0 -1769 2378 4615 4 MP
PP
-986 0 0 1769 986 0 0 -1769 2378 4615 5 MP stroke
4 w
DO
6 w
SO
0 sg
2378 4615 mt 3364 4615 L
2378 2846 mt 3364 2846 L
2378 4615 mt 2378 2846 L
3364 4615 mt 3364 2846 L
2378 4615 mt 3364 4615 L
2378 4615 mt 2378 2846 L
2378 4615 mt 2378 4597 L
2378 2846 mt 2378 2863 L
2345 4760 mt 
(0) s
2871 4615 mt 2871 4597 L
2871 2846 mt 2871 2863 L
2805 4760 mt 
(50) s
3364 4615 mt 3364 4597 L
3364 2846 mt 3364 2863 L
3264 4760 mt 
(100) s
2378 4615 mt 2395 4615 L
3364 4615 mt 3346 4615 L
2277 4659 mt 
(0) s
2378 4362 mt 2395 4362 L
3364 4362 mt 3346 4362 L
2043 4406 mt 
(0.005) s
2378 4109 mt 2395 4109 L
3364 4109 mt 3346 4109 L
2110 4153 mt 
(0.01) s
2378 3856 mt 2395 3856 L
3364 3856 mt 3346 3856 L
2043 3900 mt 
(0.015) s
2378 3604 mt 2395 3604 L
3364 3604 mt 3346 3604 L
2110 3648 mt 
(0.02) s
2378 3351 mt 2395 3351 L
3364 3351 mt 3346 3351 L
2043 3395 mt 
(0.025) s
2378 3098 mt 2395 3098 L
3364 3098 mt 3346 3098 L
2110 3142 mt 
(0.03) s
2378 2846 mt 2395 2846 L
3364 2846 mt 3346 2846 L
2043 2890 mt 
(0.035) s
2378 4615 mt 3364 4615 L
2378 2846 mt 3364 2846 L
2378 4615 mt 2378 2846 L
3364 4615 mt 3364 2846 L
gs 2378 2846 987 1770 rc
10 0 9 0 10 0 10 0 10 0 10 0 10 0 10 0 
9 0 10 0 10 0 10 0 10 0 10 0 10 0 9 0 
10 0 10 0 10 0 10 0 10 0 10 0 9 0 10 0 
10 0 10 0 10 0 10 0 10 0 9 0 10 0 10 0 
10 0 10 0 10 0 10 0 10 0 9 0 10 0 10 0 
10 0 10 0 10 0 10 0 9 0 10 0 10 0 10 0 
10 0 10 0 10 0 9 0 10 0 10 0 10 0 10 0 
10 0 10 0 9 0 10 0 10 0 10 0 10 0 10 0 
10 0 9 0 10 0 10 0 10 0 10 0 10 0 10 0 
9 0 10 0 10 0 10 0 10 0 10 0 10 0 2387 4615 80 MP stroke
12 w
DO
10 2 9 1 10 2 10 2 10 1 10 2 10 2 10 2 
9 1 10 2 10 2 10 2 10 2 10 2 10 2 9 2 
10 2 10 2 10 2 10 2 10 2 10 2 9 2 10 3 
10 2 10 2 10 2 10 3 10 2 9 2 10 3 10 2 
10 2 10 3 10 2 10 2 10 3 9 2 10 2 10 3 
10 2 10 3 10 2 10 2 9 3 10 2 10 2 10 2 
10 3 10 2 10 2 9 2 10 2 10 2 10 2 10 2 
10 2 10 1 9 2 10 1 10 1 10 1 10 1 10 1 
10 0 9 -1 10 -1 10 -2 10 -2 10 -4 10 -5 10 -7 
9 -9 10 -11 10 -16 10 -21 10 -28 10 -38 10 -55 2387 4615 80 MP stroke
24 w
DA
c8
10 1 9 1 10 1 10 2 10 1 10 2 10 1 10 2 
9 1 10 2 10 1 10 2 10 2 10 1 10 2 9 2 
10 2 10 2 10 2 10 2 10 2 10 2 9 2 10 3 
10 2 10 3 10 2 10 3 10 3 9 2 10 3 10 3 
10 3 10 3 10 4 10 3 10 4 9 3 10 4 10 4 
10 4 10 4 10 4 10 4 9 5 10 5 10 4 10 5 
10 5 10 6 10 5 9 6 10 6 10 6 10 6 10 7 
10 6 10 7 9 7 10 8 10 7 10 8 10 8 10 8 
10 8 9 9 10 9 10 8 10 9 10 9 10 9 10 9 
9 8 10 8 10 8 10 7 10 9 10 18 10 -435 2387 4615 80 MP stroke
SO
c9
10 1 9 1 10 1 10 1 10 1 10 2 10 1 10 1 
9 1 10 2 10 1 10 2 10 1 10 2 10 1 9 2 
10 2 10 1 10 2 10 2 10 2 10 2 9 2 10 3 
10 2 10 2 10 3 10 2 10 3 9 2 10 3 10 3 
10 3 10 3 10 3 10 4 10 3 9 3 10 4 10 4 
10 3 10 5 10 4 10 4 9 5 10 4 10 5 10 5 
10 6 10 5 10 6 9 7 10 7 10 7 10 8 10 8 
10 8 10 12 9 11 10 11 10 14 10 13 10 21 10 21 
10 28 9 36 10 37 10 48 10 53 10 81 10 100 10 121 
9 86 10 167 10 176 10 174 10 182 10 -191 10 -1441 2387 4615 80 MP stroke
gr

24 w
c9
0 sg
2579 2751 mt 
(Investment) s
6 w
1 sg
0 1769 987 0 0 -1769 3803 4615 4 MP
PP
-987 0 0 1769 987 0 0 -1769 3803 4615 5 MP stroke
4 w
DO
6 w
SO
0 sg
3803 4615 mt 4790 4615 L
3803 2846 mt 4790 2846 L
3803 4615 mt 3803 2846 L
4790 4615 mt 4790 2846 L
3803 4615 mt 4790 4615 L
3803 4615 mt 3803 2846 L
3803 4615 mt 3803 4597 L
3803 2846 mt 3803 2863 L
3770 4760 mt 
(0) s
4296 4615 mt 4296 4597 L
4296 2846 mt 4296 2863 L
4230 4760 mt 
(50) s
4790 4615 mt 4790 4597 L
4790 2846 mt 4790 2863 L
4690 4760 mt 
(100) s
3803 4615 mt 3820 4615 L
4790 4615 mt 4772 4615 L
3702 4659 mt 
(0) s
3803 4320 mt 3820 4320 L
4790 4320 mt 4772 4320 L
3468 4364 mt 
(0.002) s
3803 4025 mt 3820 4025 L
4790 4025 mt 4772 4025 L
3468 4069 mt 
(0.004) s
3803 3730 mt 3820 3730 L
4790 3730 mt 4772 3730 L
3468 3774 mt 
(0.006) s
3803 3435 mt 3820 3435 L
4790 3435 mt 4772 3435 L
3468 3479 mt 
(0.008) s
3803 3140 mt 3820 3140 L
4790 3140 mt 4772 3140 L
3535 3184 mt 
(0.01) s
3803 2846 mt 3820 2846 L
4790 2846 mt 4772 2846 L
3468 2890 mt 
(0.012) s
3803 4615 mt 4790 4615 L
3803 2846 mt 4790 2846 L
3803 4615 mt 3803 2846 L
4790 4615 mt 4790 2846 L
gs 3803 2846 988 1770 rc
10 0 10 0 10 0 9 0 10 0 10 0 10 0 10 0 
10 0 10 0 9 0 10 0 10 0 10 0 10 0 10 0 
10 0 10 0 9 0 10 0 10 0 10 0 10 0 10 0 
10 0 10 0 9 0 10 0 10 0 10 0 10 0 10 0 
10 0 9 0 10 0 10 0 10 0 10 0 10 0 10 0 
10 0 9 0 10 0 10 0 10 0 10 0 10 0 10 0 
10 0 9 0 10 0 10 0 10 0 10 0 10 0 10 0 
9 0 10 0 10 0 10 0 10 0 10 0 10 0 10 0 
9 0 10 0 10 0 10 0 10 0 10 0 10 0 10 0 
9 0 10 0 10 0 10 0 10 0 10 0 10 0 3812 4615 80 MP stroke
12 w
DO
10 2 10 1 10 1 9 2 10 1 10 1 10 1 10 1 
10 1 10 1 9 1 10 1 10 1 10 1 10 1 10 1 
10 1 10 0 9 1 10 1 10 0 10 1 10 0 10 1 
10 0 10 0 9 1 10 0 10 0 10 0 10 0 10 0 
10 0 9 0 10 -1 10 0 10 0 10 -1 10 0 10 -1 
10 -1 9 -1 10 0 10 -1 10 -1 10 -2 10 -1 10 -1 
10 -1 9 -2 10 -1 10 -1 10 -2 10 -1 10 -1 10 -1 
9 -1 10 0 10 0 10 0 10 2 10 2 10 3 10 5 
9 8 10 10 10 13 10 18 10 24 10 32 10 41 10 55 
9 73 10 98 10 135 10 192 10 283 10 438 10 -1616 3812 4615 80 MP stroke
24 w
DA
c8
10 2 10 2 10 2 9 2 10 1 10 2 10 2 10 2 
10 2 10 2 9 2 10 2 10 2 10 1 10 2 10 2 
10 2 10 2 9 1 10 2 10 2 10 2 10 1 10 2 
10 1 10 2 9 1 10 2 10 1 10 1 10 1 10 2 
10 1 9 1 10 1 10 1 10 0 10 1 10 1 10 0 
10 0 9 1 10 0 10 0 10 -1 10 0 10 0 10 -1 
10 0 9 -1 10 -1 10 -1 10 -1 10 -1 10 -2 10 -1 
9 -1 10 -2 10 -1 10 0 10 -1 10 0 10 1 10 2 
9 3 10 5 10 8 10 10 10 14 10 19 10 25 10 33 
9 43 10 56 10 77 10 113 10 206 10 515 10 -1377 3812 4615 80 MP stroke
SO
c9
10 3 10 3 10 3 9 2 10 3 10 3 10 3 10 3 
10 3 10 3 9 3 10 3 10 3 10 3 10 3 10 3 
10 3 10 3 9 4 10 3 10 3 10 3 10 3 10 4 
10 3 10 3 9 3 10 3 10 4 10 3 10 3 10 3 
10 3 9 3 10 3 10 4 10 2 10 3 10 4 10 2 
10 3 9 3 10 3 10 3 10 2 10 3 10 2 10 3 
10 3 9 1 10 2 10 3 10 2 10 2 10 2 10 1 
9 1 10 3 10 2 10 -1 10 3 10 -1 10 3 10 3 
9 1 10 8 10 0 10 7 10 -4 10 6 10 31 10 28 
9 -37 10 58 10 38 10 44 10 196 10 515 10 -1279 3812 4615 80 MP stroke
gr

24 w
c9
0 sg
3943 2751 mt 
(Consumption) s
6 w
1 sg
0 1769 987 0 0 -1769 5229 4615 4 MP
PP
-987 0 0 1769 987 0 0 -1769 5229 4615 5 MP stroke
4 w
DO
6 w
SO
0 sg
5229 4615 mt 6216 4615 L
5229 2846 mt 6216 2846 L
5229 4615 mt 5229 2846 L
6216 4615 mt 6216 2846 L
5229 4615 mt 6216 4615 L
5229 4615 mt 5229 2846 L
5229 4615 mt 5229 4597 L
5229 2846 mt 5229 2863 L
5196 4760 mt 
(0) s
5722 4615 mt 5722 4597 L
5722 2846 mt 5722 2863 L
5656 4760 mt 
(50) s
6216 4615 mt 6216 4597 L
6216 2846 mt 6216 2863 L
6116 4760 mt 
(100) s
5229 4615 mt 5246 4615 L
6216 4615 mt 6198 4615 L
5128 4659 mt 
(0) s
5229 4172 mt 5246 4172 L
6216 4172 mt 6198 4172 L
4961 4216 mt 
(0.01) s
5229 3730 mt 5246 3730 L
6216 3730 mt 6198 3730 L
4961 3774 mt 
(0.02) s
5229 3288 mt 5246 3288 L
6216 3288 mt 6198 3288 L
4961 3332 mt 
(0.03) s
5229 2846 mt 5246 2846 L
6216 2846 mt 6198 2846 L
4961 2890 mt 
(0.04) s
5229 4615 mt 6216 4615 L
5229 2846 mt 6216 2846 L
5229 4615 mt 5229 2846 L
6216 4615 mt 6216 2846 L
gs 5229 2846 988 1770 rc
10 0 10 0 10 0 9 0 10 0 10 0 10 0 10 0 
10 0 10 0 9 0 10 0 10 0 10 0 10 0 10 0 
10 0 10 0 9 0 10 0 10 0 10 0 10 0 10 0 
10 0 10 0 9 0 10 0 10 0 10 0 10 0 10 0 
10 0 9 0 10 0 10 0 10 0 10 0 10 0 10 0 
10 0 9 0 10 0 10 0 10 0 10 0 10 0 10 0 
10 0 9 0 10 0 10 0 10 0 10 0 10 0 10 0 
9 0 10 0 10 0 10 0 10 0 10 0 10 0 10 0 
9 0 10 0 10 0 10 0 10 0 10 0 10 0 10 0 
9 0 10 0 10 0 10 0 10 0 10 0 10 0 5238 4615 80 MP stroke
12 w
DO
10 0 10 1 10 1 9 0 10 1 10 0 10 1 10 1 
10 1 10 0 9 1 10 1 10 0 10 1 10 1 10 1 
10 1 10 0 9 1 10 1 10 1 10 1 10 1 10 1 
10 1 10 0 9 1 10 1 10 1 10 1 10 1 10 1 
10 1 9 1 10 1 10 1 10 2 10 1 10 1 10 1 
10 1 9 1 10 1 10 1 10 1 10 2 10 1 10 1 
10 1 9 1 10 2 10 1 10 1 10 2 10 1 10 2 
9 1 10 2 10 2 10 2 10 2 10 3 10 3 10 3 
9 4 10 5 10 6 10 7 10 9 10 11 10 13 10 18 
9 23 10 29 10 41 10 57 10 85 10 131 10 -551 5238 4615 80 MP stroke
24 w
DA
c8
10 1 10 0 10 1 9 0 10 1 10 0 10 1 10 0 
10 1 10 0 9 1 10 1 10 0 10 1 10 0 10 1 
10 1 10 0 9 1 10 1 10 1 10 0 10 1 10 1 
10 1 10 1 9 0 10 1 10 1 10 1 10 1 10 1 
10 1 9 1 10 1 10 1 10 2 10 1 10 1 10 1 
10 2 9 1 10 1 10 2 10 1 10 2 10 1 10 2 
10 2 9 2 10 2 10 2 10 2 10 2 10 3 10 3 
9 3 10 3 10 3 10 4 10 5 10 5 10 6 10 7 
9 8 10 9 10 11 10 13 10 16 10 19 10 24 10 28 
9 36 10 48 10 74 10 152 10 431 10 -113 10 -892 5238 4615 80 MP stroke
SO
c9
10 0 10 1 10 0 9 1 10 0 10 0 10 1 10 0 
10 1 10 0 9 1 10 0 10 0 10 1 10 0 10 1 
10 0 10 1 9 0 10 1 10 1 10 0 10 1 10 0 
10 1 10 1 9 0 10 1 10 1 10 0 10 1 10 1 
10 1 9 1 10 1 10 1 10 0 10 1 10 1 10 1 
10 1 9 1 10 1 10 2 10 1 10 1 10 1 10 2 
10 2 9 1 10 1 10 2 10 2 10 2 10 3 10 1 
9 1 10 5 10 3 10 4 10 3 10 0 10 6 10 3 
9 7 10 14 10 11 10 13 10 -1 10 23 10 44 10 61 
9 2 10 65 10 89 10 173 10 701 10 288 10 -1598 5238 4615 80 MP stroke
gr

24 w
c9
0 sg
5390 2751 mt 
(Employment) s
5212 4658 mt 
( ) s
6200 2888 mt 
( ) s
6 w
1 sg
0 480 935 0 0 -480 5222 3386 4 MP
PP
-935 0 0 480 935 0 0 -480 5222 3386 5 MP stroke
4 w
DO
6 w
SO
0 sg
5222 3386 mt 6157 3386 L
5222 2906 mt 6157 2906 L
5222 3386 mt 5222 2906 L
6157 3386 mt 6157 2906 L
5222 3386 mt 6157 3386 L
5222 3386 mt 5222 2906 L
5222 3386 mt 6157 3386 L
5222 2906 mt 6157 2906 L
5222 3386 mt 5222 2906 L
6157 3386 mt 6157 2906 L
5687 3040 mt 
(fricless) s
gs 5222 2906 936 481 rc
12 w
DO
357 0 5293 2997 2 MP stroke
gr

12 w
SO
5687 3189 mt 
(RE) s
gs 5222 2906 936 481 rc
24 w
DA
c8
357 0 5293 3146 2 MP stroke
gr

24 w
SO
c8
0 sg
5687 3337 mt 
(learning) s
gs 5222 2906 936 481 rc
c9
357 0 5293 3294 2 MP stroke
6 w
gr

6 w
c9

end %%Color Dict

eplot
%%EndObject

epage
end

showpage

%%Trailer
%%EOF
