%!PS-Adobe-3.0 EPSF-3.0
%%Creator: MATLAB, The MathWorks, Inc. Version 8.3.0.532 (R2014a). Operating System: Microsoft Windows 7 Enterprise .
%%Title: .\irf_epsb.eps
%%CreationDate: 10/28/2014  20:15:00
%%DocumentNeededFonts: Helvetica
%%DocumentProcessColors: Cyan Magenta Yellow Black
%%LanguageLevel: 2
%%Pages: 1
%%BoundingBox:   108   258   499   607
%%EndComments

%%BeginProlog
% MathWorks dictionary
/MathWorks 160 dict begin
% definition operators
/bdef {bind def} bind def
/ldef {load def} bind def
/xdef {exch def} bdef
/xstore {exch store} bdef
% operator abbreviations
/c  /clip ldef
/cc /concat ldef
/cp /closepath ldef
/gr /grestore ldef
/gs /gsave ldef
/mt /moveto ldef
/np /newpath ldef
/cm /currentmatrix ldef
/sm /setmatrix ldef
/rm /rmoveto ldef
/rl /rlineto ldef
/s {show newpath} bdef
/sc {setcmykcolor} bdef
/sr /setrgbcolor ldef
/sg /setgray ldef
/w /setlinewidth ldef
/j /setlinejoin ldef
/cap /setlinecap ldef
/rc {rectclip} bdef
/rf {rectfill} bdef
% page state control
/pgsv () def
/bpage {/pgsv save def} bdef
/epage {pgsv restore} bdef
/bplot /gsave ldef
/eplot {stroke grestore} bdef
% orientation switch
/portraitMode 0 def /landscapeMode 1 def /rotateMode 2 def
% coordinate system mappings
/dpi2point 0 def
% font control
/FontSize 0 def
/FMS {/FontSize xstore findfont [FontSize 0 0 FontSize neg 0 0]
  makefont setfont} bdef
/ISOLatin1Encoding where {pop /WindowsLatin1Encoding 256 array bdef
ISOLatin1Encoding WindowsLatin1Encoding copy pop
/.notdef/.notdef/quotesinglbase/florin/quotedblbase/ellipsis/dagger
/daggerdbl/circumflex/perthousand/Scaron/guilsinglleft/OE/.notdef/.notdef
/.notdef/.notdef/quoteleft/quoteright/quotedblleft/quotedblright/bullet
/endash/emdash/tilde/trademark/scaron/guilsinglright/oe/.notdef/.notdef
/Ydieresis WindowsLatin1Encoding 128 32 getinterval astore pop}
{/WindowsLatin1Encoding StandardEncoding bdef} ifelse
/reencode {exch dup where {pop load} {pop StandardEncoding} ifelse
  exch dup 3 1 roll findfont dup length dict begin
  { 1 index /FID ne {def}{pop pop} ifelse } forall
  /Encoding exch def currentdict end definefont pop} bdef
/isroman {findfont /CharStrings get /Agrave known} bdef
/FMSR {3 1 roll 1 index dup isroman {reencode} {pop pop} ifelse
  exch FMS} bdef
/csm {1 dpi2point div -1 dpi2point div scale neg translate
 dup landscapeMode eq {pop -90 rotate}
  {rotateMode eq {90 rotate} if} ifelse} bdef
% line types: solid, dotted, dashed, dotdash
/dom { dpi2point 1 currentlinewidth 0.08 mul add mul mul } bdef/dam { dpi2point 2 currentlinewidth 0.04 mul add mul mul } bdef/SO { [] 0 setdash 0 setlinecap } bdef/DO { [1 dom 1.2 dom] 0 setdash 0 setlinecap } bdef/DA { [4 dam 1.5 dam] 0 setdash 0 setlinecap } bdef/DD { [1 dom 1.2 dom 4 dam 1.2 dom] 0 setdash 0 setlinecap } bdef/GR { [0 dpi2point mul 4 dpi2point mul] 0 setdash 1 setlinecap } bdef% macros for lines and objects
/L {lineto stroke} bdef
/MP {3 1 roll moveto 1 sub {rlineto} repeat} bdef
/AP {{rlineto} repeat} bdef
/PDlw -1 def
/W {/PDlw currentlinewidth def setlinewidth} def
/PP {closepath eofill} bdef
/DP {closepath stroke} bdef
/MR {4 -2 roll moveto dup  0 exch rlineto exch 0 rlineto
  neg 0 exch rlineto closepath} bdef
/FR {MR stroke} bdef
/PR {MR fill} bdef
/L1i {{currentfile picstr readhexstring pop} image} bdef
/tMatrix matrix def
/MakeOval {newpath tMatrix currentmatrix pop translate scale
0 0 1 0 360 arc tMatrix setmatrix} bdef
/FO {MakeOval stroke} bdef
/PO {MakeOval fill} bdef
/PD {currentlinewidth 2 div 0 360 arc fill
   PDlw -1 eq not {PDlw w /PDlw -1 def} if} def
/FA {newpath tMatrix currentmatrix pop translate scale
  0 0 1 5 -2 roll arc tMatrix setmatrix stroke} bdef
/PA {newpath tMatrix currentmatrix pop	translate 0 0 moveto scale
  0 0 1 5 -2 roll arc closepath tMatrix setmatrix fill} bdef
/FAn {newpath tMatrix currentmatrix pop translate scale
  0 0 1 5 -2 roll arcn tMatrix setmatrix stroke} bdef
/PAn {newpath tMatrix currentmatrix pop translate 0 0 moveto scale
  0 0 1 5 -2 roll arcn closepath tMatrix setmatrix fill} bdef
/vradius 0 def /hradius 0 def /lry 0 def
/lrx 0 def /uly 0 def /ulx 0 def /rad 0 def
/MRR {/vradius xdef /hradius xdef /lry xdef /lrx xdef /uly xdef
  /ulx xdef newpath tMatrix currentmatrix pop ulx hradius add uly
  vradius add translate hradius vradius scale 0 0 1 180 270 arc 
  tMatrix setmatrix lrx hradius sub uly vradius add translate
  hradius vradius scale 0 0 1 270 360 arc tMatrix setmatrix
  lrx hradius sub lry vradius sub translate hradius vradius scale
  0 0 1 0 90 arc tMatrix setmatrix ulx hradius add lry vradius sub
  translate hradius vradius scale 0 0 1 90 180 arc tMatrix setmatrix
  closepath} bdef
/FRR {MRR stroke } bdef
/PRR {MRR fill } bdef
/MlrRR {/lry xdef /lrx xdef /uly xdef /ulx xdef /rad lry uly sub 2 div def
  newpath tMatrix currentmatrix pop ulx rad add uly rad add translate
  rad rad scale 0 0 1 90 270 arc tMatrix setmatrix lrx rad sub lry rad
  sub translate rad rad scale 0 0 1 270 90 arc tMatrix setmatrix
  closepath} bdef
/FlrRR {MlrRR stroke } bdef
/PlrRR {MlrRR fill } bdef
/MtbRR {/lry xdef /lrx xdef /uly xdef /ulx xdef /rad lrx ulx sub 2 div def
  newpath tMatrix currentmatrix pop ulx rad add uly rad add translate
  rad rad scale 0 0 1 180 360 arc tMatrix setmatrix lrx rad sub lry rad
  sub translate rad rad scale 0 0 1 0 180 arc tMatrix setmatrix
  closepath} bdef
/FtbRR {MtbRR stroke } bdef
/PtbRR {MtbRR fill } bdef
/stri 6 array def /dtri 6 array def
/smat 6 array def /dmat 6 array def
/tmat1 6 array def /tmat2 6 array def /dif 3 array def
/asub {/ind2 exch def /ind1 exch def dup dup
  ind1 get exch ind2 get sub exch } bdef
/tri_to_matrix {
  2 0 asub 3 1 asub 4 0 asub 5 1 asub
  dup 0 get exch 1 get 7 -1 roll astore } bdef
/compute_transform {
  dmat dtri tri_to_matrix tmat1 invertmatrix 
  smat stri tri_to_matrix tmat2 concatmatrix } bdef
/ds {stri astore pop} bdef
/dt {dtri astore pop} bdef
/db {2 copy /cols xdef /rows xdef mul dup 3 mul string
  currentfile 
  3 index 0 eq {/ASCIIHexDecode filter}
  {/ASCII85Decode filter 3 index 2 eq {/RunLengthDecode filter} if }
  ifelse exch readstring pop
  dup 0 3 index getinterval /rbmap xdef
  dup 2 index dup getinterval /gbmap xdef
  1 index dup 2 mul exch getinterval /bbmap xdef pop pop}bdef
/it {gs np dtri aload pop moveto lineto lineto cp c
  cols rows 8 compute_transform 
  rbmap gbmap bbmap true 3 colorimage gr}bdef
/il {newpath moveto lineto stroke}bdef
currentdict end def
%%EndProlog

%%BeginSetup
MathWorks begin

0 cap

end
%%EndSetup

%%Page: 1 1
%%BeginPageSetup
%%PageBoundingBox:   108   258   499   607
MathWorks begin
bpage
%%EndPageSetup

%%BeginObject: obj1
bplot

/dpi2point 12 def
portraitMode 0684 7356 csm

  612    67  4701  4182 rc
85 dict begin %Colortable dictionary
/c0 { 0.000000 0.000000 0.000000 sr} bdef
/c1 { 1.000000 1.000000 1.000000 sr} bdef
/c2 { 0.900000 0.000000 0.000000 sr} bdef
/c3 { 0.000000 0.820000 0.000000 sr} bdef
/c4 { 0.000000 0.000000 0.800000 sr} bdef
/c5 { 0.910000 0.820000 0.320000 sr} bdef
/c6 { 1.000000 0.260000 0.820000 sr} bdef
/c7 { 0.000000 0.820000 0.820000 sr} bdef
c0
1 j
1 sg
   0    0 5766 4611 rf
6 w
0 1573 849 0 0 -1573 783 1919 4 MP
PP
-849 0 0 1573 849 0 0 -1573 783 1919 5 MP stroke
4 w
DO

6 wSO
0 sg
 783  346 mt 1632  346 L
 783 1919 mt 1632 1919 L
1632 1919 mt 1632  346 L
 783 1919 mt  783  346 L
 783 1919 mt 1632 1919 L
 783 1919 mt  783  346 L
 783 1919 mt  783 1903 L
 783  346 mt  783  361 L
%%IncludeResource: font Helvetica
/Helvetica /WindowsLatin1Encoding 120 FMSR

 750 2064 mt 
(0) s
1207 1919 mt 1207 1903 L
1207  346 mt 1207  361 L
1141 2064 mt 
(20) s
1632 1919 mt 1632 1903 L
1632  346 mt 1632  361 L
1566 2064 mt 
(40) s
 783 1919 mt  798 1919 L
1632 1919 mt 1616 1919 L
 612 1963 mt 
(-4) s
 783 1604 mt  798 1604 L
1632 1604 mt 1616 1604 L
 612 1648 mt 
(-3) s
 783 1289 mt  798 1289 L
1632 1289 mt 1616 1289 L
 612 1333 mt 
(-2) s
 783  975 mt  798  975 L
1632  975 mt 1616  975 L
 612 1019 mt 
(-1) s
 783  660 mt  798  660 L
1632  660 mt 1616  660 L
 682  704 mt 
(0) s
 783  346 mt  798  346 L
1632  346 mt 1616  346 L
 682  390 mt 
(1) s
 783  292 mt 
(x 10) s
%%IncludeResource: font Helvetica
/Helvetica /WindowsLatin1Encoding 80 FMSR

1009  218 mt 
(-3) s
 783  346 mt 1632  346 L
 783 1919 mt 1632 1919 L
1632 1919 mt 1632  346 L
 783 1919 mt  783  346 L
gs 783 346 850 1574 rc
22 0 21 0 21 0 21 0 22 0 21 0 21 0 21 0 
22 0 21 0 21 0 21 0 21 0 22 0 21 0 21 0 
21 0 22 0 21 0 21 0 21 0 21 0 22 0 21 0 
21 0 21 0 22 0 21 0 21 0 21 0 21 0 22 0 
21 0 21 0 21 0 22 0 21 0 21 0 21 0 804 660 40 MP stroke
14.4 w
22 0 21 0 21 0 21 0 22 0 21 0 21 0 21 0 
22 0 21 0 21 0 21 0 21 0 22 0 21 0 21 0 
21 0 22 0 21 0 21 0 21 0 21 0 22 0 21 0 
21 0 21 0 22 0 21 0 21 0 21 0 21 0 22 0 
21 0 21 0 21 0 22 0 21 0 21 0 21 0 804 660 40 MP stroke

24 wDA
/c8 { 0.000000 0.000000 1.000000 sr} bdef
c8
22 0 21 0 21 -1 21 0 22 0 21 0 21 -1 21 0 
22 0 21 -1 21 0 21 0 21 -1 22 0 21 -1 21 0 
21 -1 22 0 21 -1 21 0 21 -1 21 0 22 -1 21 -1 
21 0 21 -1 22 -1 21 -1 21 -1 21 -1 21 -1 22 -1 
21 -1 21 -1 21 -1 22 -1 21 -2 21 -1 21 28 804 660 40 MP stroke
SO
/c9 { 1.000000 0.000000 0.000000 sr} bdef
c9
22 -15 21 -18 21 -20 21 -24 22 -30 21 -35 21 -42 21 -47 
22 -52 21 -55 21 -56 21 -55 21 -52 22 -51 21 -50 21 -49 
21 -50 22 -49 21 -50 21 -53 21 -53 21 -57 22 -56 21 -60 
21 -56 21 -50 22 -46 21 -35 21 -26 21 -15 21 2 22 23 
21 46 21 63 21 94 22 132 21 163 21 219 21 268 804 660 40 MP stroke
gr

24 w
c9
0 sg
%%IncludeResource: font Helvetica
/Helvetica /WindowsLatin1Encoding 120 FMSR

1167  251 mt 
(V) s
6 w
1 sg
0 1573 849 0 0 -1573 1971 1919 4 MP
PP
-849 0 0 1573 849 0 0 -1573 1971 1919 5 MP stroke
4 w
DO

6 wSO
0 sg
1971  346 mt 2820  346 L
1971 1919 mt 2820 1919 L
2820 1919 mt 2820  346 L
1971 1919 mt 1971  346 L
1971 1919 mt 2820 1919 L
1971 1919 mt 1971  346 L
1971 1919 mt 1971 1903 L
1971  346 mt 1971  361 L
1938 2064 mt 
(0) s
2395 1919 mt 2395 1903 L
2395  346 mt 2395  361 L
2329 2064 mt 
(20) s
2820 1919 mt 2820 1903 L
2820  346 mt 2820  361 L
2754 2064 mt 
(40) s
1971 1919 mt 1986 1919 L
2820 1919 mt 2804 1919 L
1800 1963 mt 
(-4) s
1971 1525 mt 1986 1525 L
2820 1525 mt 2804 1525 L
1800 1569 mt 
(-2) s
1971 1132 mt 1986 1132 L
2820 1132 mt 2804 1132 L
1870 1176 mt 
(0) s
1971  739 mt 1986  739 L
2820  739 mt 2804  739 L
1870  783 mt 
(2) s
1971  346 mt 1986  346 L
2820  346 mt 2804  346 L
1870  390 mt 
(4) s
1971  292 mt 
(x 10) s
%%IncludeResource: font Helvetica
/Helvetica /WindowsLatin1Encoding 80 FMSR

2197  218 mt 
(-4) s
1971  346 mt 2820  346 L
1971 1919 mt 2820 1919 L
2820 1919 mt 2820  346 L
1971 1919 mt 1971  346 L
gs 1971 346 850 1574 rc
22 0 21 0 21 0 21 0 22 0 21 0 21 0 21 0 
22 0 21 0 21 0 21 0 21 0 22 0 21 0 21 0 
21 0 22 0 21 0 21 0 21 0 21 0 22 0 21 0 
21 0 21 0 22 0 21 0 21 0 21 0 21 0 22 0 
21 0 21 0 21 0 22 0 21 0 21 0 21 0 1992 1132 40 MP stroke
14.4 w
22 0 21 0 21 0 21 0 22 0 21 0 21 0 21 0 
22 0 21 0 21 0 21 0 21 0 22 0 21 0 21 0 
21 0 22 0 21 0 21 0 21 0 21 0 22 0 21 0 
21 0 21 0 22 0 21 0 21 0 21 0 21 0 22 0 
21 0 21 0 21 0 22 0 21 0 21 0 21 0 1992 1132 40 MP stroke

24 wDA
c8
22 0 21 0 21 0 21 0 22 0 21 0 21 1 21 -1 
22 1 21 0 21 0 21 0 21 0 22 0 21 0 21 0 
21 0 22 0 21 0 21 0 21 0 21 1 22 0 21 0 
21 0 21 0 22 1 21 0 21 0 21 1 21 1 22 1 
21 1 21 1 21 0 22 -5 21 -17 21 -23 21 36 1992 1132 40 MP stroke
SO
c9
22 14 21 14 21 17 21 35 22 27 21 35 21 39 21 38 
22 32 21 36 21 21 21 31 21 -7 22 16 21 31 21 9 
21 9 22 25 21 30 21 26 21 21 21 14 22 26 21 59 
21 37 21 25 22 -6 21 -23 21 -15 21 -37 21 -70 22 -74 
21 -112 21 -157 21 -155 22 -317 21 -230 21 98 21 501 1992 1132 40 MP stroke
gr

24 w
c9
0 sg
%%IncludeResource: font Helvetica
/Helvetica /WindowsLatin1Encoding 120 FMSR

2352  251 mt 
(D) s
6 w
1 sg
0 1574 850 0 0 -1574 3159 1919 4 MP
PP
-850 0 0 1574 850 0 0 -1574 3159 1919 5 MP stroke
4 w
DO

6 wSO
0 sg
3159  345 mt 4009  345 L
3159 1919 mt 4009 1919 L
4009 1919 mt 4009  345 L
3159 1919 mt 3159  345 L
3159 1919 mt 4009 1919 L
3159 1919 mt 3159  345 L
3159 1919 mt 3159 1903 L
3159  346 mt 3159  361 L
3126 2064 mt 
(0) s
3584 1919 mt 3584 1903 L
3584  346 mt 3584  361 L
3518 2064 mt 
(20) s
4009 1919 mt 4009 1903 L
4009  346 mt 4009  361 L
3943 2064 mt 
(40) s
3159 1919 mt 3174 1919 L
4009 1919 mt 3993 1919 L
2988 1963 mt 
(-4) s
3159 1525 mt 3174 1525 L
4009 1525 mt 3993 1525 L
2988 1569 mt 
(-2) s
3159 1132 mt 3174 1132 L
4009 1132 mt 3993 1132 L
3058 1176 mt 
(0) s
3159  739 mt 3174  739 L
4009  739 mt 3993  739 L
3058  783 mt 
(2) s
3159  346 mt 3174  346 L
4009  346 mt 3993  346 L
3058  390 mt 
(4) s
3159  292 mt 
(x 10) s
%%IncludeResource: font Helvetica
/Helvetica /WindowsLatin1Encoding 80 FMSR

3385  218 mt 
(-5) s
3159  345 mt 4009  345 L
3159 1919 mt 4009 1919 L
4009 1919 mt 4009  345 L
3159 1919 mt 3159  345 L
gs 3159 346 851 1574 rc
22 0 21 0 21 0 21 0 22 0 21 0 21 0 21 0 
22 0 21 0 21 0 21 0 22 0 21 0 21 0 21 0 
22 0 21 0 21 0 21 0 22 0 21 0 21 0 21 0 
22 0 21 0 21 0 21 0 22 0 21 0 21 0 21 0 
22 0 21 0 21 0 21 0 22 0 21 0 21 0 3180 1132 40 MP stroke
14.4 w
22 0 21 0 21 0 21 0 22 0 21 0 21 0 21 0 
22 0 21 0 21 0 21 0 22 0 21 0 21 0 21 0 
22 0 21 0 21 0 21 0 22 0 21 0 21 0 21 0 
22 0 21 0 21 0 21 0 22 0 21 0 21 0 21 0 
22 0 21 0 21 0 21 0 22 0 21 0 21 0 3180 1132 40 MP stroke

24 wDA
c8
22 0 21 0 21 0 21 0 22 0 21 0 21 0 21 0 
22 0 21 0 21 0 21 0 22 0 21 0 21 0 21 0 
22 0 21 -1 21 0 21 0 22 0 21 0 21 -1 21 0 
22 0 21 -1 21 0 21 -1 22 -1 21 -1 21 -1 21 -1 
22 -2 21 -2 21 -2 21 -2 22 0 21 4 21 9 3180 1132 40 MP stroke
SO
c9
22 15 21 13 21 11 21 9 22 2 21 -2 21 -9 21 -14 
22 -18 21 -22 21 -23 21 -23 22 -26 21 -23 21 -24 21 -28 
22 -31 21 -32 21 -38 21 -45 22 -52 21 -57 21 -60 21 -63 
22 -67 21 -71 21 -74 21 -71 22 -66 21 -60 21 -46 21 -29 
22 -8 21 19 21 61 21 97 22 158 21 198 21 143 3180 1132 40 MP stroke
gr

24 w
c9
0 sg
%%IncludeResource: font Helvetica
/Helvetica /WindowsLatin1Encoding 120 FMSR

3570  251 mt 
(i) s
6 w
1 sg
0 1573 849 0 0 -1573 4348 1919 4 MP
PP
-849 0 0 1573 849 0 0 -1573 4348 1919 5 MP stroke
4 w
DO

6 wSO
0 sg
4348  346 mt 5197  346 L
4348 1919 mt 5197 1919 L
5197 1919 mt 5197  346 L
4348 1919 mt 4348  346 L
4348 1919 mt 5197 1919 L
4348 1919 mt 4348  346 L
4348 1919 mt 4348 1903 L
4348  346 mt 4348  361 L
4315 2064 mt 
(0) s
4772 1919 mt 4772 1903 L
4772  346 mt 4772  361 L
4706 2064 mt 
(20) s
5197 1919 mt 5197 1903 L
5197  346 mt 5197  361 L
5131 2064 mt 
(40) s
4348 1919 mt 4363 1919 L
5197 1919 mt 5181 1919 L
4177 1963 mt 
(-3) s
4348 1604 mt 4363 1604 L
5197 1604 mt 5181 1604 L
4177 1648 mt 
(-2) s
4348 1289 mt 4363 1289 L
5197 1289 mt 5181 1289 L
4177 1333 mt 
(-1) s
4348  975 mt 4363  975 L
5197  975 mt 5181  975 L
4247 1019 mt 
(0) s
4348  660 mt 4363  660 L
5197  660 mt 5181  660 L
4247  704 mt 
(1) s
4348  346 mt 4363  346 L
5197  346 mt 5181  346 L
4247  390 mt 
(2) s
4348  292 mt 
(x 10) s
%%IncludeResource: font Helvetica
/Helvetica /WindowsLatin1Encoding 80 FMSR

4574  218 mt 
(-5) s
4348  346 mt 5197  346 L
4348 1919 mt 5197 1919 L
5197 1919 mt 5197  346 L
4348 1919 mt 4348  346 L
gs 4348 346 850 1574 rc
22 0 21 0 21 0 21 0 22 0 21 0 21 0 21 0 
22 0 21 0 21 0 21 0 21 0 22 0 21 0 21 0 
21 0 22 0 21 0 21 0 21 0 21 0 22 0 21 0 
21 0 21 0 22 0 21 0 21 0 21 0 21 0 22 0 
21 0 21 0 21 0 22 0 21 0 21 0 21 0 4369 975 40 MP stroke
14.4 w
22 0 21 0 21 0 21 0 22 0 21 0 21 0 21 0 
22 0 21 0 21 0 21 0 21 0 22 0 21 0 21 0 
21 0 22 0 21 0 21 0 21 0 21 0 22 0 21 0 
21 0 21 0 22 0 21 0 21 0 21 0 21 0 22 0 
21 0 21 0 21 0 22 0 21 0 21 0 21 0 4369 975 40 MP stroke

24 wDA
c8
22 0 21 0 21 0 21 0 22 0 21 0 21 0 21 0 
22 0 21 0 21 0 21 0 21 0 22 0 21 0 21 0 
21 0 22 0 21 0 21 0 21 0 21 -1 22 0 21 0 
21 -1 21 0 22 0 21 -1 21 -1 21 -1 21 0 22 -2 
21 -1 21 -2 21 -2 22 -3 21 -7 21 1 21 18 4369 975 40 MP stroke
SO
c9
22 17 21 16 21 15 21 15 22 8 21 4 21 -3 21 -10 
22 -18 21 -20 21 -25 21 -22 21 -30 22 -23 21 -22 21 -28 
21 -30 22 -28 21 -34 21 -41 21 -48 21 -59 22 -61 21 -62 
21 -68 21 -73 22 -81 21 -81 21 -78 21 -77 21 -70 22 -51 
21 -38 21 -23 21 24 22 40 21 124 21 272 21 304 4369 975 40 MP stroke
gr

24 w
c9
0 sg
%%IncludeResource: font Helvetica
/Helvetica /WindowsLatin1Encoding 120 FMSR

4725  251 mt 
(pi) s
6 w
1 sg
0 1573 849 0 0 -1573 783 4103 4 MP
PP
-849 0 0 1573 849 0 0 -1573 783 4103 5 MP stroke
4 w
DO

6 wSO
0 sg
 783 2530 mt 1632 2530 L
 783 4103 mt 1632 4103 L
1632 4103 mt 1632 2530 L
 783 4103 mt  783 2530 L
 783 4103 mt 1632 4103 L
 783 4103 mt  783 2530 L
 783 4103 mt  783 4087 L
 783 2530 mt  783 2545 L
 750 4248 mt 
(0) s
1207 4103 mt 1207 4087 L
1207 2530 mt 1207 2545 L
1141 4248 mt 
(20) s
1632 4103 mt 1632 4087 L
1632 2530 mt 1632 2545 L
1566 4248 mt 
(40) s
 783 4103 mt  798 4103 L
1632 4103 mt 1616 4103 L
 612 4147 mt 
(-3) s
 783 3788 mt  798 3788 L
1632 3788 mt 1616 3788 L
 612 3832 mt 
(-2) s
 783 3473 mt  798 3473 L
1632 3473 mt 1616 3473 L
 612 3517 mt 
(-1) s
 783 3159 mt  798 3159 L
1632 3159 mt 1616 3159 L
 682 3203 mt 
(0) s
 783 2844 mt  798 2844 L
1632 2844 mt 1616 2844 L
 682 2888 mt 
(1) s
 783 2530 mt  798 2530 L
1632 2530 mt 1616 2530 L
 682 2574 mt 
(2) s
 783 2476 mt 
(x 10) s
%%IncludeResource: font Helvetica
/Helvetica /WindowsLatin1Encoding 80 FMSR

1009 2402 mt 
(-4) s
 783 2530 mt 1632 2530 L
 783 4103 mt 1632 4103 L
1632 4103 mt 1632 2530 L
 783 4103 mt  783 2530 L
gs 783 2530 850 1574 rc
22 0 21 0 21 0 21 0 22 0 21 0 21 0 21 0 
22 0 21 0 21 0 21 0 21 0 22 0 21 0 21 0 
21 0 22 0 21 0 21 0 21 0 21 0 22 0 21 0 
21 0 21 0 22 0 21 0 21 0 21 0 21 0 22 0 
21 0 21 0 21 0 22 0 21 0 21 0 21 0 804 3159 40 MP stroke
14.4 w
22 0 21 0 21 0 21 0 22 0 21 0 21 0 21 0 
22 0 21 0 21 0 21 0 21 0 22 0 21 0 21 0 
21 0 22 0 21 0 21 0 21 0 21 0 22 0 21 0 
21 0 21 0 22 0 21 0 21 0 21 0 21 0 22 0 
21 0 21 0 21 0 22 0 21 0 21 0 21 0 804 3159 40 MP stroke

24 wDA
c8
22 -1 21 0 21 0 21 0 22 0 21 0 21 -1 21 0 
22 0 21 0 21 -1 21 0 21 0 22 0 21 -1 21 0 
21 0 22 -1 21 0 21 0 21 -1 21 0 22 -1 21 0 
21 -1 21 0 22 0 21 -1 21 0 21 -1 21 0 22 0 
21 -1 21 0 21 0 22 -2 21 -5 21 21 21 -1 804 3159 40 MP stroke
SO
c9
22 -16 21 -19 21 -24 21 -20 22 -31 21 -32 21 -33 21 -34 
22 -35 21 -29 21 -35 21 -29 21 -56 22 -40 21 -31 21 -50 
21 -49 22 -44 21 -44 21 -47 21 -62 21 -45 22 -36 21 6 
21 -10 21 -20 22 -25 21 -26 21 2 21 13 21 16 22 49 
21 43 21 71 21 112 22 20 21 135 21 238 21 -7 804 3159 40 MP stroke
gr

24 w
c9
0 sg
%%IncludeResource: font Helvetica
/Helvetica /WindowsLatin1Encoding 120 FMSR

1167 2435 mt 
(Y) s
6 w
1 sg
0 1573 849 0 0 -1573 1971 4103 4 MP
PP
-849 0 0 1573 849 0 0 -1573 1971 4103 5 MP stroke
4 w
DO

6 wSO
0 sg
1971 2530 mt 2820 2530 L
1971 4103 mt 2820 4103 L
2820 4103 mt 2820 2530 L
1971 4103 mt 1971 2530 L
1971 4103 mt 2820 4103 L
1971 4103 mt 1971 2530 L
1971 4103 mt 1971 4087 L
1971 2530 mt 1971 2545 L
1938 4248 mt 
(0) s
2395 4103 mt 2395 4087 L
2395 2530 mt 2395 2545 L
2329 4248 mt 
(20) s
2820 4103 mt 2820 4087 L
2820 2530 mt 2820 2545 L
2754 4248 mt 
(40) s
1971 4103 mt 1986 4103 L
2820 4103 mt 2804 4103 L
1700 4147 mt 
(-1.5) s
1971 3788 mt 1986 3788 L
2820 3788 mt 2804 3788 L
1800 3832 mt 
(-1) s
1971 3473 mt 1986 3473 L
2820 3473 mt 2804 3473 L
1700 3517 mt 
(-0.5) s
1971 3159 mt 1986 3159 L
2820 3159 mt 2804 3159 L
1870 3203 mt 
(0) s
1971 2844 mt 1986 2844 L
2820 2844 mt 2804 2844 L
1770 2888 mt 
(0.5) s
1971 2530 mt 1986 2530 L
2820 2530 mt 2804 2530 L
1870 2574 mt 
(1) s
1971 2476 mt 
(x 10) s
%%IncludeResource: font Helvetica
/Helvetica /WindowsLatin1Encoding 80 FMSR

2197 2402 mt 
(-3) s
1971 2530 mt 2820 2530 L
1971 4103 mt 2820 4103 L
2820 4103 mt 2820 2530 L
1971 4103 mt 1971 2530 L
gs 1971 2530 850 1574 rc
22 0 21 0 21 0 21 0 22 0 21 0 21 0 21 0 
22 0 21 0 21 0 21 0 21 0 22 0 21 0 21 0 
21 0 22 0 21 0 21 0 21 0 21 0 22 0 21 0 
21 0 21 0 22 0 21 0 21 0 21 0 21 0 22 0 
21 0 21 0 21 0 22 0 21 0 21 0 21 0 1992 3159 40 MP stroke
14.4 w
22 0 21 0 21 0 21 0 22 0 21 0 21 0 21 0 
22 0 21 0 21 0 21 0 21 0 22 0 21 0 21 0 
21 0 22 0 21 0 21 0 21 0 21 0 22 0 21 0 
21 0 21 0 22 0 21 0 21 0 21 0 21 0 22 0 
21 0 21 0 21 0 22 0 21 0 21 0 21 0 1992 3159 40 MP stroke

24 wDA
c8
22 0 21 0 21 0 21 0 22 0 21 0 21 0 21 0 
22 0 21 -1 21 0 21 0 21 0 22 0 21 -1 21 0 
21 0 22 0 21 -1 21 0 21 0 21 -1 22 0 21 -1 
21 0 21 -1 22 0 21 -1 21 0 21 -1 21 -1 22 -1 
21 -1 21 -1 21 -1 22 -1 21 -1 21 -1 21 16 1992 3159 40 MP stroke
SO
c9
22 -1 21 -2 21 -5 21 -8 22 -13 21 -18 21 -25 21 -30 
22 -36 21 -39 21 -40 21 -40 21 -39 22 -36 21 -39 21 -38 
21 -40 22 -40 21 -45 21 -47 21 -50 21 -57 22 -57 21 -63 
21 -61 21 -57 22 -54 21 -47 21 -42 21 -34 21 -19 22 -4 
21 18 21 34 21 64 22 102 21 136 21 191 21 227 1992 3159 40 MP stroke
gr

24 w
c9
0 sg
%%IncludeResource: font Helvetica
/Helvetica /WindowsLatin1Encoding 120 FMSR

2378 2435 mt 
(I) s
6 w
1 sg
0 1573 850 0 0 -1573 3159 4103 4 MP
PP
-850 0 0 1573 850 0 0 -1573 3159 4103 5 MP stroke
4 w
DO

6 wSO
0 sg
3159 2530 mt 4009 2530 L
3159 4103 mt 4009 4103 L
4009 4103 mt 4009 2530 L
3159 4103 mt 3159 2530 L
3159 4103 mt 4009 4103 L
3159 4103 mt 3159 2530 L
3159 4103 mt 3159 4087 L
3159 2530 mt 3159 2545 L
3126 4248 mt 
(0) s
3584 4103 mt 3584 4087 L
3584 2530 mt 3584 2545 L
3518 4248 mt 
(20) s
4009 4103 mt 4009 4087 L
4009 2530 mt 4009 2545 L
3943 4248 mt 
(40) s
3159 4103 mt 3174 4103 L
4009 4103 mt 3993 4103 L
2921 4147 mt 
(-15) s
3159 3709 mt 3174 3709 L
4009 3709 mt 3993 3709 L
2921 3753 mt 
(-10) s
3159 3316 mt 3174 3316 L
4009 3316 mt 3993 3316 L
2988 3360 mt 
(-5) s
3159 2923 mt 3174 2923 L
4009 2923 mt 3993 2923 L
3058 2967 mt 
(0) s
3159 2530 mt 3174 2530 L
4009 2530 mt 3993 2530 L
3058 2574 mt 
(5) s
3159 2476 mt 
(x 10) s
%%IncludeResource: font Helvetica
/Helvetica /WindowsLatin1Encoding 80 FMSR

3385 2402 mt 
(-5) s
3159 2530 mt 4009 2530 L
3159 4103 mt 4009 4103 L
4009 4103 mt 4009 2530 L
3159 4103 mt 3159 2530 L
gs 3159 2530 851 1574 rc
22 0 21 0 21 0 21 0 22 0 21 0 21 0 21 0 
22 0 21 0 21 0 21 0 22 0 21 0 21 0 21 0 
22 0 21 0 21 0 21 0 22 0 21 0 21 0 21 0 
22 0 21 0 21 0 21 0 22 0 21 0 21 0 21 0 
22 0 21 0 21 0 21 0 22 0 21 0 21 0 3180 2923 40 MP stroke
14.4 w
22 0 21 0 21 0 21 0 22 0 21 0 21 0 21 0 
22 0 21 0 21 0 21 0 22 0 21 0 21 0 21 0 
22 0 21 0 21 0 21 0 22 0 21 0 21 0 21 0 
22 0 21 0 21 0 21 0 22 0 21 0 21 0 21 0 
22 0 21 0 21 0 21 0 22 0 21 0 21 0 3180 2923 40 MP stroke

24 wDA
c8
22 0 21 -1 21 0 21 -1 22 0 21 0 21 -1 21 0 
22 -1 21 0 21 0 21 -1 22 0 21 0 21 -1 21 0 
22 0 21 -1 21 0 21 0 22 0 21 0 21 0 21 0 
22 0 21 0 21 1 21 0 22 1 21 1 21 1 21 1 
22 2 21 2 21 3 21 2 22 3 21 -2 21 3 3180 2923 40 MP stroke
SO
c9
22 -57 21 -59 21 -59 21 -59 22 -56 21 -54 21 -49 21 -45 
22 -40 21 -37 21 -32 21 -30 22 -24 21 -24 21 -19 21 -12 
22 -7 21 -3 21 7 21 15 22 26 21 36 21 45 21 55 
22 67 21 78 21 90 21 98 22 105 21 108 21 109 21 103 
22 95 21 77 21 49 21 18 22 -35 21 -82 21 -51 3180 2923 40 MP stroke
gr

24 w
c9
0 sg
%%IncludeResource: font Helvetica
/Helvetica /WindowsLatin1Encoding 120 FMSR

3540 2435 mt 
(C) s
6 w
1 sg
0 1573 849 0 0 -1573 4348 4103 4 MP
PP
-849 0 0 1573 849 0 0 -1573 4348 4103 5 MP stroke
4 w
DO

6 wSO
0 sg
4348 2530 mt 5197 2530 L
4348 4103 mt 5197 4103 L
5197 4103 mt 5197 2530 L
4348 4103 mt 4348 2530 L
4348 4103 mt 5197 4103 L
4348 4103 mt 4348 2530 L
4348 4103 mt 4348 4087 L
4348 2530 mt 4348 2545 L
4315 4248 mt 
(0) s
4772 4103 mt 4772 4087 L
4772 2530 mt 4772 2545 L
4706 4248 mt 
(20) s
5197 4103 mt 5197 4087 L
5197 2530 mt 5197 2545 L
5131 4248 mt 
(40) s
4348 4103 mt 4363 4103 L
5197 4103 mt 5181 4103 L
4177 4147 mt 
(-3) s
4348 3840 mt 4363 3840 L
5197 3840 mt 5181 3840 L
4177 3884 mt 
(-2) s
4348 3578 mt 4363 3578 L
5197 3578 mt 5181 3578 L
4177 3622 mt 
(-1) s
4348 3316 mt 4363 3316 L
5197 3316 mt 5181 3316 L
4247 3360 mt 
(0) s
4348 3054 mt 4363 3054 L
5197 3054 mt 5181 3054 L
4247 3098 mt 
(1) s
4348 2792 mt 4363 2792 L
5197 2792 mt 5181 2792 L
4247 2836 mt 
(2) s
4348 2530 mt 4363 2530 L
5197 2530 mt 5181 2530 L
4247 2574 mt 
(3) s
4348 2476 mt 
(x 10) s
%%IncludeResource: font Helvetica
/Helvetica /WindowsLatin1Encoding 80 FMSR

4574 2402 mt 
(-4) s
4348 2530 mt 5197 2530 L
4348 4103 mt 5197 4103 L
5197 4103 mt 5197 2530 L
4348 4103 mt 4348 2530 L
gs 4348 2530 850 1574 rc
22 0 21 0 21 0 21 0 22 0 21 0 21 0 21 0 
22 0 21 0 21 0 21 0 21 0 22 0 21 0 21 0 
21 0 22 0 21 0 21 0 21 0 21 0 22 0 21 0 
21 0 21 0 22 0 21 0 21 0 21 0 21 0 22 0 
21 0 21 0 21 0 22 0 21 0 21 0 21 0 4369 3316 40 MP stroke
14.4 w
22 0 21 0 21 0 21 0 22 0 21 0 21 0 21 0 
22 0 21 0 21 0 21 0 21 0 22 0 21 0 21 0 
21 0 22 0 21 0 21 0 21 0 21 0 22 0 21 0 
21 0 21 0 22 0 21 0 21 0 21 0 21 0 22 0 
21 0 21 0 21 0 22 0 21 0 21 0 21 0 4369 3316 40 MP stroke

24 wDA
c8
22 0 21 0 21 0 21 0 22 0 21 0 21 0 21 0 
22 0 21 -1 21 0 21 0 21 0 22 -1 21 0 21 0 
21 0 22 -1 21 0 21 -1 21 0 21 -1 22 -1 21 0 
21 -1 21 -1 22 0 21 -1 21 -1 21 0 21 -1 22 -1 
21 -1 21 -1 21 -1 22 -3 21 -7 21 25 21 -1 4369 3316 40 MP stroke
SO
c9
22 6 21 1 21 -3 21 1 22 -12 21 -13 21 -16 21 -18 
22 -21 21 -15 21 -25 21 -18 21 -54 22 -37 21 -26 21 -53 
21 -53 22 -50 21 -52 21 -59 21 -79 21 -63 22 -55 21 -7 
21 -30 21 -48 22 -57 21 -63 21 -31 21 -20 21 -19 22 20 
21 14 21 48 21 102 22 -6 21 142 21 283 21 -8 4369 3316 40 MP stroke
gr

24 w
c9
0 sg
%%IncludeResource: font Helvetica
/Helvetica /WindowsLatin1Encoding 120 FMSR

4739 2435 mt 
(L) s
4331 4146 mt 
( ) s
5181 2572 mt 
( ) s
6 w
1 sg
0 480 801 0 0 -480 4337 3070 4 MP
PP
-801 0 0 480 801 0 0 -480 4337 3070 5 MP stroke
4 w
DO

6 wSO
0 sg
4337 2590 mt 5138 2590 L
4337 3070 mt 5138 3070 L
5138 3070 mt 5138 2590 L
4337 3070 mt 4337 2590 L
4337 3070 mt 5138 3070 L
4337 3070 mt 4337 2590 L
4337 2590 mt 5138 2590 L
4337 3070 mt 5138 3070 L
5138 3070 mt 5138 2590 L
4337 3070 mt 4337 2590 L
4806 2725 mt 
(nofric) s
gs 4337 2590 802 481 rc
14.4 w
360 0 4409 2682 2 MP stroke
gr

14.4 w
4806 2873 mt 
(RE) s
gs 4337 2590 802 481 rc

24 wDA
c8
360 0 4409 2830 2 MP stroke
SO
gr

24 w
c8
0 sg
4806 3021 mt 
(learn) s
gs 4337 2590 802 481 rc
c9
360 0 4409 2977 2 MP stroke
6 w
gr

6 w
c9

end %%Color Dict

eplot
%%EndObject

epage
end

showpage

%%Trailer
%%EOF
