%!PS-Adobe-3.0 EPSF-3.0
%%Creator: MATLAB, The MathWorks, Inc. Version 8.3.0.532 (R2014a). Operating System: Darwin 13.4.0 Darwin Kernel Version 13.4.0: Sun Aug 17 19:50:11 PDT 2014; root:xnu-2422.115.4~1/RELEASE_X86_64 x86_64.
%%Title: ./irf_epsD.eps
%%CreationDate: 10/05/2014  14:46:56
%%DocumentNeededFonts: Helvetica
%%DocumentProcessColors: Cyan Magenta Yellow Black
%%LanguageLevel: 2
%%Pages: 1
%%BoundingBox:     6   208   608   610
%%EndComments

%%BeginProlog
% MathWorks dictionary
/MathWorks 160 dict begin
% definition operators
/bdef {bind def} bind def
/ldef {load def} bind def
/xdef {exch def} bdef
/xstore {exch store} bdef
% operator abbreviations
/c  /clip ldef
/cc /concat ldef
/cp /closepath ldef
/gr /grestore ldef
/gs /gsave ldef
/mt /moveto ldef
/np /newpath ldef
/cm /currentmatrix ldef
/sm /setmatrix ldef
/rm /rmoveto ldef
/rl /rlineto ldef
/s {show newpath} bdef
/sc {setcmykcolor} bdef
/sr /setrgbcolor ldef
/sg /setgray ldef
/w /setlinewidth ldef
/j /setlinejoin ldef
/cap /setlinecap ldef
/rc {rectclip} bdef
/rf {rectfill} bdef
% page state control
/pgsv () def
/bpage {/pgsv save def} bdef
/epage {pgsv restore} bdef
/bplot /gsave ldef
/eplot {stroke grestore} bdef
% orientation switch
/portraitMode 0 def /landscapeMode 1 def /rotateMode 2 def
% coordinate system mappings
/dpi2point 0 def
% font control
/FontSize 0 def
/FMS {/FontSize xstore findfont [FontSize 0 0 FontSize neg 0 0]
  makefont setfont} bdef
/reencode {exch dup where {pop load} {pop StandardEncoding} ifelse
  exch dup 3 1 roll findfont dup length dict begin
  { 1 index /FID ne {def}{pop pop} ifelse } forall
  /Encoding exch def currentdict end definefont pop} bdef
/isroman {findfont /CharStrings get /Agrave known} bdef
/FMSR {3 1 roll 1 index dup isroman {reencode} {pop pop} ifelse
  exch FMS} bdef
/csm {1 dpi2point div -1 dpi2point div scale neg translate
 dup landscapeMode eq {pop -90 rotate}
  {rotateMode eq {90 rotate} if} ifelse} bdef
% line types: solid, dotted, dashed, dotdash
/dom { dpi2point 1 currentlinewidth 0.08 mul add mul mul } bdef/dam { dpi2point 2 currentlinewidth 0.04 mul add mul mul } bdef/SO { [] 0 setdash 0 setlinecap } bdef/DO { [1 dom 1.2 dom] 0 setdash 0 setlinecap } bdef/DA { [4 dam 1.5 dam] 0 setdash 0 setlinecap } bdef/DD { [1 dom 1.2 dom 4 dam 1.2 dom] 0 setdash 0 setlinecap } bdef/GR { [0 dpi2point mul 4 dpi2point mul] 0 setdash 1 setlinecap } bdef% macros for lines and objects
/L {lineto stroke} bdef
/MP {3 1 roll moveto 1 sub {rlineto} repeat} bdef
/AP {{rlineto} repeat} bdef
/PDlw -1 def
/W {/PDlw currentlinewidth def setlinewidth} def
/PP {closepath eofill} bdef
/DP {closepath stroke} bdef
/MR {4 -2 roll moveto dup  0 exch rlineto exch 0 rlineto
  neg 0 exch rlineto closepath} bdef
/FR {MR stroke} bdef
/PR {MR fill} bdef
/L1i {{currentfile picstr readhexstring pop} image} bdef
/tMatrix matrix def
/MakeOval {newpath tMatrix currentmatrix pop translate scale
0 0 1 0 360 arc tMatrix setmatrix} bdef
/FO {MakeOval stroke} bdef
/PO {MakeOval fill} bdef
/PD {currentlinewidth 2 div 0 360 arc fill
   PDlw -1 eq not {PDlw w /PDlw -1 def} if} def
/FA {newpath tMatrix currentmatrix pop translate scale
  0 0 1 5 -2 roll arc tMatrix setmatrix stroke} bdef
/PA {newpath tMatrix currentmatrix pop	translate 0 0 moveto scale
  0 0 1 5 -2 roll arc closepath tMatrix setmatrix fill} bdef
/FAn {newpath tMatrix currentmatrix pop translate scale
  0 0 1 5 -2 roll arcn tMatrix setmatrix stroke} bdef
/PAn {newpath tMatrix currentmatrix pop translate 0 0 moveto scale
  0 0 1 5 -2 roll arcn closepath tMatrix setmatrix fill} bdef
/vradius 0 def /hradius 0 def /lry 0 def
/lrx 0 def /uly 0 def /ulx 0 def /rad 0 def
/MRR {/vradius xdef /hradius xdef /lry xdef /lrx xdef /uly xdef
  /ulx xdef newpath tMatrix currentmatrix pop ulx hradius add uly
  vradius add translate hradius vradius scale 0 0 1 180 270 arc 
  tMatrix setmatrix lrx hradius sub uly vradius add translate
  hradius vradius scale 0 0 1 270 360 arc tMatrix setmatrix
  lrx hradius sub lry vradius sub translate hradius vradius scale
  0 0 1 0 90 arc tMatrix setmatrix ulx hradius add lry vradius sub
  translate hradius vradius scale 0 0 1 90 180 arc tMatrix setmatrix
  closepath} bdef
/FRR {MRR stroke } bdef
/PRR {MRR fill } bdef
/MlrRR {/lry xdef /lrx xdef /uly xdef /ulx xdef /rad lry uly sub 2 div def
  newpath tMatrix currentmatrix pop ulx rad add uly rad add translate
  rad rad scale 0 0 1 90 270 arc tMatrix setmatrix lrx rad sub lry rad
  sub translate rad rad scale 0 0 1 270 90 arc tMatrix setmatrix
  closepath} bdef
/FlrRR {MlrRR stroke } bdef
/PlrRR {MlrRR fill } bdef
/MtbRR {/lry xdef /lrx xdef /uly xdef /ulx xdef /rad lrx ulx sub 2 div def
  newpath tMatrix currentmatrix pop ulx rad add uly rad add translate
  rad rad scale 0 0 1 180 360 arc tMatrix setmatrix lrx rad sub lry rad
  sub translate rad rad scale 0 0 1 0 180 arc tMatrix setmatrix
  closepath} bdef
/FtbRR {MtbRR stroke } bdef
/PtbRR {MtbRR fill } bdef
/stri 6 array def /dtri 6 array def
/smat 6 array def /dmat 6 array def
/tmat1 6 array def /tmat2 6 array def /dif 3 array def
/asub {/ind2 exch def /ind1 exch def dup dup
  ind1 get exch ind2 get sub exch } bdef
/tri_to_matrix {
  2 0 asub 3 1 asub 4 0 asub 5 1 asub
  dup 0 get exch 1 get 7 -1 roll astore } bdef
/compute_transform {
  dmat dtri tri_to_matrix tmat1 invertmatrix 
  smat stri tri_to_matrix tmat2 concatmatrix } bdef
/ds {stri astore pop} bdef
/dt {dtri astore pop} bdef
/db {2 copy /cols xdef /rows xdef mul dup 3 mul string
  currentfile 
  3 index 0 eq {/ASCIIHexDecode filter}
  {/ASCII85Decode filter 3 index 2 eq {/RunLengthDecode filter} if }
  ifelse exch readstring pop
  dup 0 3 index getinterval /rbmap xdef
  dup 2 index dup getinterval /gbmap xdef
  1 index dup 2 mul exch getinterval /bbmap xdef pop pop}bdef
/it {gs np dtri aload pop moveto lineto lineto cp c
  cols rows 8 compute_transform 
  rbmap gbmap bbmap true 3 colorimage gr}bdef
/il {newpath moveto lineto stroke}bdef
currentdict end def
%%EndProlog

%%BeginSetup
MathWorks begin

0 cap

end
%%EndSetup

%%Page: 1 1
%%BeginPageSetup
%%PageBoundingBox:     6   208   608   610
MathWorks begin
bpage
%%EndPageSetup

%%BeginObject: obj1
bplot

/dpi2point 12 def
portraitMode -0636 7452 csm

  718   125  7216  4821 rc
86 dict begin %Colortable dictionary
/c0 { 0.000000 0.000000 0.000000 sr} bdef
/c1 { 1.000000 1.000000 1.000000 sr} bdef
/c2 { 0.900000 0.000000 0.000000 sr} bdef
/c3 { 0.000000 0.820000 0.000000 sr} bdef
/c4 { 0.000000 0.000000 0.800000 sr} bdef
/c5 { 0.910000 0.820000 0.320000 sr} bdef
/c6 { 1.000000 0.260000 0.820000 sr} bdef
/c7 { 0.000000 0.820000 0.820000 sr} bdef
c0
1 j
1 sg
   0    0 8640 5394 rf
6 w
0 1840 1353 0 0 -1840 1123 2244 4 MP
PP
-1353 0 0 1840 1353 0 0 -1840 1123 2244 5 MP stroke
4 w
DO
6 w
SO
0 sg
1123 2244 mt 2476 2244 L
1123 2244 mt 1123  404 L
1123 2244 mt 1123 2225 L
%%IncludeResource: font Helvetica
/Helvetica /ISOLatin1Encoding 120 FMSR

1090 2389 mt 
(0) s
1799 2244 mt 1799 2225 L
1733 2389 mt 
(20) s
2476 2244 mt 2476 2225 L
2410 2389 mt 
(40) s
1123 2244 mt 1141 2244 L
 818 2288 mt 
(-142) s
1123 1876 mt 1141 1876 L
 718 1920 mt 
(-141.5) s
1123 1508 mt 1141 1508 L
 818 1552 mt 
(-141) s
1123 1140 mt 1141 1140 L
 718 1184 mt 
(-140.5) s
1123  772 mt 1141  772 L
 818  816 mt 
(-140) s
1123  404 mt 1141  404 L
 718  448 mt 
(-139.5) s
gs 1123 404 1354 1841 rc
14.4 w
34 0 34 0 34 0 34 0 34 0 33 0 34 0 34 0 
34 0 34 0 34 0 33 0 34 0 34 0 34 0 34 0 
34 0 33 0 34 0 34 0 34 0 34 0 33 0 34 0 
34 0 34 0 34 0 34 0 33 0 34 0 34 0 34 0 
34 0 34 0 33 0 34 0 34 0 34 0 34 0 1156 1220 40 MP stroke
24 w
DA
/c8 { 0.000000 1.000000 0.000000 sr} bdef
c8
34 0 34 0 34 0 34 0 34 0 33 0 34 0 34 0 
34 0 34 0 34 0 33 0 34 0 34 0 34 0 34 0 
34 0 33 0 34 0 34 0 34 0 34 0 33 0 34 0 
34 0 34 0 34 0 34 0 33 0 34 0 34 0 34 0 
34 0 34 0 33 0 34 0 34 0 34 0 34 0 1156 1220 40 MP stroke
SO
/c9 { 1.000000 0.000000 0.000000 sr} bdef
c9
34 0 34 0 34 0 34 0 34 0 33 0 34 0 34 0 
34 0 34 0 34 0 33 0 34 0 34 0 34 0 34 0 
34 0 33 0 34 0 34 0 34 0 34 0 33 0 34 0 
34 0 34 0 34 0 34 0 33 0 34 0 34 0 34 0 
34 0 34 0 33 0 34 0 34 0 34 0 34 0 1156 1220 40 MP stroke
DD
14.4 w
/c10 { 0.000000 0.000000 1.000000 sr} bdef
c10
34 0 34 0 34 0 34 0 34 0 33 0 34 0 34 0 
34 0 34 0 34 0 33 0 34 0 34 0 34 0 34 0 
34 0 33 0 34 0 34 0 34 0 34 0 33 0 34 0 
34 0 34 0 34 0 34 0 33 0 34 0 34 0 34 0 
34 0 34 0 33 0 34 0 34 0 34 0 34 0 1156 1220 40 MP stroke
gr

14.4 w
c10
DD
0 sg
1759  309 mt 
(V) s
6 w
SO
1 sg
0 1840 1353 0 0 -1840 2904 2244 4 MP
PP
-1353 0 0 1840 1353 0 0 -1840 2904 2244 5 MP stroke
4 w
DO
6 w
SO
0 sg
2904 2244 mt 4257 2244 L
2904 2244 mt 2904  404 L
2904 2244 mt 2904 2225 L
2871 2389 mt 
(0) s
3580 2244 mt 3580 2225 L
3514 2389 mt 
(20) s
4257 2244 mt 4257 2225 L
4191 2389 mt 
(40) s
2904 2244 mt 2922 2244 L
2669 2288 mt 
(360) s
2904 1981 mt 2922 1981 L
2669 2025 mt 
(370) s
2904 1718 mt 2922 1718 L
2669 1762 mt 
(380) s
2904 1455 mt 2922 1455 L
2669 1499 mt 
(390) s
2904 1192 mt 2922 1192 L
2669 1236 mt 
(400) s
2904  929 mt 2922  929 L
2669  973 mt 
(410) s
2904  666 mt 2922  666 L
2669  710 mt 
(420) s
2904  404 mt 2922  404 L
2669  448 mt 
(430) s
gs 2904 404 1354 1841 rc
14.4 w
34 0 34 0 34 0 34 0 34 0 33 0 34 0 34 0 
34 0 34 0 34 0 33 0 34 0 34 0 34 0 34 0 
34 0 33 0 34 0 34 0 34 0 34 0 33 0 34 0 
34 0 34 0 34 0 34 0 33 0 34 0 34 0 34 0 
34 0 34 0 33 0 34 0 34 0 34 0 34 0 2937 491 40 MP stroke
24 w
DA
c8
34 0 34 0 34 0 34 0 34 0 33 0 34 0 34 0 
34 0 34 0 34 0 33 0 34 0 34 0 34 0 34 0 
34 0 33 0 34 0 34 0 34 0 34 0 33 0 34 0 
34 0 34 0 34 0 34 0 33 0 34 0 34 0 34 0 
34 0 34 0 33 0 34 0 34 0 34 0 34 0 2937 2162 40 MP stroke
SO
c9
34 0 34 0 34 0 34 0 34 0 33 0 34 0 34 0 
34 0 34 0 34 0 33 0 34 0 34 0 34 0 34 0 
34 0 33 0 34 0 34 0 34 0 34 0 33 0 34 0 
34 0 34 0 34 0 34 0 33 0 34 0 34 0 34 0 
34 0 34 0 33 0 34 0 34 0 34 0 34 0 2937 2162 40 MP stroke
DD
14.4 w
c10
34 0 34 0 34 0 34 0 34 0 33 0 34 0 34 0 
34 0 34 0 34 0 33 0 34 0 34 0 34 0 34 0 
34 0 33 0 34 0 34 0 34 0 34 0 33 0 34 0 
34 0 34 0 34 0 34 0 33 0 34 0 34 0 34 0 
34 0 34 0 33 0 34 0 34 0 34 0 34 0 2937 2162 40 MP stroke
gr

14.4 w
c10
DD
0 sg
3537  309 mt 
(D) s
6 w
SO
1 sg
0 1840 1354 0 0 -1840 4684 2244 4 MP
PP
-1354 0 0 1840 1354 0 0 -1840 4684 2244 5 MP stroke
4 w
DO
6 w
SO
0 sg
4684 2244 mt 6038 2244 L
4684 2244 mt 4684  404 L
4684 2244 mt 4684 2225 L
4651 2389 mt 
(0) s
5361 2244 mt 5361 2225 L
5295 2389 mt 
(20) s
6038 2244 mt 6038 2225 L
5972 2389 mt 
(40) s
4684 2244 mt 4702 2244 L
4413 2288 mt 
(-1.5) s
4684 1876 mt 4702 1876 L
4513 1920 mt 
(-1) s
4684 1508 mt 4702 1508 L
4413 1552 mt 
(-0.5) s
4684 1140 mt 4702 1140 L
4583 1184 mt 
(0) s
4684  772 mt 4702  772 L
4483  816 mt 
(0.5) s
4684  404 mt 4702  404 L
4583  448 mt 
(1) s
gs 4684 404 1355 1841 rc
14.4 w
34 0 34 0 34 0 34 0 34 0 34 0 33 0 34 0 
34 0 34 0 34 0 34 0 34 0 33 0 34 0 34 0 
34 0 34 0 34 0 33 0 34 0 34 0 34 0 34 0 
34 0 34 0 33 0 34 0 34 0 34 0 34 0 34 0 
34 0 33 0 34 0 34 0 34 0 34 0 34 0 4717 1504 40 MP stroke
24 w
DA
c8
34 0 34 0 34 0 34 0 34 0 34 0 33 0 34 0 
34 0 34 0 34 0 34 0 34 0 33 0 34 0 34 0 
34 0 34 0 34 0 33 0 34 0 34 0 34 0 34 0 
34 0 34 0 33 0 34 0 34 0 34 0 34 0 34 0 
34 0 33 0 34 0 34 0 34 0 34 0 34 0 4717 1504 40 MP stroke
SO
c9
34 0 34 0 34 0 34 0 34 0 34 0 33 0 34 0 
34 0 34 0 34 0 34 0 34 0 33 0 34 0 34 0 
34 0 34 0 34 0 33 0 34 0 34 0 34 0 34 0 
34 0 34 0 33 0 34 0 34 0 34 0 34 0 34 0 
34 0 33 0 34 0 34 0 34 0 34 0 34 0 4717 1504 40 MP stroke
DD
14.4 w
c10
34 0 34 0 34 0 34 0 34 0 34 0 33 0 34 0 
34 0 34 0 34 0 34 0 34 0 33 0 34 0 34 0 
34 0 34 0 34 0 33 0 34 0 34 0 34 0 34 0 
34 0 34 0 33 0 34 0 34 0 34 0 34 0 34 0 
34 0 33 0 34 0 34 0 34 0 34 0 34 0 4717 1504 40 MP stroke
gr

14.4 w
c10
DD
0 sg
5347  309 mt 
(i) s
6 w
SO
1 sg
0 1840 1353 0 0 -1840 6465 2244 4 MP
PP
-1353 0 0 1840 1353 0 0 -1840 6465 2244 5 MP stroke
4 w
DO
6 w
SO
0 sg
6465 2244 mt 7818 2244 L
6465 2244 mt 6465  404 L
6465 2244 mt 6465 2225 L
6432 2389 mt 
(0) s
7141 2244 mt 7141 2225 L
7075 2389 mt 
(20) s
7818 2244 mt 7818 2225 L
7752 2389 mt 
(40) s
6465 2244 mt 6483 2244 L
6294 2288 mt 
(-1) s
6465 1784 mt 6483 1784 L
6194 1828 mt 
(-0.5) s
6465 1324 mt 6483 1324 L
6364 1368 mt 
(0) s
6465  864 mt 6483  864 L
6264  908 mt 
(0.5) s
6465  404 mt 6483  404 L
6364  448 mt 
(1) s
gs 6465 404 1354 1841 rc
14.4 w
34 0 34 0 34 0 34 0 34 0 33 0 34 0 34 0 
34 0 34 0 34 0 33 0 34 0 34 0 34 0 34 0 
34 0 33 0 34 0 34 0 34 0 34 0 33 0 34 0 
34 0 34 0 34 0 34 0 33 0 34 0 34 0 34 0 
34 0 34 0 33 0 34 0 34 0 34 0 34 0 6498 1324 40 MP stroke
24 w
DA
c8
34 0 34 0 34 0 34 0 34 0 33 0 34 0 34 0 
34 0 34 0 34 0 33 0 34 0 34 0 34 0 34 0 
34 0 33 0 34 0 34 0 34 0 34 0 33 0 34 0 
34 0 34 0 34 0 34 0 33 0 34 0 34 0 34 0 
34 0 34 0 33 0 34 0 34 0 34 0 34 0 6498 1324 40 MP stroke
SO
c9
34 0 34 0 34 0 34 0 34 0 33 0 34 0 34 0 
34 0 34 0 34 0 33 0 34 0 34 0 34 0 34 0 
34 0 33 0 34 0 34 0 34 0 34 0 33 0 34 0 
34 0 34 0 34 0 34 0 33 0 34 0 34 0 34 0 
34 0 34 0 33 0 34 0 34 0 34 0 34 0 6498 1324 40 MP stroke
DD
14.4 w
c10
34 0 34 0 34 0 34 0 34 0 33 0 34 0 34 0 
34 0 34 0 34 0 33 0 34 0 34 0 34 0 34 0 
34 0 33 0 34 0 34 0 34 0 34 0 33 0 34 0 
34 0 34 0 34 0 34 0 33 0 34 0 34 0 34 0 
34 0 34 0 33 0 34 0 34 0 34 0 34 0 6498 1324 40 MP stroke
gr

14.4 w
c10
DD
0 sg
7094  309 mt 
(pi) s
6 w
SO
1 sg
0 1840 1353 0 0 -1840 1123 4800 4 MP
PP
-1353 0 0 1840 1353 0 0 -1840 1123 4800 5 MP stroke
4 w
DO
6 w
SO
0 sg
1123 4800 mt 2476 4800 L
1123 4800 mt 1123 2960 L
1123 4800 mt 1123 4781 L
1090 4945 mt 
(0) s
1799 4800 mt 1799 4781 L
1733 4945 mt 
(20) s
2476 4800 mt 2476 4781 L
2410 4945 mt 
(40) s
1123 4800 mt 1141 4800 L
 888 4844 mt 
(150) s
1123 4537 mt 1141 4537 L
 888 4581 mt 
(155) s
1123 4274 mt 1141 4274 L
 888 4318 mt 
(160) s
1123 4011 mt 1141 4011 L
 888 4055 mt 
(165) s
1123 3748 mt 1141 3748 L
 888 3792 mt 
(170) s
1123 3485 mt 1141 3485 L
 888 3529 mt 
(175) s
1123 3222 mt 1141 3222 L
 888 3266 mt 
(180) s
1123 2960 mt 1141 2960 L
 888 3004 mt 
(185) s
gs 1123 2960 1354 1841 rc
14.4 w
34 0 34 0 34 0 34 0 34 0 33 0 34 0 34 0 
34 0 34 0 34 0 33 0 34 0 34 0 34 0 34 0 
34 0 33 0 34 0 34 0 34 0 34 0 33 0 34 0 
34 0 34 0 34 0 34 0 33 0 34 0 34 0 34 0 
34 0 34 0 33 0 34 0 34 0 34 0 34 0 1156 4571 40 MP stroke
24 w
DA
c8
34 0 34 0 34 0 34 0 34 0 33 0 34 0 34 0 
34 0 34 0 34 0 33 0 34 0 34 0 34 0 34 0 
34 0 33 0 34 0 34 0 34 0 34 0 33 0 34 0 
34 0 34 0 34 0 34 0 33 0 34 0 34 0 34 0 
34 0 34 0 33 0 34 0 34 0 34 0 34 0 1156 3080 40 MP stroke
SO
c9
34 0 34 0 34 0 34 0 34 0 33 0 34 0 34 0 
34 0 34 0 34 0 33 0 34 0 34 0 34 0 34 0 
34 0 33 0 34 0 34 0 34 0 34 0 33 0 34 0 
34 0 34 0 34 0 34 0 33 0 34 0 34 0 34 0 
34 0 34 0 33 0 34 0 34 0 34 0 34 0 1156 3080 40 MP stroke
DD
14.4 w
c10
34 0 34 0 34 0 34 0 34 0 33 0 34 0 34 0 
34 0 34 0 34 0 33 0 34 0 34 0 34 0 34 0 
34 0 33 0 34 0 34 0 34 0 34 0 33 0 34 0 
34 0 34 0 34 0 34 0 33 0 34 0 34 0 34 0 
34 0 34 0 33 0 34 0 34 0 34 0 34 0 1156 3080 40 MP stroke
gr

14.4 w
c10
DD
0 sg
1759 2865 mt 
(Y) s
6 w
SO
1 sg
0 1840 1353 0 0 -1840 2904 4800 4 MP
PP
-1353 0 0 1840 1353 0 0 -1840 2904 4800 5 MP stroke
4 w
DO
6 w
SO
0 sg
2904 4800 mt 4257 4800 L
2904 4800 mt 2904 2960 L
2904 4800 mt 2904 4781 L
2871 4945 mt 
(0) s
3580 4800 mt 3580 4781 L
3514 4945 mt 
(20) s
4257 4800 mt 4257 4781 L
4191 4945 mt 
(40) s
2904 4800 mt 2922 4800 L
2669 4844 mt 
(260) s
2904 4432 mt 2922 4432 L
2669 4476 mt 
(280) s
2904 4064 mt 2922 4064 L
2669 4108 mt 
(300) s
2904 3696 mt 2922 3696 L
2669 3740 mt 
(320) s
2904 3328 mt 2922 3328 L
2669 3372 mt 
(340) s
2904 2960 mt 2922 2960 L
2669 3004 mt 
(360) s
gs 2904 2960 1354 1841 rc
14.4 w
34 0 34 0 34 0 34 0 34 0 33 0 34 0 34 0 
34 0 34 0 34 0 33 0 34 0 34 0 34 0 34 0 
34 0 33 0 34 0 34 0 34 0 34 0 33 0 34 0 
34 0 34 0 34 0 34 0 33 0 34 0 34 0 34 0 
34 0 34 0 33 0 34 0 34 0 34 0 34 0 2937 4648 40 MP stroke
24 w
DA
c8
34 0 34 0 34 0 34 0 34 0 33 0 34 0 34 0 
34 0 34 0 34 0 33 0 34 0 34 0 34 0 34 0 
34 0 33 0 34 0 34 0 34 0 34 0 33 0 34 0 
34 0 34 0 34 0 34 0 33 0 34 0 34 0 34 0 
34 0 34 0 33 0 34 0 34 0 34 0 34 0 2937 3066 40 MP stroke
SO
c9
34 0 34 0 34 0 34 0 34 0 33 0 34 0 34 0 
34 0 34 0 34 0 33 0 34 0 34 0 34 0 34 0 
34 0 33 0 34 0 34 0 34 0 34 0 33 0 34 0 
34 0 34 0 34 0 34 0 33 0 34 0 34 0 34 0 
34 0 34 0 33 0 34 0 34 0 34 0 34 0 2937 3066 40 MP stroke
DD
14.4 w
c10
34 0 34 0 34 0 34 0 34 0 33 0 34 0 34 0 
34 0 34 0 34 0 33 0 34 0 34 0 34 0 34 0 
34 0 33 0 34 0 34 0 34 0 34 0 33 0 34 0 
34 0 34 0 34 0 34 0 33 0 34 0 34 0 34 0 
34 0 34 0 33 0 34 0 34 0 34 0 34 0 2937 3066 40 MP stroke
gr

14.4 w
c10
DD
0 sg
3563 2865 mt 
(I) s
6 w
SO
1 sg
0 1840 1354 0 0 -1840 4684 4800 4 MP
PP
-1354 0 0 1840 1354 0 0 -1840 4684 4800 5 MP stroke
4 w
DO
6 w
SO
0 sg
4684 4800 mt 6038 4800 L
4684 4800 mt 4684 2960 L
4684 4800 mt 4684 4781 L
4651 4945 mt 
(0) s
5361 4800 mt 5361 4781 L
5295 4945 mt 
(20) s
6038 4800 mt 6038 4781 L
5972 4945 mt 
(40) s
4684 4800 mt 4702 4800 L
4449 4844 mt 
(190) s
4684 4537 mt 4702 4537 L
4449 4581 mt 
(195) s
4684 4274 mt 4702 4274 L
4449 4318 mt 
(200) s
4684 4011 mt 4702 4011 L
4449 4055 mt 
(205) s
4684 3748 mt 4702 3748 L
4449 3792 mt 
(210) s
4684 3485 mt 4702 3485 L
4449 3529 mt 
(215) s
4684 3222 mt 4702 3222 L
4449 3266 mt 
(220) s
4684 2960 mt 4702 2960 L
4449 3004 mt 
(225) s
gs 4684 2960 1355 1841 rc
14.4 w
34 0 34 0 34 0 34 0 34 0 34 0 33 0 34 0 
34 0 34 0 34 0 34 0 34 0 33 0 34 0 34 0 
34 0 34 0 34 0 33 0 34 0 34 0 34 0 34 0 
34 0 34 0 33 0 34 0 34 0 34 0 34 0 34 0 
34 0 33 0 34 0 34 0 34 0 34 0 34 0 4717 4645 40 MP stroke
24 w
DA
c8
34 0 34 0 34 0 34 0 34 0 34 0 33 0 34 0 
34 0 34 0 34 0 34 0 34 0 33 0 34 0 34 0 
34 0 34 0 34 0 33 0 34 0 34 0 34 0 34 0 
34 0 34 0 33 0 34 0 34 0 34 0 34 0 34 0 
34 0 33 0 34 0 34 0 34 0 34 0 34 0 4717 3099 40 MP stroke
SO
c9
34 0 34 0 34 0 34 0 34 0 34 0 33 0 34 0 
34 0 34 0 34 0 34 0 34 0 33 0 34 0 34 0 
34 0 34 0 34 0 33 0 34 0 34 0 34 0 34 0 
34 0 34 0 33 0 34 0 34 0 34 0 34 0 34 0 
34 0 33 0 34 0 34 0 34 0 34 0 34 0 4717 3099 40 MP stroke
DD
14.4 w
c10
34 0 34 0 34 0 34 0 34 0 34 0 33 0 34 0 
34 0 34 0 34 0 34 0 34 0 33 0 34 0 34 0 
34 0 34 0 34 0 33 0 34 0 34 0 34 0 34 0 
34 0 34 0 33 0 34 0 34 0 34 0 34 0 34 0 
34 0 33 0 34 0 34 0 34 0 34 0 34 0 4717 3099 40 MP stroke
gr

14.4 w
c10
DD
0 sg
5317 2865 mt 
(C) s
6 w
SO
1 sg
0 1840 1353 0 0 -1840 6465 4800 4 MP
PP
-1353 0 0 1840 1353 0 0 -1840 6465 4800 5 MP stroke
4 w
DO
6 w
SO
0 sg
6465 4800 mt 7818 4800 L
6465 4800 mt 6465 2960 L
6465 4800 mt 6465 4781 L
6432 4945 mt 
(0) s
7141 4800 mt 7141 4781 L
7075 4945 mt 
(20) s
7818 4800 mt 7818 4781 L
7752 4945 mt 
(40) s
6465 4800 mt 6483 4800 L
6197 4844 mt 
(34.5) s
6465 4432 mt 6483 4432 L
6297 4476 mt 
(35) s
6465 4064 mt 6483 4064 L
6197 4108 mt 
(35.5) s
6465 3696 mt 6483 3696 L
6297 3740 mt 
(36) s
6465 3328 mt 6483 3328 L
6197 3372 mt 
(36.5) s
6465 2960 mt 6483 2960 L
6297 3004 mt 
(37) s
gs 6465 2960 1354 1841 rc
14.4 w
34 0 34 0 34 0 34 0 34 0 33 0 34 0 34 0 
34 0 34 0 34 0 33 0 34 0 34 0 34 0 34 0 
34 0 33 0 34 0 34 0 34 0 34 0 33 0 34 0 
34 0 34 0 34 0 34 0 33 0 34 0 34 0 34 0 
34 0 34 0 33 0 34 0 34 0 34 0 34 0 6498 3940 40 MP stroke
24 w
DA
c8
34 0 34 0 34 0 34 0 34 0 33 0 34 0 34 0 
34 0 34 0 34 0 33 0 34 0 34 0 34 0 34 0 
34 0 33 0 34 0 34 0 34 0 34 0 33 0 34 0 
34 0 34 0 34 0 34 0 33 0 34 0 34 0 34 0 
34 0 34 0 33 0 34 0 34 0 34 0 34 0 6498 3940 40 MP stroke
SO
c9
34 0 34 0 34 0 34 0 34 0 33 0 34 0 34 0 
34 0 34 0 34 0 33 0 34 0 34 0 34 0 34 0 
34 0 33 0 34 0 34 0 34 0 34 0 33 0 34 0 
34 0 34 0 34 0 34 0 33 0 34 0 34 0 34 0 
34 0 34 0 33 0 34 0 34 0 34 0 34 0 6498 3940 40 MP stroke
DD
14.4 w
c10
34 0 34 0 34 0 34 0 34 0 33 0 34 0 34 0 
34 0 34 0 34 0 33 0 34 0 34 0 34 0 34 0 
34 0 33 0 34 0 34 0 34 0 34 0 33 0 34 0 
34 0 34 0 34 0 34 0 33 0 34 0 34 0 34 0 
34 0 34 0 33 0 34 0 34 0 34 0 34 0 6498 3940 40 MP stroke
gr

14.4 w
c10
DD
0 sg
7108 2865 mt 
(L) s
6448 4843 mt 
( ) s
7802 3002 mt 
( ) s
6 w
SO
1 sg
0 480 1074 0 0 -480 6685 3500 4 MP
PP
-1074 0 0 480 1074 0 0 -480 6685 3500 5 MP stroke
4 w
DO
6 w
SO
0 sg
6685 3500 mt 7759 3500 L
6685 3020 mt 7759 3020 L
6685 3500 mt 6685 3020 L
7759 3500 mt 7759 3020 L
6685 3500 mt 7759 3500 L
6685 3500 mt 6685 3020 L
6685 3500 mt 7759 3500 L
6685 3020 mt 7759 3020 L
6685 3500 mt 6685 3020 L
7759 3500 mt 7759 3020 L
7136 3154 mt 
(frictionless) s
gs 6685 3020 1075 481 rc
14.4 w
347 0 6754 3111 2 MP stroke
gr

14.4 w
7136 3303 mt 
(RE) s
gs 6685 3020 1075 481 rc
24 w
DA
c8
347 0 6754 3260 2 MP stroke
gr

24 w
SO
c8
0 sg
7136 3451 mt 
(learning) s
gs 6685 3020 1075 481 rc
c9
347 0 6754 3408 2 MP stroke
6 w
gr

6 w
c9

end %%Color Dict

eplot
%%EndObject

epage
end

showpage

%%Trailer
%%EOF
