%!PS-Adobe-3.0 EPSF-3.0
%%Creator: MATLAB, The MathWorks, Inc. Version 8.1.0.604 (R2013a). Operating System: Linux 2.6.18-406.el5 #1 SMP Fri May 1 10:37:57 EDT 2015 x86_64.
%%Title: ./irf_epsV.eps
%%CreationDate: 09/24/2015  18:29:15
%%DocumentNeededFonts: Helvetica
%%DocumentProcessColors: Cyan Magenta Yellow Black
%%LanguageLevel: 2
%%Pages: 1
%%BoundingBox:    70   215   548   608
%%EndComments

%%BeginProlog
% MathWorks dictionary
/MathWorks 160 dict begin
% definition operators
/bdef {bind def} bind def
/ldef {load def} bind def
/xdef {exch def} bdef
/xstore {exch store} bdef
% operator abbreviations
/c  /clip ldef
/cc /concat ldef
/cp /closepath ldef
/gr /grestore ldef
/gs /gsave ldef
/mt /moveto ldef
/np /newpath ldef
/cm /currentmatrix ldef
/sm /setmatrix ldef
/rm /rmoveto ldef
/rl /rlineto ldef
/s {show newpath} bdef
/sc {setcmykcolor} bdef
/sr /setrgbcolor ldef
/sg /setgray ldef
/w /setlinewidth ldef
/j /setlinejoin ldef
/cap /setlinecap ldef
/rc {rectclip} bdef
/rf {rectfill} bdef
% page state control
/pgsv () def
/bpage {/pgsv save def} bdef
/epage {pgsv restore} bdef
/bplot /gsave ldef
/eplot {stroke grestore} bdef
% orientation switch
/portraitMode 0 def /landscapeMode 1 def /rotateMode 2 def
% coordinate system mappings
/dpi2point 0 def
% font control
/FontSize 0 def
/FMS {/FontSize xstore findfont [FontSize 0 0 FontSize neg 0 0]
  makefont setfont} bdef
/reencode {exch dup where {pop load} {pop StandardEncoding} ifelse
  exch dup 3 1 roll findfont dup length dict begin
  { 1 index /FID ne {def}{pop pop} ifelse } forall
  /Encoding exch def currentdict end definefont pop} bdef
/isroman {findfont /CharStrings get /Agrave known} bdef
/FMSR {3 1 roll 1 index dup isroman {reencode} {pop pop} ifelse
  exch FMS} bdef
/csm {1 dpi2point div -1 dpi2point div scale neg translate
 dup landscapeMode eq {pop -90 rotate}
  {rotateMode eq {90 rotate} if} ifelse} bdef
% line types: solid, dotted, dashed, dotdash
/dom { dpi2point 1 currentlinewidth 0.08 mul add mul mul } bdef/dam { dpi2point 2 currentlinewidth 0.04 mul add mul mul } bdef/SO { [] 0 setdash 0 setlinecap } bdef/DO { [1 dom 1.2 dom] 0 setdash 0 setlinecap } bdef/DA { [4 dam 1.5 dam] 0 setdash 0 setlinecap } bdef/DD { [1 dom 1.2 dom 4 dam 1.2 dom] 0 setdash 0 setlinecap } bdef/GR { [0 dpi2point mul 4 dpi2point mul] 0 setdash 1 setlinecap } bdef% macros for lines and objects
/L {lineto stroke} bdef
/MP {3 1 roll moveto 1 sub {rlineto} repeat} bdef
/AP {{rlineto} repeat} bdef
/PDlw -1 def
/W {/PDlw currentlinewidth def setlinewidth} def
/PP {closepath eofill} bdef
/DP {closepath stroke} bdef
/MR {4 -2 roll moveto dup  0 exch rlineto exch 0 rlineto
  neg 0 exch rlineto closepath} bdef
/FR {MR stroke} bdef
/PR {MR fill} bdef
/L1i {{currentfile picstr readhexstring pop} image} bdef
/tMatrix matrix def
/MakeOval {newpath tMatrix currentmatrix pop translate scale
0 0 1 0 360 arc tMatrix setmatrix} bdef
/FO {MakeOval stroke} bdef
/PO {MakeOval fill} bdef
/PD {currentlinewidth 2 div 0 360 arc fill
   PDlw -1 eq not {PDlw w /PDlw -1 def} if} def
/FA {newpath tMatrix currentmatrix pop translate scale
  0 0 1 5 -2 roll arc tMatrix setmatrix stroke} bdef
/PA {newpath tMatrix currentmatrix pop	translate 0 0 moveto scale
  0 0 1 5 -2 roll arc closepath tMatrix setmatrix fill} bdef
/FAn {newpath tMatrix currentmatrix pop translate scale
  0 0 1 5 -2 roll arcn tMatrix setmatrix stroke} bdef
/PAn {newpath tMatrix currentmatrix pop translate 0 0 moveto scale
  0 0 1 5 -2 roll arcn closepath tMatrix setmatrix fill} bdef
/vradius 0 def /hradius 0 def /lry 0 def
/lrx 0 def /uly 0 def /ulx 0 def /rad 0 def
/MRR {/vradius xdef /hradius xdef /lry xdef /lrx xdef /uly xdef
  /ulx xdef newpath tMatrix currentmatrix pop ulx hradius add uly
  vradius add translate hradius vradius scale 0 0 1 180 270 arc 
  tMatrix setmatrix lrx hradius sub uly vradius add translate
  hradius vradius scale 0 0 1 270 360 arc tMatrix setmatrix
  lrx hradius sub lry vradius sub translate hradius vradius scale
  0 0 1 0 90 arc tMatrix setmatrix ulx hradius add lry vradius sub
  translate hradius vradius scale 0 0 1 90 180 arc tMatrix setmatrix
  closepath} bdef
/FRR {MRR stroke } bdef
/PRR {MRR fill } bdef
/MlrRR {/lry xdef /lrx xdef /uly xdef /ulx xdef /rad lry uly sub 2 div def
  newpath tMatrix currentmatrix pop ulx rad add uly rad add translate
  rad rad scale 0 0 1 90 270 arc tMatrix setmatrix lrx rad sub lry rad
  sub translate rad rad scale 0 0 1 270 90 arc tMatrix setmatrix
  closepath} bdef
/FlrRR {MlrRR stroke } bdef
/PlrRR {MlrRR fill } bdef
/MtbRR {/lry xdef /lrx xdef /uly xdef /ulx xdef /rad lrx ulx sub 2 div def
  newpath tMatrix currentmatrix pop ulx rad add uly rad add translate
  rad rad scale 0 0 1 180 360 arc tMatrix setmatrix lrx rad sub lry rad
  sub translate rad rad scale 0 0 1 0 180 arc tMatrix setmatrix
  closepath} bdef
/FtbRR {MtbRR stroke } bdef
/PtbRR {MtbRR fill } bdef
/stri 6 array def /dtri 6 array def
/smat 6 array def /dmat 6 array def
/tmat1 6 array def /tmat2 6 array def /dif 3 array def
/asub {/ind2 exch def /ind1 exch def dup dup
  ind1 get exch ind2 get sub exch } bdef
/tri_to_matrix {
  2 0 asub 3 1 asub 4 0 asub 5 1 asub
  dup 0 get exch 1 get 7 -1 roll astore } bdef
/compute_transform {
  dmat dtri tri_to_matrix tmat1 invertmatrix 
  smat stri tri_to_matrix tmat2 concatmatrix } bdef
/ds {stri astore pop} bdef
/dt {dtri astore pop} bdef
/db {2 copy /cols xdef /rows xdef mul dup 3 mul string
  currentfile 
  3 index 0 eq {/ASCIIHexDecode filter}
  {/ASCII85Decode filter 3 index 2 eq {/RunLengthDecode filter} if }
  ifelse exch readstring pop
  dup 0 3 index getinterval /rbmap xdef
  dup 2 index dup getinterval /gbmap xdef
  1 index dup 2 mul exch getinterval /bbmap xdef pop pop}bdef
/it {gs np dtri aload pop moveto lineto lineto cp c
  cols rows 8 compute_transform 
  rbmap gbmap bbmap true 3 colorimage gr}bdef
/il {newpath moveto lineto stroke}bdef
currentdict end def
%%EndProlog

%%BeginSetup
MathWorks begin

0 cap

end
%%EndSetup

%%Page: 1 1
%%BeginPageSetup
%%PageBoundingBox:    70   215   548   608
MathWorks begin
bpage
%%EndPageSetup

%%BeginObject: obj1
bplot

/dpi2point 12 def
portraitMode 0216 7344 csm

  628    46  5737  4715 rc
85 dict begin %Colortable dictionary
/c0 { 0.000000 0.000000 0.000000 sr} bdef
/c1 { 1.000000 1.000000 1.000000 sr} bdef
/c2 { 0.900000 0.000000 0.000000 sr} bdef
/c3 { 0.000000 0.820000 0.000000 sr} bdef
/c4 { 0.000000 0.000000 0.800000 sr} bdef
/c5 { 0.910000 0.820000 0.320000 sr} bdef
/c6 { 1.000000 0.260000 0.820000 sr} bdef
/c7 { 0.000000 0.820000 0.820000 sr} bdef
c0
1 j
1 sg
   0    0 6918 5186 rf
6 w
0 1769 1040 0 0 -1769 899 2158 4 MP
PP
-1040 0 0 1769 1040 0 0 -1769 899 2158 5 MP stroke
4 w
DO
6 w
SO
0 sg
 899 2158 mt 1939 2158 L
 899  389 mt 1939  389 L
 899 2158 mt  899  389 L
1939 2158 mt 1939  389 L
 899 2158 mt 1939 2158 L
 899 2158 mt  899  389 L
 899 2158 mt  899 2140 L
 899  389 mt  899  406 L
%%IncludeResource: font Helvetica
/Helvetica /ISOLatin1Encoding 120 FMSR

 866 2303 mt 
(0) s
1419 2158 mt 1419 2140 L
1419  389 mt 1419  406 L
1353 2303 mt 
(50) s
1939 2158 mt 1939 2140 L
1939  389 mt 1939  406 L
1839 2303 mt 
(100) s
 899 2158 mt  916 2158 L
1939 2158 mt 1921 2158 L
 728 2202 mt 
(-1) s
 899 1715 mt  916 1715 L
1939 1715 mt 1921 1715 L
 628 1759 mt 
(-0.5) s
 899 1273 mt  916 1273 L
1939 1273 mt 1921 1273 L
 798 1317 mt 
(0) s
 899  831 mt  916  831 L
1939  831 mt 1921  831 L
 698  875 mt 
(0.5) s
 899  389 mt  916  389 L
1939  389 mt 1921  389 L
 798  433 mt 
(1) s
 899 2158 mt 1939 2158 L
 899  389 mt 1939  389 L
 899 2158 mt  899  389 L
1939 2158 mt 1939  389 L
gs 899 389 1041 1770 rc
11 0 10 0 11 0 10 0 10 0 11 0 10 0 11 0 
10 0 10 0 11 0 10 0 11 0 10 0 10 0 11 0 
10 0 11 0 10 0 10 0 11 0 10 0 11 0 10 0 
10 0 11 0 10 0 11 0 10 0 10 0 11 0 10 0 
11 0 10 0 10 0 11 0 10 0 11 0 10 0 10 0 
11 0 10 0 11 0 10 0 10 0 11 0 10 0 11 0 
10 0 10 0 11 0 10 0 11 0 10 0 10 0 11 0 
10 0 11 0 10 0 10 0 11 0 10 0 11 0 10 0 
10 0 11 0 10 0 11 0 10 0 10 0 11 0 10 0 
11 0 10 0 10 0 11 0 10 0 11 0 10 0 10 0 
11 0 10 0 11 0 10 0 10 0 11 0 10 0 11 0 
10 0 10 0 11 0 10 0 11 0 10 0 10 0 11 0 
10 0 11 0 10 0 909 1273 100 MP stroke
12 w
DO
11 0 10 0 11 0 10 0 10 0 11 0 10 0 11 0 
10 0 10 0 11 0 10 0 11 0 10 0 10 0 11 0 
10 0 11 0 10 0 10 0 11 0 10 0 11 0 10 0 
10 0 11 0 10 0 11 0 10 0 10 0 11 0 10 0 
11 0 10 0 10 0 11 0 10 0 11 0 10 0 10 0 
11 0 10 0 11 0 10 0 10 0 11 0 10 0 11 0 
10 0 10 0 11 0 10 0 11 0 10 0 10 0 11 0 
10 0 11 0 10 0 10 0 11 0 10 0 11 0 10 0 
10 0 11 0 10 0 11 0 10 0 10 0 11 0 10 0 
11 0 10 0 10 0 11 0 10 0 11 0 10 0 10 0 
11 0 10 0 11 0 10 0 10 0 11 0 10 0 11 0 
10 0 10 0 11 0 10 0 11 0 10 0 10 0 11 0 
10 0 11 0 10 0 909 1273 100 MP stroke
24 w
DA
/c8 { 0.000000 0.000000 1.000000 sr} bdef
c8
11 0 10 0 11 0 10 0 10 0 11 0 10 0 11 0 
10 0 10 0 11 0 10 0 11 0 10 0 10 0 11 0 
10 0 11 0 10 0 10 0 11 0 10 0 11 0 10 0 
10 0 11 0 10 0 11 0 10 0 10 0 11 0 10 0 
11 0 10 0 10 0 11 0 10 0 11 0 10 0 10 0 
11 0 10 0 11 0 10 0 10 0 11 0 10 0 11 0 
10 0 10 0 11 0 10 0 11 0 10 0 10 0 11 0 
10 0 11 0 10 0 10 0 11 0 10 0 11 0 10 0 
10 0 11 0 10 0 11 0 10 0 10 0 11 0 10 0 
11 0 10 0 10 0 11 0 10 0 11 0 10 0 10 0 
11 0 10 0 11 0 10 0 10 0 11 0 10 0 11 0 
10 0 10 0 11 0 10 0 11 0 10 0 10 0 11 0 
10 0 11 0 10 0 909 1273 100 MP stroke
SO
/c9 { 1.000000 0.000000 0.000000 sr} bdef
c9
11 0 10 0 11 0 10 0 10 0 11 0 10 0 11 0 
10 0 10 0 11 0 10 0 11 0 10 0 10 0 11 0 
10 0 11 0 10 0 10 0 11 0 10 0 11 0 10 0 
10 0 11 0 10 0 11 0 10 0 10 0 11 0 10 0 
11 0 10 0 10 0 11 0 10 0 11 0 10 0 10 0 
11 0 10 0 11 0 10 0 10 0 11 0 10 0 11 0 
10 0 10 0 11 0 10 0 11 0 10 0 10 0 11 0 
10 0 11 0 10 0 10 0 11 0 10 0 11 0 10 0 
10 0 11 0 10 0 11 0 10 0 10 0 11 0 10 0 
11 0 10 0 10 0 11 0 10 0 11 0 10 0 10 0 
11 0 10 0 11 0 10 0 10 0 11 0 10 0 11 0 
10 0 10 0 11 0 10 0 11 0 10 0 10 0 11 0 
10 0 11 0 10 0 909 1273 100 MP stroke
gr

24 w
c9
0 sg
1092  294 mt 
(Stock prices) s
6 w
1 sg
0 1769 1039 0 0 -1769 2325 2158 4 MP
PP
-1039 0 0 1769 1039 0 0 -1769 2325 2158 5 MP stroke
4 w
DO
6 w
SO
0 sg
2325 2158 mt 3364 2158 L
2325  389 mt 3364  389 L
2325 2158 mt 2325  389 L
3364 2158 mt 3364  389 L
2325 2158 mt 3364 2158 L
2325 2158 mt 2325  389 L
2325 2158 mt 2325 2140 L
2325  389 mt 2325  406 L
2292 2303 mt 
(0) s
2844 2158 mt 2844 2140 L
2844  389 mt 2844  406 L
2778 2303 mt 
(50) s
3364 2158 mt 3364 2140 L
3364  389 mt 3364  406 L
3264 2303 mt 
(100) s
2325 2158 mt 2342 2158 L
3364 2158 mt 3346 2158 L
2154 2202 mt 
(-1) s
2325 1715 mt 2342 1715 L
3364 1715 mt 3346 1715 L
2054 1759 mt 
(-0.5) s
2325 1273 mt 2342 1273 L
3364 1273 mt 3346 1273 L
2224 1317 mt 
(0) s
2325  831 mt 2342  831 L
3364  831 mt 3346  831 L
2124  875 mt 
(0.5) s
2325  389 mt 2342  389 L
3364  389 mt 3346  389 L
2224  433 mt 
(1) s
2325 2158 mt 3364 2158 L
2325  389 mt 3364  389 L
2325 2158 mt 2325  389 L
3364 2158 mt 3364  389 L
gs 2325 389 1040 1770 rc
11 0 10 0 11 0 10 0 10 0 11 0 10 0 11 0 
10 0 10 0 11 0 10 0 11 0 10 0 10 0 11 0 
10 0 11 0 10 0 10 0 11 0 10 0 10 0 11 0 
10 0 11 0 10 0 10 0 11 0 10 0 11 0 10 0 
10 0 11 0 10 0 11 0 10 0 10 0 11 0 10 0 
10 0 11 0 10 0 11 0 10 0 10 0 11 0 10 0 
11 0 10 0 10 0 11 0 10 0 11 0 10 0 10 0 
11 0 10 0 11 0 10 0 10 0 11 0 10 0 10 0 
11 0 10 0 11 0 10 0 10 0 11 0 10 0 11 0 
10 0 10 0 11 0 10 0 11 0 10 0 10 0 11 0 
10 0 10 0 11 0 10 0 11 0 10 0 10 0 11 0 
10 0 11 0 10 0 10 0 11 0 10 0 11 0 10 0 
10 0 11 0 10 0 2335 1273 100 MP stroke
12 w
DO
11 0 10 0 11 0 10 0 10 0 11 0 10 0 11 0 
10 0 10 0 11 0 10 0 11 0 10 0 10 0 11 0 
10 0 11 0 10 0 10 0 11 0 10 0 10 0 11 0 
10 0 11 0 10 0 10 0 11 0 10 0 11 0 10 0 
10 0 11 0 10 0 11 0 10 0 10 0 11 0 10 0 
10 0 11 0 10 0 11 0 10 0 10 0 11 0 10 0 
11 0 10 0 10 0 11 0 10 0 11 0 10 0 10 0 
11 0 10 0 11 0 10 0 10 0 11 0 10 0 10 0 
11 0 10 0 11 0 10 0 10 0 11 0 10 0 11 0 
10 0 10 0 11 0 10 0 11 0 10 0 10 0 11 0 
10 0 10 0 11 0 10 0 11 0 10 0 10 0 11 0 
10 0 11 0 10 0 10 0 11 0 10 0 11 0 10 0 
10 0 11 0 10 0 2335 1273 100 MP stroke
24 w
DA
c8
11 0 10 0 11 0 10 0 10 0 11 0 10 0 11 0 
10 0 10 0 11 0 10 0 11 0 10 0 10 0 11 0 
10 0 11 0 10 0 10 0 11 0 10 0 10 0 11 0 
10 0 11 0 10 0 10 0 11 0 10 0 11 0 10 0 
10 0 11 0 10 0 11 0 10 0 10 0 11 0 10 0 
10 0 11 0 10 0 11 0 10 0 10 0 11 0 10 0 
11 0 10 0 10 0 11 0 10 0 11 0 10 0 10 0 
11 0 10 0 11 0 10 0 10 0 11 0 10 0 10 0 
11 0 10 0 11 0 10 0 10 0 11 0 10 0 11 0 
10 0 10 0 11 0 10 0 11 0 10 0 10 0 11 0 
10 0 10 0 11 0 10 0 11 0 10 0 10 0 11 0 
10 0 11 0 10 0 10 0 11 0 10 0 11 0 10 0 
10 0 11 0 10 0 2335 1273 100 MP stroke
SO
c9
11 0 10 0 11 0 10 0 10 0 11 0 10 0 11 0 
10 0 10 0 11 0 10 0 11 0 10 0 10 0 11 0 
10 0 11 0 10 0 10 0 11 0 10 0 10 0 11 0 
10 0 11 0 10 0 10 0 11 0 10 0 11 0 10 0 
10 0 11 0 10 0 11 0 10 0 10 0 11 0 10 0 
10 0 11 0 10 0 11 0 10 0 10 0 11 0 10 0 
11 0 10 0 10 0 11 0 10 0 11 0 10 0 10 0 
11 0 10 0 11 0 10 0 10 0 11 0 10 0 10 0 
11 0 10 0 11 0 10 0 10 0 11 0 10 0 11 0 
10 0 10 0 11 0 10 0 11 0 10 0 10 0 11 0 
10 0 10 0 11 0 10 0 11 0 10 0 10 0 11 0 
10 0 11 0 10 0 10 0 11 0 10 0 11 0 10 0 
10 0 11 0 10 0 2335 1273 100 MP stroke
gr

24 w
c9
0 sg
2460  294 mt 
(Exp. dividends) s
6 w
1 sg
0 1769 1039 0 0 -1769 3751 2158 4 MP
PP
-1039 0 0 1769 1039 0 0 -1769 3751 2158 5 MP stroke
4 w
DO
6 w
SO
0 sg
3751 2158 mt 4790 2158 L
3751  389 mt 4790  389 L
3751 2158 mt 3751  389 L
4790 2158 mt 4790  389 L
3751 2158 mt 4790 2158 L
3751 2158 mt 3751  389 L
3751 2158 mt 3751 2140 L
3751  389 mt 3751  406 L
3718 2303 mt 
(0) s
4270 2158 mt 4270 2140 L
4270  389 mt 4270  406 L
4204 2303 mt 
(50) s
4790 2158 mt 4790 2140 L
4790  389 mt 4790  406 L
4690 2303 mt 
(100) s
3751 2158 mt 3768 2158 L
4790 2158 mt 4772 2158 L
3580 2202 mt 
(-1) s
3751 1715 mt 3768 1715 L
4790 1715 mt 4772 1715 L
3480 1759 mt 
(-0.5) s
3751 1273 mt 3768 1273 L
4790 1273 mt 4772 1273 L
3650 1317 mt 
(0) s
3751  831 mt 3768  831 L
4790  831 mt 4772  831 L
3550  875 mt 
(0.5) s
3751  389 mt 3768  389 L
4790  389 mt 4772  389 L
3650  433 mt 
(1) s
3751 2158 mt 4790 2158 L
3751  389 mt 4790  389 L
3751 2158 mt 3751  389 L
4790 2158 mt 4790  389 L
gs 3751 389 1040 1770 rc
11 0 10 0 11 0 10 0 10 0 11 0 10 0 11 0 
10 0 10 0 11 0 10 0 11 0 10 0 10 0 11 0 
10 0 11 0 10 0 10 0 11 0 10 0 10 0 11 0 
10 0 11 0 10 0 10 0 11 0 10 0 11 0 10 0 
10 0 11 0 10 0 11 0 10 0 10 0 11 0 10 0 
10 0 11 0 10 0 11 0 10 0 10 0 11 0 10 0 
11 0 10 0 10 0 11 0 10 0 11 0 10 0 10 0 
11 0 10 0 11 0 10 0 10 0 11 0 10 0 10 0 
11 0 10 0 11 0 10 0 10 0 11 0 10 0 11 0 
10 0 10 0 11 0 10 0 11 0 10 0 10 0 11 0 
10 0 10 0 11 0 10 0 11 0 10 0 10 0 11 0 
10 0 11 0 10 0 10 0 11 0 10 0 11 0 10 0 
10 0 11 0 10 0 3761 1273 100 MP stroke
12 w
DO
11 0 10 0 11 0 10 0 10 0 11 0 10 0 11 0 
10 0 10 0 11 0 10 0 11 0 10 0 10 0 11 0 
10 0 11 0 10 0 10 0 11 0 10 0 10 0 11 0 
10 0 11 0 10 0 10 0 11 0 10 0 11 0 10 0 
10 0 11 0 10 0 11 0 10 0 10 0 11 0 10 0 
10 0 11 0 10 0 11 0 10 0 10 0 11 0 10 0 
11 0 10 0 10 0 11 0 10 0 11 0 10 0 10 0 
11 0 10 0 11 0 10 0 10 0 11 0 10 0 10 0 
11 0 10 0 11 0 10 0 10 0 11 0 10 0 11 0 
10 0 10 0 11 0 10 0 11 0 10 0 10 0 11 0 
10 0 10 0 11 0 10 0 11 0 10 0 10 0 11 0 
10 0 11 0 10 0 10 0 11 0 10 0 11 0 10 0 
10 0 11 0 10 0 3761 1273 100 MP stroke
24 w
DA
c8
11 0 10 0 11 0 10 0 10 0 11 0 10 0 11 0 
10 0 10 0 11 0 10 0 11 0 10 0 10 0 11 0 
10 0 11 0 10 0 10 0 11 0 10 0 10 0 11 0 
10 0 11 0 10 0 10 0 11 0 10 0 11 0 10 0 
10 0 11 0 10 0 11 0 10 0 10 0 11 0 10 0 
10 0 11 0 10 0 11 0 10 0 10 0 11 0 10 0 
11 0 10 0 10 0 11 0 10 0 11 0 10 0 10 0 
11 0 10 0 11 0 10 0 10 0 11 0 10 0 10 0 
11 0 10 0 11 0 10 0 10 0 11 0 10 0 11 0 
10 0 10 0 11 0 10 0 11 0 10 0 10 0 11 0 
10 0 10 0 11 0 10 0 11 0 10 0 10 0 11 0 
10 0 11 0 10 0 10 0 11 0 10 0 11 0 10 0 
10 0 11 0 10 0 3761 1273 100 MP stroke
SO
c9
11 0 10 0 11 0 10 0 10 0 11 0 10 0 11 0 
10 0 10 0 11 0 10 0 11 0 10 0 10 0 11 0 
10 0 11 0 10 0 10 0 11 0 10 0 10 0 11 0 
10 0 11 0 10 0 10 0 11 0 10 0 11 0 10 0 
10 0 11 0 10 0 11 0 10 0 10 0 11 0 10 0 
10 0 11 0 10 0 11 0 10 0 10 0 11 0 10 0 
11 0 10 0 10 0 11 0 10 0 11 0 10 0 10 0 
11 0 10 0 11 0 10 0 10 0 11 0 10 0 10 0 
11 0 10 0 11 0 10 0 10 0 11 0 10 0 11 0 
10 0 10 0 11 0 10 0 11 0 10 0 10 0 11 0 
10 0 10 0 11 0 10 0 11 0 10 0 10 0 11 0 
10 0 11 0 10 0 10 0 11 0 10 0 11 0 10 0 
10 0 11 0 10 0 3761 1273 100 MP stroke
gr

24 w
c9
0 sg
4027  294 mt 
(Real rate) s
6 w
1 sg
0 1769 1040 0 0 -1769 5176 2158 4 MP
PP
-1040 0 0 1769 1040 0 0 -1769 5176 2158 5 MP stroke
4 w
DO
6 w
SO
0 sg
5176 2158 mt 6216 2158 L
5176  389 mt 6216  389 L
5176 2158 mt 5176  389 L
6216 2158 mt 6216  389 L
5176 2158 mt 6216 2158 L
5176 2158 mt 5176  389 L
5176 2158 mt 5176 2140 L
5176  389 mt 5176  406 L
5143 2303 mt 
(0) s
5696 2158 mt 5696 2140 L
5696  389 mt 5696  406 L
5630 2303 mt 
(50) s
6216 2158 mt 6216 2140 L
6216  389 mt 6216  406 L
6116 2303 mt 
(100) s
5176 2158 mt 5193 2158 L
6216 2158 mt 6198 2158 L
5005 2202 mt 
(-1) s
5176 1715 mt 5193 1715 L
6216 1715 mt 6198 1715 L
4905 1759 mt 
(-0.5) s
5176 1273 mt 5193 1273 L
6216 1273 mt 6198 1273 L
5075 1317 mt 
(0) s
5176  831 mt 5193  831 L
6216  831 mt 6198  831 L
4975  875 mt 
(0.5) s
5176  389 mt 5193  389 L
6216  389 mt 6198  389 L
5075  433 mt 
(1) s
5176 2158 mt 6216 2158 L
5176  389 mt 6216  389 L
5176 2158 mt 5176  389 L
6216 2158 mt 6216  389 L
gs 5176 389 1041 1770 rc
11 0 10 0 11 0 10 0 10 0 11 0 10 0 11 0 
10 0 10 0 11 0 10 0 11 0 10 0 10 0 11 0 
10 0 11 0 10 0 10 0 11 0 10 0 11 0 10 0 
10 0 11 0 10 0 11 0 10 0 10 0 11 0 10 0 
11 0 10 0 10 0 11 0 10 0 11 0 10 0 10 0 
11 0 10 0 11 0 10 0 10 0 11 0 10 0 11 0 
10 0 10 0 11 0 10 0 11 0 10 0 10 0 11 0 
10 0 11 0 10 0 10 0 11 0 10 0 11 0 10 0 
10 0 11 0 10 0 11 0 10 0 10 0 11 0 10 0 
11 0 10 0 10 0 11 0 10 0 11 0 10 0 10 0 
11 0 10 0 11 0 10 0 10 0 11 0 10 0 11 0 
10 0 10 0 11 0 10 0 11 0 10 0 10 0 11 0 
10 0 11 0 10 0 5186 1273 100 MP stroke
12 w
DO
11 0 10 0 11 0 10 0 10 0 11 0 10 0 11 0 
10 0 10 0 11 0 10 0 11 0 10 0 10 0 11 0 
10 0 11 0 10 0 10 0 11 0 10 0 11 0 10 0 
10 0 11 0 10 0 11 0 10 0 10 0 11 0 10 0 
11 0 10 0 10 0 11 0 10 0 11 0 10 0 10 0 
11 0 10 0 11 0 10 0 10 0 11 0 10 0 11 0 
10 0 10 0 11 0 10 0 11 0 10 0 10 0 11 0 
10 0 11 0 10 0 10 0 11 0 10 0 11 0 10 0 
10 0 11 0 10 0 11 0 10 0 10 0 11 0 10 0 
11 0 10 0 10 0 11 0 10 0 11 0 10 0 10 0 
11 0 10 0 11 0 10 0 10 0 11 0 10 0 11 0 
10 0 10 0 11 0 10 0 11 0 10 0 10 0 11 0 
10 0 11 0 10 0 5186 1273 100 MP stroke
24 w
DA
c8
11 0 10 0 11 0 10 0 10 0 11 0 10 0 11 0 
10 0 10 0 11 0 10 0 11 0 10 0 10 0 11 0 
10 0 11 0 10 0 10 0 11 0 10 0 11 0 10 0 
10 0 11 0 10 0 11 0 10 0 10 0 11 0 10 0 
11 0 10 0 10 0 11 0 10 0 11 0 10 0 10 0 
11 0 10 0 11 0 10 0 10 0 11 0 10 0 11 0 
10 0 10 0 11 0 10 0 11 0 10 0 10 0 11 0 
10 0 11 0 10 0 10 0 11 0 10 0 11 0 10 0 
10 0 11 0 10 0 11 0 10 0 10 0 11 0 10 0 
11 0 10 0 10 0 11 0 10 0 11 0 10 0 10 0 
11 0 10 0 11 0 10 0 10 0 11 0 10 0 11 0 
10 0 10 0 11 0 10 0 11 0 10 0 10 0 11 0 
10 0 11 0 10 0 5186 1273 100 MP stroke
SO
c9
11 0 10 0 11 0 10 0 10 0 11 0 10 0 11 0 
10 0 10 0 11 0 10 0 11 0 10 0 10 0 11 0 
10 0 11 0 10 0 10 0 11 0 10 0 11 0 10 0 
10 0 11 0 10 0 11 0 10 0 10 0 11 0 10 0 
11 0 10 0 10 0 11 0 10 0 11 0 10 0 10 0 
11 0 10 0 11 0 10 0 10 0 11 0 10 0 11 0 
10 0 10 0 11 0 10 0 11 0 10 0 10 0 11 0 
10 0 11 0 10 0 10 0 11 0 10 0 11 0 10 0 
10 0 11 0 10 0 11 0 10 0 10 0 11 0 10 0 
11 0 10 0 10 0 11 0 10 0 11 0 10 0 10 0 
11 0 10 0 11 0 10 0 10 0 11 0 10 0 11 0 
10 0 10 0 11 0 10 0 11 0 10 0 10 0 11 0 
10 0 11 0 10 0 5186 1273 100 MP stroke
gr

24 w
c9
0 sg
%%IncludeResource: font Symbol
/Symbol /ISOLatin1Encoding 120 FMSR

5642  240 mt 
(e) s
%%IncludeResource: font Helvetica
/Helvetica /ISOLatin1Encoding 96 FMSR

5694  300 mt 
(1) s
6 w
1 sg
0 1769 1040 0 0 -1769 899 4615 4 MP
PP
-1040 0 0 1769 1040 0 0 -1769 899 4615 5 MP stroke
4 w
DO
6 w
SO
0 sg
 899 4615 mt 1939 4615 L
 899 2846 mt 1939 2846 L
 899 4615 mt  899 2846 L
1939 4615 mt 1939 2846 L
 899 4615 mt 1939 4615 L
 899 4615 mt  899 2846 L
 899 4615 mt  899 4597 L
 899 2846 mt  899 2863 L
%%IncludeResource: font Helvetica
/Helvetica /ISOLatin1Encoding 120 FMSR

 866 4760 mt 
(0) s
1419 4615 mt 1419 4597 L
1419 2846 mt 1419 2863 L
1353 4760 mt 
(50) s
1939 4615 mt 1939 4597 L
1939 2846 mt 1939 2863 L
1839 4760 mt 
(100) s
 899 4615 mt  916 4615 L
1939 4615 mt 1921 4615 L
 728 4659 mt 
(-1) s
 899 4172 mt  916 4172 L
1939 4172 mt 1921 4172 L
 628 4216 mt 
(-0.5) s
 899 3730 mt  916 3730 L
1939 3730 mt 1921 3730 L
 798 3774 mt 
(0) s
 899 3288 mt  916 3288 L
1939 3288 mt 1921 3288 L
 698 3332 mt 
(0.5) s
 899 2846 mt  916 2846 L
1939 2846 mt 1921 2846 L
 798 2890 mt 
(1) s
 899 4615 mt 1939 4615 L
 899 2846 mt 1939 2846 L
 899 4615 mt  899 2846 L
1939 4615 mt 1939 2846 L
gs 899 2846 1041 1770 rc
11 0 10 0 11 0 10 0 10 0 11 0 10 0 11 0 
10 0 10 0 11 0 10 0 11 0 10 0 10 0 11 0 
10 0 11 0 10 0 10 0 11 0 10 0 11 0 10 0 
10 0 11 0 10 0 11 0 10 0 10 0 11 0 10 0 
11 0 10 0 10 0 11 0 10 0 11 0 10 0 10 0 
11 0 10 0 11 0 10 0 10 0 11 0 10 0 11 0 
10 0 10 0 11 0 10 0 11 0 10 0 10 0 11 0 
10 0 11 0 10 0 10 0 11 0 10 0 11 0 10 0 
10 0 11 0 10 0 11 0 10 0 10 0 11 0 10 0 
11 0 10 0 10 0 11 0 10 0 11 0 10 0 10 0 
11 0 10 0 11 0 10 0 10 0 11 0 10 0 11 0 
10 0 10 0 11 0 10 0 11 0 10 0 10 0 11 0 
10 0 11 0 10 0 909 3730 100 MP stroke
12 w
DO
11 0 10 0 11 0 10 0 10 0 11 0 10 0 11 0 
10 0 10 0 11 0 10 0 11 0 10 0 10 0 11 0 
10 0 11 0 10 0 10 0 11 0 10 0 11 0 10 0 
10 0 11 0 10 0 11 0 10 0 10 0 11 0 10 0 
11 0 10 0 10 0 11 0 10 0 11 0 10 0 10 0 
11 0 10 0 11 0 10 0 10 0 11 0 10 0 11 0 
10 0 10 0 11 0 10 0 11 0 10 0 10 0 11 0 
10 0 11 0 10 0 10 0 11 0 10 0 11 0 10 0 
10 0 11 0 10 0 11 0 10 0 10 0 11 0 10 0 
11 0 10 0 10 0 11 0 10 0 11 0 10 0 10 0 
11 0 10 0 11 0 10 0 10 0 11 0 10 0 11 0 
10 0 10 0 11 0 10 0 11 0 10 0 10 0 11 0 
10 0 11 0 10 0 909 3730 100 MP stroke
24 w
DA
c8
11 0 10 0 11 0 10 0 10 0 11 0 10 0 11 0 
10 0 10 0 11 0 10 0 11 0 10 0 10 0 11 0 
10 0 11 0 10 0 10 0 11 0 10 0 11 0 10 0 
10 0 11 0 10 0 11 0 10 0 10 0 11 0 10 0 
11 0 10 0 10 0 11 0 10 0 11 0 10 0 10 0 
11 0 10 0 11 0 10 0 10 0 11 0 10 0 11 0 
10 0 10 0 11 0 10 0 11 0 10 0 10 0 11 0 
10 0 11 0 10 0 10 0 11 0 10 0 11 0 10 0 
10 0 11 0 10 0 11 0 10 0 10 0 11 0 10 0 
11 0 10 0 10 0 11 0 10 0 11 0 10 0 10 0 
11 0 10 0 11 0 10 0 10 0 11 0 10 0 11 0 
10 0 10 0 11 0 10 0 11 0 10 0 10 0 11 0 
10 0 11 0 10 0 909 3730 100 MP stroke
SO
c9
11 0 10 0 11 0 10 0 10 0 11 0 10 0 11 0 
10 0 10 0 11 0 10 0 11 0 10 0 10 0 11 0 
10 0 11 0 10 0 10 0 11 0 10 0 11 0 10 0 
10 0 11 0 10 0 11 0 10 0 10 0 11 0 10 0 
11 0 10 0 10 0 11 0 10 0 11 0 10 0 10 0 
11 0 10 0 11 0 10 0 10 0 11 0 10 0 11 0 
10 0 10 0 11 0 10 0 11 0 10 0 10 0 11 0 
10 0 11 0 10 0 10 0 11 0 10 0 11 0 10 0 
10 0 11 0 10 0 11 0 10 0 10 0 11 0 10 0 
11 0 10 0 10 0 11 0 10 0 11 0 10 0 10 0 
11 0 10 0 11 0 10 0 10 0 11 0 10 0 11 0 
10 0 10 0 11 0 10 0 11 0 10 0 10 0 11 0 
10 0 11 0 10 0 909 3730 100 MP stroke
gr

24 w
c9
0 sg
1238 2751 mt 
(Output) s
6 w
1 sg
0 1769 1039 0 0 -1769 2325 4615 4 MP
PP
-1039 0 0 1769 1039 0 0 -1769 2325 4615 5 MP stroke
4 w
DO
6 w
SO
0 sg
2325 4615 mt 3364 4615 L
2325 2846 mt 3364 2846 L
2325 4615 mt 2325 2846 L
3364 4615 mt 3364 2846 L
2325 4615 mt 3364 4615 L
2325 4615 mt 2325 2846 L
2325 4615 mt 2325 4597 L
2325 2846 mt 2325 2863 L
2292 4760 mt 
(0) s
2844 4615 mt 2844 4597 L
2844 2846 mt 2844 2863 L
2778 4760 mt 
(50) s
3364 4615 mt 3364 4597 L
3364 2846 mt 3364 2863 L
3264 4760 mt 
(100) s
2325 4615 mt 2342 4615 L
3364 4615 mt 3346 4615 L
2154 4659 mt 
(-1) s
2325 4172 mt 2342 4172 L
3364 4172 mt 3346 4172 L
2054 4216 mt 
(-0.5) s
2325 3730 mt 2342 3730 L
3364 3730 mt 3346 3730 L
2224 3774 mt 
(0) s
2325 3288 mt 2342 3288 L
3364 3288 mt 3346 3288 L
2124 3332 mt 
(0.5) s
2325 2846 mt 2342 2846 L
3364 2846 mt 3346 2846 L
2224 2890 mt 
(1) s
2325 4615 mt 3364 4615 L
2325 2846 mt 3364 2846 L
2325 4615 mt 2325 2846 L
3364 4615 mt 3364 2846 L
gs 2325 2846 1040 1770 rc
11 0 10 0 11 0 10 0 10 0 11 0 10 0 11 0 
10 0 10 0 11 0 10 0 11 0 10 0 10 0 11 0 
10 0 11 0 10 0 10 0 11 0 10 0 10 0 11 0 
10 0 11 0 10 0 10 0 11 0 10 0 11 0 10 0 
10 0 11 0 10 0 11 0 10 0 10 0 11 0 10 0 
10 0 11 0 10 0 11 0 10 0 10 0 11 0 10 0 
11 0 10 0 10 0 11 0 10 0 11 0 10 0 10 0 
11 0 10 0 11 0 10 0 10 0 11 0 10 0 10 0 
11 0 10 0 11 0 10 0 10 0 11 0 10 0 11 0 
10 0 10 0 11 0 10 0 11 0 10 0 10 0 11 0 
10 0 10 0 11 0 10 0 11 0 10 0 10 0 11 0 
10 0 11 0 10 0 10 0 11 0 10 0 11 0 10 0 
10 0 11 0 10 0 2335 3730 100 MP stroke
12 w
DO
11 0 10 0 11 0 10 0 10 0 11 0 10 0 11 0 
10 0 10 0 11 0 10 0 11 0 10 0 10 0 11 0 
10 0 11 0 10 0 10 0 11 0 10 0 10 0 11 0 
10 0 11 0 10 0 10 0 11 0 10 0 11 0 10 0 
10 0 11 0 10 0 11 0 10 0 10 0 11 0 10 0 
10 0 11 0 10 0 11 0 10 0 10 0 11 0 10 0 
11 0 10 0 10 0 11 0 10 0 11 0 10 0 10 0 
11 0 10 0 11 0 10 0 10 0 11 0 10 0 10 0 
11 0 10 0 11 0 10 0 10 0 11 0 10 0 11 0 
10 0 10 0 11 0 10 0 11 0 10 0 10 0 11 0 
10 0 10 0 11 0 10 0 11 0 10 0 10 0 11 0 
10 0 11 0 10 0 10 0 11 0 10 0 11 0 10 0 
10 0 11 0 10 0 2335 3730 100 MP stroke
24 w
DA
c8
11 0 10 0 11 0 10 0 10 0 11 0 10 0 11 0 
10 0 10 0 11 0 10 0 11 0 10 0 10 0 11 0 
10 0 11 0 10 0 10 0 11 0 10 0 10 0 11 0 
10 0 11 0 10 0 10 0 11 0 10 0 11 0 10 0 
10 0 11 0 10 0 11 0 10 0 10 0 11 0 10 0 
10 0 11 0 10 0 11 0 10 0 10 0 11 0 10 0 
11 0 10 0 10 0 11 0 10 0 11 0 10 0 10 0 
11 0 10 0 11 0 10 0 10 0 11 0 10 0 10 0 
11 0 10 0 11 0 10 0 10 0 11 0 10 0 11 0 
10 0 10 0 11 0 10 0 11 0 10 0 10 0 11 0 
10 0 10 0 11 0 10 0 11 0 10 0 10 0 11 0 
10 0 11 0 10 0 10 0 11 0 10 0 11 0 10 0 
10 0 11 0 10 0 2335 3730 100 MP stroke
SO
c9
11 0 10 0 11 0 10 0 10 0 11 0 10 0 11 0 
10 0 10 0 11 0 10 0 11 0 10 0 10 0 11 0 
10 0 11 0 10 0 10 0 11 0 10 0 10 0 11 0 
10 0 11 0 10 0 10 0 11 0 10 0 11 0 10 0 
10 0 11 0 10 0 11 0 10 0 10 0 11 0 10 0 
10 0 11 0 10 0 11 0 10 0 10 0 11 0 10 0 
11 0 10 0 10 0 11 0 10 0 11 0 10 0 10 0 
11 0 10 0 11 0 10 0 10 0 11 0 10 0 10 0 
11 0 10 0 11 0 10 0 10 0 11 0 10 0 11 0 
10 0 10 0 11 0 10 0 11 0 10 0 10 0 11 0 
10 0 10 0 11 0 10 0 11 0 10 0 10 0 11 0 
10 0 11 0 10 0 10 0 11 0 10 0 11 0 10 0 
10 0 11 0 10 0 2335 3730 100 MP stroke
gr

24 w
c9
0 sg
2553 2751 mt 
(Investment) s
6 w
1 sg
0 1769 1039 0 0 -1769 3751 4615 4 MP
PP
-1039 0 0 1769 1039 0 0 -1769 3751 4615 5 MP stroke
4 w
DO
6 w
SO
0 sg
3751 4615 mt 4790 4615 L
3751 2846 mt 4790 2846 L
3751 4615 mt 3751 2846 L
4790 4615 mt 4790 2846 L
3751 4615 mt 4790 4615 L
3751 4615 mt 3751 2846 L
3751 4615 mt 3751 4597 L
3751 2846 mt 3751 2863 L
3718 4760 mt 
(0) s
4270 4615 mt 4270 4597 L
4270 2846 mt 4270 2863 L
4204 4760 mt 
(50) s
4790 4615 mt 4790 4597 L
4790 2846 mt 4790 2863 L
4690 4760 mt 
(100) s
3751 4615 mt 3768 4615 L
4790 4615 mt 4772 4615 L
3580 4659 mt 
(-1) s
3751 4172 mt 3768 4172 L
4790 4172 mt 4772 4172 L
3480 4216 mt 
(-0.5) s
3751 3730 mt 3768 3730 L
4790 3730 mt 4772 3730 L
3650 3774 mt 
(0) s
3751 3288 mt 3768 3288 L
4790 3288 mt 4772 3288 L
3550 3332 mt 
(0.5) s
3751 2846 mt 3768 2846 L
4790 2846 mt 4772 2846 L
3650 2890 mt 
(1) s
3751 4615 mt 4790 4615 L
3751 2846 mt 4790 2846 L
3751 4615 mt 3751 2846 L
4790 4615 mt 4790 2846 L
gs 3751 2846 1040 1770 rc
11 0 10 0 11 0 10 0 10 0 11 0 10 0 11 0 
10 0 10 0 11 0 10 0 11 0 10 0 10 0 11 0 
10 0 11 0 10 0 10 0 11 0 10 0 10 0 11 0 
10 0 11 0 10 0 10 0 11 0 10 0 11 0 10 0 
10 0 11 0 10 0 11 0 10 0 10 0 11 0 10 0 
10 0 11 0 10 0 11 0 10 0 10 0 11 0 10 0 
11 0 10 0 10 0 11 0 10 0 11 0 10 0 10 0 
11 0 10 0 11 0 10 0 10 0 11 0 10 0 10 0 
11 0 10 0 11 0 10 0 10 0 11 0 10 0 11 0 
10 0 10 0 11 0 10 0 11 0 10 0 10 0 11 0 
10 0 10 0 11 0 10 0 11 0 10 0 10 0 11 0 
10 0 11 0 10 0 10 0 11 0 10 0 11 0 10 0 
10 0 11 0 10 0 3761 3730 100 MP stroke
12 w
DO
11 0 10 0 11 0 10 0 10 0 11 0 10 0 11 0 
10 0 10 0 11 0 10 0 11 0 10 0 10 0 11 0 
10 0 11 0 10 0 10 0 11 0 10 0 10 0 11 0 
10 0 11 0 10 0 10 0 11 0 10 0 11 0 10 0 
10 0 11 0 10 0 11 0 10 0 10 0 11 0 10 0 
10 0 11 0 10 0 11 0 10 0 10 0 11 0 10 0 
11 0 10 0 10 0 11 0 10 0 11 0 10 0 10 0 
11 0 10 0 11 0 10 0 10 0 11 0 10 0 10 0 
11 0 10 0 11 0 10 0 10 0 11 0 10 0 11 0 
10 0 10 0 11 0 10 0 11 0 10 0 10 0 11 0 
10 0 10 0 11 0 10 0 11 0 10 0 10 0 11 0 
10 0 11 0 10 0 10 0 11 0 10 0 11 0 10 0 
10 0 11 0 10 0 3761 3730 100 MP stroke
24 w
DA
c8
11 0 10 0 11 0 10 0 10 0 11 0 10 0 11 0 
10 0 10 0 11 0 10 0 11 0 10 0 10 0 11 0 
10 0 11 0 10 0 10 0 11 0 10 0 10 0 11 0 
10 0 11 0 10 0 10 0 11 0 10 0 11 0 10 0 
10 0 11 0 10 0 11 0 10 0 10 0 11 0 10 0 
10 0 11 0 10 0 11 0 10 0 10 0 11 0 10 0 
11 0 10 0 10 0 11 0 10 0 11 0 10 0 10 0 
11 0 10 0 11 0 10 0 10 0 11 0 10 0 10 0 
11 0 10 0 11 0 10 0 10 0 11 0 10 0 11 0 
10 0 10 0 11 0 10 0 11 0 10 0 10 0 11 0 
10 0 10 0 11 0 10 0 11 0 10 0 10 0 11 0 
10 0 11 0 10 0 10 0 11 0 10 0 11 0 10 0 
10 0 11 0 10 0 3761 3730 100 MP stroke
SO
c9
11 0 10 0 11 0 10 0 10 0 11 0 10 0 11 0 
10 0 10 0 11 0 10 0 11 0 10 0 10 0 11 0 
10 0 11 0 10 0 10 0 11 0 10 0 10 0 11 0 
10 0 11 0 10 0 10 0 11 0 10 0 11 0 10 0 
10 0 11 0 10 0 11 0 10 0 10 0 11 0 10 0 
10 0 11 0 10 0 11 0 10 0 10 0 11 0 10 0 
11 0 10 0 10 0 11 0 10 0 11 0 10 0 10 0 
11 0 10 0 11 0 10 0 10 0 11 0 10 0 10 0 
11 0 10 0 11 0 10 0 10 0 11 0 10 0 11 0 
10 0 10 0 11 0 10 0 11 0 10 0 10 0 11 0 
10 0 10 0 11 0 10 0 11 0 10 0 10 0 11 0 
10 0 11 0 10 0 10 0 11 0 10 0 11 0 10 0 
10 0 11 0 10 0 3761 3730 100 MP stroke
gr

24 w
c9
0 sg
3917 2751 mt 
(Consumption) s
6 w
1 sg
0 1769 1040 0 0 -1769 5176 4615 4 MP
PP
-1040 0 0 1769 1040 0 0 -1769 5176 4615 5 MP stroke
4 w
DO
6 w
SO
0 sg
5176 4615 mt 6216 4615 L
5176 2846 mt 6216 2846 L
5176 4615 mt 5176 2846 L
6216 4615 mt 6216 2846 L
5176 4615 mt 6216 4615 L
5176 4615 mt 5176 2846 L
5176 4615 mt 5176 4597 L
5176 2846 mt 5176 2863 L
5143 4760 mt 
(0) s
5696 4615 mt 5696 4597 L
5696 2846 mt 5696 2863 L
5630 4760 mt 
(50) s
6216 4615 mt 6216 4597 L
6216 2846 mt 6216 2863 L
6116 4760 mt 
(100) s
5176 4615 mt 5193 4615 L
6216 4615 mt 6198 4615 L
5005 4659 mt 
(-1) s
5176 4172 mt 5193 4172 L
6216 4172 mt 6198 4172 L
4905 4216 mt 
(-0.5) s
5176 3730 mt 5193 3730 L
6216 3730 mt 6198 3730 L
5075 3774 mt 
(0) s
5176 3288 mt 5193 3288 L
6216 3288 mt 6198 3288 L
4975 3332 mt 
(0.5) s
5176 2846 mt 5193 2846 L
6216 2846 mt 6198 2846 L
5075 2890 mt 
(1) s
5176 4615 mt 6216 4615 L
5176 2846 mt 6216 2846 L
5176 4615 mt 5176 2846 L
6216 4615 mt 6216 2846 L
gs 5176 2846 1041 1770 rc
11 0 10 0 11 0 10 0 10 0 11 0 10 0 11 0 
10 0 10 0 11 0 10 0 11 0 10 0 10 0 11 0 
10 0 11 0 10 0 10 0 11 0 10 0 11 0 10 0 
10 0 11 0 10 0 11 0 10 0 10 0 11 0 10 0 
11 0 10 0 10 0 11 0 10 0 11 0 10 0 10 0 
11 0 10 0 11 0 10 0 10 0 11 0 10 0 11 0 
10 0 10 0 11 0 10 0 11 0 10 0 10 0 11 0 
10 0 11 0 10 0 10 0 11 0 10 0 11 0 10 0 
10 0 11 0 10 0 11 0 10 0 10 0 11 0 10 0 
11 0 10 0 10 0 11 0 10 0 11 0 10 0 10 0 
11 0 10 0 11 0 10 0 10 0 11 0 10 0 11 0 
10 0 10 0 11 0 10 0 11 0 10 0 10 0 11 0 
10 0 11 0 10 0 5186 3730 100 MP stroke
12 w
DO
11 0 10 0 11 0 10 0 10 0 11 0 10 0 11 0 
10 0 10 0 11 0 10 0 11 0 10 0 10 0 11 0 
10 0 11 0 10 0 10 0 11 0 10 0 11 0 10 0 
10 0 11 0 10 0 11 0 10 0 10 0 11 0 10 0 
11 0 10 0 10 0 11 0 10 0 11 0 10 0 10 0 
11 0 10 0 11 0 10 0 10 0 11 0 10 0 11 0 
10 0 10 0 11 0 10 0 11 0 10 0 10 0 11 0 
10 0 11 0 10 0 10 0 11 0 10 0 11 0 10 0 
10 0 11 0 10 0 11 0 10 0 10 0 11 0 10 0 
11 0 10 0 10 0 11 0 10 0 11 0 10 0 10 0 
11 0 10 0 11 0 10 0 10 0 11 0 10 0 11 0 
10 0 10 0 11 0 10 0 11 0 10 0 10 0 11 0 
10 0 11 0 10 0 5186 3730 100 MP stroke
24 w
DA
c8
11 0 10 0 11 0 10 0 10 0 11 0 10 0 11 0 
10 0 10 0 11 0 10 0 11 0 10 0 10 0 11 0 
10 0 11 0 10 0 10 0 11 0 10 0 11 0 10 0 
10 0 11 0 10 0 11 0 10 0 10 0 11 0 10 0 
11 0 10 0 10 0 11 0 10 0 11 0 10 0 10 0 
11 0 10 0 11 0 10 0 10 0 11 0 10 0 11 0 
10 0 10 0 11 0 10 0 11 0 10 0 10 0 11 0 
10 0 11 0 10 0 10 0 11 0 10 0 11 0 10 0 
10 0 11 0 10 0 11 0 10 0 10 0 11 0 10 0 
11 0 10 0 10 0 11 0 10 0 11 0 10 0 10 0 
11 0 10 0 11 0 10 0 10 0 11 0 10 0 11 0 
10 0 10 0 11 0 10 0 11 0 10 0 10 0 11 0 
10 0 11 0 10 0 5186 3730 100 MP stroke
SO
c9
11 0 10 0 11 0 10 0 10 0 11 0 10 0 11 0 
10 0 10 0 11 0 10 0 11 0 10 0 10 0 11 0 
10 0 11 0 10 0 10 0 11 0 10 0 11 0 10 0 
10 0 11 0 10 0 11 0 10 0 10 0 11 0 10 0 
11 0 10 0 10 0 11 0 10 0 11 0 10 0 10 0 
11 0 10 0 11 0 10 0 10 0 11 0 10 0 11 0 
10 0 10 0 11 0 10 0 11 0 10 0 10 0 11 0 
10 0 11 0 10 0 10 0 11 0 10 0 11 0 10 0 
10 0 11 0 10 0 11 0 10 0 10 0 11 0 10 0 
11 0 10 0 10 0 11 0 10 0 11 0 10 0 10 0 
11 0 10 0 11 0 10 0 10 0 11 0 10 0 11 0 
10 0 10 0 11 0 10 0 11 0 10 0 10 0 11 0 
10 0 11 0 10 0 5186 3730 100 MP stroke
gr

24 w
c9
0 sg
5363 2751 mt 
(Employment) s
5159 4658 mt 
( ) s
6200 2888 mt 
( ) s
6 w
1 sg
0 480 935 0 0 -480 5222 3386 4 MP
PP
-935 0 0 480 935 0 0 -480 5222 3386 5 MP stroke
4 w
DO
6 w
SO
0 sg
5222 3386 mt 6157 3386 L
5222 2906 mt 6157 2906 L
5222 3386 mt 5222 2906 L
6157 3386 mt 6157 2906 L
5222 3386 mt 6157 3386 L
5222 3386 mt 5222 2906 L
5222 3386 mt 6157 3386 L
5222 2906 mt 6157 2906 L
5222 3386 mt 5222 2906 L
6157 3386 mt 6157 2906 L
5687 3040 mt 
(fricless) s
gs 5222 2906 936 481 rc
12 w
DO
357 0 5293 2997 2 MP stroke
gr

12 w
SO
5687 3189 mt 
(RE) s
gs 5222 2906 936 481 rc
24 w
DA
c8
357 0 5293 3146 2 MP stroke
gr

24 w
SO
c8
0 sg
5687 3337 mt 
(learning) s
gs 5222 2906 936 481 rc
c9
357 0 5293 3294 2 MP stroke
6 w
gr

6 w
c9

end %%Color Dict

eplot
%%EndObject

epage
end

showpage

%%Trailer
%%EOF
