%!PS-Adobe-3.0 EPSF-3.0
%%Creator: (MATLAB, The Mathworks, Inc. Version 9.4.0.813654 \(R2018a\). Operating System: Linux)
%%Title: ./irf_epsi1.eps
%%CreationDate: 2019-02-26T11:36:26
%%Pages: (atend)
%%BoundingBox:    13    31   132   389
%%LanguageLevel: 2
%%EndComments
%%BeginProlog
%%BeginResource: procset (Apache XML Graphics Std ProcSet) 1.2 0
%%Version: 1.2 0
%%Copyright: (Copyright 2001-2003,2010 The Apache Software Foundation. License terms: http://www.apache.org/licenses/LICENSE-2.0)
/bd{bind def}bind def
/ld{load def}bd
/GR/grestore ld
/GS/gsave ld
/RM/rmoveto ld
/C/curveto ld
/t/show ld
/L/lineto ld
/ML/setmiterlimit ld
/CT/concat ld
/f/fill ld
/N/newpath ld
/S/stroke ld
/CC/setcmykcolor ld
/A/ashow ld
/cp/closepath ld
/RC/setrgbcolor ld
/LJ/setlinejoin ld
/GC/setgray ld
/LW/setlinewidth ld
/M/moveto ld
/re {4 2 roll M
1 index 0 rlineto
0 exch rlineto
neg 0 rlineto
cp } bd
/_ctm matrix def
/_tm matrix def
/BT { _ctm currentmatrix pop matrix _tm copy pop 0 0 moveto } bd
/ET { _ctm setmatrix } bd
/iTm { _ctm setmatrix _tm concat } bd
/Tm { _tm astore pop iTm 0 0 moveto } bd
/ux 0.0 def
/uy 0.0 def
/F {
  /Tp exch def
  /Tf exch def
  Tf findfont Tp scalefont setfont
  /cf Tf def  /cs Tp def
} bd
/ULS {currentpoint /uy exch def /ux exch def} bd
/ULE {
  /Tcx currentpoint pop def
  gsave
  newpath
  cf findfont cs scalefont dup
  /FontMatrix get 0 get /Ts exch def /FontInfo get dup
  /UnderlinePosition get Ts mul /To exch def
  /UnderlineThickness get Ts mul /Tt exch def
  ux uy To add moveto  Tcx uy To add lineto
  Tt setlinewidth stroke
  grestore
} bd
/OLE {
  /Tcx currentpoint pop def
  gsave
  newpath
  cf findfont cs scalefont dup
  /FontMatrix get 0 get /Ts exch def /FontInfo get dup
  /UnderlinePosition get Ts mul /To exch def
  /UnderlineThickness get Ts mul /Tt exch def
  ux uy To add cs add moveto Tcx uy To add cs add lineto
  Tt setlinewidth stroke
  grestore
} bd
/SOE {
  /Tcx currentpoint pop def
  gsave
  newpath
  cf findfont cs scalefont dup
  /FontMatrix get 0 get /Ts exch def /FontInfo get dup
  /UnderlinePosition get Ts mul /To exch def
  /UnderlineThickness get Ts mul /Tt exch def
  ux uy To add cs 10 mul 26 idiv add moveto Tcx uy To add cs 10 mul 26 idiv add lineto
  Tt setlinewidth stroke
  grestore
} bd
/QT {
/Y22 exch store
/X22 exch store
/Y21 exch store
/X21 exch store
currentpoint
/Y21 load 2 mul add 3 div exch
/X21 load 2 mul add 3 div exch
/X21 load 2 mul /X22 load add 3 div
/Y21 load 2 mul /Y22 load add 3 div
/X22 load /Y22 load curveto
} bd
/SSPD {
dup length /d exch dict def
{
/v exch def
/k exch def
currentpagedevice k known {
/cpdv currentpagedevice k get def
v cpdv ne {
/upd false def
/nullv v type /nulltype eq def
/nullcpdv cpdv type /nulltype eq def
nullv nullcpdv or
{
/upd true def
} {
/sametype v type cpdv type eq def
sametype {
v type /arraytype eq {
/vlen v length def
/cpdvlen cpdv length def
vlen cpdvlen eq {
0 1 vlen 1 sub {
/i exch def
/obj v i get def
/cpdobj cpdv i get def
obj cpdobj ne {
/upd true def
exit
} if
} for
} {
/upd true def
} ifelse
} {
v type /dicttype eq {
v {
/dv exch def
/dk exch def
/cpddv cpdv dk get def
dv cpddv ne {
/upd true def
exit
} if
} forall
} {
/upd true def
} ifelse
} ifelse
} if
} ifelse
upd true eq {
d k v put
} if
} if
} if
} forall
d length 0 gt {
d setpagedevice
} if
} bd
/RE { % /NewFontName [NewEncodingArray] /FontName RE -
  findfont dup length dict begin
  {
    1 index /FID ne
    {def} {pop pop} ifelse
  } forall
  /Encoding exch def
  /FontName 1 index def
  currentdict definefont pop
  end
} bind def
%%EndResource
%%BeginResource: procset (Apache XML Graphics EPS ProcSet) 1.0 0
%%Version: 1.0 0
%%Copyright: (Copyright 2002-2003 The Apache Software Foundation. License terms: http://www.apache.org/licenses/LICENSE-2.0)
/BeginEPSF { %def
/b4_Inc_state save def         % Save state for cleanup
/dict_count countdictstack def % Count objects on dict stack
/op_count count 1 sub def      % Count objects on operand stack
userdict begin                 % Push userdict on dict stack
/showpage { } def              % Redefine showpage, { } = null proc
0 setgray 0 setlinecap         % Prepare graphics state
1 setlinewidth 0 setlinejoin
10 setmiterlimit [ ] 0 setdash newpath
/languagelevel where           % If level not equal to 1 then
{pop languagelevel             % set strokeadjust and
1 ne                           % overprint to their defaults.
{false setstrokeadjust false setoverprint
} if
} if
} bd
/EndEPSF { %def
count op_count sub {pop} repeat            % Clean up stacks
countdictstack dict_count sub {end} repeat
b4_Inc_state restore
} bd
%%EndResource
%FOPBeginFontDict
%%IncludeResource: font Courier-Oblique
%%IncludeResource: font Courier-BoldOblique
%%IncludeResource: font Courier-Bold
%%IncludeResource: font ZapfDingbats
%%IncludeResource: font Symbol
%%IncludeResource: font Helvetica
%%IncludeResource: font Helvetica-Oblique
%%IncludeResource: font Helvetica-Bold
%%IncludeResource: font Helvetica-BoldOblique
%%IncludeResource: font Times-Roman
%%IncludeResource: font Times-Italic
%%IncludeResource: font Times-Bold
%%IncludeResource: font Times-BoldItalic
%%IncludeResource: font Courier
%FOPEndFontDict
%%BeginResource: encoding WinAnsiEncoding
/WinAnsiEncoding [
/.notdef /.notdef /.notdef /.notdef /.notdef
/.notdef /.notdef /.notdef /.notdef /.notdef
/.notdef /.notdef /.notdef /.notdef /.notdef
/.notdef /.notdef /.notdef /.notdef /.notdef
/.notdef /.notdef /.notdef /.notdef /.notdef
/.notdef /.notdef /.notdef /.notdef /.notdef
/.notdef /.notdef /space /exclam /quotedbl
/numbersign /dollar /percent /ampersand /quotesingle
/parenleft /parenright /asterisk /plus /comma
/hyphen /period /slash /zero /one
/two /three /four /five /six
/seven /eight /nine /colon /semicolon
/less /equal /greater /question /at
/A /B /C /D /E
/F /G /H /I /J
/K /L /M /N /O
/P /Q /R /S /T
/U /V /W /X /Y
/Z /bracketleft /backslash /bracketright /asciicircum
/underscore /quoteleft /a /b /c
/d /e /f /g /h
/i /j /k /l /m
/n /o /p /q /r
/s /t /u /v /w
/x /y /z /braceleft /bar
/braceright /asciitilde /bullet /Euro /bullet
/quotesinglbase /florin /quotedblbase /ellipsis /dagger
/daggerdbl /circumflex /perthousand /Scaron /guilsinglleft
/OE /bullet /Zcaron /bullet /bullet
/quoteleft /quoteright /quotedblleft /quotedblright /bullet
/endash /emdash /asciitilde /trademark /scaron
/guilsinglright /oe /bullet /zcaron /Ydieresis
/space /exclamdown /cent /sterling /currency
/yen /brokenbar /section /dieresis /copyright
/ordfeminine /guillemotleft /logicalnot /sfthyphen /registered
/macron /degree /plusminus /twosuperior /threesuperior
/acute /mu /paragraph /middot /cedilla
/onesuperior /ordmasculine /guillemotright /onequarter /onehalf
/threequarters /questiondown /Agrave /Aacute /Acircumflex
/Atilde /Adieresis /Aring /AE /Ccedilla
/Egrave /Eacute /Ecircumflex /Edieresis /Igrave
/Iacute /Icircumflex /Idieresis /Eth /Ntilde
/Ograve /Oacute /Ocircumflex /Otilde /Odieresis
/multiply /Oslash /Ugrave /Uacute /Ucircumflex
/Udieresis /Yacute /Thorn /germandbls /agrave
/aacute /acircumflex /atilde /adieresis /aring
/ae /ccedilla /egrave /eacute /ecircumflex
/edieresis /igrave /iacute /icircumflex /idieresis
/eth /ntilde /ograve /oacute /ocircumflex
/otilde /odieresis /divide /oslash /ugrave
/uacute /ucircumflex /udieresis /yacute /thorn
/ydieresis
] def
%%EndResource
%FOPBeginFontReencode
/Courier-Oblique findfont
dup length dict begin
  {1 index /FID ne {def} {pop pop} ifelse} forall
  /Encoding WinAnsiEncoding def
  currentdict
end
/Courier-Oblique exch definefont pop
/Courier-BoldOblique findfont
dup length dict begin
  {1 index /FID ne {def} {pop pop} ifelse} forall
  /Encoding WinAnsiEncoding def
  currentdict
end
/Courier-BoldOblique exch definefont pop
/Courier-Bold findfont
dup length dict begin
  {1 index /FID ne {def} {pop pop} ifelse} forall
  /Encoding WinAnsiEncoding def
  currentdict
end
/Courier-Bold exch definefont pop
/Helvetica findfont
dup length dict begin
  {1 index /FID ne {def} {pop pop} ifelse} forall
  /Encoding WinAnsiEncoding def
  currentdict
end
/Helvetica exch definefont pop
/Helvetica-Oblique findfont
dup length dict begin
  {1 index /FID ne {def} {pop pop} ifelse} forall
  /Encoding WinAnsiEncoding def
  currentdict
end
/Helvetica-Oblique exch definefont pop
/Helvetica-Bold findfont
dup length dict begin
  {1 index /FID ne {def} {pop pop} ifelse} forall
  /Encoding WinAnsiEncoding def
  currentdict
end
/Helvetica-Bold exch definefont pop
/Helvetica-BoldOblique findfont
dup length dict begin
  {1 index /FID ne {def} {pop pop} ifelse} forall
  /Encoding WinAnsiEncoding def
  currentdict
end
/Helvetica-BoldOblique exch definefont pop
/Times-Roman findfont
dup length dict begin
  {1 index /FID ne {def} {pop pop} ifelse} forall
  /Encoding WinAnsiEncoding def
  currentdict
end
/Times-Roman exch definefont pop
/Times-Italic findfont
dup length dict begin
  {1 index /FID ne {def} {pop pop} ifelse} forall
  /Encoding WinAnsiEncoding def
  currentdict
end
/Times-Italic exch definefont pop
/Times-Bold findfont
dup length dict begin
  {1 index /FID ne {def} {pop pop} ifelse} forall
  /Encoding WinAnsiEncoding def
  currentdict
end
/Times-Bold exch definefont pop
/Times-BoldItalic findfont
dup length dict begin
  {1 index /FID ne {def} {pop pop} ifelse} forall
  /Encoding WinAnsiEncoding def
  currentdict
end
/Times-BoldItalic exch definefont pop
/Courier findfont
dup length dict begin
  {1 index /FID ne {def} {pop pop} ifelse} forall
  /Encoding WinAnsiEncoding def
  currentdict
end
/Courier exch definefont pop
%FOPEndFontReencode
%%EndProlog
%%Page: 1 1
%%PageBoundingBox: 0 0 144 405
%%BeginPageSetup
[1 0 0 -1 0 405] CT
%%EndPageSetup
GS
[0.95846 0 0 0.95927 0 0.18723] CT
1 GC
N
0 0 150 422 re
f
GR
GS
[0.95846 0 0 0.95927 0 0.18723] CT
1 GC
N
0 0 150 422 re
f
GR
GS
[0.95846 0 0 0.95927 0 0.18723] CT
1 GC
N
39 176 M
47 176 L
47 32 L
39 32 L
cp
f
GR
GS
[0.95846 0 0 0.95927 0 0.18723] CT
0.149 GC
2 setlinecap
1 LJ
0.521 LW
N
39 176 M
47 176 L
S
GR
GS
[0.95846 0 0 0.95927 0 0.18723] CT
0.149 GC
2 setlinecap
1 LJ
0.521 LW
N
39 32 M
47 32 L
S
GR
GS
[0.95846 0 0 0.95927 0 0.18723] CT
0.149 GC
2 setlinecap
1 LJ
0.521 LW
N
39 176 M
39 174.56 L
S
GR
GS
[0.95846 0 0 0.95927 0 0.18723] CT
0.149 GC
2 setlinecap
1 LJ
0.521 LW
N
40.6 176 M
40.6 174.56 L
S
GR
GS
[0.95846 0 0 0.95927 0 0.18723] CT
0.149 GC
2 setlinecap
1 LJ
0.521 LW
N
42.2 176 M
42.2 174.56 L
S
GR
GS
[0.95846 0 0 0.95927 0 0.18723] CT
0.149 GC
2 setlinecap
1 LJ
0.521 LW
N
43.8 176 M
43.8 174.56 L
S
GR
GS
[0.95846 0 0 0.95927 0 0.18723] CT
0.149 GC
2 setlinecap
1 LJ
0.521 LW
N
45.4 176 M
45.4 174.56 L
S
GR
GS
[0.95846 0 0 0.95927 0 0.18723] CT
0.149 GC
2 setlinecap
1 LJ
0.521 LW
N
47 176 M
47 174.56 L
S
GR
GS
[0.95846 0 0 0.95927 0 0.18723] CT
0.149 GC
2 setlinecap
1 LJ
0.521 LW
N
39 32 M
39 33.44 L
S
GR
GS
[0.95846 0 0 0.95927 0 0.18723] CT
0.149 GC
2 setlinecap
1 LJ
0.521 LW
N
40.6 32 M
40.6 33.44 L
S
GR
GS
[0.95846 0 0 0.95927 0 0.18723] CT
0.149 GC
2 setlinecap
1 LJ
0.521 LW
N
42.2 32 M
42.2 33.44 L
S
GR
GS
[0.95846 0 0 0.95927 0 0.18723] CT
0.149 GC
2 setlinecap
1 LJ
0.521 LW
N
43.8 32 M
43.8 33.44 L
S
GR
GS
[0.95846 0 0 0.95927 0 0.18723] CT
0.149 GC
2 setlinecap
1 LJ
0.521 LW
N
45.4 32 M
45.4 33.44 L
S
GR
GS
[0.95846 0 0 0.95927 0 0.18723] CT
0.149 GC
2 setlinecap
1 LJ
0.521 LW
N
47 32 M
47 33.44 L
S
GR
GS
[0.95846 0 0 0.95927 37.38009 171.21743] CT
0.149 GC
/Helvetica 11.458 F
GS
[1 0 0 1 0 0] CT
-3.5 11 moveto 
1 -1 scale
(0) t 
GR
GR
GS
[0.95846 0 0 0.95927 38.91363 171.21743] CT
0.149 GC
/Helvetica 11.458 F
GS
[1 0 0 1 0 0] CT
-3.5 11 moveto 
1 -1 scale
(8) t 
GR
GR
GS
[0.95846 0 0 0.95927 40.44718 171.21743] CT
0.149 GC
/Helvetica 11.458 F
GS
[1 0 0 1 0 0] CT
-6.5 11 moveto 
1 -1 scale
(16) t 
GR
GR
GS
[0.95846 0 0 0.95927 41.98072 171.21743] CT
0.149 GC
/Helvetica 11.458 F
GS
[1 0 0 1 0 0] CT
-6.5 11 moveto 
1 -1 scale
(24) t 
GR
GR
GS
[0.95846 0 0 0.95927 43.51426 171.21743] CT
0.149 GC
/Helvetica 11.458 F
GS
[1 0 0 1 0 0] CT
-6.5 11 moveto 
1 -1 scale
(32) t 
GR
GR
GS
[0.95846 0 0 0.95927 45.04781 171.21743] CT
0.149 GC
/Helvetica 11.458 F
GS
[1 0 0 1 0 0] CT
-6.5 11 moveto 
1 -1 scale
(40) t 
GR
GR
GS
[0.95846 0 0 0.95927 0 0.18723] CT
0.149 GC
2 setlinecap
1 LJ
0.521 LW
N
39 176 M
39 32 L
S
GR
GS
[0.95846 0 0 0.95927 0 0.18723] CT
0.149 GC
2 setlinecap
1 LJ
0.521 LW
N
47 176 M
47 32 L
S
GR
GS
[0.95846 0 0 0.95927 0 0.18723] CT
0.149 GC
2 setlinecap
1 LJ
0.521 LW
N
39 173.619 M
40.44 173.619 L
S
GR
GS
[0.95846 0 0 0.95927 0 0.18723] CT
0.149 GC
2 setlinecap
1 LJ
0.521 LW
N
39 145.295 M
40.44 145.295 L
S
GR
GS
[0.95846 0 0 0.95927 0 0.18723] CT
0.149 GC
2 setlinecap
1 LJ
0.521 LW
N
39 116.971 M
40.44 116.971 L
S
GR
GS
[0.95846 0 0 0.95927 0 0.18723] CT
0.149 GC
2 setlinecap
1 LJ
0.521 LW
N
39 88.648 M
40.44 88.648 L
S
GR
GS
[0.95846 0 0 0.95927 0 0.18723] CT
0.149 GC
2 setlinecap
1 LJ
0.521 LW
N
39 60.324 M
40.44 60.324 L
S
GR
GS
[0.95846 0 0 0.95927 0 0.18723] CT
0.149 GC
2 setlinecap
1 LJ
0.521 LW
N
39 32 M
40.44 32 L
S
GR
GS
[0.95846 0 0 0.95927 0 0.18723] CT
0.149 GC
2 setlinecap
1 LJ
0.521 LW
N
47 173.619 M
45.56 173.619 L
S
GR
GS
[0.95846 0 0 0.95927 0 0.18723] CT
0.149 GC
2 setlinecap
1 LJ
0.521 LW
N
47 145.295 M
45.56 145.295 L
S
GR
GS
[0.95846 0 0 0.95927 0 0.18723] CT
0.149 GC
2 setlinecap
1 LJ
0.521 LW
N
47 116.971 M
45.56 116.971 L
S
GR
GS
[0.95846 0 0 0.95927 0 0.18723] CT
0.149 GC
2 setlinecap
1 LJ
0.521 LW
N
47 88.648 M
45.56 88.648 L
S
GR
GS
[0.95846 0 0 0.95927 0 0.18723] CT
0.149 GC
2 setlinecap
1 LJ
0.521 LW
N
47 60.324 M
45.56 60.324 L
S
GR
GS
[0.95846 0 0 0.95927 0 0.18723] CT
0.149 GC
2 setlinecap
1 LJ
0.521 LW
N
47 32 M
45.56 32 L
S
GR
GS
[0.95846 0 0 0.95927 35.18361 166.73484] CT
0.149 GC
/Helvetica 11.458 F
GS
[1 0 0 1 0 0] CT
-7 4 moveto 
1 -1 scale
(0) t 
GR
GR
GS
[0.95846 0 0 0.95927 35.18361 139.56466] CT
0.149 GC
/Helvetica 11.458 F
GS
[1 0 0 1 0 0] CT
-23 4 moveto 
1 -1 scale
(0.02) t 
GR
GR
GS
[0.95846 0 0 0.95927 35.18361 112.39447] CT
0.149 GC
/Helvetica 11.458 F
GS
[1 0 0 1 0 0] CT
-23 4 moveto 
1 -1 scale
(0.04) t 
GR
GR
GS
[0.95846 0 0 0.95927 35.18361 85.22429] CT
0.149 GC
/Helvetica 11.458 F
GS
[1 0 0 1 0 0] CT
-23 4 moveto 
1 -1 scale
(0.06) t 
GR
GR
GS
[0.95846 0 0 0.95927 35.18361 58.05411] CT
0.149 GC
/Helvetica 11.458 F
GS
[1 0 0 1 0 0] CT
-23 4 moveto 
1 -1 scale
(0.08) t 
GR
GR
GS
[0.95846 0 0 0.95927 35.18361 30.88393] CT
0.149 GC
/Helvetica 11.458 F
GS
[1 0 0 1 0 0] CT
-16 4 moveto 
1 -1 scale
(0.1) t 
GR
GR
GS
[0.95846 0 0 0.95927 41.21399 27.98213] CT
/Helvetica-Bold 12.604 F
GS
[1 0 0 1 0 0] CT
-4.5 -3 moveto 
1 -1 scale
(Y) t 
GR
GR
GS
[0.95846 0 0 0.95927 0 0.18723] CT
1 LJ
0.521 LW
N
39.2 173.619 M
39.4 173.619 L
39.6 173.619 L
39.8 173.619 L
40 173.619 L
40.2 173.619 L
40.4 173.619 L
40.6 173.619 L
40.8 173.619 L
41 173.619 L
41.2 173.619 L
41.4 173.619 L
41.6 173.619 L
41.8 173.619 L
42 173.619 L
42.2 173.619 L
42.4 173.619 L
42.6 173.619 L
42.8 173.619 L
43 173.619 L
43.2 173.619 L
43.4 173.619 L
43.6 173.619 L
43.8 173.619 L
44 173.619 L
44.2 173.619 L
44.4 173.619 L
44.6 173.619 L
44.8 173.619 L
45 173.619 L
45.2 173.619 L
45.4 173.619 L
45.6 173.619 L
45.8 173.619 L
46 173.619 L
46.2 173.619 L
46.4 173.619 L
46.6 173.619 L
46.8 173.619 L
47 173.619 L
47.001 173.619 L
S
GR
GS
[0.95846 0 0 0.95927 0 0.18723] CT
1 0 0 RC
1 LJ
2.083 LW
N
39.2 36.528 M
39.4 119.153 L
39.6 149.806 L
39.8 165.218 L
40 172.639 L
40.2 175.503 L
40.4 176 L
40.6 175.333 L
40.8 174.259 L
41 173.197 L
41.2 172.284 L
41.4 171.54 L
41.6 171.019 L
41.8 170.666 L
42 170.44 L
42.2 170.313 L
42.4 170.279 L
42.6 170.292 L
42.8 170.318 L
43 170.362 L
43.2 170.39 L
43.4 170.42 L
43.6 170.475 L
43.8 170.531 L
44 170.595 L
44.2 170.683 L
44.4 170.761 L
44.6 170.817 L
44.8 170.885 L
45 170.92 L
45.2 170.96 L
45.4 170.963 L
45.6 171.017 L
45.8 171.073 L
46 171.119 L
46.2 171.118 L
46.4 171.113 L
46.6 171.124 L
46.8 171.134 L
47 171.158 L
47.001 171.158 L
S
GR
GS
[0.95846 0 0 0.95927 0 0.18723] CT
0 0 1 RC
[8 8] 0 setdash
2 LJ
2.083 LW
N
39.2 103.258 M
39.4 141.687 L
39.6 153.429 L
39.8 160.514 L
40 164.658 L
40.2 167.017 L
40.4 168.315 L
40.6 169 L
40.8 169.345 L
41 169.505 L
41.2 169.573 L
41.4 169.594 L
41.6 169.6 L
41.8 169.602 L
42 169.604 L
42.2 169.612 L
42.4 169.623 L
42.6 169.641 L
42.8 169.662 L
43 169.687 L
43.2 169.715 L
43.4 169.747 L
43.6 169.781 L
43.8 169.818 L
44 169.857 L
44.2 169.898 L
44.4 169.941 L
44.6 169.985 L
44.8 170.03 L
45 170.077 L
45.2 170.125 L
45.4 170.174 L
45.6 170.224 L
45.8 170.274 L
46 170.326 L
46.2 170.377 L
46.4 170.429 L
46.6 170.482 L
46.8 170.534 L
47 170.588 L
47.001 170.588 L
S
GR
GS
[0.95846 0 0 0.95927 0 0.18723] CT
1 GC
N
81 176 M
89 176 L
89 32 L
81 32 L
cp
f
GR
GS
[0.95846 0 0 0.95927 0 0.18723] CT
0.149 GC
2 setlinecap
1 LJ
0.521 LW
N
81 176 M
89 176 L
S
GR
GS
[0.95846 0 0 0.95927 0 0.18723] CT
0.149 GC
2 setlinecap
1 LJ
0.521 LW
N
81 32 M
89 32 L
S
GR
GS
[0.95846 0 0 0.95927 0 0.18723] CT
0.149 GC
2 setlinecap
1 LJ
0.521 LW
N
81 176 M
81 174.56 L
S
GR
GS
[0.95846 0 0 0.95927 0 0.18723] CT
0.149 GC
2 setlinecap
1 LJ
0.521 LW
N
82.6 176 M
82.6 174.56 L
S
GR
GS
[0.95846 0 0 0.95927 0 0.18723] CT
0.149 GC
2 setlinecap
1 LJ
0.521 LW
N
84.2 176 M
84.2 174.56 L
S
GR
GS
[0.95846 0 0 0.95927 0 0.18723] CT
0.149 GC
2 setlinecap
1 LJ
0.521 LW
N
85.8 176 M
85.8 174.56 L
S
GR
GS
[0.95846 0 0 0.95927 0 0.18723] CT
0.149 GC
2 setlinecap
1 LJ
0.521 LW
N
87.4 176 M
87.4 174.56 L
S
GR
GS
[0.95846 0 0 0.95927 0 0.18723] CT
0.149 GC
2 setlinecap
1 LJ
0.521 LW
N
89 176 M
89 174.56 L
S
GR
GS
[0.95846 0 0 0.95927 0 0.18723] CT
0.149 GC
2 setlinecap
1 LJ
0.521 LW
N
81 32 M
81 33.44 L
S
GR
GS
[0.95846 0 0 0.95927 0 0.18723] CT
0.149 GC
2 setlinecap
1 LJ
0.521 LW
N
82.6 32 M
82.6 33.44 L
S
GR
GS
[0.95846 0 0 0.95927 0 0.18723] CT
0.149 GC
2 setlinecap
1 LJ
0.521 LW
N
84.2 32 M
84.2 33.44 L
S
GR
GS
[0.95846 0 0 0.95927 0 0.18723] CT
0.149 GC
2 setlinecap
1 LJ
0.521 LW
N
85.8 32 M
85.8 33.44 L
S
GR
GS
[0.95846 0 0 0.95927 0 0.18723] CT
0.149 GC
2 setlinecap
1 LJ
0.521 LW
N
87.4 32 M
87.4 33.44 L
S
GR
GS
[0.95846 0 0 0.95927 0 0.18723] CT
0.149 GC
2 setlinecap
1 LJ
0.521 LW
N
89 32 M
89 33.44 L
S
GR
GS
[0.95846 0 0 0.95927 77.63558 171.21743] CT
0.149 GC
/Helvetica 11.458 F
GS
[1 0 0 1 0 0] CT
-3.5 11 moveto 
1 -1 scale
(0) t 
GR
GR
GS
[0.95846 0 0 0.95927 79.16912 171.21743] CT
0.149 GC
/Helvetica 11.458 F
GS
[1 0 0 1 0 0] CT
-3.5 11 moveto 
1 -1 scale
(8) t 
GR
GR
GS
[0.95846 0 0 0.95927 80.70266 171.21743] CT
0.149 GC
/Helvetica 11.458 F
GS
[1 0 0 1 0 0] CT
-6.5 11 moveto 
1 -1 scale
(16) t 
GR
GR
GS
[0.95846 0 0 0.95927 82.23621 171.21743] CT
0.149 GC
/Helvetica 11.458 F
GS
[1 0 0 1 0 0] CT
-6.5 11 moveto 
1 -1 scale
(24) t 
GR
GR
GS
[0.95846 0 0 0.95927 83.76975 171.21743] CT
0.149 GC
/Helvetica 11.458 F
GS
[1 0 0 1 0 0] CT
-6.5 11 moveto 
1 -1 scale
(32) t 
GR
GR
GS
[0.95846 0 0 0.95927 85.30329 171.21743] CT
0.149 GC
/Helvetica 11.458 F
GS
[1 0 0 1 0 0] CT
-6.5 11 moveto 
1 -1 scale
(40) t 
GR
GR
GS
[0.95846 0 0 0.95927 0 0.18723] CT
0.149 GC
2 setlinecap
1 LJ
0.521 LW
N
81 176 M
81 32 L
S
GR
GS
[0.95846 0 0 0.95927 0 0.18723] CT
0.149 GC
2 setlinecap
1 LJ
0.521 LW
N
89 176 M
89 32 L
S
GR
GS
[0.95846 0 0 0.95927 0 0.18723] CT
0.149 GC
2 setlinecap
1 LJ
0.521 LW
N
81 159.297 M
82.44 159.297 L
S
GR
GS
[0.95846 0 0 0.95927 0 0.18723] CT
0.149 GC
2 setlinecap
1 LJ
0.521 LW
N
81 129.961 M
82.44 129.961 L
S
GR
GS
[0.95846 0 0 0.95927 0 0.18723] CT
0.149 GC
2 setlinecap
1 LJ
0.521 LW
N
81 100.624 M
82.44 100.624 L
S
GR
GS
[0.95846 0 0 0.95927 0 0.18723] CT
0.149 GC
2 setlinecap
1 LJ
0.521 LW
N
81 71.287 M
82.44 71.287 L
S
GR
GS
[0.95846 0 0 0.95927 0 0.18723] CT
0.149 GC
2 setlinecap
1 LJ
0.521 LW
N
81 41.951 M
82.44 41.951 L
S
GR
GS
[0.95846 0 0 0.95927 0 0.18723] CT
0.149 GC
2 setlinecap
1 LJ
0.521 LW
N
89 159.297 M
87.56 159.297 L
S
GR
GS
[0.95846 0 0 0.95927 0 0.18723] CT
0.149 GC
2 setlinecap
1 LJ
0.521 LW
N
89 129.961 M
87.56 129.961 L
S
GR
GS
[0.95846 0 0 0.95927 0 0.18723] CT
0.149 GC
2 setlinecap
1 LJ
0.521 LW
N
89 100.624 M
87.56 100.624 L
S
GR
GS
[0.95846 0 0 0.95927 0 0.18723] CT
0.149 GC
2 setlinecap
1 LJ
0.521 LW
N
89 71.287 M
87.56 71.287 L
S
GR
GS
[0.95846 0 0 0.95927 0 0.18723] CT
0.149 GC
2 setlinecap
1 LJ
0.521 LW
N
89 41.951 M
87.56 41.951 L
S
GR
GS
[0.95846 0 0 0.95927 75.4391 152.99652] CT
0.149 GC
/Helvetica 11.458 F
GS
[1 0 0 1 0 0] CT
-7 4 moveto 
1 -1 scale
(0) t 
GR
GR
GS
[0.95846 0 0 0.95927 75.4391 124.85473] CT
0.149 GC
/Helvetica 11.458 F
GS
[1 0 0 1 0 0] CT
-16 4 moveto 
1 -1 scale
(0.1) t 
GR
GR
GS
[0.95846 0 0 0.95927 75.4391 96.71294] CT
0.149 GC
/Helvetica 11.458 F
GS
[1 0 0 1 0 0] CT
-16 4 moveto 
1 -1 scale
(0.2) t 
GR
GR
GS
[0.95846 0 0 0.95927 75.4391 68.57116] CT
0.149 GC
/Helvetica 11.458 F
GS
[1 0 0 1 0 0] CT
-16 4 moveto 
1 -1 scale
(0.3) t 
GR
GR
GS
[0.95846 0 0 0.95927 75.4391 40.42937] CT
0.149 GC
/Helvetica 11.458 F
GS
[1 0 0 1 0 0] CT
-16 4 moveto 
1 -1 scale
(0.4) t 
GR
GR
GS
[0.95846 0 0 0.95927 81.46952 27.98213] CT
/Helvetica-Bold 12.604 F
GS
[1 0 0 1 0 0] CT
-5 -3 moveto 
1 -1 scale
(V) t 
GR
GR
GS
[0.95846 0 0 0.95927 0 0.18723] CT
1 LJ
0.521 LW
N
81.2 159.297 M
81.4 159.297 L
81.6 159.297 L
81.8 159.297 L
82 159.297 L
82.2 159.297 L
82.4 159.297 L
82.6 159.297 L
82.8 159.297 L
83 159.297 L
83.2 159.297 L
83.4 159.297 L
83.6 159.297 L
83.8 159.297 L
84 159.297 L
84.2 159.297 L
84.4 159.297 L
84.6 159.297 L
84.8 159.297 L
85 159.297 L
85.2 159.297 L
85.4 159.297 L
85.6 159.297 L
85.8 159.297 L
86 159.297 L
86.2 159.297 L
86.4 159.297 L
86.6 159.297 L
86.8 159.297 L
87 159.297 L
87.2 159.297 L
87.4 159.297 L
87.6 159.297 L
87.8 159.297 L
88 159.297 L
88.2 159.297 L
88.4 159.297 L
88.6 159.297 L
88.8 159.297 L
89 159.297 L
89.001 159.297 L
S
GR
GS
[0.95846 0 0 0.95927 0 0.18723] CT
1 0 0 RC
1 LJ
2.083 LW
N
81.2 47.502 M
81.4 32 L
81.6 44.073 L
81.8 65.905 L
82 89.395 L
82.2 110.724 L
82.4 128.488 L
82.6 142.446 L
82.8 152.955 L
83 160.645 L
83.2 166.135 L
83.4 169.901 L
83.6 172.441 L
83.8 174.088 L
84 175.1 L
84.2 175.657 L
84.4 175.922 L
84.6 176 L
84.8 175.927 L
85 175.737 L
85.2 175.44 L
85.4 175.042 L
85.6 174.587 L
85.8 174.1 L
86 173.594 L
86.2 173.105 L
86.4 172.639 L
86.6 172.167 L
86.8 171.697 L
87 171.212 L
87.2 170.704 L
87.4 170.154 L
87.6 169.598 L
87.8 169.078 L
88 168.576 L
88.2 168.043 L
88.4 167.46 L
88.6 166.859 L
88.8 166.253 L
89 165.656 L
89.001 165.653 L
S
GR
GS
[0.95846 0 0 0.95927 0 0.18723] CT
0 0 1 RC
[8 8] 0 setdash
2 LJ
2.083 LW
N
81.2 158.715 M
81.4 158.961 L
81.6 159.033 L
81.8 159.073 L
82 159.093 L
82.2 159.104 L
82.4 159.109 L
82.6 159.112 L
82.8 159.113 L
83 159.114 L
83.2 159.115 L
83.4 159.115 L
83.6 159.116 L
83.8 159.117 L
84 159.119 L
84.2 159.12 L
84.4 159.122 L
84.6 159.124 L
84.8 159.125 L
85 159.127 L
85.2 159.129 L
85.4 159.131 L
85.6 159.133 L
85.8 159.136 L
86 159.138 L
86.2 159.14 L
86.4 159.142 L
86.6 159.145 L
86.8 159.147 L
87 159.15 L
87.2 159.152 L
87.4 159.154 L
87.6 159.157 L
87.8 159.159 L
88 159.162 L
88.2 159.164 L
88.4 159.166 L
88.6 159.169 L
88.8 159.171 L
89 159.174 L
89.001 159.174 L
S
GR
GS
[0.95846 0 0 0.95927 0 0.18723] CT
1 GC
N
124 176 M
131 176 L
131 32 L
124 32 L
cp
f
GR
GS
[0.95846 0 0 0.95927 0 0.18723] CT
0.149 GC
2 setlinecap
1 LJ
0.521 LW
N
124 176 M
131 176 L
S
GR
GS
[0.95846 0 0 0.95927 0 0.18723] CT
0.149 GC
2 setlinecap
1 LJ
0.521 LW
N
124 32 M
131 32 L
S
GR
GS
[0.95846 0 0 0.95927 0 0.18723] CT
0.149 GC
2 setlinecap
1 LJ
0.521 LW
N
124 176 M
124 174.56 L
S
GR
GS
[0.95846 0 0 0.95927 0 0.18723] CT
0.149 GC
2 setlinecap
1 LJ
0.521 LW
N
125.4 176 M
125.4 174.56 L
S
GR
GS
[0.95846 0 0 0.95927 0 0.18723] CT
0.149 GC
2 setlinecap
1 LJ
0.521 LW
N
126.8 176 M
126.8 174.56 L
S
GR
GS
[0.95846 0 0 0.95927 0 0.18723] CT
0.149 GC
2 setlinecap
1 LJ
0.521 LW
N
128.2 176 M
128.2 174.56 L
S
GR
GS
[0.95846 0 0 0.95927 0 0.18723] CT
0.149 GC
2 setlinecap
1 LJ
0.521 LW
N
129.6 176 M
129.6 174.56 L
S
GR
GS
[0.95846 0 0 0.95927 0 0.18723] CT
0.149 GC
2 setlinecap
1 LJ
0.521 LW
N
131 176 M
131 174.56 L
S
GR
GS
[0.95846 0 0 0.95927 0 0.18723] CT
0.149 GC
2 setlinecap
1 LJ
0.521 LW
N
124 32 M
124 33.44 L
S
GR
GS
[0.95846 0 0 0.95927 0 0.18723] CT
0.149 GC
2 setlinecap
1 LJ
0.521 LW
N
125.4 32 M
125.4 33.44 L
S
GR
GS
[0.95846 0 0 0.95927 0 0.18723] CT
0.149 GC
2 setlinecap
1 LJ
0.521 LW
N
126.8 32 M
126.8 33.44 L
S
GR
GS
[0.95846 0 0 0.95927 0 0.18723] CT
0.149 GC
2 setlinecap
1 LJ
0.521 LW
N
128.2 32 M
128.2 33.44 L
S
GR
GS
[0.95846 0 0 0.95927 0 0.18723] CT
0.149 GC
2 setlinecap
1 LJ
0.521 LW
N
129.6 32 M
129.6 33.44 L
S
GR
GS
[0.95846 0 0 0.95927 0 0.18723] CT
0.149 GC
2 setlinecap
1 LJ
0.521 LW
N
131 32 M
131 33.44 L
S
GR
GS
[0.95846 0 0 0.95927 118.84953 171.21743] CT
0.149 GC
/Helvetica 11.458 F
GS
[1 0 0 1 0 0] CT
-3.5 11 moveto 
1 -1 scale
(0) t 
GR
GR
GS
[0.95846 0 0 0.95927 120.19138 171.21743] CT
0.149 GC
/Helvetica 11.458 F
GS
[1 0 0 1 0 0] CT
-3.5 11 moveto 
1 -1 scale
(8) t 
GR
GR
GS
[0.95846 0 0 0.95927 121.53323 171.21743] CT
0.149 GC
/Helvetica 11.458 F
GS
[1 0 0 1 0 0] CT
-6.5 11 moveto 
1 -1 scale
(16) t 
GR
GR
GS
[0.95846 0 0 0.95927 122.87508 171.21743] CT
0.149 GC
/Helvetica 11.458 F
GS
[1 0 0 1 0 0] CT
-6.5 11 moveto 
1 -1 scale
(24) t 
GR
GR
GS
[0.95846 0 0 0.95927 124.21693 171.21743] CT
0.149 GC
/Helvetica 11.458 F
GS
[1 0 0 1 0 0] CT
-6.5 11 moveto 
1 -1 scale
(32) t 
GR
GR
GS
[0.95846 0 0 0.95927 125.55878 171.21743] CT
0.149 GC
/Helvetica 11.458 F
GS
[1 0 0 1 0 0] CT
-6.5 11 moveto 
1 -1 scale
(40) t 
GR
GR
GS
[0.95846 0 0 0.95927 0 0.18723] CT
0.149 GC
2 setlinecap
1 LJ
0.521 LW
N
124 176 M
124 32 L
S
GR
GS
[0.95846 0 0 0.95927 0 0.18723] CT
0.149 GC
2 setlinecap
1 LJ
0.521 LW
N
131 176 M
131 32 L
S
GR
GS
[0.95846 0 0 0.95927 0 0.18723] CT
0.149 GC
2 setlinecap
1 LJ
0.521 LW
N
124 174.058 M
125.44 174.058 L
S
GR
GS
[0.95846 0 0 0.95927 0 0.18723] CT
0.149 GC
2 setlinecap
1 LJ
0.521 LW
N
124 138.544 M
125.44 138.544 L
S
GR
GS
[0.95846 0 0 0.95927 0 0.18723] CT
0.149 GC
2 setlinecap
1 LJ
0.521 LW
N
124 103.029 M
125.44 103.029 L
S
GR
GS
[0.95846 0 0 0.95927 0 0.18723] CT
0.149 GC
2 setlinecap
1 LJ
0.521 LW
N
124 67.515 M
125.44 67.515 L
S
GR
GS
[0.95846 0 0 0.95927 0 0.18723] CT
0.149 GC
2 setlinecap
1 LJ
0.521 LW
N
124 32 M
125.44 32 L
S
GR
GS
[0.95846 0 0 0.95927 0 0.18723] CT
0.149 GC
2 setlinecap
1 LJ
0.521 LW
N
131 174.058 M
129.56 174.058 L
S
GR
GS
[0.95846 0 0 0.95927 0 0.18723] CT
0.149 GC
2 setlinecap
1 LJ
0.521 LW
N
131 138.544 M
129.56 138.544 L
S
GR
GS
[0.95846 0 0 0.95927 0 0.18723] CT
0.149 GC
2 setlinecap
1 LJ
0.521 LW
N
131 103.029 M
129.56 103.029 L
S
GR
GS
[0.95846 0 0 0.95927 0 0.18723] CT
0.149 GC
2 setlinecap
1 LJ
0.521 LW
N
131 67.515 M
129.56 67.515 L
S
GR
GS
[0.95846 0 0 0.95927 0 0.18723] CT
0.149 GC
2 setlinecap
1 LJ
0.521 LW
N
131 32 M
129.56 32 L
S
GR
GS
[0.95846 0 0 0.95927 116.65305 167.15652] CT
0.149 GC
/Helvetica 11.458 F
GS
[1 0 0 1 0 0] CT
-26 4 moveto 
1 -1 scale
(-0.05) t 
GR
GR
GS
[0.95846 0 0 0.95927 116.65305 133.08837] CT
0.149 GC
/Helvetica 11.458 F
GS
[1 0 0 1 0 0] CT
-7 4 moveto 
1 -1 scale
(0) t 
GR
GR
GS
[0.95846 0 0 0.95927 116.65305 99.02023] CT
0.149 GC
/Helvetica 11.458 F
GS
[1 0 0 1 0 0] CT
-23 4 moveto 
1 -1 scale
(0.05) t 
GR
GR
GS
[0.95846 0 0 0.95927 116.65305 64.95208] CT
0.149 GC
/Helvetica 11.458 F
GS
[1 0 0 1 0 0] CT
-16 4 moveto 
1 -1 scale
(0.1) t 
GR
GR
GS
[0.95846 0 0 0.95927 116.65305 30.88392] CT
0.149 GC
/Helvetica 11.458 F
GS
[1 0 0 1 0 0] CT
-23 4 moveto 
1 -1 scale
(0.15) t 
GR
GR
GS
[0.95846 0 0 0.95927 122.20427 27.98213] CT
/Helvetica-Bold 12.604 F
GS
[1 0 0 1 0 0] CT
-8.5 -3 moveto 
1 -1 scale
(Dy) t 
GR
GR
GS
[0.95846 0 0 0.95927 0 0.18723] CT
1 LJ
0.521 LW
N
124.175 138.544 M
124.35 138.544 L
124.525 138.544 L
124.7 138.544 L
124.875 138.544 L
125.05 138.544 L
125.225 138.544 L
125.4 138.544 L
125.575 138.544 L
125.75 138.544 L
125.925 138.544 L
126.1 138.544 L
126.275 138.544 L
126.45 138.544 L
126.625 138.544 L
126.8 138.544 L
126.975 138.544 L
127.15 138.544 L
127.325 138.544 L
127.5 138.544 L
127.675 138.544 L
127.85 138.544 L
128.025 138.544 L
128.2 138.544 L
128.375 138.544 L
128.55 138.544 L
128.725 138.544 L
128.9 138.544 L
129.075 138.544 L
129.25 138.544 L
129.425 138.544 L
129.6 138.544 L
129.775 138.544 L
129.95 138.544 L
130.125 138.544 L
130.3 138.544 L
130.475 138.544 L
130.65 138.544 L
130.825 138.544 L
131 138.544 L
131.001 138.544 L
S
GR
GS
[0.95846 0 0 0.95927 0 0.18723] CT
1 0 0 RC
1 LJ
2.083 LW
N
124.175 71.032 M
124.35 58.744 L
124.525 62.375 L
124.7 71.743 L
124.875 149.931 L
125.05 171.894 L
125.225 176 L
125.4 172.325 L
125.575 165.66 L
125.75 158.536 L
125.925 152.1 L
126.1 146.796 L
126.275 142.699 L
126.45 139.655 L
126.625 137.466 L
126.8 135.952 L
126.975 134.946 L
127.15 134.302 L
127.325 133.906 L
127.5 133.679 L
127.675 133.541 L
127.85 133.457 L
128.025 133.426 L
128.2 133.44 L
128.375 133.503 L
128.55 133.619 L
128.725 133.759 L
128.9 133.901 L
129.075 134.053 L
129.25 134.172 L
129.425 134.276 L
129.6 134.363 L
129.775 134.457 L
129.95 134.578 L
130.125 134.708 L
130.3 134.839 L
130.475 134.938 L
130.65 135.023 L
130.825 135.099 L
131 135.208 L
131.001 135.209 L
S
GR
GS
[0.95846 0 0 0.95927 0 0.18723] CT
0 0 1 RC
[8 8] 0 setdash
2 LJ
2.083 LW
N
124.175 108.258 M
124.35 99.271 L
124.525 94.288 L
124.7 91.6 L
124.875 120.444 L
125.05 128.692 L
125.225 133.264 L
125.4 135.69 L
125.575 136.907 L
125.75 137.463 L
125.925 137.67 L
126.1 137.706 L
126.275 137.663 L
126.45 137.591 L
126.625 137.512 L
126.8 137.438 L
126.975 137.372 L
127.15 137.313 L
127.325 137.263 L
127.5 137.22 L
127.675 137.182 L
127.85 137.15 L
128.025 137.122 L
128.2 137.098 L
128.375 137.078 L
128.55 137.062 L
128.725 137.048 L
128.9 137.036 L
129.075 137.028 L
129.25 137.022 L
129.425 137.018 L
129.6 137.016 L
129.775 137.016 L
129.95 137.017 L
130.125 137.021 L
130.3 137.026 L
130.475 137.032 L
130.65 137.04 L
130.825 137.049 L
131 137.06 L
131.001 137.06 L
S
GR
GS
[0.95846 0 0 0.95927 0 0.18723] CT
1 GC
N
39 376 M
47 376 L
47 232 L
39 232 L
cp
f
GR
GS
[0.95846 0 0 0.95927 0 0.18723] CT
0.149 GC
2 setlinecap
1 LJ
0.521 LW
N
39 376 M
47 376 L
S
GR
GS
[0.95846 0 0 0.95927 0 0.18723] CT
0.149 GC
2 setlinecap
1 LJ
0.521 LW
N
39 232 M
47 232 L
S
GR
GS
[0.95846 0 0 0.95927 0 0.18723] CT
0.149 GC
2 setlinecap
1 LJ
0.521 LW
N
39 376 M
39 374.56 L
S
GR
GS
[0.95846 0 0 0.95927 0 0.18723] CT
0.149 GC
2 setlinecap
1 LJ
0.521 LW
N
40.6 376 M
40.6 374.56 L
S
GR
GS
[0.95846 0 0 0.95927 0 0.18723] CT
0.149 GC
2 setlinecap
1 LJ
0.521 LW
N
42.2 376 M
42.2 374.56 L
S
GR
GS
[0.95846 0 0 0.95927 0 0.18723] CT
0.149 GC
2 setlinecap
1 LJ
0.521 LW
N
43.8 376 M
43.8 374.56 L
S
GR
GS
[0.95846 0 0 0.95927 0 0.18723] CT
0.149 GC
2 setlinecap
1 LJ
0.521 LW
N
45.4 376 M
45.4 374.56 L
S
GR
GS
[0.95846 0 0 0.95927 0 0.18723] CT
0.149 GC
2 setlinecap
1 LJ
0.521 LW
N
47 376 M
47 374.56 L
S
GR
GS
[0.95846 0 0 0.95927 0 0.18723] CT
0.149 GC
2 setlinecap
1 LJ
0.521 LW
N
39 232 M
39 233.44 L
S
GR
GS
[0.95846 0 0 0.95927 0 0.18723] CT
0.149 GC
2 setlinecap
1 LJ
0.521 LW
N
40.6 232 M
40.6 233.44 L
S
GR
GS
[0.95846 0 0 0.95927 0 0.18723] CT
0.149 GC
2 setlinecap
1 LJ
0.521 LW
N
42.2 232 M
42.2 233.44 L
S
GR
GS
[0.95846 0 0 0.95927 0 0.18723] CT
0.149 GC
2 setlinecap
1 LJ
0.521 LW
N
43.8 232 M
43.8 233.44 L
S
GR
GS
[0.95846 0 0 0.95927 0 0.18723] CT
0.149 GC
2 setlinecap
1 LJ
0.521 LW
N
45.4 232 M
45.4 233.44 L
S
GR
GS
[0.95846 0 0 0.95927 0 0.18723] CT
0.149 GC
2 setlinecap
1 LJ
0.521 LW
N
47 232 M
47 233.44 L
S
GR
GS
[0.95846 0 0 0.95927 37.38009 363.07181] CT
0.149 GC
/Helvetica 11.458 F
GS
[1 0 0 1 0 0] CT
-3.5 11 moveto 
1 -1 scale
(0) t 
GR
GR
GS
[0.95846 0 0 0.95927 38.91363 363.07181] CT
0.149 GC
/Helvetica 11.458 F
GS
[1 0 0 1 0 0] CT
-3.5 11 moveto 
1 -1 scale
(8) t 
GR
GR
GS
[0.95846 0 0 0.95927 40.44718 363.07181] CT
0.149 GC
/Helvetica 11.458 F
GS
[1 0 0 1 0 0] CT
-6.5 11 moveto 
1 -1 scale
(16) t 
GR
GR
GS
[0.95846 0 0 0.95927 41.98072 363.07181] CT
0.149 GC
/Helvetica 11.458 F
GS
[1 0 0 1 0 0] CT
-6.5 11 moveto 
1 -1 scale
(24) t 
GR
GR
GS
[0.95846 0 0 0.95927 43.51426 363.07181] CT
0.149 GC
/Helvetica 11.458 F
GS
[1 0 0 1 0 0] CT
-6.5 11 moveto 
1 -1 scale
(32) t 
GR
GR
GS
[0.95846 0 0 0.95927 45.04781 363.07181] CT
0.149 GC
/Helvetica 11.458 F
GS
[1 0 0 1 0 0] CT
-6.5 11 moveto 
1 -1 scale
(40) t 
GR
GR
GS
[0.95846 0 0 0.95927 0 0.18723] CT
0.149 GC
2 setlinecap
1 LJ
0.521 LW
N
39 376 M
39 232 L
S
GR
GS
[0.95846 0 0 0.95927 0 0.18723] CT
0.149 GC
2 setlinecap
1 LJ
0.521 LW
N
47 376 M
47 232 L
S
GR
GS
[0.95846 0 0 0.95927 0 0.18723] CT
0.149 GC
2 setlinecap
1 LJ
0.521 LW
N
39 376 M
40.44 376 L
S
GR
GS
[0.95846 0 0 0.95927 0 0.18723] CT
0.149 GC
2 setlinecap
1 LJ
0.521 LW
N
39 347.2 M
40.44 347.2 L
S
GR
GS
[0.95846 0 0 0.95927 0 0.18723] CT
0.149 GC
2 setlinecap
1 LJ
0.521 LW
N
39 318.4 M
40.44 318.4 L
S
GR
GS
[0.95846 0 0 0.95927 0 0.18723] CT
0.149 GC
2 setlinecap
1 LJ
0.521 LW
N
39 289.6 M
40.44 289.6 L
S
GR
GS
[0.95846 0 0 0.95927 0 0.18723] CT
0.149 GC
2 setlinecap
1 LJ
0.521 LW
N
39 260.8 M
40.44 260.8 L
S
GR
GS
[0.95846 0 0 0.95927 0 0.18723] CT
0.149 GC
2 setlinecap
1 LJ
0.521 LW
N
39 232 M
40.44 232 L
S
GR
GS
[0.95846 0 0 0.95927 0 0.18723] CT
0.149 GC
2 setlinecap
1 LJ
0.521 LW
N
47 376 M
45.56 376 L
S
GR
GS
[0.95846 0 0 0.95927 0 0.18723] CT
0.149 GC
2 setlinecap
1 LJ
0.521 LW
N
47 347.2 M
45.56 347.2 L
S
GR
GS
[0.95846 0 0 0.95927 0 0.18723] CT
0.149 GC
2 setlinecap
1 LJ
0.521 LW
N
47 318.4 M
45.56 318.4 L
S
GR
GS
[0.95846 0 0 0.95927 0 0.18723] CT
0.149 GC
2 setlinecap
1 LJ
0.521 LW
N
47 289.6 M
45.56 289.6 L
S
GR
GS
[0.95846 0 0 0.95927 0 0.18723] CT
0.149 GC
2 setlinecap
1 LJ
0.521 LW
N
47 260.8 M
45.56 260.8 L
S
GR
GS
[0.95846 0 0 0.95927 0 0.18723] CT
0.149 GC
2 setlinecap
1 LJ
0.521 LW
N
47 232 M
45.56 232 L
S
GR
GS
[0.95846 0 0 0.95927 35.18361 360.87349] CT
0.149 GC
/Helvetica 11.458 F
GS
[1 0 0 1 0 0] CT
-20 4 moveto 
1 -1 scale
(-0.1) t 
GR
GR
GS
[0.95846 0 0 0.95927 35.18361 333.24647] CT
0.149 GC
/Helvetica 11.458 F
GS
[1 0 0 1 0 0] CT
-7 4 moveto 
1 -1 scale
(0) t 
GR
GR
GS
[0.95846 0 0 0.95927 35.18361 305.61942] CT
0.149 GC
/Helvetica 11.458 F
GS
[1 0 0 1 0 0] CT
-16 4 moveto 
1 -1 scale
(0.1) t 
GR
GR
GS
[0.95846 0 0 0.95927 35.18361 277.9924] CT
0.149 GC
/Helvetica 11.458 F
GS
[1 0 0 1 0 0] CT
-16 4 moveto 
1 -1 scale
(0.2) t 
GR
GR
GS
[0.95846 0 0 0.95927 35.18361 250.36535] CT
0.149 GC
/Helvetica 11.458 F
GS
[1 0 0 1 0 0] CT
-16 4 moveto 
1 -1 scale
(0.3) t 
GR
GR
GS
[0.95846 0 0 0.95927 35.18361 222.73832] CT
0.149 GC
/Helvetica 11.458 F
GS
[1 0 0 1 0 0] CT
-16 4 moveto 
1 -1 scale
(0.4) t 
GR
GR
GS
[0.95846 0 0 0.95927 41.21399 219.83653] CT
/Helvetica-Bold 12.604 F
GS
[1 0 0 1 0 0] CT
-12.5 -3 moveto 
1 -1 scale
(PDy) t 
GR
GR
GS
[0.95846 0 0 0.95927 0 0.18723] CT
1 LJ
0.521 LW
N
39.2 347.2 M
39.4 347.2 L
39.6 347.2 L
39.8 347.2 L
40 347.2 L
40.2 347.2 L
40.4 347.2 L
40.6 347.2 L
40.8 347.2 L
41 347.2 L
41.2 347.2 L
41.4 347.2 L
41.6 347.2 L
41.8 347.2 L
42 347.2 L
42.2 347.2 L
42.4 347.2 L
42.6 347.2 L
42.8 347.2 L
43 347.2 L
43.2 347.2 L
43.4 347.2 L
43.6 347.2 L
43.8 347.2 L
44 347.2 L
44.2 347.2 L
44.4 347.2 L
44.6 347.2 L
44.8 347.2 L
45 347.2 L
45.2 347.2 L
45.4 347.2 L
45.6 347.2 L
45.8 347.2 L
46 347.2 L
46.2 347.2 L
46.4 347.2 L
46.6 347.2 L
46.8 347.2 L
47 347.2 L
47.001 347.2 L
S
GR
GS
[0.95846 0 0 0.95927 0 0.18723] CT
1 0 0 RC
1 LJ
2.083 LW
N
39.2 264.824 M
39.4 254.588 L
39.6 264.967 L
39.8 282.602 L
40 273.959 L
40.2 285.993 L
40.4 301.767 L
40.6 316.96 L
40.8 329.98 L
41 340.417 L
41.2 348.416 L
41.4 354.264 L
41.6 358.419 L
41.8 361.27 L
42 363.151 L
42.2 364.312 L
42.4 364.98 L
42.6 365.317 L
42.8 365.406 L
43 365.311 L
43.2 365.077 L
43.4 364.719 L
43.6 364.285 L
43.8 363.801 L
44 363.279 L
44.2 362.752 L
44.4 362.238 L
44.6 361.717 L
44.8 361.194 L
45 360.669 L
45.2 360.128 L
45.4 359.553 L
45.6 358.97 L
45.8 358.41 L
46 357.864 L
46.2 357.288 L
46.4 356.675 L
46.6 356.051 L
46.8 355.425 L
47 354.795 L
47.001 354.792 L
S
GR
GS
[0.95846 0 0 0.95927 0 0.18723] CT
0 0 1 RC
[8 8] 0 setdash
2 LJ
2.083 LW
N
39.2 358.909 M
39.4 362.794 L
39.6 364.885 L
39.8 366.014 L
40 354.339 L
40.2 351.005 L
40.4 349.157 L
40.6 348.175 L
40.8 347.683 L
41 347.458 L
41.2 347.375 L
41.4 347.361 L
41.6 347.38 L
41.8 347.41 L
42 347.443 L
42.2 347.475 L
42.4 347.503 L
42.6 347.528 L
42.8 347.551 L
43 347.57 L
43.2 347.587 L
43.4 347.602 L
43.6 347.616 L
43.8 347.627 L
44 347.638 L
44.2 347.647 L
44.4 347.655 L
44.6 347.662 L
44.8 347.667 L
45 347.672 L
45.2 347.676 L
45.4 347.679 L
45.6 347.682 L
45.8 347.684 L
46 347.684 L
46.2 347.685 L
46.4 347.685 L
46.6 347.684 L
46.8 347.682 L
47 347.681 L
47.001 347.681 L
S
GR
GS
[0.95846 0 0 0.95927 0 0.18723] CT
1 GC
N
81 376 M
89 376 L
89 232 L
81 232 L
cp
f
GR
GS
[0.95846 0 0 0.95927 0 0.18723] CT
0.149 GC
2 setlinecap
1 LJ
0.521 LW
N
81 376 M
89 376 L
S
GR
GS
[0.95846 0 0 0.95927 0 0.18723] CT
0.149 GC
2 setlinecap
1 LJ
0.521 LW
N
81 232 M
89 232 L
S
GR
GS
[0.95846 0 0 0.95927 0 0.18723] CT
0.149 GC
2 setlinecap
1 LJ
0.521 LW
N
81 376 M
81 374.56 L
S
GR
GS
[0.95846 0 0 0.95927 0 0.18723] CT
0.149 GC
2 setlinecap
1 LJ
0.521 LW
N
82.6 376 M
82.6 374.56 L
S
GR
GS
[0.95846 0 0 0.95927 0 0.18723] CT
0.149 GC
2 setlinecap
1 LJ
0.521 LW
N
84.2 376 M
84.2 374.56 L
S
GR
GS
[0.95846 0 0 0.95927 0 0.18723] CT
0.149 GC
2 setlinecap
1 LJ
0.521 LW
N
85.8 376 M
85.8 374.56 L
S
GR
GS
[0.95846 0 0 0.95927 0 0.18723] CT
0.149 GC
2 setlinecap
1 LJ
0.521 LW
N
87.4 376 M
87.4 374.56 L
S
GR
GS
[0.95846 0 0 0.95927 0 0.18723] CT
0.149 GC
2 setlinecap
1 LJ
0.521 LW
N
89 376 M
89 374.56 L
S
GR
GS
[0.95846 0 0 0.95927 0 0.18723] CT
0.149 GC
2 setlinecap
1 LJ
0.521 LW
N
81 232 M
81 233.44 L
S
GR
GS
[0.95846 0 0 0.95927 0 0.18723] CT
0.149 GC
2 setlinecap
1 LJ
0.521 LW
N
82.6 232 M
82.6 233.44 L
S
GR
GS
[0.95846 0 0 0.95927 0 0.18723] CT
0.149 GC
2 setlinecap
1 LJ
0.521 LW
N
84.2 232 M
84.2 233.44 L
S
GR
GS
[0.95846 0 0 0.95927 0 0.18723] CT
0.149 GC
2 setlinecap
1 LJ
0.521 LW
N
85.8 232 M
85.8 233.44 L
S
GR
GS
[0.95846 0 0 0.95927 0 0.18723] CT
0.149 GC
2 setlinecap
1 LJ
0.521 LW
N
87.4 232 M
87.4 233.44 L
S
GR
GS
[0.95846 0 0 0.95927 0 0.18723] CT
0.149 GC
2 setlinecap
1 LJ
0.521 LW
N
89 232 M
89 233.44 L
S
GR
GS
[0.95846 0 0 0.95927 77.63558 363.07181] CT
0.149 GC
/Helvetica 11.458 F
GS
[1 0 0 1 0 0] CT
-3.5 11 moveto 
1 -1 scale
(0) t 
GR
GR
GS
[0.95846 0 0 0.95927 79.16912 363.07181] CT
0.149 GC
/Helvetica 11.458 F
GS
[1 0 0 1 0 0] CT
-3.5 11 moveto 
1 -1 scale
(8) t 
GR
GR
GS
[0.95846 0 0 0.95927 80.70266 363.07181] CT
0.149 GC
/Helvetica 11.458 F
GS
[1 0 0 1 0 0] CT
-6.5 11 moveto 
1 -1 scale
(16) t 
GR
GR
GS
[0.95846 0 0 0.95927 82.23621 363.07181] CT
0.149 GC
/Helvetica 11.458 F
GS
[1 0 0 1 0 0] CT
-6.5 11 moveto 
1 -1 scale
(24) t 
GR
GR
GS
[0.95846 0 0 0.95927 83.76975 363.07181] CT
0.149 GC
/Helvetica 11.458 F
GS
[1 0 0 1 0 0] CT
-6.5 11 moveto 
1 -1 scale
(32) t 
GR
GR
GS
[0.95846 0 0 0.95927 85.30329 363.07181] CT
0.149 GC
/Helvetica 11.458 F
GS
[1 0 0 1 0 0] CT
-6.5 11 moveto 
1 -1 scale
(40) t 
GR
GR
GS
[0.95846 0 0 0.95927 0 0.18723] CT
0.149 GC
2 setlinecap
1 LJ
0.521 LW
N
81 376 M
81 232 L
S
GR
GS
[0.95846 0 0 0.95927 0 0.18723] CT
0.149 GC
2 setlinecap
1 LJ
0.521 LW
N
89 376 M
89 232 L
S
GR
GS
[0.95846 0 0 0.95927 0 0.18723] CT
0.149 GC
2 setlinecap
1 LJ
0.521 LW
N
81 376 M
82.44 376 L
S
GR
GS
[0.95846 0 0 0.95927 0 0.18723] CT
0.149 GC
2 setlinecap
1 LJ
0.521 LW
N
81 347.2 M
82.44 347.2 L
S
GR
GS
[0.95846 0 0 0.95927 0 0.18723] CT
0.149 GC
2 setlinecap
1 LJ
0.521 LW
N
81 318.4 M
82.44 318.4 L
S
GR
GS
[0.95846 0 0 0.95927 0 0.18723] CT
0.149 GC
2 setlinecap
1 LJ
0.521 LW
N
81 289.6 M
82.44 289.6 L
S
GR
GS
[0.95846 0 0 0.95927 0 0.18723] CT
0.149 GC
2 setlinecap
1 LJ
0.521 LW
N
81 260.8 M
82.44 260.8 L
S
GR
GS
[0.95846 0 0 0.95927 0 0.18723] CT
0.149 GC
2 setlinecap
1 LJ
0.521 LW
N
81 232 M
82.44 232 L
S
GR
GS
[0.95846 0 0 0.95927 0 0.18723] CT
0.149 GC
2 setlinecap
1 LJ
0.521 LW
N
89 376 M
87.56 376 L
S
GR
GS
[0.95846 0 0 0.95927 0 0.18723] CT
0.149 GC
2 setlinecap
1 LJ
0.521 LW
N
89 347.2 M
87.56 347.2 L
S
GR
GS
[0.95846 0 0 0.95927 0 0.18723] CT
0.149 GC
2 setlinecap
1 LJ
0.521 LW
N
89 318.4 M
87.56 318.4 L
S
GR
GS
[0.95846 0 0 0.95927 0 0.18723] CT
0.149 GC
2 setlinecap
1 LJ
0.521 LW
N
89 289.6 M
87.56 289.6 L
S
GR
GS
[0.95846 0 0 0.95927 0 0.18723] CT
0.149 GC
2 setlinecap
1 LJ
0.521 LW
N
89 260.8 M
87.56 260.8 L
S
GR
GS
[0.95846 0 0 0.95927 0 0.18723] CT
0.149 GC
2 setlinecap
1 LJ
0.521 LW
N
89 232 M
87.56 232 L
S
GR
GS
[0.95846 0 0 0.95927 75.4391 360.87349] CT
0.149 GC
/Helvetica 11.458 F
GS
[1 0 0 1 0 0] CT
-10 4 moveto 
1 -1 scale
(-8) t 
GR
GR
GS
[0.95846 0 0 0.95927 75.4391 333.24647] CT
0.149 GC
/Helvetica 11.458 F
GS
[1 0 0 1 0 0] CT
-10 4 moveto 
1 -1 scale
(-6) t 
GR
GR
GS
[0.95846 0 0 0.95927 75.4391 305.61942] CT
0.149 GC
/Helvetica 11.458 F
GS
[1 0 0 1 0 0] CT
-10 4 moveto 
1 -1 scale
(-4) t 
GR
GR
GS
[0.95846 0 0 0.95927 75.4391 277.9924] CT
0.149 GC
/Helvetica 11.458 F
GS
[1 0 0 1 0 0] CT
-10 4 moveto 
1 -1 scale
(-2) t 
GR
GR
GS
[0.95846 0 0 0.95927 75.4391 250.36535] CT
0.149 GC
/Helvetica 11.458 F
GS
[1 0 0 1 0 0] CT
-7 4 moveto 
1 -1 scale
(0) t 
GR
GR
GS
[0.95846 0 0 0.95927 75.4391 222.73832] CT
0.149 GC
/Helvetica 11.458 F
GS
[1 0 0 1 0 0] CT
-7 4 moveto 
1 -1 scale
(2) t 
GR
GR
GS
[0.95846 0 0 0.95927 77.63558 219.86051] CT
0.149 GC
N
1.609 -0.313 M
1.609 -0.406 1.672 -0.469 QT
3.953 -2.75 L
1.672 -5.031 L
1.609 -5.094 1.609 -5.188 QT
1.609 -5.266 1.68 -5.336 QT
1.75 -5.406 1.844 -5.406 QT
1.906 -5.406 2 -5.328 QT
4.281 -3.063 L
6.547 -5.328 L
6.641 -5.406 6.703 -5.406 QT
6.797 -5.406 6.859 -5.344 QT
6.922 -5.281 6.922 -5.188 QT
6.922 -5.094 6.875 -5.031 QT
4.594 -2.75 L
6.875 -0.469 L
6.922 -0.406 6.922 -0.313 QT
6.922 -0.219 6.859 -0.156 QT
6.797 -0.094 6.703 -0.094 QT
6.625 -0.094 6.547 -0.172 QT
4.281 -2.438 L
2 -0.172 L
1.922 -0.094 1.844 -0.094 QT
1.75 -0.094 1.68 -0.164 QT
1.609 -0.234 1.609 -0.313 QT
cp
f
GR
GS
[0.95846 0 0 0.95927 86.26176 219.86051] CT
0.149 GC
/Helvetica 11.458 F
GS
[1 0 0 1 0 0] CT
0 0 moveto 
1 -1 scale
(10) t 
GR
GR
GS
[0.95846 0 0 0.95927 98.72179 215.06415] CT
0.149 GC
/Helvetica 9.167 F
GS
[1 0 0 1 0 0] CT
0 0 moveto 
1 -1 scale
(-3) t 
GR
GR
GS
[0.95846 0 0 0.95927 81.46952 219.83653] CT
/Helvetica-Bold 12.604 F
GS
[1 0 0 1 0 0] CT
-4.5 -3 moveto 
1 -1 scale
(R) t 
GR
GR
GS
[0.95846 0 0 0.95927 0 0.18723] CT
1 LJ
0.521 LW
N
81.2 260.8 M
81.4 260.8 L
81.6 260.8 L
81.8 260.8 L
82 260.8 L
82.2 260.8 L
82.4 260.8 L
82.6 260.8 L
82.8 260.8 L
83 260.8 L
83.2 260.8 L
83.4 260.8 L
83.6 260.8 L
83.8 260.8 L
84 260.8 L
84.2 260.8 L
84.4 260.8 L
84.6 260.8 L
84.8 260.8 L
85 260.8 L
85.2 260.8 L
85.4 260.8 L
85.6 260.8 L
85.8 260.8 L
86 260.8 L
86.2 260.8 L
86.4 260.8 L
86.6 260.8 L
86.8 260.8 L
87 260.8 L
87.2 260.8 L
87.4 260.8 L
87.6 260.8 L
87.8 260.8 L
88 260.8 L
88.2 260.8 L
88.4 260.8 L
88.6 260.8 L
88.8 260.8 L
89 260.8 L
89.001 260.8 L
S
GR
GS
[0.95846 0 0 0.95927 0 0.18723] CT
1 0 0 RC
1 LJ
2.083 LW
N
81.2 375.032 M
81.4 324.322 L
81.6 291.263 L
81.8 271.955 L
82 261.852 L
82.2 257.405 L
82.4 256.137 L
82.6 256.474 L
82.8 257.472 L
83 258.615 L
83.2 259.656 L
83.4 260.503 L
83.6 261.14 L
83.8 261.59 L
84 261.889 L
84.2 262.075 L
84.4 262.176 L
84.6 262.221 L
84.8 262.23 L
85 262.214 L
85.2 262.184 L
85.4 262.141 L
85.6 262.088 L
85.8 262.03 L
86 261.968 L
86.2 261.903 L
86.4 261.841 L
86.6 261.783 L
86.8 261.726 L
87 261.674 L
87.2 261.622 L
87.4 261.573 L
87.6 261.518 L
87.8 261.465 L
88 261.414 L
88.2 261.369 L
88.4 261.324 L
88.6 261.277 L
88.8 261.229 L
89 261.18 L
89.001 261.18 L
S
GR
GS
[0.95846 0 0 0.95927 0 0.18723] CT
0 0 1 RC
[8 8] 0 setdash
2 LJ
2.083 LW
N
81.2 372.51 M
81.4 326.448 L
81.6 297.792 L
81.8 280.464 L
82 270.294 L
82.2 264.517 L
82.4 261.365 L
82.6 259.74 L
82.8 258.975 L
83 258.679 L
83.2 258.627 L
83.4 258.695 L
83.6 258.815 L
83.8 258.953 L
84 259.093 L
84.2 259.228 L
84.4 259.354 L
84.6 259.472 L
84.8 259.581 L
85 259.684 L
85.2 259.78 L
85.4 259.87 L
85.6 259.955 L
85.8 260.035 L
86 260.11 L
86.2 260.181 L
86.4 260.248 L
86.6 260.311 L
86.8 260.371 L
87 260.427 L
87.2 260.479 L
87.4 260.529 L
87.6 260.576 L
87.8 260.62 L
88 260.662 L
88.2 260.7 L
88.4 260.736 L
88.6 260.771 L
88.8 260.802 L
89 260.832 L
89.001 260.832 L
S
GR
GS
[0.95846 0 0 0.95927 0 0.18723] CT
1 GC
N
124 376 M
131 376 L
131 232 L
124 232 L
cp
f
GR
GS
[0.95846 0 0 0.95927 0 0.18723] CT
0.149 GC
2 setlinecap
1 LJ
0.521 LW
N
124 376 M
131 376 L
S
GR
GS
[0.95846 0 0 0.95927 0 0.18723] CT
0.149 GC
2 setlinecap
1 LJ
0.521 LW
N
124 232 M
131 232 L
S
GR
GS
[0.95846 0 0 0.95927 0 0.18723] CT
0.149 GC
2 setlinecap
1 LJ
0.521 LW
N
124 376 M
124 374.56 L
S
GR
GS
[0.95846 0 0 0.95927 0 0.18723] CT
0.149 GC
2 setlinecap
1 LJ
0.521 LW
N
125.4 376 M
125.4 374.56 L
S
GR
GS
[0.95846 0 0 0.95927 0 0.18723] CT
0.149 GC
2 setlinecap
1 LJ
0.521 LW
N
126.8 376 M
126.8 374.56 L
S
GR
GS
[0.95846 0 0 0.95927 0 0.18723] CT
0.149 GC
2 setlinecap
1 LJ
0.521 LW
N
128.2 376 M
128.2 374.56 L
S
GR
GS
[0.95846 0 0 0.95927 0 0.18723] CT
0.149 GC
2 setlinecap
1 LJ
0.521 LW
N
129.6 376 M
129.6 374.56 L
S
GR
GS
[0.95846 0 0 0.95927 0 0.18723] CT
0.149 GC
2 setlinecap
1 LJ
0.521 LW
N
131 376 M
131 374.56 L
S
GR
GS
[0.95846 0 0 0.95927 0 0.18723] CT
0.149 GC
2 setlinecap
1 LJ
0.521 LW
N
124 232 M
124 233.44 L
S
GR
GS
[0.95846 0 0 0.95927 0 0.18723] CT
0.149 GC
2 setlinecap
1 LJ
0.521 LW
N
125.4 232 M
125.4 233.44 L
S
GR
GS
[0.95846 0 0 0.95927 0 0.18723] CT
0.149 GC
2 setlinecap
1 LJ
0.521 LW
N
126.8 232 M
126.8 233.44 L
S
GR
GS
[0.95846 0 0 0.95927 0 0.18723] CT
0.149 GC
2 setlinecap
1 LJ
0.521 LW
N
128.2 232 M
128.2 233.44 L
S
GR
GS
[0.95846 0 0 0.95927 0 0.18723] CT
0.149 GC
2 setlinecap
1 LJ
0.521 LW
N
129.6 232 M
129.6 233.44 L
S
GR
GS
[0.95846 0 0 0.95927 0 0.18723] CT
0.149 GC
2 setlinecap
1 LJ
0.521 LW
N
131 232 M
131 233.44 L
S
GR
GS
[0.95846 0 0 0.95927 118.84953 363.07181] CT
0.149 GC
/Helvetica 11.458 F
GS
[1 0 0 1 0 0] CT
-3.5 11 moveto 
1 -1 scale
(0) t 
GR
GR
GS
[0.95846 0 0 0.95927 120.19138 363.07181] CT
0.149 GC
/Helvetica 11.458 F
GS
[1 0 0 1 0 0] CT
-3.5 11 moveto 
1 -1 scale
(8) t 
GR
GR
GS
[0.95846 0 0 0.95927 121.53323 363.07181] CT
0.149 GC
/Helvetica 11.458 F
GS
[1 0 0 1 0 0] CT
-6.5 11 moveto 
1 -1 scale
(16) t 
GR
GR
GS
[0.95846 0 0 0.95927 122.87508 363.07181] CT
0.149 GC
/Helvetica 11.458 F
GS
[1 0 0 1 0 0] CT
-6.5 11 moveto 
1 -1 scale
(24) t 
GR
GR
GS
[0.95846 0 0 0.95927 124.21693 363.07181] CT
0.149 GC
/Helvetica 11.458 F
GS
[1 0 0 1 0 0] CT
-6.5 11 moveto 
1 -1 scale
(32) t 
GR
GR
GS
[0.95846 0 0 0.95927 125.55878 363.07181] CT
0.149 GC
/Helvetica 11.458 F
GS
[1 0 0 1 0 0] CT
-6.5 11 moveto 
1 -1 scale
(40) t 
GR
GR
GS
[0.95846 0 0 0.95927 0 0.18723] CT
0.149 GC
2 setlinecap
1 LJ
0.521 LW
N
124 376 M
124 232 L
S
GR
GS
[0.95846 0 0 0.95927 0 0.18723] CT
0.149 GC
2 setlinecap
1 LJ
0.521 LW
N
131 376 M
131 232 L
S
GR
GS
[0.95846 0 0 0.95927 0 0.18723] CT
0.149 GC
2 setlinecap
1 LJ
0.521 LW
N
124 376 M
125.44 376 L
S
GR
GS
[0.95846 0 0 0.95927 0 0.18723] CT
0.149 GC
2 setlinecap
1 LJ
0.521 LW
N
124 347.2 M
125.44 347.2 L
S
GR
GS
[0.95846 0 0 0.95927 0 0.18723] CT
0.149 GC
2 setlinecap
1 LJ
0.521 LW
N
124 318.4 M
125.44 318.4 L
S
GR
GS
[0.95846 0 0 0.95927 0 0.18723] CT
0.149 GC
2 setlinecap
1 LJ
0.521 LW
N
124 289.6 M
125.44 289.6 L
S
GR
GS
[0.95846 0 0 0.95927 0 0.18723] CT
0.149 GC
2 setlinecap
1 LJ
0.521 LW
N
124 260.8 M
125.44 260.8 L
S
GR
GS
[0.95846 0 0 0.95927 0 0.18723] CT
0.149 GC
2 setlinecap
1 LJ
0.521 LW
N
124 232 M
125.44 232 L
S
GR
GS
[0.95846 0 0 0.95927 0 0.18723] CT
0.149 GC
2 setlinecap
1 LJ
0.521 LW
N
131 376 M
129.56 376 L
S
GR
GS
[0.95846 0 0 0.95927 0 0.18723] CT
0.149 GC
2 setlinecap
1 LJ
0.521 LW
N
131 347.2 M
129.56 347.2 L
S
GR
GS
[0.95846 0 0 0.95927 0 0.18723] CT
0.149 GC
2 setlinecap
1 LJ
0.521 LW
N
131 318.4 M
129.56 318.4 L
S
GR
GS
[0.95846 0 0 0.95927 0 0.18723] CT
0.149 GC
2 setlinecap
1 LJ
0.521 LW
N
131 289.6 M
129.56 289.6 L
S
GR
GS
[0.95846 0 0 0.95927 0 0.18723] CT
0.149 GC
2 setlinecap
1 LJ
0.521 LW
N
131 260.8 M
129.56 260.8 L
S
GR
GS
[0.95846 0 0 0.95927 0 0.18723] CT
0.149 GC
2 setlinecap
1 LJ
0.521 LW
N
131 232 M
129.56 232 L
S
GR
GS
[0.95846 0 0 0.95927 116.65305 360.87349] CT
0.149 GC
/Helvetica 11.458 F
GS
[1 0 0 1 0 0] CT
-20 4 moveto 
1 -1 scale
(-0.1) t 
GR
GR
GS
[0.95846 0 0 0.95927 116.65305 333.24647] CT
0.149 GC
/Helvetica 11.458 F
GS
[1 0 0 1 0 0] CT
-7 4 moveto 
1 -1 scale
(0) t 
GR
GR
GS
[0.95846 0 0 0.95927 116.65305 305.61942] CT
0.149 GC
/Helvetica 11.458 F
GS
[1 0 0 1 0 0] CT
-16 4 moveto 
1 -1 scale
(0.1) t 
GR
GR
GS
[0.95846 0 0 0.95927 116.65305 277.9924] CT
0.149 GC
/Helvetica 11.458 F
GS
[1 0 0 1 0 0] CT
-16 4 moveto 
1 -1 scale
(0.2) t 
GR
GR
GS
[0.95846 0 0 0.95927 116.65305 250.36535] CT
0.149 GC
/Helvetica 11.458 F
GS
[1 0 0 1 0 0] CT
-16 4 moveto 
1 -1 scale
(0.3) t 
GR
GR
GS
[0.95846 0 0 0.95927 116.65305 222.73832] CT
0.149 GC
/Helvetica 11.458 F
GS
[1 0 0 1 0 0] CT
-16 4 moveto 
1 -1 scale
(0.4) t 
GR
GR
GS
[0.95846 0 0 0.95927 122.20427 219.83653] CT
/Helvetica-Bold 12.604 F
GS
[1 0 0 1 0 0] CT
-9 -3 moveto 
1 -1 scale
(RV) t 
GR
GR
GS
[0.95846 0 0 0.95927 0 0.18723] CT
1 LJ
0.521 LW
N
124.175 347.2 M
124.35 347.2 L
124.525 347.2 L
124.7 347.2 L
124.875 347.2 L
125.05 347.2 L
125.225 347.2 L
125.4 347.2 L
125.575 347.2 L
125.75 347.2 L
125.925 347.2 L
126.1 347.2 L
126.275 347.2 L
126.45 347.2 L
126.625 347.2 L
126.8 347.2 L
126.975 347.2 L
127.15 347.2 L
127.325 347.2 L
127.5 347.2 L
127.675 347.2 L
127.85 347.2 L
128.025 347.2 L
128.2 347.2 L
128.375 347.2 L
128.55 347.2 L
128.725 347.2 L
128.9 347.2 L
129.075 347.2 L
129.25 347.2 L
129.425 347.2 L
129.6 347.2 L
129.775 347.2 L
129.95 347.2 L
130.125 347.2 L
130.3 347.2 L
130.475 347.2 L
130.65 347.2 L
130.825 347.2 L
131 347.2 L
131.001 347.2 L
S
GR
GS
[0.95846 0 0 0.95927 0 0.18723] CT
1 0 0 RC
1 LJ
2.083 LW
N
124.175 237.45 M
124.35 331.981 L
124.525 359.575 L
124.7 369.226 L
124.875 370.793 L
125.05 368.566 L
125.225 364.954 L
125.4 361.117 L
125.575 357.646 L
125.75 354.812 L
125.925 352.603 L
126.1 350.875 L
126.275 349.645 L
126.45 348.752 L
126.625 348.116 L
126.8 347.663 L
126.975 347.372 L
127.15 347.186 L
127.325 347.037 L
127.5 346.923 L
127.675 346.819 L
127.85 346.72 L
128.025 346.666 L
128.2 346.637 L
128.375 346.621 L
128.55 346.641 L
128.725 346.666 L
128.9 346.663 L
129.075 346.668 L
129.25 346.656 L
129.425 346.635 L
129.6 346.597 L
129.775 346.594 L
129.95 346.632 L
130.125 346.652 L
130.3 346.625 L
130.475 346.578 L
130.65 346.564 L
130.825 346.562 L
131 346.573 L
131.001 346.573 L
S
GR
GS
[0.95846 0 0 0.95927 0 0.18723] CT
0 0 1 RC
[8 8] 0 setdash
2 LJ
2.083 LW
N
124.175 346.629 M
124.35 347.2 L
124.525 347.2 L
124.7 347.2 L
124.875 347.2 L
125.05 347.2 L
125.225 347.2 L
125.4 347.2 L
125.575 347.2 L
125.75 347.2 L
125.925 347.2 L
126.1 347.2 L
126.275 347.2 L
126.45 347.2 L
126.625 347.2 L
126.8 347.2 L
126.975 347.2 L
127.15 347.2 L
127.325 347.2 L
127.5 347.2 L
127.675 347.2 L
127.85 347.2 L
128.025 347.2 L
128.2 347.2 L
128.375 347.2 L
128.55 347.2 L
128.725 347.2 L
128.9 347.2 L
129.075 347.2 L
129.25 347.2 L
129.425 347.2 L
129.6 347.2 L
129.775 347.2 L
129.95 347.2 L
130.125 347.2 L
130.3 347.2 L
130.475 347.2 L
130.65 347.2 L
130.825 347.2 L
131 347.2 L
131.001 347.2 L
S
GR
GS
[0.95846 0 0 0.95927 0 0.18723] CT
1 GC
N
127 267 M
127 239 L
46 239 L
46 267 L
cp
f
GR
GS
[0.95846 0 0 0.95927 80.63779 236.99277] CT
/Helvetica 10.312 F
GS
[1 0 0 1 0 0] CT
0 4 moveto 
1 -1 scale
(learning) t 
GR
GR
GS
[0.95846 0 0 0.95927 0 0.18723] CT
1 0 0 RC
1 LJ
2.083 LW
N
49.988 246.86 M
81.142 246.86 L
S
GR
GS
[0.95846 0 0 0.95927 80.63779 248.7733] CT
/Helvetica 10.312 F
GS
[1 0 0 1 0 0] CT
0 4 moveto 
1 -1 scale
(RE) t 
GR
GR
GS
[0.95846 0 0 0.95927 0 0.18723] CT
0 0 1 RC
[8 8] 0 setdash
2 LJ
2.083 LW
N
49.988 259.14 M
81.142 259.14 L
S
GR
GS
[0.95846 0 0 0.95927 0 0.18723] CT
0.149 GC
10.0 ML
0.521 LW
N
46 267 M
46 239 L
127 239 L
127 267 L
cp
S
GR
%%Trailer
%%Pages: 1
%%EOF
