%!PS-Adobe-3.0 EPSF-3.0
%%Creator: (MATLAB, The Mathworks, Inc. Version 9.4.0.813654 \(R2018a\). Operating System: Linux)
%%Title: ./irf_eps2.eps
%%CreationDate: 2019-02-26T14:55:39
%%Pages: (atend)
%%BoundingBox:    20    31   132   389
%%LanguageLevel: 2
%%EndComments
%%BeginProlog
%%BeginResource: procset (Apache XML Graphics Std ProcSet) 1.2 0
%%Version: 1.2 0
%%Copyright: (Copyright 2001-2003,2010 The Apache Software Foundation. License terms: http://www.apache.org/licenses/LICENSE-2.0)
/bd{bind def}bind def
/ld{load def}bd
/GR/grestore ld
/GS/gsave ld
/RM/rmoveto ld
/C/curveto ld
/t/show ld
/L/lineto ld
/ML/setmiterlimit ld
/CT/concat ld
/f/fill ld
/N/newpath ld
/S/stroke ld
/CC/setcmykcolor ld
/A/ashow ld
/cp/closepath ld
/RC/setrgbcolor ld
/LJ/setlinejoin ld
/GC/setgray ld
/LW/setlinewidth ld
/M/moveto ld
/re {4 2 roll M
1 index 0 rlineto
0 exch rlineto
neg 0 rlineto
cp } bd
/_ctm matrix def
/_tm matrix def
/BT { _ctm currentmatrix pop matrix _tm copy pop 0 0 moveto } bd
/ET { _ctm setmatrix } bd
/iTm { _ctm setmatrix _tm concat } bd
/Tm { _tm astore pop iTm 0 0 moveto } bd
/ux 0.0 def
/uy 0.0 def
/F {
  /Tp exch def
  /Tf exch def
  Tf findfont Tp scalefont setfont
  /cf Tf def  /cs Tp def
} bd
/ULS {currentpoint /uy exch def /ux exch def} bd
/ULE {
  /Tcx currentpoint pop def
  gsave
  newpath
  cf findfont cs scalefont dup
  /FontMatrix get 0 get /Ts exch def /FontInfo get dup
  /UnderlinePosition get Ts mul /To exch def
  /UnderlineThickness get Ts mul /Tt exch def
  ux uy To add moveto  Tcx uy To add lineto
  Tt setlinewidth stroke
  grestore
} bd
/OLE {
  /Tcx currentpoint pop def
  gsave
  newpath
  cf findfont cs scalefont dup
  /FontMatrix get 0 get /Ts exch def /FontInfo get dup
  /UnderlinePosition get Ts mul /To exch def
  /UnderlineThickness get Ts mul /Tt exch def
  ux uy To add cs add moveto Tcx uy To add cs add lineto
  Tt setlinewidth stroke
  grestore
} bd
/SOE {
  /Tcx currentpoint pop def
  gsave
  newpath
  cf findfont cs scalefont dup
  /FontMatrix get 0 get /Ts exch def /FontInfo get dup
  /UnderlinePosition get Ts mul /To exch def
  /UnderlineThickness get Ts mul /Tt exch def
  ux uy To add cs 10 mul 26 idiv add moveto Tcx uy To add cs 10 mul 26 idiv add lineto
  Tt setlinewidth stroke
  grestore
} bd
/QT {
/Y22 exch store
/X22 exch store
/Y21 exch store
/X21 exch store
currentpoint
/Y21 load 2 mul add 3 div exch
/X21 load 2 mul add 3 div exch
/X21 load 2 mul /X22 load add 3 div
/Y21 load 2 mul /Y22 load add 3 div
/X22 load /Y22 load curveto
} bd
/SSPD {
dup length /d exch dict def
{
/v exch def
/k exch def
currentpagedevice k known {
/cpdv currentpagedevice k get def
v cpdv ne {
/upd false def
/nullv v type /nulltype eq def
/nullcpdv cpdv type /nulltype eq def
nullv nullcpdv or
{
/upd true def
} {
/sametype v type cpdv type eq def
sametype {
v type /arraytype eq {
/vlen v length def
/cpdvlen cpdv length def
vlen cpdvlen eq {
0 1 vlen 1 sub {
/i exch def
/obj v i get def
/cpdobj cpdv i get def
obj cpdobj ne {
/upd true def
exit
} if
} for
} {
/upd true def
} ifelse
} {
v type /dicttype eq {
v {
/dv exch def
/dk exch def
/cpddv cpdv dk get def
dv cpddv ne {
/upd true def
exit
} if
} forall
} {
/upd true def
} ifelse
} ifelse
} if
} ifelse
upd true eq {
d k v put
} if
} if
} if
} forall
d length 0 gt {
d setpagedevice
} if
} bd
/RE { % /NewFontName [NewEncodingArray] /FontName RE -
  findfont dup length dict begin
  {
    1 index /FID ne
    {def} {pop pop} ifelse
  } forall
  /Encoding exch def
  /FontName 1 index def
  currentdict definefont pop
  end
} bind def
%%EndResource
%%BeginResource: procset (Apache XML Graphics EPS ProcSet) 1.0 0
%%Version: 1.0 0
%%Copyright: (Copyright 2002-2003 The Apache Software Foundation. License terms: http://www.apache.org/licenses/LICENSE-2.0)
/BeginEPSF { %def
/b4_Inc_state save def         % Save state for cleanup
/dict_count countdictstack def % Count objects on dict stack
/op_count count 1 sub def      % Count objects on operand stack
userdict begin                 % Push userdict on dict stack
/showpage { } def              % Redefine showpage, { } = null proc
0 setgray 0 setlinecap         % Prepare graphics state
1 setlinewidth 0 setlinejoin
10 setmiterlimit [ ] 0 setdash newpath
/languagelevel where           % If level not equal to 1 then
{pop languagelevel             % set strokeadjust and
1 ne                           % overprint to their defaults.
{false setstrokeadjust false setoverprint
} if
} if
} bd
/EndEPSF { %def
count op_count sub {pop} repeat            % Clean up stacks
countdictstack dict_count sub {end} repeat
b4_Inc_state restore
} bd
%%EndResource
%FOPBeginFontDict
%%IncludeResource: font Courier-Oblique
%%IncludeResource: font Courier-BoldOblique
%%IncludeResource: font Courier-Bold
%%IncludeResource: font ZapfDingbats
%%IncludeResource: font Symbol
%%IncludeResource: font Helvetica
%%IncludeResource: font Helvetica-Oblique
%%IncludeResource: font Helvetica-Bold
%%IncludeResource: font Helvetica-BoldOblique
%%IncludeResource: font Times-Roman
%%IncludeResource: font Times-Italic
%%IncludeResource: font Times-Bold
%%IncludeResource: font Times-BoldItalic
%%IncludeResource: font Courier
%FOPEndFontDict
%%BeginResource: encoding WinAnsiEncoding
/WinAnsiEncoding [
/.notdef /.notdef /.notdef /.notdef /.notdef
/.notdef /.notdef /.notdef /.notdef /.notdef
/.notdef /.notdef /.notdef /.notdef /.notdef
/.notdef /.notdef /.notdef /.notdef /.notdef
/.notdef /.notdef /.notdef /.notdef /.notdef
/.notdef /.notdef /.notdef /.notdef /.notdef
/.notdef /.notdef /space /exclam /quotedbl
/numbersign /dollar /percent /ampersand /quotesingle
/parenleft /parenright /asterisk /plus /comma
/hyphen /period /slash /zero /one
/two /three /four /five /six
/seven /eight /nine /colon /semicolon
/less /equal /greater /question /at
/A /B /C /D /E
/F /G /H /I /J
/K /L /M /N /O
/P /Q /R /S /T
/U /V /W /X /Y
/Z /bracketleft /backslash /bracketright /asciicircum
/underscore /quoteleft /a /b /c
/d /e /f /g /h
/i /j /k /l /m
/n /o /p /q /r
/s /t /u /v /w
/x /y /z /braceleft /bar
/braceright /asciitilde /bullet /Euro /bullet
/quotesinglbase /florin /quotedblbase /ellipsis /dagger
/daggerdbl /circumflex /perthousand /Scaron /guilsinglleft
/OE /bullet /Zcaron /bullet /bullet
/quoteleft /quoteright /quotedblleft /quotedblright /bullet
/endash /emdash /asciitilde /trademark /scaron
/guilsinglright /oe /bullet /zcaron /Ydieresis
/space /exclamdown /cent /sterling /currency
/yen /brokenbar /section /dieresis /copyright
/ordfeminine /guillemotleft /logicalnot /sfthyphen /registered
/macron /degree /plusminus /twosuperior /threesuperior
/acute /mu /paragraph /middot /cedilla
/onesuperior /ordmasculine /guillemotright /onequarter /onehalf
/threequarters /questiondown /Agrave /Aacute /Acircumflex
/Atilde /Adieresis /Aring /AE /Ccedilla
/Egrave /Eacute /Ecircumflex /Edieresis /Igrave
/Iacute /Icircumflex /Idieresis /Eth /Ntilde
/Ograve /Oacute /Ocircumflex /Otilde /Odieresis
/multiply /Oslash /Ugrave /Uacute /Ucircumflex
/Udieresis /Yacute /Thorn /germandbls /agrave
/aacute /acircumflex /atilde /adieresis /aring
/ae /ccedilla /egrave /eacute /ecircumflex
/edieresis /igrave /iacute /icircumflex /idieresis
/eth /ntilde /ograve /oacute /ocircumflex
/otilde /odieresis /divide /oslash /ugrave
/uacute /ucircumflex /udieresis /yacute /thorn
/ydieresis
] def
%%EndResource
%FOPBeginFontReencode
/Courier-Oblique findfont
dup length dict begin
  {1 index /FID ne {def} {pop pop} ifelse} forall
  /Encoding WinAnsiEncoding def
  currentdict
end
/Courier-Oblique exch definefont pop
/Courier-BoldOblique findfont
dup length dict begin
  {1 index /FID ne {def} {pop pop} ifelse} forall
  /Encoding WinAnsiEncoding def
  currentdict
end
/Courier-BoldOblique exch definefont pop
/Courier-Bold findfont
dup length dict begin
  {1 index /FID ne {def} {pop pop} ifelse} forall
  /Encoding WinAnsiEncoding def
  currentdict
end
/Courier-Bold exch definefont pop
/Helvetica findfont
dup length dict begin
  {1 index /FID ne {def} {pop pop} ifelse} forall
  /Encoding WinAnsiEncoding def
  currentdict
end
/Helvetica exch definefont pop
/Helvetica-Oblique findfont
dup length dict begin
  {1 index /FID ne {def} {pop pop} ifelse} forall
  /Encoding WinAnsiEncoding def
  currentdict
end
/Helvetica-Oblique exch definefont pop
/Helvetica-Bold findfont
dup length dict begin
  {1 index /FID ne {def} {pop pop} ifelse} forall
  /Encoding WinAnsiEncoding def
  currentdict
end
/Helvetica-Bold exch definefont pop
/Helvetica-BoldOblique findfont
dup length dict begin
  {1 index /FID ne {def} {pop pop} ifelse} forall
  /Encoding WinAnsiEncoding def
  currentdict
end
/Helvetica-BoldOblique exch definefont pop
/Times-Roman findfont
dup length dict begin
  {1 index /FID ne {def} {pop pop} ifelse} forall
  /Encoding WinAnsiEncoding def
  currentdict
end
/Times-Roman exch definefont pop
/Times-Italic findfont
dup length dict begin
  {1 index /FID ne {def} {pop pop} ifelse} forall
  /Encoding WinAnsiEncoding def
  currentdict
end
/Times-Italic exch definefont pop
/Times-Bold findfont
dup length dict begin
  {1 index /FID ne {def} {pop pop} ifelse} forall
  /Encoding WinAnsiEncoding def
  currentdict
end
/Times-Bold exch definefont pop
/Times-BoldItalic findfont
dup length dict begin
  {1 index /FID ne {def} {pop pop} ifelse} forall
  /Encoding WinAnsiEncoding def
  currentdict
end
/Times-BoldItalic exch definefont pop
/Courier findfont
dup length dict begin
  {1 index /FID ne {def} {pop pop} ifelse} forall
  /Encoding WinAnsiEncoding def
  currentdict
end
/Courier exch definefont pop
%FOPEndFontReencode
%%EndProlog
%%Page: 1 1
%%PageBoundingBox: 0 0 144 405
%%BeginPageSetup
[1 0 0 -1 0 405] CT
%%EndPageSetup
GS
[0.95846 0 0 0.95927 0 0.18723] CT
1 GC
N
0 0 150 422 re
f
GR
GS
[0.95846 0 0 0.95927 0 0.18723] CT
1 GC
N
0 0 150 422 re
f
GR
GS
[0.95846 0 0 0.95927 0 0.18723] CT
1 GC
N
39 176 M
47 176 L
47 32 L
39 32 L
cp
f
GR
GS
[0.95846 0 0 0.95927 0 0.18723] CT
0.149 GC
2 setlinecap
1 LJ
0.521 LW
N
39 176 M
47 176 L
S
GR
GS
[0.95846 0 0 0.95927 0 0.18723] CT
0.149 GC
2 setlinecap
1 LJ
0.521 LW
N
39 32 M
47 32 L
S
GR
GS
[0.95846 0 0 0.95927 0 0.18723] CT
0.149 GC
2 setlinecap
1 LJ
0.521 LW
N
39 176 M
39 174.56 L
S
GR
GS
[0.95846 0 0 0.95927 0 0.18723] CT
0.149 GC
2 setlinecap
1 LJ
0.521 LW
N
40.6 176 M
40.6 174.56 L
S
GR
GS
[0.95846 0 0 0.95927 0 0.18723] CT
0.149 GC
2 setlinecap
1 LJ
0.521 LW
N
42.2 176 M
42.2 174.56 L
S
GR
GS
[0.95846 0 0 0.95927 0 0.18723] CT
0.149 GC
2 setlinecap
1 LJ
0.521 LW
N
43.8 176 M
43.8 174.56 L
S
GR
GS
[0.95846 0 0 0.95927 0 0.18723] CT
0.149 GC
2 setlinecap
1 LJ
0.521 LW
N
45.4 176 M
45.4 174.56 L
S
GR
GS
[0.95846 0 0 0.95927 0 0.18723] CT
0.149 GC
2 setlinecap
1 LJ
0.521 LW
N
47 176 M
47 174.56 L
S
GR
GS
[0.95846 0 0 0.95927 0 0.18723] CT
0.149 GC
2 setlinecap
1 LJ
0.521 LW
N
39 32 M
39 33.44 L
S
GR
GS
[0.95846 0 0 0.95927 0 0.18723] CT
0.149 GC
2 setlinecap
1 LJ
0.521 LW
N
40.6 32 M
40.6 33.44 L
S
GR
GS
[0.95846 0 0 0.95927 0 0.18723] CT
0.149 GC
2 setlinecap
1 LJ
0.521 LW
N
42.2 32 M
42.2 33.44 L
S
GR
GS
[0.95846 0 0 0.95927 0 0.18723] CT
0.149 GC
2 setlinecap
1 LJ
0.521 LW
N
43.8 32 M
43.8 33.44 L
S
GR
GS
[0.95846 0 0 0.95927 0 0.18723] CT
0.149 GC
2 setlinecap
1 LJ
0.521 LW
N
45.4 32 M
45.4 33.44 L
S
GR
GS
[0.95846 0 0 0.95927 0 0.18723] CT
0.149 GC
2 setlinecap
1 LJ
0.521 LW
N
47 32 M
47 33.44 L
S
GR
GS
[0.95846 0 0 0.95927 37.38009 171.21743] CT
0.149 GC
/Helvetica 11.458 F
GS
[1 0 0 1 0 0] CT
-3.5 11 moveto 
1 -1 scale
(0) t 
GR
GR
GS
[0.95846 0 0 0.95927 38.91363 171.21743] CT
0.149 GC
/Helvetica 11.458 F
GS
[1 0 0 1 0 0] CT
-3.5 11 moveto 
1 -1 scale
(8) t 
GR
GR
GS
[0.95846 0 0 0.95927 40.44718 171.21743] CT
0.149 GC
/Helvetica 11.458 F
GS
[1 0 0 1 0 0] CT
-6.5 11 moveto 
1 -1 scale
(16) t 
GR
GR
GS
[0.95846 0 0 0.95927 41.98072 171.21743] CT
0.149 GC
/Helvetica 11.458 F
GS
[1 0 0 1 0 0] CT
-6.5 11 moveto 
1 -1 scale
(24) t 
GR
GR
GS
[0.95846 0 0 0.95927 43.51426 171.21743] CT
0.149 GC
/Helvetica 11.458 F
GS
[1 0 0 1 0 0] CT
-6.5 11 moveto 
1 -1 scale
(32) t 
GR
GR
GS
[0.95846 0 0 0.95927 45.04781 171.21743] CT
0.149 GC
/Helvetica 11.458 F
GS
[1 0 0 1 0 0] CT
-6.5 11 moveto 
1 -1 scale
(40) t 
GR
GR
GS
[0.95846 0 0 0.95927 0 0.18723] CT
0.149 GC
2 setlinecap
1 LJ
0.521 LW
N
39 176 M
39 32 L
S
GR
GS
[0.95846 0 0 0.95927 0 0.18723] CT
0.149 GC
2 setlinecap
1 LJ
0.521 LW
N
47 176 M
47 32 L
S
GR
GS
[0.95846 0 0 0.95927 0 0.18723] CT
0.149 GC
2 setlinecap
1 LJ
0.521 LW
N
39 176 M
40.44 176 L
S
GR
GS
[0.95846 0 0 0.95927 0 0.18723] CT
0.149 GC
2 setlinecap
1 LJ
0.521 LW
N
39 147.2 M
40.44 147.2 L
S
GR
GS
[0.95846 0 0 0.95927 0 0.18723] CT
0.149 GC
2 setlinecap
1 LJ
0.521 LW
N
39 118.4 M
40.44 118.4 L
S
GR
GS
[0.95846 0 0 0.95927 0 0.18723] CT
0.149 GC
2 setlinecap
1 LJ
0.521 LW
N
39 89.6 M
40.44 89.6 L
S
GR
GS
[0.95846 0 0 0.95927 0 0.18723] CT
0.149 GC
2 setlinecap
1 LJ
0.521 LW
N
39 60.8 M
40.44 60.8 L
S
GR
GS
[0.95846 0 0 0.95927 0 0.18723] CT
0.149 GC
2 setlinecap
1 LJ
0.521 LW
N
39 32 M
40.44 32 L
S
GR
GS
[0.95846 0 0 0.95927 0 0.18723] CT
0.149 GC
2 setlinecap
1 LJ
0.521 LW
N
47 176 M
45.56 176 L
S
GR
GS
[0.95846 0 0 0.95927 0 0.18723] CT
0.149 GC
2 setlinecap
1 LJ
0.521 LW
N
47 147.2 M
45.56 147.2 L
S
GR
GS
[0.95846 0 0 0.95927 0 0.18723] CT
0.149 GC
2 setlinecap
1 LJ
0.521 LW
N
47 118.4 M
45.56 118.4 L
S
GR
GS
[0.95846 0 0 0.95927 0 0.18723] CT
0.149 GC
2 setlinecap
1 LJ
0.521 LW
N
47 89.6 M
45.56 89.6 L
S
GR
GS
[0.95846 0 0 0.95927 0 0.18723] CT
0.149 GC
2 setlinecap
1 LJ
0.521 LW
N
47 60.8 M
45.56 60.8 L
S
GR
GS
[0.95846 0 0 0.95927 0 0.18723] CT
0.149 GC
2 setlinecap
1 LJ
0.521 LW
N
47 32 M
45.56 32 L
S
GR
GS
[0.95846 0 0 0.95927 35.18361 169.01909] CT
0.149 GC
/Helvetica 11.458 F
GS
[1 0 0 1 0 0] CT
-7 4 moveto 
1 -1 scale
(0) t 
GR
GR
GS
[0.95846 0 0 0.95927 35.18361 141.39206] CT
0.149 GC
/Helvetica 11.458 F
GS
[1 0 0 1 0 0] CT
-16 4 moveto 
1 -1 scale
(0.2) t 
GR
GR
GS
[0.95846 0 0 0.95927 35.18361 113.76503] CT
0.149 GC
/Helvetica 11.458 F
GS
[1 0 0 1 0 0] CT
-16 4 moveto 
1 -1 scale
(0.4) t 
GR
GR
GS
[0.95846 0 0 0.95927 35.18361 86.13799] CT
0.149 GC
/Helvetica 11.458 F
GS
[1 0 0 1 0 0] CT
-16 4 moveto 
1 -1 scale
(0.6) t 
GR
GR
GS
[0.95846 0 0 0.95927 35.18361 58.51096] CT
0.149 GC
/Helvetica 11.458 F
GS
[1 0 0 1 0 0] CT
-16 4 moveto 
1 -1 scale
(0.8) t 
GR
GR
GS
[0.95846 0 0 0.95927 35.18361 30.88393] CT
0.149 GC
/Helvetica 11.458 F
GS
[1 0 0 1 0 0] CT
-7 4 moveto 
1 -1 scale
(1) t 
GR
GR
GS
[0.95846 0 0 0.95927 41.21399 27.98213] CT
/Helvetica-Bold 12.604 F
GS
[1 0 0 1 0 0] CT
-4.5 -3 moveto 
1 -1 scale
(Y) t 
GR
GR
GS
[0.95846 0 0 0.95927 0 0.18723] CT
1 LJ
0.521 LW
N
39.2 176 M
39.4 176 L
39.6 176 L
39.8 176 L
40 176 L
40.2 176 L
40.4 176 L
40.6 176 L
40.8 176 L
41 176 L
41.2 176 L
41.4 176 L
41.6 176 L
41.8 176 L
42 176 L
42.2 176 L
42.4 176 L
42.6 176 L
42.8 176 L
43 176 L
43.2 176 L
43.4 176 L
43.6 176 L
43.8 176 L
44 176 L
44.2 176 L
44.4 176 L
44.6 176 L
44.8 176 L
45 176 L
45.2 176 L
45.4 176 L
45.6 176 L
45.8 176 L
46 176 L
46.2 176 L
46.4 176 L
46.6 176 L
46.8 176 L
47 176 L
47.001 176 L
S
GR
GS
[0.95846 0 0 0.95927 0 0.18723] CT
1 0 0 RC
1 LJ
2.083 LW
N
39.2 66.459 M
39.4 72.246 L
39.6 60.354 L
39.8 57.618 L
40 61.792 L
40.2 69.904 L
40.4 80.361 L
40.6 91.37 L
40.8 101.979 L
41 111.266 L
41.2 119.517 L
41.4 126.858 L
41.6 132.99 L
41.8 137.736 L
42 141.71 L
42.2 144.703 L
42.4 147.196 L
42.6 149.438 L
42.8 151.626 L
43 153.552 L
43.2 155.364 L
43.4 157.03 L
43.6 158.41 L
43.8 159.509 L
44 160.42 L
44.2 161.136 L
44.4 161.908 L
44.6 162.674 L
44.8 163.42 L
45 163.999 L
45.2 164.514 L
45.4 164.91 L
45.6 165.207 L
45.8 165.295 L
46 165.345 L
46.2 165.542 L
46.4 165.747 L
46.6 165.907 L
46.8 166.126 L
47 166.434 L
47.001 166.435 L
S
GR
GS
[0.95846 0 0 0.95927 0 0.18723] CT
0 0 1 RC
[8 8] 0 setdash
2 LJ
2.083 LW
N
39.2 125.563 M
39.4 122.145 L
39.6 112.511 L
39.8 109.847 L
40 110.752 L
40.2 113.359 L
40.4 116.671 L
40.6 120.141 L
40.8 123.522 L
41 126.672 L
41.2 129.558 L
41.4 132.164 L
41.6 134.512 L
41.8 136.615 L
42 138.509 L
42.2 140.214 L
42.4 141.752 L
42.6 143.143 L
42.8 144.412 L
43 145.573 L
43.2 146.638 L
43.4 147.617 L
43.6 148.526 L
43.8 149.373 L
44 150.162 L
44.2 150.905 L
44.4 151.604 L
44.6 152.265 L
44.8 152.894 L
45 153.491 L
45.2 154.064 L
45.4 154.612 L
45.6 155.139 L
45.8 155.646 L
46 156.136 L
46.2 156.609 L
46.4 157.068 L
46.6 157.513 L
46.8 157.946 L
47 158.367 L
47.001 158.369 L
S
GR
GS
[0.95846 0 0 0.95927 0 0.18723] CT
1 GC
N
81 176 M
89 176 L
89 32 L
81 32 L
cp
f
GR
GS
[0.95846 0 0 0.95927 0 0.18723] CT
0.149 GC
2 setlinecap
1 LJ
0.521 LW
N
81 176 M
89 176 L
S
GR
GS
[0.95846 0 0 0.95927 0 0.18723] CT
0.149 GC
2 setlinecap
1 LJ
0.521 LW
N
81 32 M
89 32 L
S
GR
GS
[0.95846 0 0 0.95927 0 0.18723] CT
0.149 GC
2 setlinecap
1 LJ
0.521 LW
N
81 176 M
81 174.56 L
S
GR
GS
[0.95846 0 0 0.95927 0 0.18723] CT
0.149 GC
2 setlinecap
1 LJ
0.521 LW
N
82.6 176 M
82.6 174.56 L
S
GR
GS
[0.95846 0 0 0.95927 0 0.18723] CT
0.149 GC
2 setlinecap
1 LJ
0.521 LW
N
84.2 176 M
84.2 174.56 L
S
GR
GS
[0.95846 0 0 0.95927 0 0.18723] CT
0.149 GC
2 setlinecap
1 LJ
0.521 LW
N
85.8 176 M
85.8 174.56 L
S
GR
GS
[0.95846 0 0 0.95927 0 0.18723] CT
0.149 GC
2 setlinecap
1 LJ
0.521 LW
N
87.4 176 M
87.4 174.56 L
S
GR
GS
[0.95846 0 0 0.95927 0 0.18723] CT
0.149 GC
2 setlinecap
1 LJ
0.521 LW
N
89 176 M
89 174.56 L
S
GR
GS
[0.95846 0 0 0.95927 0 0.18723] CT
0.149 GC
2 setlinecap
1 LJ
0.521 LW
N
81 32 M
81 33.44 L
S
GR
GS
[0.95846 0 0 0.95927 0 0.18723] CT
0.149 GC
2 setlinecap
1 LJ
0.521 LW
N
82.6 32 M
82.6 33.44 L
S
GR
GS
[0.95846 0 0 0.95927 0 0.18723] CT
0.149 GC
2 setlinecap
1 LJ
0.521 LW
N
84.2 32 M
84.2 33.44 L
S
GR
GS
[0.95846 0 0 0.95927 0 0.18723] CT
0.149 GC
2 setlinecap
1 LJ
0.521 LW
N
85.8 32 M
85.8 33.44 L
S
GR
GS
[0.95846 0 0 0.95927 0 0.18723] CT
0.149 GC
2 setlinecap
1 LJ
0.521 LW
N
87.4 32 M
87.4 33.44 L
S
GR
GS
[0.95846 0 0 0.95927 0 0.18723] CT
0.149 GC
2 setlinecap
1 LJ
0.521 LW
N
89 32 M
89 33.44 L
S
GR
GS
[0.95846 0 0 0.95927 77.63558 171.21743] CT
0.149 GC
/Helvetica 11.458 F
GS
[1 0 0 1 0 0] CT
-3.5 11 moveto 
1 -1 scale
(0) t 
GR
GR
GS
[0.95846 0 0 0.95927 79.16912 171.21743] CT
0.149 GC
/Helvetica 11.458 F
GS
[1 0 0 1 0 0] CT
-3.5 11 moveto 
1 -1 scale
(8) t 
GR
GR
GS
[0.95846 0 0 0.95927 80.70266 171.21743] CT
0.149 GC
/Helvetica 11.458 F
GS
[1 0 0 1 0 0] CT
-6.5 11 moveto 
1 -1 scale
(16) t 
GR
GR
GS
[0.95846 0 0 0.95927 82.23621 171.21743] CT
0.149 GC
/Helvetica 11.458 F
GS
[1 0 0 1 0 0] CT
-6.5 11 moveto 
1 -1 scale
(24) t 
GR
GR
GS
[0.95846 0 0 0.95927 83.76975 171.21743] CT
0.149 GC
/Helvetica 11.458 F
GS
[1 0 0 1 0 0] CT
-6.5 11 moveto 
1 -1 scale
(32) t 
GR
GR
GS
[0.95846 0 0 0.95927 85.30329 171.21743] CT
0.149 GC
/Helvetica 11.458 F
GS
[1 0 0 1 0 0] CT
-6.5 11 moveto 
1 -1 scale
(40) t 
GR
GR
GS
[0.95846 0 0 0.95927 0 0.18723] CT
0.149 GC
2 setlinecap
1 LJ
0.521 LW
N
81 176 M
81 32 L
S
GR
GS
[0.95846 0 0 0.95927 0 0.18723] CT
0.149 GC
2 setlinecap
1 LJ
0.521 LW
N
89 176 M
89 32 L
S
GR
GS
[0.95846 0 0 0.95927 0 0.18723] CT
0.149 GC
2 setlinecap
1 LJ
0.521 LW
N
81 176 M
82.44 176 L
S
GR
GS
[0.95846 0 0 0.95927 0 0.18723] CT
0.149 GC
2 setlinecap
1 LJ
0.521 LW
N
81 128 M
82.44 128 L
S
GR
GS
[0.95846 0 0 0.95927 0 0.18723] CT
0.149 GC
2 setlinecap
1 LJ
0.521 LW
N
81 80 M
82.44 80 L
S
GR
GS
[0.95846 0 0 0.95927 0 0.18723] CT
0.149 GC
2 setlinecap
1 LJ
0.521 LW
N
81 32 M
82.44 32 L
S
GR
GS
[0.95846 0 0 0.95927 0 0.18723] CT
0.149 GC
2 setlinecap
1 LJ
0.521 LW
N
89 176 M
87.56 176 L
S
GR
GS
[0.95846 0 0 0.95927 0 0.18723] CT
0.149 GC
2 setlinecap
1 LJ
0.521 LW
N
89 128 M
87.56 128 L
S
GR
GS
[0.95846 0 0 0.95927 0 0.18723] CT
0.149 GC
2 setlinecap
1 LJ
0.521 LW
N
89 80 M
87.56 80 L
S
GR
GS
[0.95846 0 0 0.95927 0 0.18723] CT
0.149 GC
2 setlinecap
1 LJ
0.521 LW
N
89 32 M
87.56 32 L
S
GR
GS
[0.95846 0 0 0.95927 75.4391 169.01909] CT
0.149 GC
/Helvetica 11.458 F
GS
[1 0 0 1 0 0] CT
-10 4 moveto 
1 -1 scale
(-5) t 
GR
GR
GS
[0.95846 0 0 0.95927 75.4391 122.97404] CT
0.149 GC
/Helvetica 11.458 F
GS
[1 0 0 1 0 0] CT
-7 4 moveto 
1 -1 scale
(0) t 
GR
GR
GS
[0.95846 0 0 0.95927 75.4391 76.92898] CT
0.149 GC
/Helvetica 11.458 F
GS
[1 0 0 1 0 0] CT
-7 4 moveto 
1 -1 scale
(5) t 
GR
GR
GS
[0.95846 0 0 0.95927 75.4391 30.88393] CT
0.149 GC
/Helvetica 11.458 F
GS
[1 0 0 1 0 0] CT
-13 4 moveto 
1 -1 scale
(10) t 
GR
GR
GS
[0.95846 0 0 0.95927 81.46952 27.98213] CT
/Helvetica-Bold 12.604 F
GS
[1 0 0 1 0 0] CT
-5 -3 moveto 
1 -1 scale
(V) t 
GR
GR
GS
[0.95846 0 0 0.95927 0 0.18723] CT
1 LJ
0.521 LW
N
81.2 128 M
81.4 128 L
81.6 128 L
81.8 128 L
82 128 L
82.2 128 L
82.4 128 L
82.6 128 L
82.8 128 L
83 128 L
83.2 128 L
83.4 128 L
83.6 128 L
83.8 128 L
84 128 L
84.2 128 L
84.4 128 L
84.6 128 L
84.8 128 L
85 128 L
85.2 128 L
85.4 128 L
85.6 128 L
85.8 128 L
86 128 L
86.2 128 L
86.4 128 L
86.6 128 L
86.8 128 L
87 128 L
87.2 128 L
87.4 128 L
87.6 128 L
87.8 128 L
88 128 L
88.2 128 L
88.4 128 L
88.6 128 L
88.8 128 L
89 128 L
89.001 128 L
S
GR
GS
[0.95846 0 0 0.95927 0 0.18723] CT
1 0 0 RC
1 LJ
2.083 LW
N
81.2 97.788 M
81.4 80.364 L
81.6 64.676 L
81.8 51.856 L
82 42.873 L
82.2 38.005 L
82.4 37.193 L
82.6 40.005 L
82.8 45.683 L
83 53.333 L
83.2 62.206 L
83.4 71.799 L
83.6 81.59 L
83.8 91.041 L
84 99.876 L
84.2 107.858 L
84.4 114.912 L
84.6 121.099 L
84.8 126.55 L
85 131.311 L
85.2 135.464 L
85.4 139.073 L
85.6 142.137 L
85.8 144.639 L
86 146.62 L
86.2 148.105 L
86.4 149.19 L
86.6 149.994 L
86.8 150.556 L
87 150.893 L
87.2 151.01 L
87.4 150.932 L
87.6 150.66 L
87.8 150.175 L
88 149.487 L
88.2 148.7 L
88.4 147.874 L
88.6 147.009 L
88.8 146.138 L
89 145.316 L
89.001 145.313 L
S
GR
GS
[0.95846 0 0 0.95927 0 0.18723] CT
0 0 1 RC
[8 8] 0 setdash
2 LJ
2.083 LW
N
81.2 127.045 M
81.4 127.106 L
81.6 127.144 L
81.8 127.188 L
82 127.231 L
82.2 127.273 L
82.4 127.312 L
82.6 127.349 L
82.8 127.381 L
83 127.411 L
83.2 127.439 L
83.4 127.463 L
83.6 127.486 L
83.8 127.507 L
84 127.526 L
84.2 127.544 L
84.4 127.56 L
84.6 127.576 L
84.8 127.59 L
85 127.603 L
85.2 127.616 L
85.4 127.628 L
85.6 127.639 L
85.8 127.65 L
86 127.66 L
86.2 127.67 L
86.4 127.679 L
86.6 127.688 L
86.8 127.697 L
87 127.705 L
87.2 127.713 L
87.4 127.721 L
87.6 127.728 L
87.8 127.735 L
88 127.742 L
88.2 127.749 L
88.4 127.756 L
88.6 127.762 L
88.8 127.768 L
89 127.774 L
89.001 127.774 L
S
GR
GS
[0.95846 0 0 0.95927 0 0.18723] CT
1 GC
N
124 176 M
131 176 L
131 32 L
124 32 L
cp
f
GR
GS
[0.95846 0 0 0.95927 0 0.18723] CT
0.149 GC
2 setlinecap
1 LJ
0.521 LW
N
124 176 M
131 176 L
S
GR
GS
[0.95846 0 0 0.95927 0 0.18723] CT
0.149 GC
2 setlinecap
1 LJ
0.521 LW
N
124 32 M
131 32 L
S
GR
GS
[0.95846 0 0 0.95927 0 0.18723] CT
0.149 GC
2 setlinecap
1 LJ
0.521 LW
N
124 176 M
124 174.56 L
S
GR
GS
[0.95846 0 0 0.95927 0 0.18723] CT
0.149 GC
2 setlinecap
1 LJ
0.521 LW
N
125.4 176 M
125.4 174.56 L
S
GR
GS
[0.95846 0 0 0.95927 0 0.18723] CT
0.149 GC
2 setlinecap
1 LJ
0.521 LW
N
126.8 176 M
126.8 174.56 L
S
GR
GS
[0.95846 0 0 0.95927 0 0.18723] CT
0.149 GC
2 setlinecap
1 LJ
0.521 LW
N
128.2 176 M
128.2 174.56 L
S
GR
GS
[0.95846 0 0 0.95927 0 0.18723] CT
0.149 GC
2 setlinecap
1 LJ
0.521 LW
N
129.6 176 M
129.6 174.56 L
S
GR
GS
[0.95846 0 0 0.95927 0 0.18723] CT
0.149 GC
2 setlinecap
1 LJ
0.521 LW
N
131 176 M
131 174.56 L
S
GR
GS
[0.95846 0 0 0.95927 0 0.18723] CT
0.149 GC
2 setlinecap
1 LJ
0.521 LW
N
124 32 M
124 33.44 L
S
GR
GS
[0.95846 0 0 0.95927 0 0.18723] CT
0.149 GC
2 setlinecap
1 LJ
0.521 LW
N
125.4 32 M
125.4 33.44 L
S
GR
GS
[0.95846 0 0 0.95927 0 0.18723] CT
0.149 GC
2 setlinecap
1 LJ
0.521 LW
N
126.8 32 M
126.8 33.44 L
S
GR
GS
[0.95846 0 0 0.95927 0 0.18723] CT
0.149 GC
2 setlinecap
1 LJ
0.521 LW
N
128.2 32 M
128.2 33.44 L
S
GR
GS
[0.95846 0 0 0.95927 0 0.18723] CT
0.149 GC
2 setlinecap
1 LJ
0.521 LW
N
129.6 32 M
129.6 33.44 L
S
GR
GS
[0.95846 0 0 0.95927 0 0.18723] CT
0.149 GC
2 setlinecap
1 LJ
0.521 LW
N
131 32 M
131 33.44 L
S
GR
GS
[0.95846 0 0 0.95927 118.84953 171.21743] CT
0.149 GC
/Helvetica 11.458 F
GS
[1 0 0 1 0 0] CT
-3.5 11 moveto 
1 -1 scale
(0) t 
GR
GR
GS
[0.95846 0 0 0.95927 120.19138 171.21743] CT
0.149 GC
/Helvetica 11.458 F
GS
[1 0 0 1 0 0] CT
-3.5 11 moveto 
1 -1 scale
(8) t 
GR
GR
GS
[0.95846 0 0 0.95927 121.53323 171.21743] CT
0.149 GC
/Helvetica 11.458 F
GS
[1 0 0 1 0 0] CT
-6.5 11 moveto 
1 -1 scale
(16) t 
GR
GR
GS
[0.95846 0 0 0.95927 122.87508 171.21743] CT
0.149 GC
/Helvetica 11.458 F
GS
[1 0 0 1 0 0] CT
-6.5 11 moveto 
1 -1 scale
(24) t 
GR
GR
GS
[0.95846 0 0 0.95927 124.21693 171.21743] CT
0.149 GC
/Helvetica 11.458 F
GS
[1 0 0 1 0 0] CT
-6.5 11 moveto 
1 -1 scale
(32) t 
GR
GR
GS
[0.95846 0 0 0.95927 125.55878 171.21743] CT
0.149 GC
/Helvetica 11.458 F
GS
[1 0 0 1 0 0] CT
-6.5 11 moveto 
1 -1 scale
(40) t 
GR
GR
GS
[0.95846 0 0 0.95927 0 0.18723] CT
0.149 GC
2 setlinecap
1 LJ
0.521 LW
N
124 176 M
124 32 L
S
GR
GS
[0.95846 0 0 0.95927 0 0.18723] CT
0.149 GC
2 setlinecap
1 LJ
0.521 LW
N
131 176 M
131 32 L
S
GR
GS
[0.95846 0 0 0.95927 0 0.18723] CT
0.149 GC
2 setlinecap
1 LJ
0.521 LW
N
124 176 M
125.44 176 L
S
GR
GS
[0.95846 0 0 0.95927 0 0.18723] CT
0.149 GC
2 setlinecap
1 LJ
0.521 LW
N
124 129.308 M
125.44 129.308 L
S
GR
GS
[0.95846 0 0 0.95927 0 0.18723] CT
0.149 GC
2 setlinecap
1 LJ
0.521 LW
N
124 82.616 M
125.44 82.616 L
S
GR
GS
[0.95846 0 0 0.95927 0 0.18723] CT
0.149 GC
2 setlinecap
1 LJ
0.521 LW
N
124 35.924 M
125.44 35.924 L
S
GR
GS
[0.95846 0 0 0.95927 0 0.18723] CT
0.149 GC
2 setlinecap
1 LJ
0.521 LW
N
131 176 M
129.56 176 L
S
GR
GS
[0.95846 0 0 0.95927 0 0.18723] CT
0.149 GC
2 setlinecap
1 LJ
0.521 LW
N
131 129.308 M
129.56 129.308 L
S
GR
GS
[0.95846 0 0 0.95927 0 0.18723] CT
0.149 GC
2 setlinecap
1 LJ
0.521 LW
N
131 82.616 M
129.56 82.616 L
S
GR
GS
[0.95846 0 0 0.95927 0 0.18723] CT
0.149 GC
2 setlinecap
1 LJ
0.521 LW
N
131 35.924 M
129.56 35.924 L
S
GR
GS
[0.95846 0 0 0.95927 116.65305 169.01909] CT
0.149 GC
/Helvetica 11.458 F
GS
[1 0 0 1 0 0] CT
-10 4 moveto 
1 -1 scale
(-1) t 
GR
GR
GS
[0.95846 0 0 0.95927 116.65305 124.22866] CT
0.149 GC
/Helvetica 11.458 F
GS
[1 0 0 1 0 0] CT
-7 4 moveto 
1 -1 scale
(0) t 
GR
GR
GS
[0.95846 0 0 0.95927 116.65305 79.43823] CT
0.149 GC
/Helvetica 11.458 F
GS
[1 0 0 1 0 0] CT
-7 4 moveto 
1 -1 scale
(1) t 
GR
GR
GS
[0.95846 0 0 0.95927 116.65305 34.6478] CT
0.149 GC
/Helvetica 11.458 F
GS
[1 0 0 1 0 0] CT
-7 4 moveto 
1 -1 scale
(2) t 
GR
GR
GS
[0.95846 0 0 0.95927 122.20427 27.98213] CT
/Helvetica-Bold 12.604 F
GS
[1 0 0 1 0 0] CT
-8.5 -3 moveto 
1 -1 scale
(Dy) t 
GR
GR
GS
[0.95846 0 0 0.95927 0 0.18723] CT
1 LJ
0.521 LW
N
124.175 129.308 M
124.35 129.308 L
124.525 129.308 L
124.7 129.308 L
124.875 129.308 L
125.05 129.308 L
125.225 129.308 L
125.4 129.308 L
125.575 129.308 L
125.75 129.308 L
125.925 129.308 L
126.1 129.308 L
126.275 129.308 L
126.45 129.308 L
126.625 129.308 L
126.8 129.308 L
126.975 129.308 L
127.15 129.308 L
127.325 129.308 L
127.5 129.308 L
127.675 129.308 L
127.85 129.308 L
128.025 129.308 L
128.2 129.308 L
128.375 129.308 L
128.55 129.308 L
128.725 129.308 L
128.9 129.308 L
129.075 129.308 L
129.25 129.308 L
129.425 129.308 L
129.6 129.308 L
129.775 129.308 L
129.95 129.308 L
130.125 129.308 L
130.3 129.308 L
130.475 129.308 L
130.65 129.308 L
130.825 129.308 L
131 129.308 L
131.001 129.308 L
S
GR
GS
[0.95846 0 0 0.95927 0 0.18723] CT
1 0 0 RC
1 LJ
2.083 LW
N
124.175 92.198 M
124.35 70.015 L
124.525 49.505 L
124.7 32 L
124.875 55.294 L
125.05 68.553 L
125.225 84.577 L
125.4 101.186 L
125.575 116.33 L
125.75 128.763 L
125.925 137.852 L
126.1 143.734 L
126.275 146.741 L
126.45 147.458 L
126.625 146.436 L
126.8 144.005 L
126.975 140.73 L
127.15 137.219 L
127.325 133.78 L
127.5 130.695 L
127.675 128.027 L
127.85 125.74 L
128.025 123.684 L
128.2 121.832 L
128.375 120.139 L
128.55 118.581 L
128.725 117.27 L
128.9 116.257 L
129.075 115.542 L
129.25 115.087 L
129.425 114.789 L
129.6 114.573 L
129.775 114.399 L
129.95 114.244 L
130.125 114.13 L
130.3 114.151 L
130.475 114.297 L
130.65 114.601 L
130.825 115.049 L
131 115.587 L
131.001 115.59 L
S
GR
GS
[0.95846 0 0 0.95927 0 0.18723] CT
0 0 1 RC
[8 8] 0 setdash
2 LJ
2.083 LW
N
124.175 113.076 M
124.35 102.724 L
124.525 91.167 L
124.7 79.559 L
124.875 84.547 L
125.05 84.469 L
125.225 86.434 L
125.4 89.273 L
125.575 92.382 L
125.75 95.444 L
125.925 98.31 L
126.1 100.925 L
126.275 103.267 L
126.45 105.35 L
126.625 107.192 L
126.8 108.821 L
126.975 110.26 L
127.15 111.532 L
127.325 112.659 L
127.5 113.66 L
127.675 114.553 L
127.85 115.352 L
128.025 116.068 L
128.2 116.713 L
128.375 117.294 L
128.55 117.822 L
128.725 118.302 L
128.9 118.742 L
129.075 119.146 L
129.25 119.518 L
129.425 119.863 L
129.6 120.183 L
129.775 120.482 L
129.95 120.762 L
130.125 121.025 L
130.3 121.272 L
130.475 121.506 L
130.65 121.729 L
130.825 121.94 L
131 122.142 L
131.001 122.142 L
S
GR
GS
[0.95846 0 0 0.95927 0 0.18723] CT
1 GC
N
39 376 M
47 376 L
47 232 L
39 232 L
cp
f
GR
GS
[0.95846 0 0 0.95927 0 0.18723] CT
0.149 GC
2 setlinecap
1 LJ
0.521 LW
N
39 376 M
47 376 L
S
GR
GS
[0.95846 0 0 0.95927 0 0.18723] CT
0.149 GC
2 setlinecap
1 LJ
0.521 LW
N
39 232 M
47 232 L
S
GR
GS
[0.95846 0 0 0.95927 0 0.18723] CT
0.149 GC
2 setlinecap
1 LJ
0.521 LW
N
39 376 M
39 374.56 L
S
GR
GS
[0.95846 0 0 0.95927 0 0.18723] CT
0.149 GC
2 setlinecap
1 LJ
0.521 LW
N
40.6 376 M
40.6 374.56 L
S
GR
GS
[0.95846 0 0 0.95927 0 0.18723] CT
0.149 GC
2 setlinecap
1 LJ
0.521 LW
N
42.2 376 M
42.2 374.56 L
S
GR
GS
[0.95846 0 0 0.95927 0 0.18723] CT
0.149 GC
2 setlinecap
1 LJ
0.521 LW
N
43.8 376 M
43.8 374.56 L
S
GR
GS
[0.95846 0 0 0.95927 0 0.18723] CT
0.149 GC
2 setlinecap
1 LJ
0.521 LW
N
45.4 376 M
45.4 374.56 L
S
GR
GS
[0.95846 0 0 0.95927 0 0.18723] CT
0.149 GC
2 setlinecap
1 LJ
0.521 LW
N
47 376 M
47 374.56 L
S
GR
GS
[0.95846 0 0 0.95927 0 0.18723] CT
0.149 GC
2 setlinecap
1 LJ
0.521 LW
N
39 232 M
39 233.44 L
S
GR
GS
[0.95846 0 0 0.95927 0 0.18723] CT
0.149 GC
2 setlinecap
1 LJ
0.521 LW
N
40.6 232 M
40.6 233.44 L
S
GR
GS
[0.95846 0 0 0.95927 0 0.18723] CT
0.149 GC
2 setlinecap
1 LJ
0.521 LW
N
42.2 232 M
42.2 233.44 L
S
GR
GS
[0.95846 0 0 0.95927 0 0.18723] CT
0.149 GC
2 setlinecap
1 LJ
0.521 LW
N
43.8 232 M
43.8 233.44 L
S
GR
GS
[0.95846 0 0 0.95927 0 0.18723] CT
0.149 GC
2 setlinecap
1 LJ
0.521 LW
N
45.4 232 M
45.4 233.44 L
S
GR
GS
[0.95846 0 0 0.95927 0 0.18723] CT
0.149 GC
2 setlinecap
1 LJ
0.521 LW
N
47 232 M
47 233.44 L
S
GR
GS
[0.95846 0 0 0.95927 37.38009 363.07181] CT
0.149 GC
/Helvetica 11.458 F
GS
[1 0 0 1 0 0] CT
-3.5 11 moveto 
1 -1 scale
(0) t 
GR
GR
GS
[0.95846 0 0 0.95927 38.91363 363.07181] CT
0.149 GC
/Helvetica 11.458 F
GS
[1 0 0 1 0 0] CT
-3.5 11 moveto 
1 -1 scale
(8) t 
GR
GR
GS
[0.95846 0 0 0.95927 40.44718 363.07181] CT
0.149 GC
/Helvetica 11.458 F
GS
[1 0 0 1 0 0] CT
-6.5 11 moveto 
1 -1 scale
(16) t 
GR
GR
GS
[0.95846 0 0 0.95927 41.98072 363.07181] CT
0.149 GC
/Helvetica 11.458 F
GS
[1 0 0 1 0 0] CT
-6.5 11 moveto 
1 -1 scale
(24) t 
GR
GR
GS
[0.95846 0 0 0.95927 43.51426 363.07181] CT
0.149 GC
/Helvetica 11.458 F
GS
[1 0 0 1 0 0] CT
-6.5 11 moveto 
1 -1 scale
(32) t 
GR
GR
GS
[0.95846 0 0 0.95927 45.04781 363.07181] CT
0.149 GC
/Helvetica 11.458 F
GS
[1 0 0 1 0 0] CT
-6.5 11 moveto 
1 -1 scale
(40) t 
GR
GR
GS
[0.95846 0 0 0.95927 0 0.18723] CT
0.149 GC
2 setlinecap
1 LJ
0.521 LW
N
39 376 M
39 232 L
S
GR
GS
[0.95846 0 0 0.95927 0 0.18723] CT
0.149 GC
2 setlinecap
1 LJ
0.521 LW
N
47 376 M
47 232 L
S
GR
GS
[0.95846 0 0 0.95927 0 0.18723] CT
0.149 GC
2 setlinecap
1 LJ
0.521 LW
N
39 376 M
40.44 376 L
S
GR
GS
[0.95846 0 0 0.95927 0 0.18723] CT
0.149 GC
2 setlinecap
1 LJ
0.521 LW
N
39 328 M
40.44 328 L
S
GR
GS
[0.95846 0 0 0.95927 0 0.18723] CT
0.149 GC
2 setlinecap
1 LJ
0.521 LW
N
39 280 M
40.44 280 L
S
GR
GS
[0.95846 0 0 0.95927 0 0.18723] CT
0.149 GC
2 setlinecap
1 LJ
0.521 LW
N
39 232 M
40.44 232 L
S
GR
GS
[0.95846 0 0 0.95927 0 0.18723] CT
0.149 GC
2 setlinecap
1 LJ
0.521 LW
N
47 376 M
45.56 376 L
S
GR
GS
[0.95846 0 0 0.95927 0 0.18723] CT
0.149 GC
2 setlinecap
1 LJ
0.521 LW
N
47 328 M
45.56 328 L
S
GR
GS
[0.95846 0 0 0.95927 0 0.18723] CT
0.149 GC
2 setlinecap
1 LJ
0.521 LW
N
47 280 M
45.56 280 L
S
GR
GS
[0.95846 0 0 0.95927 0 0.18723] CT
0.149 GC
2 setlinecap
1 LJ
0.521 LW
N
47 232 M
45.56 232 L
S
GR
GS
[0.95846 0 0 0.95927 35.18361 360.87349] CT
0.149 GC
/Helvetica 11.458 F
GS
[1 0 0 1 0 0] CT
-10 4 moveto 
1 -1 scale
(-5) t 
GR
GR
GS
[0.95846 0 0 0.95927 35.18361 314.82843] CT
0.149 GC
/Helvetica 11.458 F
GS
[1 0 0 1 0 0] CT
-7 4 moveto 
1 -1 scale
(0) t 
GR
GR
GS
[0.95846 0 0 0.95927 35.18361 268.78338] CT
0.149 GC
/Helvetica 11.458 F
GS
[1 0 0 1 0 0] CT
-7 4 moveto 
1 -1 scale
(5) t 
GR
GR
GS
[0.95846 0 0 0.95927 35.18361 222.73832] CT
0.149 GC
/Helvetica 11.458 F
GS
[1 0 0 1 0 0] CT
-13 4 moveto 
1 -1 scale
(10) t 
GR
GR
GS
[0.95846 0 0 0.95927 41.21399 219.83652] CT
/Helvetica-Bold 12.604 F
GS
[1 0 0 1 0 0] CT
-12.5 -3 moveto 
1 -1 scale
(PDy) t 
GR
GR
GS
[0.95846 0 0 0.95927 0 0.18723] CT
1 LJ
0.521 LW
N
39.2 328 M
39.4 328 L
39.6 328 L
39.8 328 L
40 328 L
40.2 328 L
40.4 328 L
40.6 328 L
40.8 328 L
41 328 L
41.2 328 L
41.4 328 L
41.6 328 L
41.8 328 L
42 328 L
42.2 328 L
42.4 328 L
42.6 328 L
42.8 328 L
43 328 L
43.2 328 L
43.4 328 L
43.6 328 L
43.8 328 L
44 328 L
44.2 328 L
44.4 328 L
44.6 328 L
44.8 328 L
45 328 L
45.2 328 L
45.4 328 L
45.6 328 L
45.8 328 L
46 328 L
46.2 328 L
46.4 328 L
46.6 328 L
46.8 328 L
47 328 L
47.001 328 L
S
GR
GS
[0.95846 0 0 0.95927 0 0.18723] CT
1 0 0 RC
1 LJ
2.083 LW
N
39.2 305.418 M
39.4 292.555 L
39.6 281.084 L
39.8 271.863 L
40 258.091 L
40.2 250.496 L
40.4 246.39 L
40.6 245.786 L
40.8 248.352 L
41 253.445 L
41.2 260.449 L
41.4 268.833 L
41.6 278.005 L
41.8 287.31 L
42 296.354 L
42.2 304.836 L
42.4 312.564 L
42.6 319.473 L
42.8 325.631 L
43 331.026 L
43.2 335.727 L
43.4 339.806 L
43.6 343.293 L
43.8 346.176 L
44 348.505 L
44.2 350.31 L
44.4 351.665 L
44.6 352.677 L
44.8 353.386 L
45 353.817 L
45.2 353.995 L
45.4 353.962 L
45.6 353.726 L
45.8 353.272 L
46 352.607 L
46.2 351.816 L
46.4 350.96 L
46.6 350.032 L
46.8 349.07 L
47 348.137 L
47.001 348.133 L
S
GR
GS
[0.95846 0 0 0.95927 0 0.18723] CT
0 0 1 RC
[8 8] 0 setdash
2 LJ
2.083 LW
N
39.2 330.382 M
39.4 332.572 L
39.6 334.986 L
39.8 337.416 L
40 336.434 L
40.2 336.492 L
40.4 336.128 L
40.6 335.58 L
40.8 334.974 L
41 334.374 L
41.2 333.812 L
41.4 333.299 L
41.6 332.84 L
41.8 332.433 L
42 332.073 L
42.2 331.756 L
42.4 331.476 L
42.6 331.23 L
42.8 331.013 L
43 330.82 L
43.2 330.649 L
43.4 330.497 L
43.6 330.361 L
43.8 330.239 L
44 330.13 L
44.2 330.031 L
44.4 329.942 L
44.6 329.86 L
44.8 329.786 L
45 329.718 L
45.2 329.655 L
45.4 329.597 L
45.6 329.543 L
45.8 329.492 L
46 329.445 L
46.2 329.401 L
46.4 329.36 L
46.6 329.32 L
46.8 329.283 L
47 329.248 L
47.001 329.248 L
S
GR
GS
[0.95846 0 0 0.95927 0 0.18723] CT
1 GC
N
81 376 M
89 376 L
89 232 L
81 232 L
cp
f
GR
GS
[0.95846 0 0 0.95927 0 0.18723] CT
0.149 GC
2 setlinecap
1 LJ
0.521 LW
N
81 376 M
89 376 L
S
GR
GS
[0.95846 0 0 0.95927 0 0.18723] CT
0.149 GC
2 setlinecap
1 LJ
0.521 LW
N
81 232 M
89 232 L
S
GR
GS
[0.95846 0 0 0.95927 0 0.18723] CT
0.149 GC
2 setlinecap
1 LJ
0.521 LW
N
81 376 M
81 374.56 L
S
GR
GS
[0.95846 0 0 0.95927 0 0.18723] CT
0.149 GC
2 setlinecap
1 LJ
0.521 LW
N
82.6 376 M
82.6 374.56 L
S
GR
GS
[0.95846 0 0 0.95927 0 0.18723] CT
0.149 GC
2 setlinecap
1 LJ
0.521 LW
N
84.2 376 M
84.2 374.56 L
S
GR
GS
[0.95846 0 0 0.95927 0 0.18723] CT
0.149 GC
2 setlinecap
1 LJ
0.521 LW
N
85.8 376 M
85.8 374.56 L
S
GR
GS
[0.95846 0 0 0.95927 0 0.18723] CT
0.149 GC
2 setlinecap
1 LJ
0.521 LW
N
87.4 376 M
87.4 374.56 L
S
GR
GS
[0.95846 0 0 0.95927 0 0.18723] CT
0.149 GC
2 setlinecap
1 LJ
0.521 LW
N
89 376 M
89 374.56 L
S
GR
GS
[0.95846 0 0 0.95927 0 0.18723] CT
0.149 GC
2 setlinecap
1 LJ
0.521 LW
N
81 232 M
81 233.44 L
S
GR
GS
[0.95846 0 0 0.95927 0 0.18723] CT
0.149 GC
2 setlinecap
1 LJ
0.521 LW
N
82.6 232 M
82.6 233.44 L
S
GR
GS
[0.95846 0 0 0.95927 0 0.18723] CT
0.149 GC
2 setlinecap
1 LJ
0.521 LW
N
84.2 232 M
84.2 233.44 L
S
GR
GS
[0.95846 0 0 0.95927 0 0.18723] CT
0.149 GC
2 setlinecap
1 LJ
0.521 LW
N
85.8 232 M
85.8 233.44 L
S
GR
GS
[0.95846 0 0 0.95927 0 0.18723] CT
0.149 GC
2 setlinecap
1 LJ
0.521 LW
N
87.4 232 M
87.4 233.44 L
S
GR
GS
[0.95846 0 0 0.95927 0 0.18723] CT
0.149 GC
2 setlinecap
1 LJ
0.521 LW
N
89 232 M
89 233.44 L
S
GR
GS
[0.95846 0 0 0.95927 77.63558 363.07181] CT
0.149 GC
/Helvetica 11.458 F
GS
[1 0 0 1 0 0] CT
-3.5 11 moveto 
1 -1 scale
(0) t 
GR
GR
GS
[0.95846 0 0 0.95927 79.16912 363.07181] CT
0.149 GC
/Helvetica 11.458 F
GS
[1 0 0 1 0 0] CT
-3.5 11 moveto 
1 -1 scale
(8) t 
GR
GR
GS
[0.95846 0 0 0.95927 80.70266 363.07181] CT
0.149 GC
/Helvetica 11.458 F
GS
[1 0 0 1 0 0] CT
-6.5 11 moveto 
1 -1 scale
(16) t 
GR
GR
GS
[0.95846 0 0 0.95927 82.23621 363.07181] CT
0.149 GC
/Helvetica 11.458 F
GS
[1 0 0 1 0 0] CT
-6.5 11 moveto 
1 -1 scale
(24) t 
GR
GR
GS
[0.95846 0 0 0.95927 83.76975 363.07181] CT
0.149 GC
/Helvetica 11.458 F
GS
[1 0 0 1 0 0] CT
-6.5 11 moveto 
1 -1 scale
(32) t 
GR
GR
GS
[0.95846 0 0 0.95927 85.30329 363.07181] CT
0.149 GC
/Helvetica 11.458 F
GS
[1 0 0 1 0 0] CT
-6.5 11 moveto 
1 -1 scale
(40) t 
GR
GR
GS
[0.95846 0 0 0.95927 0 0.18723] CT
0.149 GC
2 setlinecap
1 LJ
0.521 LW
N
81 376 M
81 232 L
S
GR
GS
[0.95846 0 0 0.95927 0 0.18723] CT
0.149 GC
2 setlinecap
1 LJ
0.521 LW
N
89 376 M
89 232 L
S
GR
GS
[0.95846 0 0 0.95927 0 0.18723] CT
0.149 GC
2 setlinecap
1 LJ
0.521 LW
N
81 376 M
82.44 376 L
S
GR
GS
[0.95846 0 0 0.95927 0 0.18723] CT
0.149 GC
2 setlinecap
1 LJ
0.521 LW
N
81 347.2 M
82.44 347.2 L
S
GR
GS
[0.95846 0 0 0.95927 0 0.18723] CT
0.149 GC
2 setlinecap
1 LJ
0.521 LW
N
81 318.4 M
82.44 318.4 L
S
GR
GS
[0.95846 0 0 0.95927 0 0.18723] CT
0.149 GC
2 setlinecap
1 LJ
0.521 LW
N
81 289.6 M
82.44 289.6 L
S
GR
GS
[0.95846 0 0 0.95927 0 0.18723] CT
0.149 GC
2 setlinecap
1 LJ
0.521 LW
N
81 260.8 M
82.44 260.8 L
S
GR
GS
[0.95846 0 0 0.95927 0 0.18723] CT
0.149 GC
2 setlinecap
1 LJ
0.521 LW
N
81 232 M
82.44 232 L
S
GR
GS
[0.95846 0 0 0.95927 0 0.18723] CT
0.149 GC
2 setlinecap
1 LJ
0.521 LW
N
89 376 M
87.56 376 L
S
GR
GS
[0.95846 0 0 0.95927 0 0.18723] CT
0.149 GC
2 setlinecap
1 LJ
0.521 LW
N
89 347.2 M
87.56 347.2 L
S
GR
GS
[0.95846 0 0 0.95927 0 0.18723] CT
0.149 GC
2 setlinecap
1 LJ
0.521 LW
N
89 318.4 M
87.56 318.4 L
S
GR
GS
[0.95846 0 0 0.95927 0 0.18723] CT
0.149 GC
2 setlinecap
1 LJ
0.521 LW
N
89 289.6 M
87.56 289.6 L
S
GR
GS
[0.95846 0 0 0.95927 0 0.18723] CT
0.149 GC
2 setlinecap
1 LJ
0.521 LW
N
89 260.8 M
87.56 260.8 L
S
GR
GS
[0.95846 0 0 0.95927 0 0.18723] CT
0.149 GC
2 setlinecap
1 LJ
0.521 LW
N
89 232 M
87.56 232 L
S
GR
GS
[0.95846 0 0 0.95927 75.4391 360.87349] CT
0.149 GC
/Helvetica 11.458 F
GS
[1 0 0 1 0 0] CT
-26 4 moveto 
1 -1 scale
(-0.04) t 
GR
GR
GS
[0.95846 0 0 0.95927 75.4391 333.24647] CT
0.149 GC
/Helvetica 11.458 F
GS
[1 0 0 1 0 0] CT
-26 4 moveto 
1 -1 scale
(-0.02) t 
GR
GR
GS
[0.95846 0 0 0.95927 75.4391 305.61942] CT
0.149 GC
/Helvetica 11.458 F
GS
[1 0 0 1 0 0] CT
-7 4 moveto 
1 -1 scale
(0) t 
GR
GR
GS
[0.95846 0 0 0.95927 75.4391 277.9924] CT
0.149 GC
/Helvetica 11.458 F
GS
[1 0 0 1 0 0] CT
-23 4 moveto 
1 -1 scale
(0.02) t 
GR
GR
GS
[0.95846 0 0 0.95927 75.4391 250.36535] CT
0.149 GC
/Helvetica 11.458 F
GS
[1 0 0 1 0 0] CT
-23 4 moveto 
1 -1 scale
(0.04) t 
GR
GR
GS
[0.95846 0 0 0.95927 75.4391 222.73832] CT
0.149 GC
/Helvetica 11.458 F
GS
[1 0 0 1 0 0] CT
-23 4 moveto 
1 -1 scale
(0.06) t 
GR
GR
GS
[0.95846 0 0 0.95927 81.46952 219.83653] CT
/Helvetica-Bold 12.604 F
GS
[1 0 0 1 0 0] CT
-4.5 -3 moveto 
1 -1 scale
(R) t 
GR
GR
GS
[0.95846 0 0 0.95927 0 0.18723] CT
1 LJ
0.521 LW
N
81.2 318.4 M
81.4 318.4 L
81.6 318.4 L
81.8 318.4 L
82 318.4 L
82.2 318.4 L
82.4 318.4 L
82.6 318.4 L
82.8 318.4 L
83 318.4 L
83.2 318.4 L
83.4 318.4 L
83.6 318.4 L
83.8 318.4 L
84 318.4 L
84.2 318.4 L
84.4 318.4 L
84.6 318.4 L
84.8 318.4 L
85 318.4 L
85.2 318.4 L
85.4 318.4 L
85.6 318.4 L
85.8 318.4 L
86 318.4 L
86.2 318.4 L
86.4 318.4 L
86.6 318.4 L
86.8 318.4 L
87 318.4 L
87.2 318.4 L
87.4 318.4 L
87.6 318.4 L
87.8 318.4 L
88 318.4 L
88.2 318.4 L
88.4 318.4 L
88.6 318.4 L
88.8 318.4 L
89 318.4 L
89.001 318.4 L
S
GR
GS
[0.95846 0 0 0.95927 0 0.18723] CT
1 0 0 RC
1 LJ
2.083 LW
N
81.2 246.71 M
81.4 307.73 L
81.6 335.73 L
81.8 346.348 L
82 348.1 L
82.2 345.794 L
82.4 342.086 L
82.6 338.401 L
82.8 335.389 L
83 333.27 L
83.2 331.989 L
83.4 331.408 L
83.6 331.369 L
83.8 331.698 L
84 332.21 L
84.2 332.783 L
84.4 333.309 L
84.6 333.723 L
84.8 334 L
85 334.15 L
85.2 334.183 L
85.4 334.106 L
85.6 333.934 L
85.8 333.675 L
86 333.333 L
86.2 332.912 L
86.4 332.421 L
86.6 331.878 L
86.8 331.299 L
87 330.703 L
87.2 330.094 L
87.4 329.48 L
87.6 328.863 L
87.8 328.245 L
88 327.62 L
88.2 326.994 L
88.4 326.379 L
88.6 325.785 L
88.8 325.215 L
89 324.677 L
89.001 324.675 L
S
GR
GS
[0.95846 0 0 0.95927 0 0.18723] CT
0 0 1 RC
[8 8] 0 setdash
2 LJ
2.083 LW
N
81.2 247.414 M
81.4 311.123 L
81.6 342.59 L
81.8 356.545 L
82 361.162 L
82.2 360.964 L
82.4 358.443 L
82.6 354.946 L
82.8 351.189 L
83 347.534 L
83.2 344.15 L
83.4 341.102 L
83.6 338.402 L
83.8 336.032 L
84 333.966 L
84.2 332.17 L
84.4 330.613 L
84.6 329.264 L
84.8 328.096 L
85 327.085 L
85.2 326.21 L
85.4 325.452 L
85.6 324.794 L
85.8 324.224 L
86 323.728 L
86.2 323.297 L
86.4 322.922 L
86.6 322.595 L
86.8 322.31 L
87 322.062 L
87.2 321.844 L
87.4 321.654 L
87.6 321.487 L
87.8 321.34 L
88 321.211 L
88.2 321.098 L
88.4 320.997 L
88.6 320.908 L
88.8 320.828 L
89 320.758 L
89.001 320.758 L
S
GR
GS
[0.95846 0 0 0.95927 0 0.18723] CT
1 GC
N
124 376 M
131 376 L
131 232 L
124 232 L
cp
f
GR
GS
[0.95846 0 0 0.95927 0 0.18723] CT
0.149 GC
2 setlinecap
1 LJ
0.521 LW
N
124 376 M
131 376 L
S
GR
GS
[0.95846 0 0 0.95927 0 0.18723] CT
0.149 GC
2 setlinecap
1 LJ
0.521 LW
N
124 232 M
131 232 L
S
GR
GS
[0.95846 0 0 0.95927 0 0.18723] CT
0.149 GC
2 setlinecap
1 LJ
0.521 LW
N
124 376 M
124 374.56 L
S
GR
GS
[0.95846 0 0 0.95927 0 0.18723] CT
0.149 GC
2 setlinecap
1 LJ
0.521 LW
N
125.4 376 M
125.4 374.56 L
S
GR
GS
[0.95846 0 0 0.95927 0 0.18723] CT
0.149 GC
2 setlinecap
1 LJ
0.521 LW
N
126.8 376 M
126.8 374.56 L
S
GR
GS
[0.95846 0 0 0.95927 0 0.18723] CT
0.149 GC
2 setlinecap
1 LJ
0.521 LW
N
128.2 376 M
128.2 374.56 L
S
GR
GS
[0.95846 0 0 0.95927 0 0.18723] CT
0.149 GC
2 setlinecap
1 LJ
0.521 LW
N
129.6 376 M
129.6 374.56 L
S
GR
GS
[0.95846 0 0 0.95927 0 0.18723] CT
0.149 GC
2 setlinecap
1 LJ
0.521 LW
N
131 376 M
131 374.56 L
S
GR
GS
[0.95846 0 0 0.95927 0 0.18723] CT
0.149 GC
2 setlinecap
1 LJ
0.521 LW
N
124 232 M
124 233.44 L
S
GR
GS
[0.95846 0 0 0.95927 0 0.18723] CT
0.149 GC
2 setlinecap
1 LJ
0.521 LW
N
125.4 232 M
125.4 233.44 L
S
GR
GS
[0.95846 0 0 0.95927 0 0.18723] CT
0.149 GC
2 setlinecap
1 LJ
0.521 LW
N
126.8 232 M
126.8 233.44 L
S
GR
GS
[0.95846 0 0 0.95927 0 0.18723] CT
0.149 GC
2 setlinecap
1 LJ
0.521 LW
N
128.2 232 M
128.2 233.44 L
S
GR
GS
[0.95846 0 0 0.95927 0 0.18723] CT
0.149 GC
2 setlinecap
1 LJ
0.521 LW
N
129.6 232 M
129.6 233.44 L
S
GR
GS
[0.95846 0 0 0.95927 0 0.18723] CT
0.149 GC
2 setlinecap
1 LJ
0.521 LW
N
131 232 M
131 233.44 L
S
GR
GS
[0.95846 0 0 0.95927 118.84953 363.07181] CT
0.149 GC
/Helvetica 11.458 F
GS
[1 0 0 1 0 0] CT
-3.5 11 moveto 
1 -1 scale
(0) t 
GR
GR
GS
[0.95846 0 0 0.95927 120.19138 363.07181] CT
0.149 GC
/Helvetica 11.458 F
GS
[1 0 0 1 0 0] CT
-3.5 11 moveto 
1 -1 scale
(8) t 
GR
GR
GS
[0.95846 0 0 0.95927 121.53323 363.07181] CT
0.149 GC
/Helvetica 11.458 F
GS
[1 0 0 1 0 0] CT
-6.5 11 moveto 
1 -1 scale
(16) t 
GR
GR
GS
[0.95846 0 0 0.95927 122.87508 363.07181] CT
0.149 GC
/Helvetica 11.458 F
GS
[1 0 0 1 0 0] CT
-6.5 11 moveto 
1 -1 scale
(24) t 
GR
GR
GS
[0.95846 0 0 0.95927 124.21693 363.07181] CT
0.149 GC
/Helvetica 11.458 F
GS
[1 0 0 1 0 0] CT
-6.5 11 moveto 
1 -1 scale
(32) t 
GR
GR
GS
[0.95846 0 0 0.95927 125.55878 363.07181] CT
0.149 GC
/Helvetica 11.458 F
GS
[1 0 0 1 0 0] CT
-6.5 11 moveto 
1 -1 scale
(40) t 
GR
GR
GS
[0.95846 0 0 0.95927 0 0.18723] CT
0.149 GC
2 setlinecap
1 LJ
0.521 LW
N
124 376 M
124 232 L
S
GR
GS
[0.95846 0 0 0.95927 0 0.18723] CT
0.149 GC
2 setlinecap
1 LJ
0.521 LW
N
131 376 M
131 232 L
S
GR
GS
[0.95846 0 0 0.95927 0 0.18723] CT
0.149 GC
2 setlinecap
1 LJ
0.521 LW
N
124 376 M
125.44 376 L
S
GR
GS
[0.95846 0 0 0.95927 0 0.18723] CT
0.149 GC
2 setlinecap
1 LJ
0.521 LW
N
124 328 M
125.44 328 L
S
GR
GS
[0.95846 0 0 0.95927 0 0.18723] CT
0.149 GC
2 setlinecap
1 LJ
0.521 LW
N
124 280 M
125.44 280 L
S
GR
GS
[0.95846 0 0 0.95927 0 0.18723] CT
0.149 GC
2 setlinecap
1 LJ
0.521 LW
N
124 232 M
125.44 232 L
S
GR
GS
[0.95846 0 0 0.95927 0 0.18723] CT
0.149 GC
2 setlinecap
1 LJ
0.521 LW
N
131 376 M
129.56 376 L
S
GR
GS
[0.95846 0 0 0.95927 0 0.18723] CT
0.149 GC
2 setlinecap
1 LJ
0.521 LW
N
131 328 M
129.56 328 L
S
GR
GS
[0.95846 0 0 0.95927 0 0.18723] CT
0.149 GC
2 setlinecap
1 LJ
0.521 LW
N
131 280 M
129.56 280 L
S
GR
GS
[0.95846 0 0 0.95927 0 0.18723] CT
0.149 GC
2 setlinecap
1 LJ
0.521 LW
N
131 232 M
129.56 232 L
S
GR
GS
[0.95846 0 0 0.95927 116.65305 360.87349] CT
0.149 GC
/Helvetica 11.458 F
GS
[1 0 0 1 0 0] CT
-10 4 moveto 
1 -1 scale
(-2) t 
GR
GR
GS
[0.95846 0 0 0.95927 116.65305 314.82843] CT
0.149 GC
/Helvetica 11.458 F
GS
[1 0 0 1 0 0] CT
-7 4 moveto 
1 -1 scale
(0) t 
GR
GR
GS
[0.95846 0 0 0.95927 116.65305 268.78338] CT
0.149 GC
/Helvetica 11.458 F
GS
[1 0 0 1 0 0] CT
-7 4 moveto 
1 -1 scale
(2) t 
GR
GR
GS
[0.95846 0 0 0.95927 116.65305 222.73832] CT
0.149 GC
/Helvetica 11.458 F
GS
[1 0 0 1 0 0] CT
-7 4 moveto 
1 -1 scale
(4) t 
GR
GR
GS
[0.95846 0 0 0.95927 122.20427 219.83652] CT
/Helvetica-Bold 12.604 F
GS
[1 0 0 1 0 0] CT
-9 -3 moveto 
1 -1 scale
(RV) t 
GR
GR
GS
[0.95846 0 0 0.95927 0 0.18723] CT
1 LJ
0.521 LW
N
124.175 328 M
124.35 328 L
124.525 328 L
124.7 328 L
124.875 328 L
125.05 328 L
125.225 328 L
125.4 328 L
125.575 328 L
125.75 328 L
125.925 328 L
126.1 328 L
126.275 328 L
126.45 328 L
126.625 328 L
126.8 328 L
126.975 328 L
127.15 328 L
127.325 328 L
127.5 328 L
127.675 328 L
127.85 328 L
128.025 328 L
128.2 328 L
128.375 328 L
128.55 328 L
128.725 328 L
128.9 328 L
129.075 328 L
129.25 328 L
129.425 328 L
129.6 328 L
129.775 328 L
129.95 328 L
130.125 328 L
130.3 328 L
130.475 328 L
130.65 328 L
130.825 328 L
131 328 L
131.001 328 L
S
GR
GS
[0.95846 0 0 0.95927 0 0.18723] CT
1 0 0 RC
1 LJ
2.083 LW
N
124.175 252.471 M
124.35 284.44 L
124.525 289.139 L
124.7 296.517 L
124.875 306.292 L
125.05 316.727 L
125.225 326.971 L
125.4 336.08 L
125.575 343.253 L
125.75 348.139 L
125.925 351.126 L
126.1 352.827 L
126.275 353.213 L
126.45 352.246 L
126.625 350.582 L
126.8 348.336 L
126.975 345.91 L
127.15 343.644 L
127.325 341.719 L
127.5 339.919 L
127.675 338.334 L
127.85 336.918 L
128.025 335.507 L
128.2 334.061 L
128.375 332.721 L
128.55 331.453 L
128.725 330.433 L
128.9 329.711 L
129.075 329.097 L
129.25 328.527 L
129.425 327.97 L
129.6 327.482 L
129.775 326.997 L
129.95 326.466 L
130.125 325.965 L
130.3 325.725 L
130.475 325.637 L
130.65 325.551 L
130.825 325.549 L
131 325.682 L
131.001 325.683 L
S
GR
GS
[0.95846 0 0 0.95927 0 0.18723] CT
0 0 1 RC
[8 8] 0 setdash
2 LJ
2.083 LW
N
124.175 325.612 M
124.35 328 L
124.525 328 L
124.7 328 L
124.875 328 L
125.05 328 L
125.225 328 L
125.4 328 L
125.575 328 L
125.75 328 L
125.925 328 L
126.1 328 L
126.275 328 L
126.45 328 L
126.625 328 L
126.8 328 L
126.975 328 L
127.15 328 L
127.325 328 L
127.5 328 L
127.675 328 L
127.85 328 L
128.025 328 L
128.2 328 L
128.375 328 L
128.55 328 L
128.725 328 L
128.9 328 L
129.075 328 L
129.25 328 L
129.425 328 L
129.6 328 L
129.775 328 L
129.95 328 L
130.125 328 L
130.3 328 L
130.475 328 L
130.65 328 L
130.825 328 L
131 328 L
131.001 328 L
S
GR
GS
[0.95846 0 0 0.95927 0 0.18723] CT
1 GC
N
127 267 M
127 239 L
46 239 L
46 267 L
cp
f
GR
GS
[0.95846 0 0 0.95927 80.63779 236.99277] CT
/Helvetica 10.312 F
GS
[1 0 0 1 0 0] CT
0 4 moveto 
1 -1 scale
(learning) t 
GR
GR
GS
[0.95846 0 0 0.95927 0 0.18723] CT
1 0 0 RC
1 LJ
2.083 LW
N
49.988 246.86 M
81.142 246.86 L
S
GR
GS
[0.95846 0 0 0.95927 80.63779 248.7733] CT
/Helvetica 10.312 F
GS
[1 0 0 1 0 0] CT
0 4 moveto 
1 -1 scale
(RE) t 
GR
GR
GS
[0.95846 0 0 0.95927 0 0.18723] CT
0 0 1 RC
[8 8] 0 setdash
2 LJ
2.083 LW
N
49.988 259.14 M
81.142 259.14 L
S
GR
GS
[0.95846 0 0 0.95927 0 0.18723] CT
0.149 GC
10.0 ML
0.521 LW
N
46 267 M
46 239 L
127 239 L
127 267 L
cp
S
GR
%%Trailer
%%Pages: 1
%%EOF
