%!PS-Adobe-3.0 EPSF-3.0
%%Creator: MATLAB, The MathWorks, Inc. Version 8.1.0.604 (R2013a). Operating System: Linux 2.6.18-407.el5 #1 SMP Wed Nov 11 08:39:12 CST 2015 x86_64.
%%Title: /a/msulx1/lcl/msu/home/m1hxw02/jmp/kappaw-sweep.eps
%%CreationDate: 01/14/2016  16:49:04
%%DocumentNeededFonts: Helvetica
%%DocumentProcessColors: Cyan Magenta Yellow Black
%%LanguageLevel: 2
%%Pages: 1
%%BoundingBox:    29     0   591   390
%%EndComments

%%BeginProlog
% MathWorks dictionary
/MathWorks 160 dict begin
% definition operators
/bdef {bind def} bind def
/ldef {load def} bind def
/xdef {exch def} bdef
/xstore {exch store} bdef
% operator abbreviations
/c  /clip ldef
/cc /concat ldef
/cp /closepath ldef
/gr /grestore ldef
/gs /gsave ldef
/mt /moveto ldef
/np /newpath ldef
/cm /currentmatrix ldef
/sm /setmatrix ldef
/rm /rmoveto ldef
/rl /rlineto ldef
/s {show newpath} bdef
/sc {setcmykcolor} bdef
/sr /setrgbcolor ldef
/sg /setgray ldef
/w /setlinewidth ldef
/j /setlinejoin ldef
/cap /setlinecap ldef
/rc {rectclip} bdef
/rf {rectfill} bdef
% page state control
/pgsv () def
/bpage {/pgsv save def} bdef
/epage {pgsv restore} bdef
/bplot /gsave ldef
/eplot {stroke grestore} bdef
% orientation switch
/portraitMode 0 def /landscapeMode 1 def /rotateMode 2 def
% coordinate system mappings
/dpi2point 0 def
% font control
/FontSize 0 def
/FMS {/FontSize xstore findfont [FontSize 0 0 FontSize neg 0 0]
  makefont setfont} bdef
/reencode {exch dup where {pop load} {pop StandardEncoding} ifelse
  exch dup 3 1 roll findfont dup length dict begin
  { 1 index /FID ne {def}{pop pop} ifelse } forall
  /Encoding exch def currentdict end definefont pop} bdef
/isroman {findfont /CharStrings get /Agrave known} bdef
/FMSR {3 1 roll 1 index dup isroman {reencode} {pop pop} ifelse
  exch FMS} bdef
/csm {1 dpi2point div -1 dpi2point div scale neg translate
 dup landscapeMode eq {pop -90 rotate}
  {rotateMode eq {90 rotate} if} ifelse} bdef
% line types: solid, dotted, dashed, dotdash
/dom { dpi2point 1 currentlinewidth 0.08 mul add mul mul } bdef/dam { dpi2point 2 currentlinewidth 0.04 mul add mul mul } bdef/SO { [] 0 setdash 0 setlinecap } bdef/DO { [1 dom 1.2 dom] 0 setdash 0 setlinecap } bdef/DA { [4 dam 1.5 dam] 0 setdash 0 setlinecap } bdef/DD { [1 dom 1.2 dom 4 dam 1.2 dom] 0 setdash 0 setlinecap } bdef/GR { [0 dpi2point mul 4 dpi2point mul] 0 setdash 1 setlinecap } bdef% macros for lines and objects
/L {lineto stroke} bdef
/MP {3 1 roll moveto 1 sub {rlineto} repeat} bdef
/AP {{rlineto} repeat} bdef
/PDlw -1 def
/W {/PDlw currentlinewidth def setlinewidth} def
/PP {closepath eofill} bdef
/DP {closepath stroke} bdef
/MR {4 -2 roll moveto dup  0 exch rlineto exch 0 rlineto
  neg 0 exch rlineto closepath} bdef
/FR {MR stroke} bdef
/PR {MR fill} bdef
/L1i {{currentfile picstr readhexstring pop} image} bdef
/tMatrix matrix def
/MakeOval {newpath tMatrix currentmatrix pop translate scale
0 0 1 0 360 arc tMatrix setmatrix} bdef
/FO {MakeOval stroke} bdef
/PO {MakeOval fill} bdef
/PD {currentlinewidth 2 div 0 360 arc fill
   PDlw -1 eq not {PDlw w /PDlw -1 def} if} def
/FA {newpath tMatrix currentmatrix pop translate scale
  0 0 1 5 -2 roll arc tMatrix setmatrix stroke} bdef
/PA {newpath tMatrix currentmatrix pop	translate 0 0 moveto scale
  0 0 1 5 -2 roll arc closepath tMatrix setmatrix fill} bdef
/FAn {newpath tMatrix currentmatrix pop translate scale
  0 0 1 5 -2 roll arcn tMatrix setmatrix stroke} bdef
/PAn {newpath tMatrix currentmatrix pop translate 0 0 moveto scale
  0 0 1 5 -2 roll arcn closepath tMatrix setmatrix fill} bdef
/vradius 0 def /hradius 0 def /lry 0 def
/lrx 0 def /uly 0 def /ulx 0 def /rad 0 def
/MRR {/vradius xdef /hradius xdef /lry xdef /lrx xdef /uly xdef
  /ulx xdef newpath tMatrix currentmatrix pop ulx hradius add uly
  vradius add translate hradius vradius scale 0 0 1 180 270 arc 
  tMatrix setmatrix lrx hradius sub uly vradius add translate
  hradius vradius scale 0 0 1 270 360 arc tMatrix setmatrix
  lrx hradius sub lry vradius sub translate hradius vradius scale
  0 0 1 0 90 arc tMatrix setmatrix ulx hradius add lry vradius sub
  translate hradius vradius scale 0 0 1 90 180 arc tMatrix setmatrix
  closepath} bdef
/FRR {MRR stroke } bdef
/PRR {MRR fill } bdef
/MlrRR {/lry xdef /lrx xdef /uly xdef /ulx xdef /rad lry uly sub 2 div def
  newpath tMatrix currentmatrix pop ulx rad add uly rad add translate
  rad rad scale 0 0 1 90 270 arc tMatrix setmatrix lrx rad sub lry rad
  sub translate rad rad scale 0 0 1 270 90 arc tMatrix setmatrix
  closepath} bdef
/FlrRR {MlrRR stroke } bdef
/PlrRR {MlrRR fill } bdef
/MtbRR {/lry xdef /lrx xdef /uly xdef /ulx xdef /rad lrx ulx sub 2 div def
  newpath tMatrix currentmatrix pop ulx rad add uly rad add translate
  rad rad scale 0 0 1 180 360 arc tMatrix setmatrix lrx rad sub lry rad
  sub translate rad rad scale 0 0 1 0 180 arc tMatrix setmatrix
  closepath} bdef
/FtbRR {MtbRR stroke } bdef
/PtbRR {MtbRR fill } bdef
/stri 6 array def /dtri 6 array def
/smat 6 array def /dmat 6 array def
/tmat1 6 array def /tmat2 6 array def /dif 3 array def
/asub {/ind2 exch def /ind1 exch def dup dup
  ind1 get exch ind2 get sub exch } bdef
/tri_to_matrix {
  2 0 asub 3 1 asub 4 0 asub 5 1 asub
  dup 0 get exch 1 get 7 -1 roll astore } bdef
/compute_transform {
  dmat dtri tri_to_matrix tmat1 invertmatrix 
  smat stri tri_to_matrix tmat2 concatmatrix } bdef
/ds {stri astore pop} bdef
/dt {dtri astore pop} bdef
/db {2 copy /cols xdef /rows xdef mul dup 3 mul string
  currentfile 
  3 index 0 eq {/ASCIIHexDecode filter}
  {/ASCII85Decode filter 3 index 2 eq {/RunLengthDecode filter} if }
  ifelse exch readstring pop
  dup 0 3 index getinterval /rbmap xdef
  dup 2 index dup getinterval /gbmap xdef
  1 index dup 2 mul exch getinterval /bbmap xdef pop pop}bdef
/it {gs np dtri aload pop moveto lineto lineto cp c
  cols rows 8 compute_transform 
  rbmap gbmap bbmap true 3 colorimage gr}bdef
/il {newpath moveto lineto stroke}bdef
currentdict end def
%%EndProlog

%%BeginSetup
MathWorks begin

0 cap

end
%%EndSetup

%%Page: 1 1
%%BeginPageSetup
%%PageBoundingBox:    29     0   591   390
MathWorks begin
bpage
%%EndPageSetup

%%BeginObject: obj1
bplot

/dpi2point 12 def
portraitMode 0348 4680 csm

    0     0  6751  4681 rc
80 dict begin %Colortable dictionary
/c0 { 0.000000 0.000000 0.000000 sr} bdef
/c1 { 1.000000 1.000000 1.000000 sr} bdef
/c2 { 0.900000 0.000000 0.000000 sr} bdef
/c3 { 0.000000 0.820000 0.000000 sr} bdef
/c4 { 0.000000 0.000000 0.800000 sr} bdef
/c5 { 0.910000 0.820000 0.320000 sr} bdef
/c6 { 1.000000 0.260000 0.820000 sr} bdef
/c7 { 0.000000 0.820000 0.820000 sr} bdef
c0
1 j
1 sg
   0    0 6752 4682 rf
6 w
0 1662 2727 0 0 -1662 385 1935 4 MP
PP
-2727 0 0 1662 2727 0 0 -1662 385 1935 5 MP stroke
4 w
DO
6 w
SO
0 sg
 385 1935 mt 3112 1935 L
 385  273 mt 3112  273 L
 385 1935 mt  385  273 L
3112 1935 mt 3112  273 L
 385 1935 mt 3112 1935 L
 385 1935 mt  385  273 L
 385 1935 mt  385 1907 L
 385  273 mt  385  300 L
%%IncludeResource: font Helvetica
/Helvetica /ISOLatin1Encoding 168 FMSR

 339 2125 mt 
(0) s
1748 1935 mt 1748 1907 L
1748  273 mt 1748  300 L
1632 2125 mt 
(0.5) s
3112 1935 mt 3112 1907 L
3112  273 mt 3112  300 L
3066 2125 mt 
(1) s
 385 1935 mt  412 1935 L
3112 1935 mt 3084 1935 L
 257 1997 mt 
(0) s
 385 1363 mt  412 1363 L
3112 1363 mt 3084 1363 L
 257 1425 mt 
(1) s
 385  791 mt  412  791 L
3112  791 mt 3084  791 L
 257  853 mt 
(2) s
 385 1935 mt 3112 1935 L
 385  273 mt 3112  273 L
 385 1935 mt  385  273 L
3112 1935 mt 3112  273 L
gs 385 273 2728 1663 rc
24 w
/c8 { 1.000000 0.000000 0.000000 sr} bdef
c8
68 8 68 -29 68 -36 68 -39 69 -38 68 -36 68 -35 68 -33 
68 -31 68 -29 69 -28 68 -26 68 -24 68 -23 68 -22 68 -20 
69 -20 68 -18 68 -18 68 -17 68 -16 69 -15 68 -15 68 -13 
68 -14 68 -12 68 -12 69 -11 68 -11 68 -10 68 -10 68 -9 
68 -9 69 -8 68 -8 68 -8 68 -7 68 -6 68 -6 385 1272 40 MP stroke
DA
/c9 { 0.000000 0.000000 1.000000 sr} bdef
c9
68 27 68 -11 68 -16 68 -16 69 -16 68 -15 68 -13 68 -13 
68 -12 68 -11 69 -11 68 -9 68 -10 68 -9 68 -8 68 -8 
69 -8 68 -8 68 -7 68 -7 68 -7 69 -7 68 -6 68 -7 
68 -6 68 -7 68 -6 69 -6 68 -5 68 -6 68 -5 68 -6 
68 -5 69 -5 68 -5 68 -4 68 -4 68 -5 68 -4 385 1404 40 MP stroke
6 w
DO
0 sg
0 -1662 2927 1935 2 MP stroke
gr

DO
 165 1310 mt  -90 rotate
(sd. %) s
90 rotate
1496  141 mt 
(Output) s
SO
1 sg
0 1662 2727 0 0 -1662 3973 1935 4 MP
PP
-2727 0 0 1662 2727 0 0 -1662 3973 1935 5 MP stroke
4 w
DO
6 w
SO
0 sg
3973 1935 mt 6700 1935 L
3973  273 mt 6700  273 L
3973 1935 mt 3973  273 L
6700 1935 mt 6700  273 L
3973 1935 mt 6700 1935 L
3973 1935 mt 3973  273 L
3973 1935 mt 3973 1907 L
3973  273 mt 3973  300 L
3927 2125 mt 
(0) s
5336 1935 mt 5336 1907 L
5336  273 mt 5336  300 L
5220 2125 mt 
(0.5) s
6700 1935 mt 6700 1907 L
6700  273 mt 6700  300 L
6654 2125 mt 
(1) s
3973 1935 mt 4000 1935 L
6700 1935 mt 6672 1935 L
3845 1997 mt 
(0) s
3973 1185 mt 4000 1185 L
6700 1185 mt 6672 1185 L
3705 1247 mt 
(0.5) s
3973  435 mt 4000  435 L
6700  435 mt 6672  435 L
3845  497 mt 
(1) s
3973 1935 mt 6700 1935 L
3973  273 mt 6700  273 L
3973 1935 mt 3973  273 L
6700 1935 mt 6700  273 L
gs 3973 273 2728 1663 rc
24 w
c8
68 6 68 -73 68 -72 68 -62 69 -52 68 -43 68 -37 68 -31 
68 -26 68 -22 69 -19 68 -16 68 -14 68 -13 68 -11 68 -9 
69 -9 68 -7 68 -7 68 -6 68 -6 69 -5 68 -4 68 -5 
68 -3 68 -4 68 -3 69 -3 68 -3 68 -2 68 -3 68 -2 
68 -2 69 -2 68 -1 68 -2 68 -2 68 -1 68 -1 3973 1132 40 MP stroke
DA
c9
68 107 68 -32 68 -47 68 -45 69 -39 68 -34 68 -29 68 -26 
68 -22 68 -19 69 -16 68 -14 68 -13 68 -11 68 -10 68 -8 
69 -8 68 -7 68 -6 68 -5 68 -5 69 -5 68 -4 68 -3 
68 -4 68 -3 68 -3 69 -2 68 -3 68 -2 68 -2 68 -1 
68 -2 69 -2 68 -1 68 -1 68 -1 68 -2 68 -1 3973 1022 40 MP stroke
6 w
DO
0 sg
0 -1662 6515 1935 2 MP stroke
gr

DO
3613 1310 mt  -90 rotate
(sd. %) s
90 rotate
4841  141 mt 
(Consumption) s
SO
1 sg
0 1662 2727 0 0 -1662 385 4243 4 MP
PP
-2727 0 0 1662 2727 0 0 -1662 385 4243 5 MP stroke
4 w
DO
6 w
SO
0 sg
 385 4243 mt 3112 4243 L
 385 2581 mt 3112 2581 L
 385 4243 mt  385 2581 L
3112 4243 mt 3112 2581 L
 385 4243 mt 3112 4243 L
 385 4243 mt  385 2581 L
 385 4243 mt  385 4215 L
 385 2581 mt  385 2608 L
 339 4433 mt 
(0) s
1748 4243 mt 1748 4215 L
1748 2581 mt 1748 2608 L
1632 4433 mt 
(0.5) s
3112 4243 mt 3112 4215 L
3112 2581 mt 3112 2608 L
3066 4433 mt 
(1) s
 385 4243 mt  412 4243 L
3112 4243 mt 3084 4243 L
 257 4305 mt 
(0) s
 385 3737 mt  412 3737 L
3112 3737 mt 3084 3737 L
 257 3799 mt 
(1) s
 385 3231 mt  412 3231 L
3112 3231 mt 3084 3231 L
 257 3293 mt 
(2) s
 385 2725 mt  412 2725 L
3112 2725 mt 3084 2725 L
 257 2787 mt 
(3) s
 385 4243 mt 3112 4243 L
 385 2581 mt 3112 2581 L
 385 4243 mt  385 2581 L
3112 4243 mt 3112 2581 L
gs 385 2581 2728 1663 rc
24 w
c8
68 -17 68 -43 68 -46 68 -47 69 -45 68 -44 68 -41 68 -38 
68 -37 68 -34 69 -33 68 -31 68 -29 68 -29 68 -27 68 -26 
69 -24 68 -24 68 -24 68 -22 68 -21 69 -21 68 -20 68 -20 
68 -19 68 -18 68 -17 69 -17 68 -16 68 -16 68 -15 68 -14 
68 -14 69 -14 68 -12 68 -12 68 -12 68 -11 68 -10 385 3818 40 MP stroke
DA
c9
68 -27 68 -22 68 -21 68 -18 69 -16 68 -14 68 -13 68 -12 
68 -11 68 -10 69 -9 68 -9 68 -9 68 -9 68 -8 68 -8 
69 -9 68 -8 68 -9 68 -8 68 -9 69 -8 68 -9 68 -9 
68 -9 68 -9 68 -9 69 -9 68 -10 68 -9 68 -9 68 -9 
68 -9 69 -9 68 -9 68 -8 68 -9 68 -8 68 -8 385 3907 40 MP stroke
6 w
DO
0 sg
0 -1662 2927 4243 2 MP stroke
gr

DO
 165 3618 mt  -90 rotate
(sd. %) s
90 rotate
1284 2449 mt 
(Employment) s
SO
1 sg
0 1662 2727 0 0 -1662 3973 4243 4 MP
PP
-2727 0 0 1662 2727 0 0 -1662 3973 4243 5 MP stroke
4 w
DO
6 w
SO
0 sg
3973 4243 mt 6700 4243 L
3973 2581 mt 6700 2581 L
3973 4243 mt 3973 2581 L
6700 4243 mt 6700 2581 L
3973 4243 mt 6700 4243 L
3973 4243 mt 3973 2581 L
3973 4243 mt 3973 4215 L
3973 2581 mt 3973 2608 L
3927 4433 mt 
(0) s
5336 4243 mt 5336 4215 L
5336 2581 mt 5336 2608 L
5220 4433 mt 
(0.5) s
6700 4243 mt 6700 4215 L
6700 2581 mt 6700 2608 L
6654 4433 mt 
(1) s
3973 4243 mt 4000 4243 L
6700 4243 mt 6672 4243 L
3845 4305 mt 
(0) s
3973 3860 mt 4000 3860 L
6700 3860 mt 6672 3860 L
3705 3922 mt 
(0.2) s
3973 3478 mt 4000 3478 L
6700 3478 mt 6672 3478 L
3705 3540 mt 
(0.4) s
3973 3095 mt 4000 3095 L
6700 3095 mt 6672 3095 L
3705 3157 mt 
(0.6) s
3973 2713 mt 4000 2713 L
6700 2713 mt 6672 2713 L
3705 2775 mt 
(0.8) s
3973 4243 mt 6700 4243 L
3973 2581 mt 6700 2581 L
3973 4243 mt 3973 2581 L
6700 4243 mt 6700 2581 L
gs 3973 2581 2728 1663 rc
24 w
c8
68 -54 68 42 68 51 68 47 69 42 68 36 68 31 68 28 
68 24 68 22 69 19 68 18 68 17 68 16 68 15 68 14 
69 14 68 13 68 13 68 12 68 13 69 12 68 12 68 12 
68 12 68 12 68 12 69 12 68 11 68 12 68 11 68 12 
68 11 69 12 68 11 68 11 68 11 68 11 68 10 3973 2858 40 MP stroke
DA
c9
68 -51 68 26 68 36 68 36 69 34 68 30 68 27 68 24 
68 22 68 19 69 18 68 15 68 14 68 13 68 12 68 11 
69 11 68 9 68 9 68 9 68 9 69 8 68 8 68 7 
68 8 68 8 68 7 69 8 68 7 68 8 68 8 68 7 
68 8 69 8 68 8 68 7 68 8 68 8 68 8 3973 2935 40 MP stroke
6 w
DO
0 sg
0 -1662 6515 4243 2 MP stroke
gr

DO
3613 3618 mt  -90 rotate
(sd. %) s
90 rotate
4940 2449 mt 
(Real wage) s
%%IncludeResource: font Symbol
/Symbol /ISOLatin1Encoding 168 FMSR

5241 4556 mt 
(k) s
%%IncludeResource: font Helvetica
/Helvetica /ISOLatin1Encoding 132 FMSR

5333 4640 mt 
(w) s
%%IncludeResource: font Helvetica
/Helvetica /ISOLatin1Encoding 120 FMSR

3956 4286 mt 
( ) s
6684 2623 mt 
( ) s
SO
1 sg
0 491 1114 0 0 -491 4125 4120 4 MP
PP
-1114 0 0 491 1114 0 0 -491 4125 4120 5 MP stroke
4 w
DO
6 w
SO
0 sg
4125 4120 mt 5239 4120 L
4125 3629 mt 5239 3629 L
4125 4120 mt 4125 3629 L
5239 4120 mt 5239 3629 L
4125 4120 mt 5239 4120 L
4125 4120 mt 4125 3629 L
4125 4120 mt 5239 4120 L
4125 3629 mt 5239 3629 L
4125 4120 mt 4125 3629 L
5239 4120 mt 5239 3629 L
%%IncludeResource: font Helvetica
/Helvetica /ISOLatin1Encoding 168 FMSR

4593 3823 mt 
(learning) s
gs 4125 3629 1115 492 rc
24 w
c8
360 0 4196 3762 2 MP stroke
gr

24 w
c8
0 sg
4593 4047 mt 
(RE) s
gs 4125 3629 1115 492 rc
DA
c9
360 0 4196 3986 2 MP stroke
6 w
SO
gr

6 w
c9

end %%Color Dict

eplot
%%EndObject

epage
end

showpage

%%Trailer
%%EOF
