%!PS-Adobe-3.0 EPSF-3.0
%%Creator: MATLAB, The MathWorks, Inc. Version 7.14.0.739 (R2012a). Operating System: Darwin 13.3.0 Darwin Kernel Version 13.3.0: Tue Jun  3 21:27:35 PDT 2014; root:xnu-2422.110.17~1/RELEASE_X86_64 x86_64.
%%Title: /Users/fckw/Dropbox/PhD/jmp/policymetrics_RE.eps
%%CreationDate: 08/21/2014  00:31:55
%%DocumentNeededFonts: Helvetica
%%DocumentProcessColors: Cyan Magenta Yellow Black
%%LanguageLevel: 2
%%Pages: 1
%%BoundingBox:  -193   221   806   571
%%EndComments

%%BeginProlog
% MathWorks dictionary
/MathWorks 160 dict begin
% definition operators
/bdef {bind def} bind def
/ldef {load def} bind def
/xdef {exch def} bdef
/xstore {exch store} bdef
% operator abbreviations
/c  /clip ldef
/cc /concat ldef
/cp /closepath ldef
/gr /grestore ldef
/gs /gsave ldef
/mt /moveto ldef
/np /newpath ldef
/cm /currentmatrix ldef
/sm /setmatrix ldef
/rm /rmoveto ldef
/rl /rlineto ldef
/s {show newpath} bdef
/sc {setcmykcolor} bdef
/sr /setrgbcolor ldef
/sg /setgray ldef
/w /setlinewidth ldef
/j /setlinejoin ldef
/cap /setlinecap ldef
/rc {rectclip} bdef
/rf {rectfill} bdef
% page state control
/pgsv () def
/bpage {/pgsv save def} bdef
/epage {pgsv restore} bdef
/bplot /gsave ldef
/eplot {stroke grestore} bdef
% orientation switch
/portraitMode 0 def /landscapeMode 1 def /rotateMode 2 def
% coordinate system mappings
/dpi2point 0 def
% font control
/FontSize 0 def
/FMS {/FontSize xstore findfont [FontSize 0 0 FontSize neg 0 0]
  makefont setfont} bdef
/reencode {exch dup where {pop load} {pop StandardEncoding} ifelse
  exch dup 3 1 roll findfont dup length dict begin
  { 1 index /FID ne {def}{pop pop} ifelse } forall
  /Encoding exch def currentdict end definefont pop} bdef
/isroman {findfont /CharStrings get /Agrave known} bdef
/FMSR {3 1 roll 1 index dup isroman {reencode} {pop pop} ifelse
  exch FMS} bdef
/csm {1 dpi2point div -1 dpi2point div scale neg translate
 dup landscapeMode eq {pop -90 rotate}
  {rotateMode eq {90 rotate} if} ifelse} bdef
% line types: solid, dotted, dashed, dotdash
/SO { [] 0 setdash } bdef
/DO { [.5 dpi2point mul 4 dpi2point mul] 0 setdash } bdef
/DA { [6 dpi2point mul] 0 setdash } bdef
/DD { [.5 dpi2point mul 4 dpi2point mul 6 dpi2point mul 4
  dpi2point mul] 0 setdash } bdef
% macros for lines and objects
/L {lineto stroke} bdef
/MP {3 1 roll moveto 1 sub {rlineto} repeat} bdef
/AP {{rlineto} repeat} bdef
/PDlw -1 def
/W {/PDlw currentlinewidth def setlinewidth} def
/PP {closepath eofill} bdef
/DP {closepath stroke} bdef
/MR {4 -2 roll moveto dup  0 exch rlineto exch 0 rlineto
  neg 0 exch rlineto closepath} bdef
/FR {MR stroke} bdef
/PR {MR fill} bdef
/L1i {{currentfile picstr readhexstring pop} image} bdef
/tMatrix matrix def
/MakeOval {newpath tMatrix currentmatrix pop translate scale
0 0 1 0 360 arc tMatrix setmatrix} bdef
/FO {MakeOval stroke} bdef
/PO {MakeOval fill} bdef
/PD {currentlinewidth 2 div 0 360 arc fill
   PDlw -1 eq not {PDlw w /PDlw -1 def} if} def
/FA {newpath tMatrix currentmatrix pop translate scale
  0 0 1 5 -2 roll arc tMatrix setmatrix stroke} bdef
/PA {newpath tMatrix currentmatrix pop	translate 0 0 moveto scale
  0 0 1 5 -2 roll arc closepath tMatrix setmatrix fill} bdef
/FAn {newpath tMatrix currentmatrix pop translate scale
  0 0 1 5 -2 roll arcn tMatrix setmatrix stroke} bdef
/PAn {newpath tMatrix currentmatrix pop translate 0 0 moveto scale
  0 0 1 5 -2 roll arcn closepath tMatrix setmatrix fill} bdef
/vradius 0 def /hradius 0 def /lry 0 def
/lrx 0 def /uly 0 def /ulx 0 def /rad 0 def
/MRR {/vradius xdef /hradius xdef /lry xdef /lrx xdef /uly xdef
  /ulx xdef newpath tMatrix currentmatrix pop ulx hradius add uly
  vradius add translate hradius vradius scale 0 0 1 180 270 arc 
  tMatrix setmatrix lrx hradius sub uly vradius add translate
  hradius vradius scale 0 0 1 270 360 arc tMatrix setmatrix
  lrx hradius sub lry vradius sub translate hradius vradius scale
  0 0 1 0 90 arc tMatrix setmatrix ulx hradius add lry vradius sub
  translate hradius vradius scale 0 0 1 90 180 arc tMatrix setmatrix
  closepath} bdef
/FRR {MRR stroke } bdef
/PRR {MRR fill } bdef
/MlrRR {/lry xdef /lrx xdef /uly xdef /ulx xdef /rad lry uly sub 2 div def
  newpath tMatrix currentmatrix pop ulx rad add uly rad add translate
  rad rad scale 0 0 1 90 270 arc tMatrix setmatrix lrx rad sub lry rad
  sub translate rad rad scale 0 0 1 270 90 arc tMatrix setmatrix
  closepath} bdef
/FlrRR {MlrRR stroke } bdef
/PlrRR {MlrRR fill } bdef
/MtbRR {/lry xdef /lrx xdef /uly xdef /ulx xdef /rad lrx ulx sub 2 div def
  newpath tMatrix currentmatrix pop ulx rad add uly rad add translate
  rad rad scale 0 0 1 180 360 arc tMatrix setmatrix lrx rad sub lry rad
  sub translate rad rad scale 0 0 1 0 180 arc tMatrix setmatrix
  closepath} bdef
/FtbRR {MtbRR stroke } bdef
/PtbRR {MtbRR fill } bdef
/stri 6 array def /dtri 6 array def
/smat 6 array def /dmat 6 array def
/tmat1 6 array def /tmat2 6 array def /dif 3 array def
/asub {/ind2 exch def /ind1 exch def dup dup
  ind1 get exch ind2 get sub exch } bdef
/tri_to_matrix {
  2 0 asub 3 1 asub 4 0 asub 5 1 asub
  dup 0 get exch 1 get 7 -1 roll astore } bdef
/compute_transform {
  dmat dtri tri_to_matrix tmat1 invertmatrix 
  smat stri tri_to_matrix tmat2 concatmatrix } bdef
/ds {stri astore pop} bdef
/dt {dtri astore pop} bdef
/db {2 copy /cols xdef /rows xdef mul dup 3 mul string
  currentfile 
  3 index 0 eq {/ASCIIHexDecode filter}
  {/ASCII85Decode filter 3 index 2 eq {/RunLengthDecode filter} if }
  ifelse exch readstring pop
  dup 0 3 index getinterval /rbmap xdef
  dup 2 index dup getinterval /gbmap xdef
  1 index dup 2 mul exch getinterval /bbmap xdef pop pop}bdef
/it {gs np dtri aload pop moveto lineto lineto cp c
  cols rows 8 compute_transform 
  rbmap gbmap bbmap true 3 colorimage gr}bdef
/il {newpath moveto lineto stroke}bdef
currentdict end def
%%EndProlog

%%BeginSetup
MathWorks begin

0 cap

end
%%EndSetup

%%Page: 1 1
%%BeginPageSetup
%%PageBoundingBox:  -193   221   806   571
MathWorks begin
bpage
%%EndPageSetup

%%BeginObject: obj1
bplot

/dpi2point 12 def
portraitMode -2316 6852 csm

    0     0 11988  4195 rc
85 dict begin %Colortable dictionary
/c0 { 0.000000 0.000000 0.000000 sr} bdef
/c1 { 1.000000 1.000000 1.000000 sr} bdef
/c2 { 0.900000 0.000000 0.000000 sr} bdef
/c3 { 0.000000 0.820000 0.000000 sr} bdef
/c4 { 0.000000 0.000000 0.800000 sr} bdef
/c5 { 0.910000 0.820000 0.320000 sr} bdef
/c6 { 1.000000 0.260000 0.820000 sr} bdef
/c7 { 0.000000 0.820000 0.820000 sr} bdef
c0
1 j
1 sg
   0    0 11989 4196 rf
6 w
0 3189 3276 0 0 -3189 480 3692 4 MP
PP
-3276 0 0 3189 3276 0 0 -3189 480 3692 5 MP stroke
gs 480 503 3277 3190 rc
/c8 { 0.000000 0.000000 0.562500 sr} bdef
c8
3329  503 mt 3389  730 L
3389  730 mt 3449  958 L
3449  958 mt 3508 1186 L
3508 1186 mt 3522 1240 L
3522 1240 mt 3568 1414 L
3568 1414 mt 3629 1641 L
3629 1641 mt 3688 1869 L
3688 1869 mt 3746 2097 L
3746 2097 mt 3756 2133 L
/c9 { 0.000000 0.000000 0.687500 sr} bdef
c9
2888  503 mt 2947  730 L
2947  730 mt 3005  958 L
3005  958 mt 3054 1152 L
3054 1152 mt 3062 1186 L
3062 1186 mt 3122 1414 L
3122 1414 mt 3181 1641 L
3181 1641 mt 3239 1869 L
3239 1869 mt 3288 2063 L
3288 2063 mt 3296 2097 L
3296 2097 mt 3356 2325 L
3356 2325 mt 3415 2553 L
3415 2553 mt 3472 2780 L
3472 2780 mt 3522 2977 L
3522 2977 mt 3530 3008 L
3530 3008 mt 3589 3236 L
3589 3236 mt 3648 3464 L
3648 3464 mt 3705 3692 L
/c10 { 0.000000 0.000000 0.875000 sr} bdef
c10
2499  503 mt 2555  730 L
2555  730 mt 2586  855 L
2586  855 mt 2612  958 L
2612  958 mt 2671 1186 L
2671 1186 mt 2728 1414 L
2728 1414 mt 2784 1641 L
2784 1641 mt 2820 1786 L
2820 1786 mt 2841 1869 L
2841 1869 mt 2900 2097 L
2900 2097 mt 2957 2325 L
2957 2325 mt 3013 2553 L
3013 2553 mt 3054 2719 L
3054 2719 mt 3069 2780 L
3069 2780 mt 3128 3008 L
3128 3008 mt 3185 3236 L
3185 3236 mt 3241 3464 L
3241 3464 mt 3288 3656 L
3288 3656 mt 3297 3692 L
/c11 { 0.000000 0.000000 1.000000 sr} bdef
c11
2156  503 mt 2213  730 L
2213  730 mt 2269  958 L
2269  958 mt 2323 1186 L
2323 1186 mt 2352 1305 L
2352 1305 mt 2379 1414 L
2379 1414 mt 2436 1641 L
2436 1641 mt 2493 1869 L
2493 1869 mt 2547 2097 L
2547 2097 mt 2586 2259 L
2586 2259 mt 2602 2325 L
2602 2325 mt 2659 2553 L
2659 2553 mt 2715 2780 L
2715 2780 mt 2748 2915 L
2793 3106 mt 2820 3217 L
2820 3217 mt 2824 3236 L
2824 3236 mt 2882 3464 L
2882 3464 mt 2938 3692 L
/c12 { 0.000000 0.187500 1.000000 sr} bdef
c12
1856  503 mt 1884  623 L
1884  623 mt 1910  730 L
1910  730 mt 1967  958 L
1967  958 mt 2022 1186 L
2022 1186 mt 2075 1414 L
2075 1414 mt 2118 1600 L
2118 1600 mt 2128 1641 L
2128 1641 mt 2184 1869 L
2184 1869 mt 2239 2097 L
2239 2097 mt 2293 2325 L
2293 2325 mt 2345 2553 L
2345 2553 mt 2352 2580 L
2352 2580 mt 2401 2780 L
2401 2780 mt 2456 3008 L
2456 3008 mt 2510 3236 L
2510 3236 mt 2563 3464 L
2563 3464 mt 2586 3564 L
2586 3564 mt 2617 3692 L
/c13 { 0.000000 0.375000 1.000000 sr} bdef
c13
1597  503 mt 1647  730 L
1647  730 mt 1650  742 L
1650  742 mt 1702  958 L
1702  958 mt 1757 1186 L
1757 1186 mt 1809 1414 L
1809 1414 mt 1860 1641 L
1860 1641 mt 1884 1747 L
1884 1747 mt 1913 1869 L
1913 1869 mt 1968 2097 L
1968 2097 mt 2021 2325 L
2021 2325 mt 2073 2553 L
2073 2553 mt 2118 2756 L
2118 2756 mt 2124 2780 L
2124 2780 mt 2178 3008 L
2178 3008 mt 2232 3236 L
2232 3236 mt 2284 3464 L
2284 3464 mt 2335 3692 L
/c14 { 0.000000 0.562500 1.000000 sr} bdef
c14
1371  503 mt 1416  715 L
1416  715 mt 1419  730 L
1419  730 mt 1474  958 L
1474  958 mt 1527 1186 L
1527 1186 mt 1578 1414 L
1578 1414 mt 1627 1641 L
1627 1641 mt 1650 1750 L
1650 1750 mt 1678 1869 L
1678 1869 mt 1731 2097 L
1731 2097 mt 1783 2325 L
1783 2325 mt 1833 2553 L
1833 2553 mt 1882 2780 L
1882 2780 mt 1884 2790 L
1884 2790 mt 1935 3008 L
1935 3008 mt 1987 3236 L
1987 3236 mt 2038 3464 L
2038 3464 mt 2088 3692 L
/c15 { 0.000000 0.687500 1.000000 sr} bdef
c15
1174  503 mt 1182  543 L
1182  543 mt 1226  730 L
1226  730 mt 1278  958 L
1278  958 mt 1328 1186 L
1328 1186 mt 1375 1414 L
1375 1414 mt 1416 1613 L
1416 1613 mt 1422 1641 L
1422 1641 mt 1475 1869 L
1475 1869 mt 1526 2097 L
1526 2097 mt 1575 2325 L
1575 2325 mt 1623 2553 L
1623 2553 mt 1650 2686 L
1650 2686 mt 1671 2780 L
1671 2780 mt 1702 2915 L
1745 3106 mt 1774 3236 L
1774 3236 mt 1822 3464 L
1822 3464 mt 1869 3692 L
/c16 { 0.000000 0.875000 1.000000 sr} bdef
c16
1011  503 mt 1061  730 L
1061  730 mt 1108  958 L
1108  958 mt 1153 1186 L
1153 1186 mt 1182 1335 L
1182 1335 mt 1200 1414 L
1200 1414 mt 1251 1641 L
1251 1641 mt 1300 1869 L
1300 1869 mt 1347 2097 L
1347 2097 mt 1392 2325 L
1392 2325 mt 1416 2446 L
1416 2446 mt 1440 2553 L
1440 2553 mt 1490 2780 L
1490 2780 mt 1539 3008 L
1539 3008 mt 1586 3236 L
1586 3236 mt 1631 3464 L
1631 3464 mt 1650 3560 L
1650 3560 mt 1679 3692 L
/c17 { 0.062500 1.000000 0.937500 sr} bdef
c17
 872  503 mt  915  730 L
 915  730 mt  948  916 L
 948  916 mt  957  958 L
 957  958 mt 1008 1186 L
1008 1186 mt 1056 1414 L
1056 1414 mt 1102 1641 L
1102 1641 mt 1145 1869 L
1145 1869 mt 1182 2069 L
1182 2069 mt 1188 2097 L
1188 2097 mt 1238 2325 L
1238 2325 mt 1286 2553 L
1286 2553 mt 1332 2780 L
1332 2780 mt 1376 3008 L
1376 3008 mt 1416 3225 L
1416 3225 mt 1418 3236 L
1418 3236 mt 1468 3464 L
1468 3464 mt 1516 3692 L
/c18 { 0.187500 1.000000 0.812500 sr} bdef
c18
 748  503 mt  796  730 L
 796  730 mt  842  958 L
 842  958 mt  885 1186 L
 885 1186 mt  925 1414 L
 925 1414 mt  948 1551 L
 948 1551 mt  967 1641 L
 967 1641 mt 1016 1869 L
1016 1869 mt 1062 2097 L
1062 2097 mt 1105 2325 L
1105 2325 mt 1147 2553 L
1147 2553 mt 1182 2754 L
1182 2754 mt 1187 2780 L
1187 2780 mt 1236 3008 L
1236 3008 mt 1282 3236 L
1282 3236 mt 1326 3464 L
1326 3464 mt 1369 3692 L
/c19 { 0.375000 1.000000 0.625000 sr} bdef
c19
 654  503 mt  690  730 L
 690  730 mt  714  887 L
 714  887 mt  729  958 L
 729  958 mt  777 1186 L
 777 1186 mt  822 1414 L
 822 1414 mt  864 1641 L
 864 1641 mt  903 1869 L
 903 1869 mt  940 2097 L
 940 2097 mt  948 2144 L
 948 2144 mt  986 2325 L
 986 2325 mt 1032 2553 L
1032 2553 mt 1075 2780 L
1075 2780 mt 1099 2915 L
1133 3106 mt 1155 3236 L
1155 3236 mt 1182 3397 L
1182 3397 mt 1195 3464 L
1195 3464 mt 1242 3692 L
/c20 { 0.562500 1.000000 0.437500 sr} bdef
c20
 571  503 mt  613  730 L
 613  730 mt  651  958 L
 651  958 mt  686 1186 L
 686 1186 mt  714 1385 L
 714 1385 mt  720 1414 L
 720 1414 mt  766 1641 L
 766 1641 mt  810 1869 L
 810 1869 mt  852 2097 L
 852 2097 mt  890 2325 L
 890 2325 mt  926 2553 L
 926 2553 mt  948 2699 L
 948 2699 mt  964 2780 L
 964 2780 mt 1010 3008 L
1010 3008 mt 1053 3236 L
1053 3236 mt 1093 3464 L
1093 3464 mt 1132 3692 L
/c21 { 0.687500 1.000000 0.312500 sr} bdef
c21
 488  503 mt  535  730 L
 535  730 mt  578  958 L
 578  958 mt  617 1186 L
 617 1186 mt  653 1414 L
 653 1414 mt  686 1641 L
 686 1641 mt  714 1850 L
 714 1850 mt  717 1869 L
 717 1869 mt  763 2097 L
 763 2097 mt  805 2325 L
 805 2325 mt  845 2553 L
 845 2553 mt  882 2780 L
 882 2780 mt  917 3008 L
 917 3008 mt  948 3222 L
 948 3222 mt  950 3236 L
 950 3236 mt  995 3464 L
 995 3464 mt 1037 3692 L
/c22 { 0.875000 1.000000 0.125000 sr} bdef
c22
 944 3692 mt  913 3464 L
 913 3464 mt  880 3236 L
 880 3236 mt  844 3008 L
 844 3008 mt  806 2780 L
 806 2780 mt  765 2553 L
 765 2553 mt  721 2325 L
 721 2325 mt  714 2287 L
 714 2287 mt  690 2097 L
 690 2097 mt  659 1869 L
 659 1869 mt  626 1641 L
 626 1641 mt  589 1414 L
 589 1414 mt  549 1186 L
 549 1186 mt  505  958 L
 505  958 mt  480  831 L
/c23 { 1.000000 1.000000 0.000000 sr} bdef
c23
 881 3692 mt  847 3464 L
 847 3464 mt  810 3236 L
 810 3236 mt  771 3008 L
 771 3008 mt  729 2780 L
 729 2780 mt  714 2699 L
 714 2699 mt  697 2553 L
 697 2553 mt  668 2325 L
 668 2325 mt  637 2097 L
 637 2097 mt  603 1869 L
 603 1869 mt  597 1829 L
 565 1638 mt  525 1414 L
 525 1414 mt  481 1186 L
 481 1186 mt  480 1178 L
/c24 { 1.000000 0.812500 0.000000 sr} bdef
c24
 817 3692 mt  780 3464 L
 780 3464 mt  740 3236 L
 740 3236 mt  714 3090 L
 714 3090 mt  705 3008 L
 705 3008 mt  678 2780 L
 678 2780 mt  650 2553 L
 650 2553 mt  618 2325 L
 618 2325 mt  584 2097 L
 584 2097 mt  547 1869 L
 547 1869 mt  506 1641 L
 506 1641 mt  480 1503 L
/c25 { 1.000000 0.625000 0.000000 sr} bdef
c25
 754 3692 mt  714 3464 L
 714 3464 mt  714 3463 L
 714 3463 mt  689 3236 L
 689 3236 mt  663 3008 L
 663 3008 mt  634 2780 L
 634 2780 mt  603 2553 L
 603 2553 mt  569 2325 L
 569 2325 mt  531 2097 L
 531 2097 mt  490 1869 L
 490 1869 mt  480 1811 L
/c26 { 1.000000 0.437500 0.000000 sr} bdef
c26
 701 3692 mt  677 3464 L
 677 3464 mt  650 3236 L
 650 3236 mt  621 3008 L
 621 3008 mt  590 2780 L
 590 2780 mt  556 2553 L
 556 2553 mt  519 2325 L
 519 2325 mt  480 2104 L
/c27 { 1.000000 0.312500 0.000000 sr} bdef
c27
 666 3692 mt  639 3464 L
 639 3464 mt  611 3236 L
 611 3236 mt  580 3008 L
 580 3008 mt  546 2780 L
 546 2780 mt  531 2687 L
 520 2623 mt  509 2553 L
 509 2553 mt  480 2382 L
/c28 { 1.000000 0.125000 0.000000 sr} bdef
c28
 631 3692 mt  602 3464 L
 602 3464 mt  572 3236 L
 572 3236 mt  538 3008 L
 538 3008 mt  502 2780 L
 502 2780 mt  480 2649 L
/c29 { 1.000000 0.000000 0.000000 sr} bdef
c29
 596 3692 mt  565 3464 L
 565 3464 mt  532 3236 L
 532 3236 mt  497 3008 L
 497 3008 mt  480 2905 L
/c30 { 0.812500 0.000000 0.000000 sr} bdef
c30
 561 3692 mt  528 3464 L
 528 3464 mt  493 3236 L
 493 3236 mt  480 3151 L
/c31 { 0.625000 0.000000 0.000000 sr} bdef
c31
 526 3692 mt  491 3464 L
 491 3464 mt  480 3388 L
/c32 { 0.500000 0.000000 0.000000 sr} bdef
c32
 491 3692 mt  480 3617 L
0 sg
%%IncludeResource: font Helvetica
/Helvetica /ISOLatin1Encoding 120 FMSR

2720 2933 mt  -276 rotate
(1.6) s
276 rotate
1674 2932 mt  -275 rotate
(1.7) s
275 rotate
1067 2931 mt  -274 rotate
(1.8) s
274 rotate
 533 1654 mt  -274 rotate
(1.9) s
274 rotate
 482 2625 mt  -274 rotate
(2) s
274 rotate
gr

0 sg
%%IncludeResource: font Symbol
/Symbol /ISOLatin1Encoding 120 FMSR

2012 3949 mt 
(f) s
%%IncludeResource: font Symbol
/Symbol /ISOLatin1Encoding 96 FMSR

2074 4009 mt 
(D) s
%%IncludeResource: font Helvetica
/Helvetica /ISOLatin1Encoding 96 FMSR

2132 4009 mt 
( Y) s
%%IncludeResource: font Symbol
/Symbol /ISOLatin1Encoding 120 FMSR

 136 2203 mt  -90 rotate
(f) s
90 rotate
%%IncludeResource: font Symbol
/Symbol /ISOLatin1Encoding 96 FMSR

 196 2141 mt  -90 rotate
(D) s
90 rotate
%%IncludeResource: font Helvetica
/Helvetica /ISOLatin1Encoding 96 FMSR

 196 2083 mt  -90 rotate
( V) s
90 rotate
%%IncludeResource: font Symbol
/Symbol /ISOLatin1Encoding 120 FMSR

2049  354 mt 
(s) s
%%IncludeResource: font Helvetica
/Helvetica /ISOLatin1Encoding 96 FMSR

2121  414 mt 
(Y) s
gs 480 503 3277 3190 rc
24 w
DA
 611 3692 mt  581 3464 L
 581 3464 mt  549 3236 L
 549 3236 mt  514 3008 L
 514 3008 mt  480 2797 L
gr

24 w
DA
4 w
DO
SO
6 w
 480 3692 mt 3756 3692 L
 480  503 mt 3756  503 L
 480 3692 mt  480  503 L
3756 3692 mt 3756  503 L
 480 3692 mt 3756 3692 L
 480 3692 mt  480  503 L
 480 3692 mt  480 3659 L
 480  503 mt  480  535 L
%%IncludeResource: font Helvetica
/Helvetica /ISOLatin1Encoding 120 FMSR

 447 3837 mt 
(0) s
1299 3692 mt 1299 3659 L
1299  503 mt 1299  535 L
1216 3837 mt 
(0.5) s
2118 3692 mt 2118 3659 L
2118  503 mt 2118  535 L
2085 3837 mt 
(1) s
2937 3692 mt 2937 3659 L
2937  503 mt 2937  535 L
2854 3837 mt 
(1.5) s
3756 3692 mt 3756 3659 L
3756  503 mt 3756  535 L
3723 3837 mt 
(2) s
 480 3692 mt  512 3692 L
3756 3692 mt 3723 3692 L
 379 3736 mt 
(0) s
 480 3373 mt  512 3373 L
3756 3373 mt 3723 3373 L
 279 3417 mt 
(0.2) s
 480 3054 mt  512 3054 L
3756 3054 mt 3723 3054 L
 279 3098 mt 
(0.4) s
 480 2735 mt  512 2735 L
3756 2735 mt 3723 2735 L
 279 2779 mt 
(0.6) s
 480 2416 mt  512 2416 L
3756 2416 mt 3723 2416 L
 279 2460 mt 
(0.8) s
 480 2097 mt  512 2097 L
3756 2097 mt 3723 2097 L
 379 2141 mt 
(1) s
 480 1778 mt  512 1778 L
3756 1778 mt 3723 1778 L
 279 1822 mt 
(1.2) s
 480 1459 mt  512 1459 L
3756 1459 mt 3723 1459 L
 279 1503 mt 
(1.4) s
 480 1140 mt  512 1140 L
3756 1140 mt 3723 1140 L
 279 1184 mt 
(1.6) s
 480  821 mt  512  821 L
3756  821 mt 3723  821 L
 279  865 mt 
(1.8) s
 480  503 mt  512  503 L
3756  503 mt 3723  503 L
 379  547 mt 
(2) s
 480 3692 mt 3756 3692 L
 480  503 mt 3756  503 L
 480 3692 mt  480  503 L
3756 3692 mt 3756  503 L
1 sg
0 3189 3276 0 0 -3189 4356 3692 4 MP
PP
-3276 0 0 3189 3276 0 0 -3189 4356 3692 5 MP stroke
gs 4356 503 3277 3190 rc
c8
4356 3125 mt 4358 3236 L
4358 3236 mt 4356 3264 L
c9
4634 3692 mt 4596 3464 L
4596 3464 mt 4590 3425 L
4590 3425 mt 4524 3236 L
4524 3236 mt 4479 3008 L
4479 3008 mt 4444 2780 L
4444 2780 mt 4412 2553 L
4412 2553 mt 4380 2325 L
4380 2325 mt 4356 2161 L
/c33 { 0.000000 0.000000 0.812500 sr} bdef
c33
4717 3692 mt 4678 3464 L
4678 3464 mt 4639 3236 L
4639 3236 mt 4599 3008 L
4599 3008 mt 4590 2954 L
4590 2954 mt 4550 2780 L
4550 2780 mt 4506 2553 L
4506 2553 mt 4468 2325 L
4468 2325 mt 4430 2097 L
4430 2097 mt 4393 1869 L
4393 1869 mt 4356 1644 L
c11
4800 3692 mt 4761 3464 L
4761 3464 mt 4721 3236 L
4721 3236 mt 4682 3008 L
4682 3008 mt 4641 2780 L
4641 2780 mt 4599 2553 L
4599 2553 mt 4590 2499 L
4590 2499 mt 4556 2325 L
4556 2325 mt 4515 2097 L
4515 2097 mt 4475 1869 L
4475 1869 mt 4436 1641 L
4436 1641 mt 4396 1414 L
4396 1414 mt 4356 1186 L
4356 1186 mt 4356 1185 L
/c34 { 0.000000 0.125000 1.000000 sr} bdef
c34
4888 3692 mt 4845 3464 L
4845 3464 mt 4824 3351 L
4824 3351 mt 4804 3236 L
4804 3236 mt 4764 3008 L
4764 3008 mt 4724 2780 L
4724 2780 mt 4683 2553 L
4683 2553 mt 4642 2325 L
4642 2325 mt 4599 2097 L
4599 2097 mt 4590 2048 L
4590 2048 mt 4557 1869 L
4557 1869 mt 4517 1641 L
4517 1641 mt 4498 1535 L
4454 1284 mt 4436 1186 L
4436 1186 mt 4395  958 L
4395  958 mt 4356  745 L
/c35 { 0.000000 0.250000 1.000000 sr} bdef
c35
4392  503 mt 4435  730 L
4435  730 mt 4476  958 L
4476  958 mt 4517 1186 L
4517 1186 mt 4557 1414 L
4557 1414 mt 4590 1597 L
4590 1597 mt 4598 1641 L
4598 1641 mt 4642 1869 L
4642 1869 mt 4685 2097 L
4685 2097 mt 4726 2325 L
4726 2325 mt 4767 2553 L
4767 2553 mt 4807 2780 L
4807 2780 mt 4824 2875 L
4824 2875 mt 4849 3008 L
4849 3008 mt 4893 3236 L
4893 3236 mt 4935 3464 L
4935 3464 mt 4977 3692 L
/c36 { 0.000000 0.437500 1.000000 sr} bdef
c36
4475  503 mt 4516  730 L
4516  730 mt 4557  958 L
4557  958 mt 4590 1141 L
4590 1141 mt 4598 1186 L
4598 1186 mt 4643 1414 L
4643 1414 mt 4687 1641 L
4687 1641 mt 4729 1869 L
4729 1869 mt 4771 2097 L
4771 2097 mt 4811 2325 L
4811 2325 mt 4824 2394 L
4824 2394 mt 4855 2553 L
4855 2553 mt 4899 2780 L
4899 2780 mt 4942 3008 L
4942 3008 mt 4984 3236 L
4984 3236 mt 5026 3464 L
5026 3464 mt 5058 3644 L
5058 3644 mt 5067 3692 L
c14
4558  503 mt 4590  680 L
4590  680 mt 4600  730 L
4600  730 mt 4646  958 L
4646  958 mt 4690 1186 L
4690 1186 mt 4733 1414 L
4733 1414 mt 4775 1641 L
4775 1641 mt 4817 1869 L
4817 1869 mt 4824 1908 L
4824 1908 mt 4862 2097 L
4862 2097 mt 4907 2325 L
4907 2325 mt 4950 2553 L
4950 2553 mt 4993 2780 L
4993 2780 mt 5035 3008 L
5035 3008 mt 5058 3132 L
5058 3132 mt 5078 3236 L
5078 3236 mt 5124 3464 L
5124 3464 mt 5168 3692 L
c15
4649  503 mt 4695  730 L
4695  730 mt 4739  958 L
4739  958 mt 4782 1186 L
4782 1186 mt 4823 1414 L
4823 1414 mt 4824 1414 L
4824 1414 mt 4870 1641 L
4870 1641 mt 4916 1869 L
4916 1869 mt 4960 2097 L
4960 2097 mt 5004 2325 L
5004 2325 mt 5046 2553 L
5046 2553 mt 5058 2615 L
5058 2615 mt 5091 2780 L
5091 2780 mt 5107 2857 L
5157 3108 mt 5182 3236 L
5182 3236 mt 5226 3464 L
5226 3464 mt 5269 3692 L
c16
4746  503 mt 4790  730 L
4790  730 mt 4824  912 L
4824  912 mt 4833  958 L
4833  958 mt 4881 1186 L
4881 1186 mt 4927 1414 L
4927 1414 mt 4972 1641 L
4972 1641 mt 5016 1869 L
5016 1869 mt 5058 2089 L
5058 2089 mt 5059 2097 L
5059 2097 mt 5106 2325 L
5106 2325 mt 5153 2553 L
5153 2553 mt 5198 2780 L
5198 2780 mt 5242 3008 L
5242 3008 mt 5286 3236 L
5286 3236 mt 5292 3266 L
5292 3266 mt 5332 3464 L
5332 3464 mt 5379 3692 L
/c37 { 0.000000 1.000000 1.000000 sr} bdef
c37
4845  503 mt 4893  730 L
4893  730 mt 4940  958 L
4940  958 mt 4986 1186 L
4986 1186 mt 5030 1414 L
5030 1414 mt 5058 1556 L
5058 1556 mt 5076 1641 L
5076 1641 mt 5123 1869 L
5123 1869 mt 5170 2097 L
5170 2097 mt 5216 2325 L
5216 2325 mt 5261 2553 L
5261 2553 mt 5292 2712 L
5292 2712 mt 5306 2780 L
5306 2780 mt 5354 3008 L
5354 3008 mt 5400 3236 L
5400 3236 mt 5446 3464 L
5446 3464 mt 5491 3692 L
c18
4955  503 mt 5002  730 L
5002  730 mt 5047  958 L
5047  958 mt 5058 1013 L
5058 1013 mt 5095 1186 L
5095 1186 mt 5143 1414 L
5143 1414 mt 5190 1641 L
5190 1641 mt 5236 1869 L
5236 1869 mt 5281 2097 L
5281 2097 mt 5292 2149 L
5292 2149 mt 5329 2325 L
5329 2325 mt 5377 2553 L
5377 2553 mt 5424 2780 L
5424 2780 mt 5470 3008 L
5470 3008 mt 5516 3236 L
5516 3236 mt 5526 3286 L
5526 3286 mt 5563 3464 L
5563 3464 mt 5611 3692 L
/c38 { 0.312500 1.000000 0.687500 sr} bdef
c38
5067  503 mt 5116  730 L
5116  730 mt 5165  958 L
5165  958 mt 5212 1186 L
5212 1186 mt 5259 1414 L
5259 1414 mt 5292 1577 L
5292 1577 mt 5306 1641 L
5306 1641 mt 5355 1869 L
5355 1869 mt 5403 2097 L
5403 2097 mt 5450 2325 L
5450 2325 mt 5497 2553 L
5497 2553 mt 5526 2696 L
5526 2696 mt 5544 2780 L
5544 2780 mt 5560 2857 L
5614 3108 mt 5641 3236 L
5641 3236 mt 5688 3464 L
5688 3464 mt 5734 3692 L
/c39 { 0.437500 1.000000 0.562500 sr} bdef
c39
5189  503 mt 5237  730 L
5237  730 mt 5284  958 L
5284  958 mt 5292  996 L
5292  996 mt 5333 1186 L
5333 1186 mt 5383 1414 L
5383 1414 mt 5431 1641 L
5431 1641 mt 5479 1869 L
5479 1869 mt 5525 2097 L
5525 2097 mt 5526 2097 L
5526 2097 mt 5575 2325 L
5575 2325 mt 5624 2553 L
5624 2553 mt 5673 2780 L
5673 2780 mt 5720 3008 L
5720 3008 mt 5760 3201 L
5760 3201 mt 5767 3236 L
5767 3236 mt 5817 3464 L
5817 3464 mt 5865 3692 L
/c40 { 0.625000 1.000000 0.375000 sr} bdef
c40
5313  503 mt 5364  730 L
5364  730 mt 5413  958 L
5413  958 mt 5462 1186 L
5462 1186 mt 5510 1414 L
5510 1414 mt 5526 1489 L
5526 1489 mt 5559 1641 L
5559 1641 mt 5609 1869 L
5609 1869 mt 5658 2097 L
5658 2097 mt 5707 2325 L
5707 2325 mt 5754 2553 L
5754 2553 mt 5760 2577 L
5760 2577 mt 5804 2780 L
5804 2780 mt 5854 3008 L
5854 3008 mt 5903 3236 L
5903 3236 mt 5951 3464 L
5951 3464 mt 5994 3667 L
5994 3667 mt 5999 3692 L
/c41 { 0.750000 1.000000 0.250000 sr} bdef
c41
5447  503 mt 5496  730 L
5496  730 mt 5526  871 L
5526  871 mt 5545  958 L
5545  958 mt 5596 1186 L
5596 1186 mt 5646 1414 L
5646 1414 mt 5695 1641 L
5695 1641 mt 5744 1869 L
5744 1869 mt 5760 1943 L
5760 1943 mt 5794 2097 L
5794 2097 mt 5844 2325 L
5844 2325 mt 5894 2553 L
5894 2553 mt 5943 2780 L
5943 2780 mt 5991 3008 L
5991 3008 mt 5994 3019 L
5994 3019 mt 6042 3236 L
6042 3236 mt 6092 3464 L
6092 3464 mt 6141 3692 L
c22
5585  503 mt 5635  730 L
5635  730 mt 5686  958 L
5686  958 mt 5735 1186 L
5735 1186 mt 5760 1300 L
5760 1300 mt 5785 1414 L
5785 1414 mt 5836 1641 L
5836 1641 mt 5887 1869 L
5887 1869 mt 5937 2097 L
5937 2097 mt 5986 2325 L
5986 2325 mt 5994 2362 L
5994 2362 mt 6036 2553 L
6036 2553 mt 6087 2780 L
6087 2780 mt 6104 2857 L
6159 3108 mt 6187 3236 L
6187 3236 mt 6228 3426 L
6228 3426 mt 6236 3464 L
6236 3464 mt 6287 3692 L
/c42 { 1.000000 0.937500 0.000000 sr} bdef
c42
5728  503 mt 5760  647 L
5760  647 mt 5779  730 L
5779  730 mt 5830  958 L
5830  958 mt 5882 1186 L
5882 1186 mt 5932 1414 L
5932 1414 mt 5982 1641 L
5982 1641 mt 5994 1695 L
5994 1695 mt 6033 1869 L
6033 1869 mt 6085 2097 L
6085 2097 mt 6135 2325 L
6135 2325 mt 6185 2553 L
6185 2553 mt 6228 2746 L
6228 2746 mt 6235 2780 L
6235 2780 mt 6287 3008 L
6287 3008 mt 6338 3236 L
6338 3236 mt 6388 3464 L
6388 3464 mt 6438 3692 L
c24
5879  503 mt 5930  730 L
5930  730 mt 5980  958 L
5980  958 mt 5994 1018 L
5994 1018 mt 6032 1186 L
6032 1186 mt 6084 1414 L
6084 1414 mt 6135 1641 L
6135 1641 mt 6186 1869 L
6186 1869 mt 6228 2057 L
6228 2057 mt 6237 2097 L
6237 2097 mt 6289 2325 L
6289 2325 mt 6340 2553 L
6340 2553 mt 6391 2780 L
6391 2780 mt 6442 3008 L
6442 3008 mt 6462 3099 L
6462 3099 mt 6493 3236 L
6493 3236 mt 6545 3464 L
6545 3464 mt 6596 3692 L
c25
6033  503 mt 6086  730 L
6086  730 mt 6138  958 L
6138  958 mt 6189 1186 L
6189 1186 mt 6228 1358 L
6228 1358 mt 6240 1414 L
6240 1414 mt 6293 1641 L
6293 1641 mt 6345 1869 L
6345 1869 mt 6397 2097 L
6397 2097 mt 6447 2325 L
6447 2325 mt 6462 2388 L
6462 2388 mt 6499 2553 L
6499 2553 mt 6552 2780 L
6552 2780 mt 6603 3008 L
6603 3008 mt 6654 3236 L
6654 3236 mt 6696 3421 L
6696 3421 mt 6705 3464 L
6705 3464 mt 6758 3692 L
/c43 { 1.000000 0.500000 0.000000 sr} bdef
c43
6195  503 mt 6228  648 L
6228  648 mt 6247  730 L
6247  730 mt 6300  958 L
6300  958 mt 6352 1186 L
6352 1186 mt 6404 1414 L
6404 1414 mt 6456 1641 L
6456 1641 mt 6462 1668 L
6462 1668 mt 6508 1869 L
6508 1869 mt 6561 2097 L
6561 2097 mt 6613 2325 L
6613 2325 mt 6665 2553 L
6665 2553 mt 6696 2690 L
6696 2690 mt 6717 2780 L
6717 2780 mt 6734 2857 L
6792 3108 mt 6822 3236 L
6822 3236 mt 6873 3464 L
6873 3464 mt 6925 3692 L
/c44 { 1.000000 0.375000 0.000000 sr} bdef
c44
6362  503 mt 6415  730 L
6415  730 mt 6462  937 L
6462  937 mt 6467  958 L
6467  958 mt 6520 1186 L
6520 1186 mt 6573 1414 L
6573 1414 mt 6626 1641 L
6626 1641 mt 6678 1869 L
6678 1869 mt 6696 1948 L
6696 1948 mt 6730 2097 L
6730 2097 mt 6783 2325 L
6783 2325 mt 6836 2553 L
6836 2553 mt 6888 2780 L
6888 2780 mt 6930 2963 L
6930 2963 mt 6940 3008 L
6940 3008 mt 6993 3236 L
6993 3236 mt 7046 3464 L
7046 3464 mt 7098 3692 L
/c45 { 1.000000 0.187500 0.000000 sr} bdef
c45
6535  503 mt 6588  730 L
6588  730 mt 6641  958 L
6641  958 mt 6693 1186 L
6693 1186 mt 6696 1197 L
6696 1197 mt 6747 1414 L
6747 1414 mt 6800 1641 L
6800 1641 mt 6853 1869 L
6853 1869 mt 6906 2097 L
6906 2097 mt 6930 2202 L
6930 2202 mt 6959 2325 L
6959 2325 mt 7012 2553 L
7012 2553 mt 7065 2780 L
7065 2780 mt 7118 3008 L
7118 3008 mt 7164 3209 L
7164 3209 mt 7170 3236 L
7170 3236 mt 7224 3464 L
7224 3464 mt 7277 3692 L
/c46 { 1.000000 0.062500 0.000000 sr} bdef
c46
6712  503 mt 6766  730 L
6766  730 mt 6820  958 L
6820  958 mt 6873 1186 L
6873 1186 mt 6926 1414 L
6926 1414 mt 6930 1430 L
6930 1430 mt 6980 1641 L
6980 1641 mt 7034 1869 L
7034 1869 mt 7087 2097 L
7087 2097 mt 7140 2325 L
7140 2325 mt 7164 2428 L
7164 2428 mt 7193 2553 L
7193 2553 mt 7247 2780 L
7247 2780 mt 7300 3008 L
7300 3008 mt 7353 3236 L
7353 3236 mt 7398 3428 L
7398 3428 mt 7406 3464 L
7406 3464 mt 7460 3692 L
/c47 { 0.937500 0.000000 0.000000 sr} bdef
c47
6896  503 mt 6930  647 L
6930  647 mt 6950  730 L
6950  730 mt 7004  958 L
7004  958 mt 7058 1186 L
7058 1186 mt 7112 1414 L
7112 1414 mt 7164 1637 L
7164 1637 mt 7165 1641 L
7165 1641 mt 7219 1869 L
7219 1869 mt 7273 2097 L
7273 2097 mt 7327 2325 L
7327 2325 mt 7380 2553 L
7380 2553 mt 7398 2629 L
7398 2629 mt 7434 2780 L
7434 2780 mt 7439 2800 L
7498 3051 mt 7542 3236 L
7542 3236 mt 7595 3464 L
7595 3464 mt 7632 3622 L
/c48 { 0.750000 0.000000 0.000000 sr} bdef
c48
7085  503 mt 7139  730 L
7139  730 mt 7164  834 L
7164  834 mt 7193  958 L
7193  958 mt 7248 1186 L
7248 1186 mt 7302 1414 L
7302 1414 mt 7356 1641 L
7356 1641 mt 7398 1818 L
7398 1818 mt 7410 1869 L
7410 1869 mt 7464 2097 L
7464 2097 mt 7519 2325 L
7519 2325 mt 7573 2553 L
7573 2553 mt 7626 2780 L
7626 2780 mt 7632 2804 L
c31
7280  503 mt 7334  730 L
7334  730 mt 7388  958 L
7388  958 mt 7398  997 L
7398  997 mt 7443 1186 L
7443 1186 mt 7498 1414 L
7498 1414 mt 7553 1641 L
7553 1641 mt 7606 1869 L
7606 1869 mt 7632 1975 L
c32
7480  503 mt 7535  730 L
7535  730 mt 7589  958 L
7589  958 mt 7632 1135 L
0 sg
4425 1297 mt  -274 rotate
(0.02) s
274 rotate
5079 2869 mt  -275 rotate
(0.03) s
275 rotate
5534 2870 mt  -275 rotate
(0.04) s
275 rotate
6078 2870 mt  -275 rotate
(0.05) s
275 rotate
6709 2870 mt  -276 rotate
(0.06) s
276 rotate
7413 2814 mt  -276 rotate
(0.07) s
276 rotate
gr

0 sg
%%IncludeResource: font Symbol
/Symbol /ISOLatin1Encoding 120 FMSR

5888 3949 mt 
(f) s
%%IncludeResource: font Symbol
/Symbol /ISOLatin1Encoding 96 FMSR

5950 4009 mt 
(D) s
%%IncludeResource: font Helvetica
/Helvetica /ISOLatin1Encoding 96 FMSR

6008 4009 mt 
( Y) s
%%IncludeResource: font Symbol
/Symbol /ISOLatin1Encoding 120 FMSR

4012 2203 mt  -90 rotate
(f) s
90 rotate
%%IncludeResource: font Symbol
/Symbol /ISOLatin1Encoding 96 FMSR

4072 2141 mt  -90 rotate
(D) s
90 rotate
%%IncludeResource: font Helvetica
/Helvetica /ISOLatin1Encoding 96 FMSR

4072 2083 mt  -90 rotate
( V) s
90 rotate
%%IncludeResource: font Symbol
/Symbol /ISOLatin1Encoding 120 FMSR

5931  347 mt 
(s) s
%%IncludeResource: font Symbol
/Symbol /ISOLatin1Encoding 96 FMSR

6003  407 mt 
(p) s
4 w
DO
SO
6 w
4356 3692 mt 7632 3692 L
4356  503 mt 7632  503 L
4356 3692 mt 4356  503 L
7632 3692 mt 7632  503 L
4356 3692 mt 7632 3692 L
4356 3692 mt 4356  503 L
4356 3692 mt 4356 3659 L
4356  503 mt 4356  535 L
%%IncludeResource: font Helvetica
/Helvetica /ISOLatin1Encoding 120 FMSR

4323 3837 mt 
(0) s
5175 3692 mt 5175 3659 L
5175  503 mt 5175  535 L
5092 3837 mt 
(0.5) s
5994 3692 mt 5994 3659 L
5994  503 mt 5994  535 L
5961 3837 mt 
(1) s
6813 3692 mt 6813 3659 L
6813  503 mt 6813  535 L
6730 3837 mt 
(1.5) s
7632 3692 mt 7632 3659 L
7632  503 mt 7632  535 L
7599 3837 mt 
(2) s
4356 3692 mt 4388 3692 L
7632 3692 mt 7599 3692 L
4255 3736 mt 
(0) s
4356 3373 mt 4388 3373 L
7632 3373 mt 7599 3373 L
4155 3417 mt 
(0.2) s
4356 3054 mt 4388 3054 L
7632 3054 mt 7599 3054 L
4155 3098 mt 
(0.4) s
4356 2735 mt 4388 2735 L
7632 2735 mt 7599 2735 L
4155 2779 mt 
(0.6) s
4356 2416 mt 4388 2416 L
7632 2416 mt 7599 2416 L
4155 2460 mt 
(0.8) s
4356 2097 mt 4388 2097 L
7632 2097 mt 7599 2097 L
4255 2141 mt 
(1) s
4356 1778 mt 4388 1778 L
7632 1778 mt 7599 1778 L
4155 1822 mt 
(1.2) s
4356 1459 mt 4388 1459 L
7632 1459 mt 7599 1459 L
4155 1503 mt 
(1.4) s
4356 1140 mt 4388 1140 L
7632 1140 mt 7599 1140 L
4155 1184 mt 
(1.6) s
4356  821 mt 4388  821 L
7632  821 mt 7599  821 L
4155  865 mt 
(1.8) s
4356  503 mt 4388  503 L
7632  503 mt 7599  503 L
4255  547 mt 
(2) s
4356 3692 mt 7632 3692 L
4356  503 mt 7632  503 L
4356 3692 mt 4356  503 L
7632 3692 mt 7632  503 L
1 sg
0 3189 3276 0 0 -3189 8232 3692 4 MP
PP
-3276 0 0 3189 3276 0 0 -3189 8232 3692 5 MP stroke
gs 8232 503 3277 3190 rc
c8
10066 3692 mt 10037 3464 L
10037 3464 mt 10008 3236 L
10008 3236 mt 9979 3008 L
9979 3008 mt 9951 2780 L
9951 2780 mt 9924 2553 L
9924 2553 mt 9901 2325 L
9901 2325 mt 9884 2097 L
9884 2097 mt 9878 1869 L
9878 1869 mt 9897 1641 L
9897 1641 mt 9983 1414 L
9983 1414 mt 10104 1300 L
10104 1300 mt 10195 1414 L
10195 1414 mt 10338 1549 L
10338 1549 mt 10382 1641 L
10382 1641 mt 10506 1869 L
10506 1869 mt 10572 1973 L
10572 1973 mt 10621 2097 L
10621 2097 mt 10720 2325 L
10720 2325 mt 10806 2499 L
10806 2499 mt 10806 2501 L
10920 2812 mt 11000 3008 L
11000 3008 mt 11040 3099 L
11040 3099 mt 11085 3236 L
11085 3236 mt 11163 3464 L
11163 3464 mt 11249 3692 L
c9
9107  503 mt 9131  730 L
9131  730 mt 9156  958 L
9156  958 mt 9168 1055 L
9168 1055 mt 9189 1186 L
9189 1186 mt 9228 1414 L
9228 1414 mt 9266 1641 L
9266 1641 mt 9303 1869 L
9303 1869 mt 9339 2097 L
9339 2097 mt 9374 2325 L
9374 2325 mt 9402 2509 L
9402 2509 mt 9410 2553 L
9410 2553 mt 9458 2780 L
9458 2780 mt 9502 3008 L
9502 3008 mt 9544 3236 L
9544 3236 mt 9584 3464 L
9584 3464 mt 9622 3692 L
10845  503 mt 10929  730 L
10929  730 mt 11015  958 L
11015  958 mt 11040 1022 L
11040 1022 mt 11095 1186 L
11095 1186 mt 11174 1414 L
11174 1414 mt 11255 1641 L
11255 1641 mt 11274 1692 L
11274 1692 mt 11330 1869 L
11330 1869 mt 11405 2097 L
11405 2097 mt 11482 2325 L
11482 2325 mt 11508 2398 L
c10
8797  503 mt 8834  730 L
8834  730 mt 8871  958 L
8871  958 mt 8905 1186 L
8905 1186 mt 8934 1379 L
8934 1379 mt 8940 1414 L
8940 1414 mt 8988 1641 L
8988 1641 mt 9033 1869 L
9033 1869 mt 9075 2097 L
9075 2097 mt 9115 2325 L
9115 2325 mt 9152 2553 L
9152 2553 mt 9168 2647 L
9168 2647 mt 9197 2780 L
9197 2780 mt 9246 3008 L
9246 3008 mt 9291 3236 L
9291 3236 mt 9334 3464 L
9334 3464 mt 9374 3692 L
11386  503 mt 11464  730 L
11464  730 mt 11508  857 L
c11
8601  503 mt 8639  730 L
8639  730 mt 8675  958 L
8675  958 mt 8700 1124 L
8700 1124 mt 8713 1186 L
8713 1186 mt 8762 1414 L
8762 1414 mt 8807 1641 L
8807 1641 mt 8850 1869 L
8850 1869 mt 8890 2097 L
8890 2097 mt 8926 2325 L
8926 2325 mt 8934 2369 L
8934 2369 mt 8975 2553 L
8975 2553 mt 9023 2780 L
9023 2780 mt 9068 3008 L
9068 3008 mt 9110 3236 L
9110 3236 mt 9149 3464 L
9149 3464 mt 9168 3572 L
9168 3572 mt 9195 3692 L
c12
8451  503 mt 8466  607 L
8466  607 mt 8493  730 L
8493  730 mt 8542  958 L
8542  958 mt 8587 1186 L
8587 1186 mt 8629 1414 L
8629 1414 mt 8666 1641 L
8666 1641 mt 8700 1862 L
8700 1862 mt 8701 1869 L
8701 1869 mt 8753 2097 L
8753 2097 mt 8800 2325 L
8800 2325 mt 8844 2553 L
8844 2553 mt 8885 2780 L
8885 2780 mt 8887 2796 L
8940 3110 mt 8969 3236 L
8969 3236 mt 9018 3464 L
9018 3464 mt 9063 3692 L
c13
8361  503 mt 8401  730 L
8401  730 mt 8436  958 L
8436  958 mt 8466 1179 L
8466 1179 mt 8467 1186 L
8467 1186 mt 8519 1414 L
8519 1414 mt 8567 1641 L
8567 1641 mt 8610 1869 L
8610 1869 mt 8649 2097 L
8649 2097 mt 8684 2325 L
8684 2325 mt 8700 2428 L
8700 2428 mt 8728 2553 L
8728 2553 mt 8777 2780 L
8777 2780 mt 8823 3008 L
8823 3008 mt 8864 3236 L
8864 3236 mt 8903 3464 L
8903 3464 mt 8934 3660 L
8934 3660 mt 8941 3692 L
c14
8272  503 mt 8321  730 L
8321  730 mt 8365  958 L
8365  958 mt 8403 1186 L
8403 1186 mt 8437 1414 L
8437 1414 mt 8466 1634 L
8466 1634 mt 8467 1641 L
8467 1641 mt 8519 1869 L
8519 1869 mt 8566 2097 L
8566 2097 mt 8609 2325 L
8609 2325 mt 8647 2553 L
8647 2553 mt 8682 2780 L
8682 2780 mt 8700 2903 L
8700 2903 mt 8723 3008 L
8723 3008 mt 8772 3236 L
8772 3236 mt 8817 3464 L
8817 3464 mt 8859 3692 L
c15
8780 3692 mt 8732 3464 L
8732 3464 mt 8700 3317 L
8700 3317 mt 8688 3236 L
8688 3236 mt 8655 3008 L
8655 3008 mt 8618 2780 L
8618 2780 mt 8578 2553 L
8578 2553 mt 8533 2325 L
8533 2325 mt 8484 2097 L
8484 2097 mt 8466 2018 L
8466 2018 mt 8447 1869 L
8447 1869 mt 8416 1641 L
8416 1641 mt 8381 1414 L
8381 1414 mt 8341 1186 L
8341 1186 mt 8294  958 L
8294  958 mt 8242  730 L
8242  730 mt 8232  687 L
c16
8700 3692 mt 8700 3687 L
8700 3687 mt 8669 3464 L
8669 3464 mt 8635 3236 L
8635 3236 mt 8597 3008 L
8597 3008 mt 8555 2780 L
8555 2780 mt 8509 2553 L
8509 2553 mt 8466 2358 L
8466 2358 mt 8462 2325 L
8462 2325 mt 8434 2097 L
8434 2097 mt 8402 1869 L
8402 1869 mt 8390 1793 L
8337 1479 mt 8325 1414 L
8325 1414 mt 8278 1186 L
8278 1186 mt 8232  987 L
c17
8655 3692 mt 8620 3464 L
8620 3464 mt 8581 3236 L
8581 3236 mt 8539 3008 L
8539 3008 mt 8492 2780 L
8492 2780 mt 8466 2661 L
8466 2661 mt 8453 2553 L
8453 2553 mt 8425 2325 L
8425 2325 mt 8393 2097 L
8393 2097 mt 8357 1869 L
8357 1869 mt 8316 1641 L
8316 1641 mt 8269 1414 L
8269 1414 mt 8232 1251 L
c18
8609 3692 mt 8570 3464 L
8570 3464 mt 8528 3236 L
8528 3236 mt 8480 3008 L
8480 3008 mt 8466 2939 L
8466 2939 mt 8448 2780 L
8448 2780 mt 8420 2553 L
8420 2553 mt 8389 2325 L
8389 2325 mt 8353 2097 L
8353 2097 mt 8312 1869 L
8312 1869 mt 8266 1641 L
8266 1641 mt 8232 1489 L
c19
8563 3692 mt 8521 3464 L
8521 3464 mt 8474 3236 L
8474 3236 mt 8466 3196 L
8466 3196 mt 8445 3008 L
8445 3008 mt 8418 2780 L
8418 2780 mt 8387 2553 L
8387 2553 mt 8352 2325 L
8352 2325 mt 8312 2097 L
8312 2097 mt 8267 1869 L
8267 1869 mt 8232 1707 L
c20
8518 3692 mt 8472 3464 L
8472 3464 mt 8466 3434 L
8466 3434 mt 8445 3236 L
8445 3236 mt 8418 3008 L
8418 3008 mt 8388 2780 L
8388 2780 mt 8354 2553 L
8354 2553 mt 8342 2483 L
8298 2232 mt 8272 2097 L
8272 2097 mt 8232 1909 L
c21
8472 3692 mt 8466 3658 L
8466 3658 mt 8446 3464 L
8446 3464 mt 8420 3236 L
8420 3236 mt 8391 3008 L
8391 3008 mt 8358 2780 L
8358 2780 mt 8321 2553 L
8321 2553 mt 8279 2325 L
8279 2325 mt 8232 2098 L
c22
8448 3692 mt 8423 3464 L
8423 3464 mt 8395 3236 L
8395 3236 mt 8364 3008 L
8364 3008 mt 8328 2780 L
8328 2780 mt 8288 2553 L
8288 2553 mt 8242 2325 L
8242 2325 mt 8232 2272 L
c23
8427 3692 mt 8400 3464 L
8400 3464 mt 8370 3236 L
8370 3236 mt 8336 3008 L
8336 3008 mt 8298 2780 L
8298 2780 mt 8255 2553 L
8255 2553 mt 8232 2438 L
c24
8407 3692 mt 8378 3464 L
8378 3464 mt 8346 3236 L
8346 3236 mt 8325 3104 L
8270 2790 mt 8268 2780 L
8268 2780 mt 8232 2596 L
c25
8386 3692 mt 8355 3464 L
8355 3464 mt 8321 3236 L
8321 3236 mt 8282 3008 L
8282 3008 mt 8238 2780 L
8238 2780 mt 8232 2746 L
c26
8365 3692 mt 8333 3464 L
8333 3464 mt 8296 3236 L
8296 3236 mt 8255 3008 L
8255 3008 mt 8232 2888 L
c27
8345 3692 mt 8310 3464 L
8310 3464 mt 8271 3236 L
8271 3236 mt 8232 3027 L
c28
8324 3692 mt 8287 3464 L
8287 3464 mt 8246 3236 L
8246 3236 mt 8232 3157 L
c47
8303 3692 mt 8265 3464 L
8265 3464 mt 8232 3284 L
c30
8283 3692 mt 8242 3464 L
8242 3464 mt 8232 3406 L
c31
8262 3692 mt 8232 3524 L
c32
8241 3692 mt 8232 3638 L
0 sg
10796 2515 mt  -279 rotate
(0.004) s
279 rotate
8859 2807 mt  -274 rotate
(0.006) s
274 rotate
8310 1490 mt  -274 rotate
(0.008) s
274 rotate
8268 2244 mt  -274 rotate
(0.01) s
274 rotate
8244 2801 mt  -274 rotate
(0.012) s
274 rotate
gr

0 sg
%%IncludeResource: font Symbol
/Symbol /ISOLatin1Encoding 120 FMSR

9764 3949 mt 
(f) s
%%IncludeResource: font Symbol
/Symbol /ISOLatin1Encoding 96 FMSR

9826 4009 mt 
(D) s
%%IncludeResource: font Helvetica
/Helvetica /ISOLatin1Encoding 96 FMSR

9884 4009 mt 
( Y) s
%%IncludeResource: font Symbol
/Symbol /ISOLatin1Encoding 120 FMSR

7888 2203 mt  -90 rotate
(f) s
90 rotate
%%IncludeResource: font Symbol
/Symbol /ISOLatin1Encoding 96 FMSR

7948 2141 mt  -90 rotate
(D) s
90 rotate
%%IncludeResource: font Helvetica
/Helvetica /ISOLatin1Encoding 96 FMSR

7948 2083 mt  -90 rotate
( V) s
90 rotate
%%IncludeResource: font Helvetica
/Helvetica /ISOLatin1Encoding 120 FMSR

9762  408 mt 
(loss) s
gs 8232 503 3277 3190 rc
24 w
DA
8340 3692 mt 8305 3464 L
8305 3464 mt 8266 3236 L
8266 3236 mt 8232 3054 L
gr

24 w
DA
4 w
DO
SO
6 w
8232 3692 mt 11508 3692 L
8232  503 mt 11508  503 L
8232 3692 mt 8232  503 L
11508 3692 mt 11508  503 L
8232 3692 mt 11508 3692 L
8232 3692 mt 8232  503 L
8232 3692 mt 8232 3659 L
8232  503 mt 8232  535 L
8199 3837 mt 
(0) s
9051 3692 mt 9051 3659 L
9051  503 mt 9051  535 L
8968 3837 mt 
(0.5) s
9870 3692 mt 9870 3659 L
9870  503 mt 9870  535 L
9837 3837 mt 
(1) s
10689 3692 mt 10689 3659 L
10689  503 mt 10689  535 L
10606 3837 mt 
(1.5) s
11508 3692 mt 11508 3659 L
11508  503 mt 11508  535 L
11475 3837 mt 
(2) s
8232 3692 mt 8264 3692 L
11508 3692 mt 11475 3692 L
8131 3736 mt 
(0) s
8232 3373 mt 8264 3373 L
11508 3373 mt 11475 3373 L
8031 3417 mt 
(0.2) s
8232 3054 mt 8264 3054 L
11508 3054 mt 11475 3054 L
8031 3098 mt 
(0.4) s
8232 2735 mt 8264 2735 L
11508 2735 mt 11475 2735 L
8031 2779 mt 
(0.6) s
8232 2416 mt 8264 2416 L
11508 2416 mt 11475 2416 L
8031 2460 mt 
(0.8) s
8232 2097 mt 8264 2097 L
11508 2097 mt 11475 2097 L
8131 2141 mt 
(1) s
8232 1778 mt 8264 1778 L
11508 1778 mt 11475 1778 L
8031 1822 mt 
(1.2) s
8232 1459 mt 8264 1459 L
11508 1459 mt 11475 1459 L
8031 1503 mt 
(1.4) s
8232 1140 mt 8264 1140 L
11508 1140 mt 11475 1140 L
8031 1184 mt 
(1.6) s
8232  821 mt 8264  821 L
11508  821 mt 11475  821 L
8031  865 mt 
(1.8) s
8232  503 mt 8264  503 L
11508  503 mt 11475  503 L
8131  547 mt 
(2) s
8232 3692 mt 11508 3692 L
8232  503 mt 11508  503 L
8232 3692 mt 8232  503 L
11508 3692 mt 11508  503 L

end %%Color Dict

eplot
%%EndObject

epage
end

showpage

%%Trailer
%%EOF
