%!PS-Adobe-3.0 EPSF-3.0
%%Creator: MATLAB, The MathWorks, Inc. Version 7.14.0.739 (R2012a). Operating System: Darwin 13.3.0 Darwin Kernel Version 13.3.0: Tue Jun  3 21:27:35 PDT 2014; root:xnu-2422.110.17~1/RELEASE_X86_64 x86_64.
%%Title: /Users/fckw/Dropbox/PhD/jmp/policymetrics_Vlearn.eps
%%CreationDate: 08/21/2014  00:41:12
%%DocumentNeededFonts: Helvetica
%%DocumentProcessColors: Cyan Magenta Yellow Black
%%LanguageLevel: 2
%%Pages: 1
%%BoundingBox:  -193   221   806   571
%%EndComments

%%BeginProlog
% MathWorks dictionary
/MathWorks 160 dict begin
% definition operators
/bdef {bind def} bind def
/ldef {load def} bind def
/xdef {exch def} bdef
/xstore {exch store} bdef
% operator abbreviations
/c  /clip ldef
/cc /concat ldef
/cp /closepath ldef
/gr /grestore ldef
/gs /gsave ldef
/mt /moveto ldef
/np /newpath ldef
/cm /currentmatrix ldef
/sm /setmatrix ldef
/rm /rmoveto ldef
/rl /rlineto ldef
/s {show newpath} bdef
/sc {setcmykcolor} bdef
/sr /setrgbcolor ldef
/sg /setgray ldef
/w /setlinewidth ldef
/j /setlinejoin ldef
/cap /setlinecap ldef
/rc {rectclip} bdef
/rf {rectfill} bdef
% page state control
/pgsv () def
/bpage {/pgsv save def} bdef
/epage {pgsv restore} bdef
/bplot /gsave ldef
/eplot {stroke grestore} bdef
% orientation switch
/portraitMode 0 def /landscapeMode 1 def /rotateMode 2 def
% coordinate system mappings
/dpi2point 0 def
% font control
/FontSize 0 def
/FMS {/FontSize xstore findfont [FontSize 0 0 FontSize neg 0 0]
  makefont setfont} bdef
/reencode {exch dup where {pop load} {pop StandardEncoding} ifelse
  exch dup 3 1 roll findfont dup length dict begin
  { 1 index /FID ne {def}{pop pop} ifelse } forall
  /Encoding exch def currentdict end definefont pop} bdef
/isroman {findfont /CharStrings get /Agrave known} bdef
/FMSR {3 1 roll 1 index dup isroman {reencode} {pop pop} ifelse
  exch FMS} bdef
/csm {1 dpi2point div -1 dpi2point div scale neg translate
 dup landscapeMode eq {pop -90 rotate}
  {rotateMode eq {90 rotate} if} ifelse} bdef
% line types: solid, dotted, dashed, dotdash
/SO { [] 0 setdash } bdef
/DO { [.5 dpi2point mul 4 dpi2point mul] 0 setdash } bdef
/DA { [6 dpi2point mul] 0 setdash } bdef
/DD { [.5 dpi2point mul 4 dpi2point mul 6 dpi2point mul 4
  dpi2point mul] 0 setdash } bdef
% macros for lines and objects
/L {lineto stroke} bdef
/MP {3 1 roll moveto 1 sub {rlineto} repeat} bdef
/AP {{rlineto} repeat} bdef
/PDlw -1 def
/W {/PDlw currentlinewidth def setlinewidth} def
/PP {closepath eofill} bdef
/DP {closepath stroke} bdef
/MR {4 -2 roll moveto dup  0 exch rlineto exch 0 rlineto
  neg 0 exch rlineto closepath} bdef
/FR {MR stroke} bdef
/PR {MR fill} bdef
/L1i {{currentfile picstr readhexstring pop} image} bdef
/tMatrix matrix def
/MakeOval {newpath tMatrix currentmatrix pop translate scale
0 0 1 0 360 arc tMatrix setmatrix} bdef
/FO {MakeOval stroke} bdef
/PO {MakeOval fill} bdef
/PD {currentlinewidth 2 div 0 360 arc fill
   PDlw -1 eq not {PDlw w /PDlw -1 def} if} def
/FA {newpath tMatrix currentmatrix pop translate scale
  0 0 1 5 -2 roll arc tMatrix setmatrix stroke} bdef
/PA {newpath tMatrix currentmatrix pop	translate 0 0 moveto scale
  0 0 1 5 -2 roll arc closepath tMatrix setmatrix fill} bdef
/FAn {newpath tMatrix currentmatrix pop translate scale
  0 0 1 5 -2 roll arcn tMatrix setmatrix stroke} bdef
/PAn {newpath tMatrix currentmatrix pop translate 0 0 moveto scale
  0 0 1 5 -2 roll arcn closepath tMatrix setmatrix fill} bdef
/vradius 0 def /hradius 0 def /lry 0 def
/lrx 0 def /uly 0 def /ulx 0 def /rad 0 def
/MRR {/vradius xdef /hradius xdef /lry xdef /lrx xdef /uly xdef
  /ulx xdef newpath tMatrix currentmatrix pop ulx hradius add uly
  vradius add translate hradius vradius scale 0 0 1 180 270 arc 
  tMatrix setmatrix lrx hradius sub uly vradius add translate
  hradius vradius scale 0 0 1 270 360 arc tMatrix setmatrix
  lrx hradius sub lry vradius sub translate hradius vradius scale
  0 0 1 0 90 arc tMatrix setmatrix ulx hradius add lry vradius sub
  translate hradius vradius scale 0 0 1 90 180 arc tMatrix setmatrix
  closepath} bdef
/FRR {MRR stroke } bdef
/PRR {MRR fill } bdef
/MlrRR {/lry xdef /lrx xdef /uly xdef /ulx xdef /rad lry uly sub 2 div def
  newpath tMatrix currentmatrix pop ulx rad add uly rad add translate
  rad rad scale 0 0 1 90 270 arc tMatrix setmatrix lrx rad sub lry rad
  sub translate rad rad scale 0 0 1 270 90 arc tMatrix setmatrix
  closepath} bdef
/FlrRR {MlrRR stroke } bdef
/PlrRR {MlrRR fill } bdef
/MtbRR {/lry xdef /lrx xdef /uly xdef /ulx xdef /rad lrx ulx sub 2 div def
  newpath tMatrix currentmatrix pop ulx rad add uly rad add translate
  rad rad scale 0 0 1 180 360 arc tMatrix setmatrix lrx rad sub lry rad
  sub translate rad rad scale 0 0 1 0 180 arc tMatrix setmatrix
  closepath} bdef
/FtbRR {MtbRR stroke } bdef
/PtbRR {MtbRR fill } bdef
/stri 6 array def /dtri 6 array def
/smat 6 array def /dmat 6 array def
/tmat1 6 array def /tmat2 6 array def /dif 3 array def
/asub {/ind2 exch def /ind1 exch def dup dup
  ind1 get exch ind2 get sub exch } bdef
/tri_to_matrix {
  2 0 asub 3 1 asub 4 0 asub 5 1 asub
  dup 0 get exch 1 get 7 -1 roll astore } bdef
/compute_transform {
  dmat dtri tri_to_matrix tmat1 invertmatrix 
  smat stri tri_to_matrix tmat2 concatmatrix } bdef
/ds {stri astore pop} bdef
/dt {dtri astore pop} bdef
/db {2 copy /cols xdef /rows xdef mul dup 3 mul string
  currentfile 
  3 index 0 eq {/ASCIIHexDecode filter}
  {/ASCII85Decode filter 3 index 2 eq {/RunLengthDecode filter} if }
  ifelse exch readstring pop
  dup 0 3 index getinterval /rbmap xdef
  dup 2 index dup getinterval /gbmap xdef
  1 index dup 2 mul exch getinterval /bbmap xdef pop pop}bdef
/it {gs np dtri aload pop moveto lineto lineto cp c
  cols rows 8 compute_transform 
  rbmap gbmap bbmap true 3 colorimage gr}bdef
/il {newpath moveto lineto stroke}bdef
currentdict end def
%%EndProlog

%%BeginSetup
MathWorks begin

0 cap

end
%%EndSetup

%%Page: 1 1
%%BeginPageSetup
%%PageBoundingBox:  -193   221   806   571
MathWorks begin
bpage
%%EndPageSetup

%%BeginObject: obj1
bplot

/dpi2point 12 def
portraitMode -2316 6852 csm

    0     0 11988  4195 rc
85 dict begin %Colortable dictionary
/c0 { 0.000000 0.000000 0.000000 sr} bdef
/c1 { 1.000000 1.000000 1.000000 sr} bdef
/c2 { 0.900000 0.000000 0.000000 sr} bdef
/c3 { 0.000000 0.820000 0.000000 sr} bdef
/c4 { 0.000000 0.000000 0.800000 sr} bdef
/c5 { 0.910000 0.820000 0.320000 sr} bdef
/c6 { 1.000000 0.260000 0.820000 sr} bdef
/c7 { 0.000000 0.820000 0.820000 sr} bdef
c0
1 j
1 sg
   0    0 11989 4196 rf
6 w
0 3189 3276 0 0 -3189 480 3692 4 MP
PP
-3276 0 0 3189 3276 0 0 -3189 480 3692 5 MP stroke
gs 480 503 3277 3190 rc
/c8 { 0.000000 0.000000 0.562500 sr} bdef
c8
3465  503 mt 3471  857 L
3471  857 mt 3477 1211 L
3477 1211 mt 3483 1566 L
3483 1566 mt 3489 1920 L
3489 1920 mt 3495 2274 L
3495 2274 mt 3501 2629 L
3501 2629 mt 3507 2983 L
3507 2983 mt 3513 3337 L
3513 3337 mt 3520 3692 L
/c9 { 0.000000 0.000000 0.687500 sr} bdef
c9
3129  503 mt 3135  857 L
3135  857 mt 3142 1211 L
3142 1211 mt 3148 1566 L
3148 1566 mt 3155 1920 L
3155 1920 mt 3161 2274 L
3161 2274 mt 3168 2629 L
3168 2629 mt 3174 2983 L
3174 2983 mt 3181 3337 L
3181 3337 mt 3187 3692 L
/c10 { 0.000000 0.000000 0.812500 sr} bdef
c10
2830  503 mt 2836  857 L
2836  857 mt 2843 1211 L
2843 1211 mt 2850 1566 L
2850 1566 mt 2856 1920 L
2856 1920 mt 2863 2274 L
2863 2274 mt 2870 2629 L
2870 2629 mt 2875 2914 L
2879 3106 mt 2883 3337 L
2883 3337 mt 2890 3692 L
/c11 { 0.000000 0.000000 0.937500 sr} bdef
c11
2561  503 mt 2567  857 L
2567  857 mt 2574 1211 L
2574 1211 mt 2581 1566 L
2581 1566 mt 2587 1920 L
2587 1920 mt 2594 2274 L
2594 2274 mt 2601 2629 L
2601 2629 mt 2607 2983 L
2607 2983 mt 2614 3337 L
2614 3337 mt 2620 3692 L
/c12 { 0.000000 0.062500 1.000000 sr} bdef
c12
2316  503 mt 2324  857 L
2324  857 mt 2332 1211 L
2332 1211 mt 2339 1566 L
2339 1566 mt 2347 1920 L
2347 1920 mt 2355 2274 L
2355 2274 mt 2363 2629 L
2363 2629 mt 2370 2983 L
2370 2983 mt 2378 3337 L
2378 3337 mt 2386 3692 L
/c13 { 0.000000 0.187500 1.000000 sr} bdef
c13
2112  503 mt 2119  857 L
2119  857 mt 2126 1211 L
2126 1211 mt 2134 1566 L
2134 1566 mt 2141 1920 L
2141 1920 mt 2148 2274 L
2148 2274 mt 2156 2629 L
2156 2629 mt 2163 2983 L
2163 2983 mt 2170 3337 L
2170 3337 mt 2178 3692 L
/c14 { 0.000000 0.312500 1.000000 sr} bdef
c14
1915  503 mt 1922  857 L
1922  857 mt 1929 1211 L
1929 1211 mt 1935 1566 L
1935 1566 mt 1936 1579 L
1936 1579 mt 1944 1920 L
1944 1920 mt 1952 2274 L
1952 2274 mt 1960 2629 L
1960 2629 mt 1967 2914 L
1971 3106 mt 1977 3337 L
1977 3337 mt 1985 3692 L
/c15 { 0.000000 0.437500 1.000000 sr} bdef
c15
1757  503 mt 1765  857 L
1765  857 mt 1772 1211 L
1772 1211 mt 1780 1566 L
1780 1566 mt 1787 1920 L
1787 1920 mt 1795 2274 L
1795 2274 mt 1802 2629 L
1802 2629 mt 1810 2983 L
1810 2983 mt 1817 3337 L
1817 3337 mt 1824 3692 L
/c16 { 0.000000 0.625000 1.000000 sr} bdef
c16
1599  503 mt 1608  857 L
1608  857 mt 1616 1211 L
1616 1211 mt 1625 1566 L
1625 1566 mt 1633 1920 L
1633 1920 mt 1641 2274 L
1641 2274 mt 1650 2629 L
1650 2629 mt 1658 2983 L
1658 2983 mt 1666 3337 L
1666 3337 mt 1675 3692 L
/c17 { 0.000000 0.750000 1.000000 sr} bdef
c17
1477  503 mt 1484  857 L
1484  857 mt 1491 1211 L
1491 1211 mt 1498 1566 L
1498 1566 mt 1505 1920 L
1505 1920 mt 1512 2274 L
1512 2274 mt 1518 2629 L
1518 2629 mt 1525 2983 L
1525 2983 mt 1532 3337 L
1532 3337 mt 1538 3692 L
/c18 { 0.000000 0.875000 1.000000 sr} bdef
c18
1363  503 mt 1370  857 L
1370  857 mt 1378 1211 L
1378 1211 mt 1386 1566 L
1386 1566 mt 1394 1920 L
1394 1920 mt 1401 2274 L
1401 2274 mt 1409 2629 L
1409 2629 mt 1415 2914 L
1419 3106 mt 1424 3337 L
1424 3337 mt 1432 3692 L
/c19 { 0.000000 1.000000 1.000000 sr} bdef
c19
1248  503 mt 1257  857 L
1257  857 mt 1266 1211 L
1266 1211 mt 1274 1566 L
1274 1566 mt 1283 1920 L
1283 1920 mt 1291 2274 L
1291 2274 mt 1300 2629 L
1300 2629 mt 1308 2983 L
1308 2983 mt 1316 3337 L
1316 3337 mt 1325 3692 L
/c20 { 0.125000 1.000000 0.875000 sr} bdef
c20
1162  503 mt 1168  857 L
1168  857 mt 1174 1211 L
1174 1211 mt 1180 1566 L
1180 1566 mt 1185 1920 L
1185 1920 mt 1191 2274 L
1191 2274 mt 1197 2629 L
1197 2629 mt 1203 2983 L
1203 2983 mt 1208 3289 L
1208 3289 mt 1209 3337 L
1209 3337 mt 1218 3692 L
/c21 { 0.250000 1.000000 0.750000 sr} bdef
c21
1090  503 mt 1097  857 L
1097  857 mt 1104 1211 L
1104 1211 mt 1110 1566 L
1110 1566 mt 1117 1920 L
1117 1920 mt 1123 2274 L
1123 2274 mt 1130 2629 L
1130 2629 mt 1136 2983 L
1136 2983 mt 1142 3337 L
1142 3337 mt 1148 3692 L
/c22 { 0.375000 1.000000 0.625000 sr} bdef
c22
1019  503 mt 1026  857 L
1026  857 mt 1034 1211 L
1034 1211 mt 1041 1566 L
1041 1566 mt 1048 1920 L
1048 1920 mt 1055 2274 L
1055 2274 mt 1062 2629 L
1062 2629 mt 1069 2983 L
1069 2983 mt 1070 3038 L
1072 3102 mt 1076 3337 L
1076 3337 mt 1083 3692 L
/c23 { 0.562500 1.000000 0.437500 sr} bdef
c23
 948  503 mt  956  857 L
 956  857 mt  964 1211 L
 964 1211 mt  972 1566 L
 972 1566 mt  980 1920 L
 980 1920 mt  987 2274 L
 987 2274 mt  995 2629 L
 995 2629 mt 1003 2983 L
1003 2983 mt 1010 3337 L
1010 3337 mt 1018 3692 L
/c24 { 0.687500 1.000000 0.312500 sr} bdef
c24
 877  503 mt  885  857 L
 885  857 mt  894 1211 L
 894 1211 mt  902 1566 L
 902 1566 mt  911 1920 L
 911 1920 mt  919 2274 L
 919 2274 mt  928 2629 L
 928 2629 mt  936 2983 L
 936 2983 mt  944 3337 L
 944 3337 mt  952 3692 L
/c25 { 0.812500 1.000000 0.187500 sr} bdef
c25
 826  503 mt  830  857 L
 830  857 mt  835 1211 L
 835 1211 mt  839 1566 L
 839 1566 mt  843 1920 L
 843 1920 mt  844 1967 L
 844 1967 mt  851 2274 L
 851 2274 mt  860 2629 L
 860 2629 mt  869 2983 L
 869 2983 mt  878 3337 L
 878 3337 mt  887 3692 L
/c26 { 0.937500 1.000000 0.062500 sr} bdef
c26
 794  503 mt  799  857 L
 799  857 mt  803 1211 L
 803 1211 mt  808 1566 L
 808 1566 mt  812 1920 L
 812 1920 mt  817 2274 L
 817 2274 mt  821 2629 L
 821 2629 mt  824 2914 L
 827 3106 mt  830 3337 L
 830 3337 mt  834 3692 L
/c27 { 1.000000 0.937500 0.000000 sr} bdef
c27
 762  503 mt  767  857 L
 767  857 mt  772 1211 L
 772 1211 mt  776 1566 L
 776 1566 mt  781 1920 L
 781 1920 mt  786 2274 L
 786 2274 mt  791 2629 L
 791 2629 mt  796 2983 L
 796 2983 mt  800 3337 L
 800 3337 mt  805 3692 L
/c28 { 1.000000 0.812500 0.000000 sr} bdef
c28
 729  503 mt  735  857 L
 735  857 mt  740 1211 L
 740 1211 mt  745 1566 L
 745 1566 mt  751 1920 L
 751 1920 mt  756 2274 L
 756 2274 mt  761 2629 L
 761 2629 mt  766 2983 L
 766 2983 mt  771 3337 L
 771 3337 mt  776 3692 L
/c29 { 1.000000 0.687500 0.000000 sr} bdef
c29
 697  503 mt  703  857 L
 703  857 mt  708 1211 L
 708 1211 mt  714 1566 L
 714 1566 mt  720 1920 L
 720 1920 mt  725 2274 L
 725 2274 mt  731 2629 L
 731 2629 mt  736 2983 L
 736 2983 mt  742 3337 L
 742 3337 mt  747 3692 L
/c30 { 1.000000 0.562500 0.000000 sr} bdef
c30
 665  503 mt  671  857 L
 671  857 mt  677 1211 L
 677 1211 mt  683 1566 L
 683 1566 mt  689 1920 L
 689 1920 mt  695 2274 L
 695 2274 mt  701 2629 L
 701 2629 mt  705 2914 L
 709 3106 mt  712 3337 L
 712 3337 mt  718 3692 L
/c31 { 1.000000 0.375000 0.000000 sr} bdef
c31
 632  503 mt  639  857 L
 639  857 mt  645 1211 L
 645 1211 mt  652 1566 L
 652 1566 mt  658 1920 L
 658 1920 mt  664 2274 L
 664 2274 mt  671 2629 L
 671 2629 mt  677 2983 L
 677 2983 mt  683 3337 L
 683 3337 mt  689 3692 L
/c32 { 1.000000 0.250000 0.000000 sr} bdef
c32
 600  503 mt  607  857 L
 607  857 mt  614 1211 L
 614 1211 mt  621 1566 L
 621 1566 mt  627 1920 L
 627 1920 mt  634 2274 L
 634 2274 mt  641 2629 L
 641 2629 mt  647 2983 L
 647 2983 mt  654 3337 L
 654 3337 mt  660 3692 L
/c33 { 1.000000 0.125000 0.000000 sr} bdef
c33
 568  503 mt  575  857 L
 575  857 mt  582 1211 L
 582 1211 mt  589 1566 L
 589 1566 mt  596 1920 L
 596 1920 mt  604 2274 L
 604 2274 mt  611 2629 L
 611 2629 mt  618 2983 L
 618 2983 mt  624 3337 L
 624 3337 mt  631 3692 L
/c34 { 1.000000 0.000000 0.000000 sr} bdef
c34
 535  503 mt  543  857 L
 543  857 mt  551 1211 L
 551 1211 mt  558 1566 L
 558 1566 mt  566 1920 L
 566 1920 mt  573 2274 L
 573 2274 mt  580 2629 L
 580 2629 mt  586 2914 L
 590 3106 mt  595 3337 L
 595 3337 mt  602 3692 L
/c35 { 0.875000 0.000000 0.000000 sr} bdef
c35
 503  503 mt  511  857 L
 511  857 mt  519 1211 L
 519 1211 mt  527 1566 L
 527 1566 mt  535 1920 L
 535 1920 mt  543 2274 L
 543 2274 mt  550 2629 L
 550 2629 mt  558 2983 L
 558 2983 mt  566 3337 L
 566 3337 mt  573 3692 L
/c36 { 0.750000 0.000000 0.000000 sr} bdef
c36
 544 3692 mt  536 3337 L
 536 3337 mt  528 2983 L
 528 2983 mt  520 2629 L
 520 2629 mt  512 2274 L
 512 2274 mt  504 1920 L
 504 1920 mt  496 1566 L
 496 1566 mt  487 1211 L
 487 1211 mt  480  877 L
/c37 { 0.625000 0.000000 0.000000 sr} bdef
c37
 515 3692 mt  507 3337 L
 507 3337 mt  499 2983 L
 499 2983 mt  490 2629 L
 490 2629 mt  482 2274 L
 482 2274 mt  480 2179 L
/c38 { 0.500000 0.000000 0.000000 sr} bdef
c38
 487 3692 mt  480 3404 L
0 sg
%%IncludeResource: font Helvetica
/Helvetica /ISOLatin1Encoding 120 FMSR

2834 2927 mt  -270 rotate
(1.7) s
270 rotate
1926 2927 mt  -270 rotate
(1.8) s
270 rotate
1374 2927 mt  -270 rotate
(1.9) s
270 rotate
1029 3037 mt  -270 rotate
(2) s
270 rotate
 784 2927 mt  -270 rotate
(2.1) s
270 rotate
 664 2927 mt  -270 rotate
(2.2) s
270 rotate
 545 2927 mt  -270 rotate
(2.3) s
270 rotate
gr

0 sg
%%IncludeResource: font Symbol
/Symbol /ISOLatin1Encoding 120 FMSR

2012 3949 mt 
(f) s
%%IncludeResource: font Symbol
/Symbol /ISOLatin1Encoding 96 FMSR

2074 4009 mt 
(D) s
%%IncludeResource: font Helvetica
/Helvetica /ISOLatin1Encoding 96 FMSR

2132 4009 mt 
( Y) s
%%IncludeResource: font Symbol
/Symbol /ISOLatin1Encoding 120 FMSR

  76 2161 mt  -90 rotate
(f) s
90 rotate
%%IncludeResource: font Helvetica
/Helvetica /ISOLatin1Encoding 96 FMSR

 136 2099 mt  -90 rotate
(V) s
90 rotate
%%IncludeResource: font Symbol
/Symbol /ISOLatin1Encoding 120 FMSR

2049  354 mt 
(s) s
%%IncludeResource: font Helvetica
/Helvetica /ISOLatin1Encoding 96 FMSR

2121  414 mt 
(Y) s
gs 480 503 3277 3190 rc
24 w
DO
 764  503 mt  769  857 L
 769  857 mt  774 1211 L
 774 1211 mt  779 1566 L
 779 1566 mt  784 1920 L
 784 1920 mt  789 2274 L
 789 2274 mt  794 2629 L
 794 2629 mt  798 2983 L
 798 2983 mt  803 3337 L
 803 3337 mt  807 3692 L
gr

24 w
DO
4 w
SO
6 w
 480 3692 mt 3756 3692 L
 480  503 mt 3756  503 L
 480 3692 mt  480  503 L
3756 3692 mt 3756  503 L
 480 3692 mt 3756 3692 L
 480 3692 mt  480  503 L
 480 3692 mt  480 3659 L
 480  503 mt  480  535 L
%%IncludeResource: font Helvetica
/Helvetica /ISOLatin1Encoding 120 FMSR

 447 3837 mt 
(0) s
1299 3692 mt 1299 3659 L
1299  503 mt 1299  535 L
1216 3837 mt 
(0.5) s
2118 3692 mt 2118 3659 L
2118  503 mt 2118  535 L
2085 3837 mt 
(1) s
2937 3692 mt 2937 3659 L
2937  503 mt 2937  535 L
2854 3837 mt 
(1.5) s
3756 3692 mt 3756 3659 L
3756  503 mt 3756  535 L
3723 3837 mt 
(2) s
 480 3692 mt  512 3692 L
3756 3692 mt 3723 3692 L
 379 3736 mt 
(0) s
 480 3373 mt  512 3373 L
3756 3373 mt 3723 3373 L
 212 3417 mt 
(0.05) s
 480 3054 mt  512 3054 L
3756 3054 mt 3723 3054 L
 279 3098 mt 
(0.1) s
 480 2735 mt  512 2735 L
3756 2735 mt 3723 2735 L
 212 2779 mt 
(0.15) s
 480 2416 mt  512 2416 L
3756 2416 mt 3723 2416 L
 279 2460 mt 
(0.2) s
 480 2097 mt  512 2097 L
3756 2097 mt 3723 2097 L
 212 2141 mt 
(0.25) s
 480 1778 mt  512 1778 L
3756 1778 mt 3723 1778 L
 279 1822 mt 
(0.3) s
 480 1459 mt  512 1459 L
3756 1459 mt 3723 1459 L
 212 1503 mt 
(0.35) s
 480 1140 mt  512 1140 L
3756 1140 mt 3723 1140 L
 279 1184 mt 
(0.4) s
 480  821 mt  512  821 L
3756  821 mt 3723  821 L
 212  865 mt 
(0.45) s
 480  503 mt  512  503 L
3756  503 mt 3723  503 L
 279  547 mt 
(0.5) s
 480 3692 mt 3756 3692 L
 480  503 mt 3756  503 L
 480 3692 mt  480  503 L
3756 3692 mt 3756  503 L
1 sg
0 3189 3276 0 0 -3189 4356 3692 4 MP
PP
-3276 0 0 3189 3276 0 0 -3189 4356 3692 5 MP stroke
gs 4356 503 3277 3190 rc
c8
4490 3692 mt 4356 3678 L
c9
5064 3692 mt 4720 3557 L
4720 3557 mt 4356 3556 L
c10
5597 3692 mt 5448 3603 L
5448 3603 mt 5084 3452 L
5084 3452 mt 4720 3393 L
4720 3393 mt 4356 3434 L
/c39 { 0.000000 0.000000 1.000000 sr} bdef
c39
6261 3692 mt 6176 3617 L
6176 3617 mt 5812 3376 L
5812 3376 mt 5726 3337 L
5726 3337 mt 5448 3292 L
5448 3292 mt 5288 3276 L
4753 3252 mt 4720 3251 L
4720 3251 mt 4356 3313 L
/c40 { 0.000000 0.125000 1.000000 sr} bdef
c40
7067 3692 mt 6904 3483 L
6904 3483 mt 6766 3337 L
6766 3337 mt 6540 3280 L
6540 3280 mt 6176 3205 L
6176 3205 mt 5812 3151 L
5812 3151 mt 5448 3117 L
5448 3117 mt 5084 3105 L
5084 3105 mt 4720 3122 L
4720 3122 mt 4356 3200 L
/c41 { 0.000000 0.250000 1.000000 sr} bdef
c41
4356 3087 mt 4720 2992 L
4720 2992 mt 4816 2983 L
4816 2983 mt 5084 2956 L
5084 2956 mt 5448 2947 L
5448 2947 mt 5812 2954 L
5812 2954 mt 6176 2974 L
6176 2974 mt 6279 2983 L
6279 2983 mt 6540 3014 L
6540 3014 mt 6904 3075 L
6904 3075 mt 7268 3156 L
7268 3156 mt 7632 3260 L
c15
4356 2974 mt 4720 2865 L
4720 2865 mt 5084 2816 L
5084 2816 mt 5448 2793 L
5448 2793 mt 5812 2787 L
5812 2787 mt 6176 2793 L
6176 2793 mt 6540 2809 L
6540 2809 mt 6904 2835 L
6904 2835 mt 7268 2870 L
7268 2870 mt 7632 2914 L
/c42 { 0.000000 0.562500 1.000000 sr} bdef
c42
4356 2862 mt 4720 2737 L
4720 2737 mt 5084 2675 L
5084 2675 mt 5448 2640 L
5448 2640 mt 5667 2629 L
5667 2629 mt 5812 2621 L
5812 2621 mt 6176 2613 L
6176 2613 mt 6540 2614 L
6540 2614 mt 6613 2616 L
7018 2627 mt 7052 2629 L
7052 2629 mt 7268 2639 L
7268 2639 mt 7632 2665 L
/c43 { 0.000000 0.687500 1.000000 sr} bdef
c43
4356 2749 mt 4676 2629 L
4676 2629 mt 4720 2610 L
4720 2610 mt 5084 2537 L
5084 2537 mt 5448 2493 L
5448 2493 mt 5812 2464 L
5812 2464 mt 6176 2447 L
6176 2447 mt 6540 2438 L
6540 2438 mt 6904 2437 L
6904 2437 mt 7268 2441 L
7268 2441 mt 7632 2451 L
c18
4356 2636 mt 4375 2629 L
4375 2629 mt 4720 2483 L
4720 2483 mt 5084 2400 L
5084 2400 mt 5448 2346 L
5448 2346 mt 5812 2308 L
5812 2308 mt 6176 2281 L
6176 2281 mt 6321 2274 L
6321 2274 mt 6540 2263 L
6540 2263 mt 6904 2252 L
6904 2252 mt 7268 2247 L
7268 2247 mt 7632 2247 L
c19
4356 2523 mt 4720 2357 L
4720 2357 mt 5041 2274 L
5041 2274 mt 5084 2263 L
5084 2263 mt 5448 2200 L
5448 2200 mt 5812 2155 L
5812 2155 mt 6176 2122 L
6176 2122 mt 6540 2097 L
6540 2097 mt 6904 2078 L
6904 2078 mt 7268 2065 L
7268 2065 mt 7632 2057 L
/c44 { 0.187500 1.000000 0.812500 sr} bdef
c44
4356 2410 mt 4638 2274 L
4638 2274 mt 4720 2230 L
4720 2230 mt 5084 2126 L
5084 2126 mt 5448 2056 L
5448 2056 mt 5812 2003 L
5812 2003 mt 6176 1962 L
6176 1962 mt 6453 1938 L
6987 1900 mt 7268 1885 L
7268 1885 mt 7632 1870 L
/c45 { 0.312500 1.000000 0.687500 sr} bdef
c45
4356 2297 mt 4402 2274 L
4402 2274 mt 4720 2103 L
4720 2103 mt 5084 1990 L
5084 1990 mt 5409 1920 L
5409 1920 mt 5448 1911 L
5448 1911 mt 5812 1852 L
5812 1852 mt 6176 1805 L
6176 1805 mt 6540 1768 L
6540 1768 mt 6904 1737 L
6904 1737 mt 7268 1711 L
7268 1711 mt 7632 1690 L
/c46 { 0.437500 1.000000 0.562500 sr} bdef
c46
4356 2183 mt 4720 1977 L
4720 1977 mt 4894 1920 L
4894 1920 mt 5084 1854 L
5084 1854 mt 5448 1768 L
5448 1768 mt 5812 1702 L
5812 1702 mt 6176 1649 L
6176 1649 mt 6540 1606 L
6540 1606 mt 6904 1569 L
6904 1569 mt 6942 1566 L
6942 1566 mt 7268 1538 L
7268 1538 mt 7632 1512 L
/c47 { 0.625000 1.000000 0.375000 sr} bdef
c47
4356 2070 mt 4612 1920 L
4612 1920 mt 4720 1850 L
4720 1850 mt 5084 1718 L
5084 1718 mt 5448 1625 L
5448 1625 mt 5748 1566 L
5748 1566 mt 5812 1553 L
5812 1553 mt 6176 1494 L
6176 1494 mt 6540 1446 L
6540 1446 mt 6904 1404 L
6904 1404 mt 7268 1368 L
7268 1368 mt 7632 1337 L
/c48 { 0.750000 1.000000 0.250000 sr} bdef
c48
4356 1956 mt 4418 1920 L
4418 1920 mt 4720 1723 L
4720 1723 mt 5084 1582 L
5084 1582 mt 5148 1566 L
5148 1566 mt 5448 1482 L
5448 1482 mt 5812 1404 L
5812 1404 mt 6176 1340 L
6176 1340 mt 6540 1286 L
6540 1286 mt 6563 1283 L
6954 1234 mt 7158 1211 L
7158 1211 mt 7268 1199 L
7268 1199 mt 7632 1163 L
/c49 { 0.875000 1.000000 0.125000 sr} bdef
c49
4356 1843 mt 4720 1596 L
4720 1596 mt 4799 1566 L
4799 1566 mt 5084 1447 L
5084 1447 mt 5448 1340 L
5448 1340 mt 5812 1256 L
5812 1256 mt 6047 1211 L
6047 1211 mt 6176 1186 L
6176 1186 mt 6540 1128 L
6540 1128 mt 6904 1077 L
6904 1077 mt 7268 1032 L
7268 1032 mt 7632  992 L
c27
4356 1729 mt 4594 1566 L
4594 1566 mt 4720 1470 L
4720 1470 mt 5084 1311 L
5084 1311 mt 5405 1211 L
5405 1211 mt 5448 1197 L
5448 1197 mt 5812 1108 L
5812 1108 mt 6176 1033 L
6176 1033 mt 6540  970 L
6540  970 mt 6904  915 L
6904  915 mt 7268  865 L
7268  865 mt 7336  857 L
7336  857 mt 7632  821 L
c28
4356 1615 mt 4427 1566 L
4427 1566 mt 4720 1343 L
4720 1343 mt 5010 1211 L
5010 1211 mt 5084 1176 L
5084 1176 mt 5448 1055 L
5448 1055 mt 5812  960 L
5812  960 mt 6176  881 L
6176  881 mt 6305  857 L
6305  857 mt 6540  813 L
6540  813 mt 6904  753 L
6904  753 mt 7268  700 L
7268  700 mt 7632  652 L
/c50 { 1.000000 0.625000 0.000000 sr} bdef
c50
7497  503 mt 7268  535 L
7268  535 mt 6904  592 L
6904  592 mt 6540  656 L
6540  656 mt 6176  728 L
6176  728 mt 5812  812 L
5812  812 mt 5654  857 L
5654  857 mt 5448  913 L
5448  913 mt 5099 1035 L
4721 1215 mt 4720 1216 L
4720 1216 mt 4356 1500 L
/c51 { 1.000000 0.500000 0.000000 sr} bdef
c51
6526  503 mt 6176  576 L
6176  576 mt 5812  665 L
5812  665 mt 5448  771 L
5448  771 mt 5218  857 L
5218  857 mt 5084  905 L
5084  905 mt 4720 1089 L
4720 1089 mt 4579 1211 L
4579 1211 mt 4356 1386 L
c31
5873  503 mt 5812  518 L
5812  518 mt 5448  630 L
5448  630 mt 5084  770 L
5084  770 mt 4924  857 L
4924  857 mt 4720  961 L
4720  961 mt 4433 1211 L
4433 1211 mt 4356 1272 L
/c52 { 1.000000 0.187500 0.000000 sr} bdef
c52
5412  503 mt 5084  634 L
5084  634 mt 4720  834 L
4720  834 mt 4696  857 L
4696  857 mt 4356 1157 L
/c53 { 1.000000 0.062500 0.000000 sr} bdef
c53
5077  503 mt 4720  707 L
4720  707 mt 4652  773 L
4469  942 mt 4356 1042 L
/c54 { 0.937500 0.000000 0.000000 sr} bdef
c54
4854  503 mt 4720  580 L
4720  580 mt 4435  857 L
4435  857 mt 4356  927 L
c36
4673  503 mt 4356  812 L
c37
4555  503 mt 4356  697 L
c38
4436  503 mt 4356  582 L
0 sg
4900 3289 mt  -354 rotate
(0.05) s
354 rotate
6731 2658 mt  -356 rotate
(0.1) s
356 rotate
6611 1977 mt  -8 rotate
(0.15) s
8 rotate
6689 1320 mt  -15 rotate
(0.2) s
15 rotate
4857 1238 mt  -45 rotate
(0.25) s
45 rotate
4562  951 mt  -63 rotate
(0.3) s
63 rotate
gr

0 sg
%%IncludeResource: font Symbol
/Symbol /ISOLatin1Encoding 120 FMSR

5888 3949 mt 
(f) s
%%IncludeResource: font Symbol
/Symbol /ISOLatin1Encoding 96 FMSR

5950 4009 mt 
(D) s
%%IncludeResource: font Helvetica
/Helvetica /ISOLatin1Encoding 96 FMSR

6008 4009 mt 
( Y) s
%%IncludeResource: font Symbol
/Symbol /ISOLatin1Encoding 120 FMSR

3952 2161 mt  -90 rotate
(f) s
90 rotate
%%IncludeResource: font Helvetica
/Helvetica /ISOLatin1Encoding 96 FMSR

4012 2099 mt  -90 rotate
(V) s
90 rotate
%%IncludeResource: font Symbol
/Symbol /ISOLatin1Encoding 120 FMSR

5931  347 mt 
(s) s
%%IncludeResource: font Symbol
/Symbol /ISOLatin1Encoding 96 FMSR

6003  407 mt 
(p) s
4 w
DO
SO
6 w
4356 3692 mt 7632 3692 L
4356  503 mt 7632  503 L
4356 3692 mt 4356  503 L
7632 3692 mt 7632  503 L
4356 3692 mt 7632 3692 L
4356 3692 mt 4356  503 L
4356 3692 mt 4356 3659 L
4356  503 mt 4356  535 L
%%IncludeResource: font Helvetica
/Helvetica /ISOLatin1Encoding 120 FMSR

4323 3837 mt 
(0) s
5175 3692 mt 5175 3659 L
5175  503 mt 5175  535 L
5092 3837 mt 
(0.5) s
5994 3692 mt 5994 3659 L
5994  503 mt 5994  535 L
5961 3837 mt 
(1) s
6813 3692 mt 6813 3659 L
6813  503 mt 6813  535 L
6730 3837 mt 
(1.5) s
7632 3692 mt 7632 3659 L
7632  503 mt 7632  535 L
7599 3837 mt 
(2) s
4356 3692 mt 4388 3692 L
7632 3692 mt 7599 3692 L
4255 3736 mt 
(0) s
4356 3373 mt 4388 3373 L
7632 3373 mt 7599 3373 L
4088 3417 mt 
(0.05) s
4356 3054 mt 4388 3054 L
7632 3054 mt 7599 3054 L
4155 3098 mt 
(0.1) s
4356 2735 mt 4388 2735 L
7632 2735 mt 7599 2735 L
4088 2779 mt 
(0.15) s
4356 2416 mt 4388 2416 L
7632 2416 mt 7599 2416 L
4155 2460 mt 
(0.2) s
4356 2097 mt 4388 2097 L
7632 2097 mt 7599 2097 L
4088 2141 mt 
(0.25) s
4356 1778 mt 4388 1778 L
7632 1778 mt 7599 1778 L
4155 1822 mt 
(0.3) s
4356 1459 mt 4388 1459 L
7632 1459 mt 7599 1459 L
4088 1503 mt 
(0.35) s
4356 1140 mt 4388 1140 L
7632 1140 mt 7599 1140 L
4155 1184 mt 
(0.4) s
4356  821 mt 4388  821 L
7632  821 mt 7599  821 L
4088  865 mt 
(0.45) s
4356  503 mt 4388  503 L
7632  503 mt 7599  503 L
4155  547 mt 
(0.5) s
4356 3692 mt 7632 3692 L
4356  503 mt 7632  503 L
4356 3692 mt 4356  503 L
7632 3692 mt 7632  503 L
1 sg
0 3189 3276 0 0 -3189 8232 3692 4 MP
PP
-3276 0 0 3189 3276 0 0 -3189 8232 3692 5 MP stroke
gs 8232 503 3277 3190 rc
c8
9270 3692 mt 9324 3644 L
9324 3644 mt 9688 3446 L
9688 3446 mt 9978 3337 L
9978 3337 mt 10052 3326 L
10052 3326 mt 10416 3293 L
10416 3293 mt 10780 3275 L
10780 3275 mt 11144 3270 L
11144 3270 mt 11508 3279 L
/c55 { 0.000000 0.000000 0.625000 sr} bdef
c55
8590 3692 mt 8596 3666 L
8596 3666 mt 8802 3337 L
8802 3337 mt 8960 3227 L
8960 3227 mt 9324 3076 L
9324 3076 mt 9639 2983 L
9639 2983 mt 9688 2973 L
9688 2973 mt 10052 2923 L
10052 2923 mt 10416 2884 L
10416 2884 mt 10780 2856 L
10780 2856 mt 11144 2836 L
11144 2836 mt 11508 2823 L
/c56 { 0.000000 0.000000 0.750000 sr} bdef
c56
8418 3692 mt 8500 3337 L
8500 3337 mt 8596 3163 L
8596 3163 mt 8842 2983 L
8842 2983 mt 8960 2922 L
8960 2922 mt 9324 2807 L
9324 2807 mt 9688 2721 L
9688 2721 mt 10052 2653 L
10052 2653 mt 10216 2629 L
10216 2629 mt 10416 2606 L
10416 2606 mt 10780 2574 L
10780 2574 mt 11144 2549 L
11144 2549 mt 11508 2529 L
c10
8247 3692 mt 8336 3337 L
8336 3337 mt 8537 2983 L
8537 2983 mt 8596 2909 L
8596 2909 mt 8960 2710 L
8960 2710 mt 9185 2629 L
9185 2629 mt 9324 2589 L
9324 2589 mt 9688 2513 L
9688 2513 mt 10052 2451 L
10052 2451 mt 10086 2447 L
10614 2377 mt 10780 2358 L
10780 2358 mt 11144 2322 L
11144 2322 mt 11508 2292 L
c11
8232 3248 mt 8391 2983 L
8391 2983 mt 8596 2723 L
8596 2723 mt 8759 2629 L
8759 2629 mt 8960 2534 L
8960 2534 mt 9324 2420 L
9324 2420 mt 9688 2330 L
9688 2330 mt 9970 2274 L
9970 2274 mt 10052 2261 L
10052 2261 mt 10416 2212 L
10416 2212 mt 10780 2171 L
10780 2171 mt 11144 2135 L
11144 2135 mt 11508 2104 L
c12
8232 3005 mt 8245 2983 L
8245 2983 mt 8534 2629 L
8534 2629 mt 8596 2562 L
8596 2562 mt 8960 2380 L
8960 2380 mt 9262 2274 L
9262 2274 mt 9324 2256 L
9324 2256 mt 9688 2175 L
9688 2175 mt 10052 2109 L
10052 2109 mt 10416 2052 L
10416 2052 mt 10780 2002 L
10780 2002 mt 11144 1958 L
11144 1958 mt 11507 1920 L
11507 1920 mt 11508 1920 L
c40
8232 2847 mt 8411 2629 L
8411 2629 mt 8596 2426 L
8596 2426 mt 8880 2274 L
8880 2274 mt 8960 2236 L
8960 2236 mt 9324 2123 L
9324 2123 mt 9688 2033 L
9688 2033 mt 10052 1957 L
10052 1957 mt 10262 1920 L
10262 1920 mt 10416 1896 L
10416 1896 mt 10780 1849 L
10780 1849 mt 11144 1807 L
11144 1807 mt 11508 1770 L
c41
8232 2697 mt 8288 2629 L
8288 2629 mt 8596 2291 L
8596 2291 mt 8627 2274 L
8627 2274 mt 8960 2115 L
8960 2115 mt 9324 1990 L
9324 1990 mt 9585 1920 L
9585 1920 mt 9688 1895 L
9688 1895 mt 10052 1826 L
10052 1826 mt 10241 1794 L
10762 1714 mt 10780 1711 L
10780 1711 mt 11144 1663 L
11144 1663 mt 11508 1620 L
/c57 { 0.000000 0.375000 1.000000 sr} bdef
c57
8232 2569 mt 8507 2274 L
8507 2274 mt 8596 2181 L
8596 2181 mt 8960 1994 L
8960 1994 mt 9166 1920 L
9166 1920 mt 9324 1869 L
9324 1869 mt 9688 1778 L
9688 1778 mt 10052 1701 L
10052 1701 mt 10416 1633 L
10416 1633 mt 10780 1573 L
10780 1573 mt 10834 1566 L
10834 1566 mt 11144 1526 L
11144 1526 mt 11508 1485 L
c15
8232 2460 mt 8405 2274 L
8405 2274 mt 8596 2075 L
8596 2075 mt 8884 1920 L
8884 1920 mt 8960 1882 L
8960 1882 mt 9324 1760 L
9324 1760 mt 9688 1661 L
9688 1661 mt 10052 1576 L
10052 1576 mt 10107 1566 L
10107 1566 mt 10416 1512 L
10416 1512 mt 10780 1455 L
10780 1455 mt 11144 1404 L
11144 1404 mt 11508 1358 L
c42
8232 2351 mt 8304 2274 L
8304 2274 mt 8596 1968 L
8596 1968 mt 8686 1920 L
8686 1920 mt 8960 1782 L
8960 1782 mt 9324 1651 L
9324 1651 mt 9617 1566 L
9617 1566 mt 9688 1547 L
9688 1547 mt 10052 1469 L
10052 1469 mt 10416 1400 L
10416 1400 mt 10780 1339 L
10780 1339 mt 11144 1283 L
11144 1283 mt 11508 1231 L
c43
8232 2249 mt 8550 1920 L
8550 1920 mt 8596 1872 L
8596 1872 mt 8960 1682 L
8960 1682 mt 9266 1566 L
9266 1566 mt 9324 1545 L
9324 1545 mt 9688 1447 L
9688 1447 mt 10052 1363 L
10052 1363 mt 10257 1321 L
10765 1225 mt 10780 1222 L
10780 1222 mt 10846 1211 L
10846 1211 mt 11144 1168 L
11144 1168 mt 11508 1119 L
c17
8232 2163 mt 8467 1920 L
8467 1920 mt 8596 1785 L
8596 1785 mt 8960 1583 L
8960 1583 mt 9005 1566 L
9005 1566 mt 9324 1452 L
9324 1452 mt 9688 1348 L
9688 1348 mt 10052 1257 L
10052 1257 mt 10267 1211 L
10267 1211 mt 10416 1182 L
10416 1182 mt 10780 1119 L
10780 1119 mt 11144 1062 L
11144 1062 mt 11508 1009 L
c18
8232 2078 mt 8384 1920 L
8384 1920 mt 8596 1697 L
8596 1697 mt 8830 1566 L
8830 1566 mt 8960 1496 L
8960 1496 mt 9324 1360 L
9324 1360 mt 9688 1248 L
9688 1248 mt 9832 1211 L
9832 1211 mt 10052 1160 L
10052 1160 mt 10416 1085 L
10416 1085 mt 10780 1018 L
10780 1018 mt 11144  957 L
11144  957 mt 11508  900 L
/c58 { 0.000000 0.937500 1.000000 sr} bdef
c58
8232 1992 mt 8301 1920 L
8301 1920 mt 8596 1609 L
8596 1609 mt 8673 1566 L
8673 1566 mt 8960 1411 L
8960 1411 mt 9324 1267 L
9324 1267 mt 9501 1211 L
9501 1211 mt 9688 1157 L
9688 1157 mt 10052 1068 L
10052 1068 mt 10416  989 L
10416  989 mt 10780  917 L
10780  917 mt 11113  857 L
11113  857 mt 11144  852 L
11144  852 mt 11508  798 L
/c59 { 0.062500 1.000000 0.937500 sr} bdef
c59
8232 1909 mt 8561 1566 L
8561 1566 mt 8596 1528 L
8596 1528 mt 8960 1326 L
8960 1326 mt 9241 1211 L
9241 1211 mt 9324 1179 L
9324 1179 mt 9688 1070 L
9688 1070 mt 10052  976 L
10052  976 mt 10259  928 L
10760  824 mt 10780  821 L
10780  821 mt 11144  759 L
11144  759 mt 11508  701 L
c44
8232 1838 mt 8493 1566 L
8493 1566 mt 8596 1453 L
8596 1453 mt 8960 1241 L
8960 1241 mt 9033 1211 L
9033 1211 mt 9324 1098 L
9324 1098 mt 9688  984 L
9688  984 mt 10052  884 L
10052  884 mt 10168  857 L
10168  857 mt 10416  803 L
10416  803 mt 10780  731 L
10780  731 mt 11144  666 L
11144  666 mt 11508  605 L
c21
8232 1767 mt 8425 1566 L
8425 1566 mt 8596 1378 L
8596 1378 mt 8878 1211 L
8878 1211 mt 8960 1164 L
8960 1164 mt 9324 1018 L
9324 1018 mt 9688  897 L
9688  897 mt 9833  857 L
9833  857 mt 10052  800 L
10052  800 mt 10416  717 L
10416  717 mt 10780  642 L
10780  642 mt 11144  573 L
11144  573 mt 11508  508 L
c22
11034  503 mt 10780  553 L
10780  553 mt 10416  632 L
10416  632 mt 10052  719 L
10052  719 mt 9688  816 L
9688  816 mt 9561  857 L
9561  857 mt 9324  937 L
9324  937 mt 8960 1090 L
8960 1090 mt 8752 1211 L
8752 1211 mt 8596 1304 L
8596 1304 mt 8357 1566 L
8357 1566 mt 8232 1696 L
/c60 { 0.500000 1.000000 0.500000 sr} bdef
c60
10614  503 mt 10416  547 L
10416  547 mt 10052  638 L
10052  638 mt 9688  740 L
9688  740 mt 9324  857 L
9324  857 mt 9323  857 L
9323  857 mt 8960 1016 L
8960 1016 mt 8674 1183 L
8484 1352 mt 8289 1566 L
8289 1566 mt 8232 1625 L
c23
10263  503 mt 10052  557 L
10052  557 mt 9688  663 L
9688  663 mt 9324  785 L
9324  785 mt 9155  857 L
9155  857 mt 8960  942 L
8960  942 mt 8596 1162 L
8596 1162 mt 8553 1211 L
8553 1211 mt 8232 1556 L
c24
9967  503 mt 9688  587 L
9688  587 mt 9324  714 L
9324  714 mt 8986  857 L
8986  857 mt 8960  869 L
8960  869 mt 8596 1096 L
8596 1096 mt 8496 1211 L
8496 1211 mt 8232 1495 L
c25
9713  503 mt 9688  510 L
9688  510 mt 9324  643 L
9324  643 mt 8960  802 L
8960  802 mt 8873  857 L
8873  857 mt 8596 1031 L
8596 1031 mt 8440 1211 L
8440 1211 mt 8232 1435 L
c49
9512  503 mt 9324  571 L
9324  571 mt 8960  737 L
8960  737 mt 8769  857 L
8769  857 mt 8603  961 L
8395 1198 mt 8383 1211 L
8383 1211 mt 8232 1374 L
/c61 { 1.000000 1.000000 0.000000 sr} bdef
c61
9318  503 mt 8960  671 L
8960  671 mt 8666  857 L
8666  857 mt 8596  901 L
8596  901 mt 8327 1211 L
8327 1211 mt 8232 1314 L
/c62 { 1.000000 0.875000 0.000000 sr} bdef
c62
9179  503 mt 8960  606 L
8960  606 mt 8596  838 L
8596  838 mt 8580  857 L
8580  857 mt 8271 1211 L
8271 1211 mt 8232 1253 L
c28
9041  503 mt 8960  541 L
8960  541 mt 8596  780 L
8596  780 mt 8533  857 L
8533  857 mt 8232 1195 L
c29
8924  503 mt 8596  723 L
8596  723 mt 8542  788 L
8336 1025 mt 8232 1142 L
c50
8838  503 mt 8596  665 L
8596  665 mt 8439  857 L
8439  857 mt 8232 1089 L
c51
8751  503 mt 8596  607 L
8596  607 mt 8391  857 L
8391  857 mt 8232 1036 L
c31
8665  503 mt 8596  549 L
8596  549 mt 8344  857 L
8344  857 mt 8232  983 L
/c63 { 1.000000 0.312500 0.000000 sr} bdef
c63
8588  503 mt 8297  857 L
8297  857 mt 8232  930 L
c52
8548  503 mt 8250  857 L
8250  857 mt 8232  877 L
c53
8508  503 mt 8232  828 L
c34
8468  503 mt 8232  781 L
c35
8428  503 mt 8232  734 L
c36
8388  503 mt 8232  687 L
/c64 { 0.687500 0.000000 0.000000 sr} bdef
c64
8348  503 mt 8232  640 L
/c65 { 0.562500 0.000000 0.000000 sr} bdef
c65
8308  503 mt 8232  593 L
c38
8268  503 mt 8232  546 L
0 sg
10248 2483 mt  -15 rotate
(0.02) s
15 rotate
10403 1830 mt  -18 rotate
(0.04) s
18 rotate
10418 1355 mt  -22 rotate
(0.06) s
22 rotate
10418  961 mt  -23 rotate
(0.08) s
23 rotate
8570 1358 mt  -62 rotate
(0.1) s
62 rotate
8492 1203 mt  -67 rotate
(0.12) s
67 rotate
8435 1031 mt  -67 rotate
(0.14) s
67 rotate
gr

0 sg
%%IncludeResource: font Symbol
/Symbol /ISOLatin1Encoding 120 FMSR

9764 3949 mt 
(f) s
%%IncludeResource: font Symbol
/Symbol /ISOLatin1Encoding 96 FMSR

9826 4009 mt 
(D) s
%%IncludeResource: font Helvetica
/Helvetica /ISOLatin1Encoding 96 FMSR

9884 4009 mt 
( Y) s
%%IncludeResource: font Symbol
/Symbol /ISOLatin1Encoding 120 FMSR

7828 2161 mt  -90 rotate
(f) s
90 rotate
%%IncludeResource: font Helvetica
/Helvetica /ISOLatin1Encoding 96 FMSR

7888 2099 mt  -90 rotate
(V) s
90 rotate
%%IncludeResource: font Helvetica
/Helvetica /ISOLatin1Encoding 120 FMSR

9762  408 mt 
(loss) s
gs 8232 503 3277 3190 rc
24 w
DO
8514 3692 mt 8592 3337 L
8592 3337 mt 8596 3331 L
8596 3331 mt 8960 3076 L
8960 3076 mt 9172 2983 L
9172 2983 mt 9324 2938 L
9324 2938 mt 9688 2862 L
9688 2862 mt 10052 2804 L
10052 2804 mt 10416 2758 L
10416 2758 mt 10780 2722 L
10780 2722 mt 11144 2695 L
11144 2695 mt 11508 2676 L
SO
6 w
gr

  30   30 10780 3692 PO
  30   30 10780 3692 FO
gs 8232 503 3277 3190 rc
gr

4 w
DO
SO
6 w
8232 3692 mt 11508 3692 L
8232  503 mt 11508  503 L
8232 3692 mt 8232  503 L
11508 3692 mt 11508  503 L
8232 3692 mt 11508 3692 L
8232 3692 mt 8232  503 L
8232 3692 mt 8232 3659 L
8232  503 mt 8232  535 L
8199 3837 mt 
(0) s
9051 3692 mt 9051 3659 L
9051  503 mt 9051  535 L
8968 3837 mt 
(0.5) s
9870 3692 mt 9870 3659 L
9870  503 mt 9870  535 L
9837 3837 mt 
(1) s
10689 3692 mt 10689 3659 L
10689  503 mt 10689  535 L
10606 3837 mt 
(1.5) s
11508 3692 mt 11508 3659 L
11508  503 mt 11508  535 L
11475 3837 mt 
(2) s
8232 3692 mt 8264 3692 L
11508 3692 mt 11475 3692 L
8131 3736 mt 
(0) s
8232 3373 mt 8264 3373 L
11508 3373 mt 11475 3373 L
7964 3417 mt 
(0.05) s
8232 3054 mt 8264 3054 L
11508 3054 mt 11475 3054 L
8031 3098 mt 
(0.1) s
8232 2735 mt 8264 2735 L
11508 2735 mt 11475 2735 L
7964 2779 mt 
(0.15) s
8232 2416 mt 8264 2416 L
11508 2416 mt 11475 2416 L
8031 2460 mt 
(0.2) s
8232 2097 mt 8264 2097 L
11508 2097 mt 11475 2097 L
7964 2141 mt 
(0.25) s
8232 1778 mt 8264 1778 L
11508 1778 mt 11475 1778 L
8031 1822 mt 
(0.3) s
8232 1459 mt 8264 1459 L
11508 1459 mt 11475 1459 L
7964 1503 mt 
(0.35) s
8232 1140 mt 8264 1140 L
11508 1140 mt 11475 1140 L
8031 1184 mt 
(0.4) s
8232  821 mt 8264  821 L
11508  821 mt 11475  821 L
7964  865 mt 
(0.45) s
8232  503 mt 8264  503 L
11508  503 mt 11475  503 L
8031  547 mt 
(0.5) s
8232 3692 mt 11508 3692 L
8232  503 mt 11508  503 L
8232 3692 mt 8232  503 L
11508 3692 mt 11508  503 L

end %%Color Dict

eplot
%%EndObject

epage
end

showpage

%%Trailer
%%EOF
