%!PS-Adobe-3.0 EPSF-3.0
%%Creator: MATLAB, The MathWorks, Inc. Version 7.14.0.739 (R2012a). Operating System: Darwin 13.3.0 Darwin Kernel Version 13.3.0: Tue Jun  3 21:27:35 PDT 2014; root:xnu-2422.110.17~1/RELEASE_X86_64 x86_64.
%%Title: /Users/fckw/Dropbox/PhD/jmp/policymetrics_learn.eps
%%CreationDate: 08/21/2014  00:31:45
%%DocumentNeededFonts: Helvetica
%%DocumentProcessColors: Cyan Magenta Yellow Black
%%LanguageLevel: 2
%%Pages: 1
%%BoundingBox:  -193   221   806   571
%%EndComments

%%BeginProlog
% MathWorks dictionary
/MathWorks 160 dict begin
% definition operators
/bdef {bind def} bind def
/ldef {load def} bind def
/xdef {exch def} bdef
/xstore {exch store} bdef
% operator abbreviations
/c  /clip ldef
/cc /concat ldef
/cp /closepath ldef
/gr /grestore ldef
/gs /gsave ldef
/mt /moveto ldef
/np /newpath ldef
/cm /currentmatrix ldef
/sm /setmatrix ldef
/rm /rmoveto ldef
/rl /rlineto ldef
/s {show newpath} bdef
/sc {setcmykcolor} bdef
/sr /setrgbcolor ldef
/sg /setgray ldef
/w /setlinewidth ldef
/j /setlinejoin ldef
/cap /setlinecap ldef
/rc {rectclip} bdef
/rf {rectfill} bdef
% page state control
/pgsv () def
/bpage {/pgsv save def} bdef
/epage {pgsv restore} bdef
/bplot /gsave ldef
/eplot {stroke grestore} bdef
% orientation switch
/portraitMode 0 def /landscapeMode 1 def /rotateMode 2 def
% coordinate system mappings
/dpi2point 0 def
% font control
/FontSize 0 def
/FMS {/FontSize xstore findfont [FontSize 0 0 FontSize neg 0 0]
  makefont setfont} bdef
/reencode {exch dup where {pop load} {pop StandardEncoding} ifelse
  exch dup 3 1 roll findfont dup length dict begin
  { 1 index /FID ne {def}{pop pop} ifelse } forall
  /Encoding exch def currentdict end definefont pop} bdef
/isroman {findfont /CharStrings get /Agrave known} bdef
/FMSR {3 1 roll 1 index dup isroman {reencode} {pop pop} ifelse
  exch FMS} bdef
/csm {1 dpi2point div -1 dpi2point div scale neg translate
 dup landscapeMode eq {pop -90 rotate}
  {rotateMode eq {90 rotate} if} ifelse} bdef
% line types: solid, dotted, dashed, dotdash
/SO { [] 0 setdash } bdef
/DO { [.5 dpi2point mul 4 dpi2point mul] 0 setdash } bdef
/DA { [6 dpi2point mul] 0 setdash } bdef
/DD { [.5 dpi2point mul 4 dpi2point mul 6 dpi2point mul 4
  dpi2point mul] 0 setdash } bdef
% macros for lines and objects
/L {lineto stroke} bdef
/MP {3 1 roll moveto 1 sub {rlineto} repeat} bdef
/AP {{rlineto} repeat} bdef
/PDlw -1 def
/W {/PDlw currentlinewidth def setlinewidth} def
/PP {closepath eofill} bdef
/DP {closepath stroke} bdef
/MR {4 -2 roll moveto dup  0 exch rlineto exch 0 rlineto
  neg 0 exch rlineto closepath} bdef
/FR {MR stroke} bdef
/PR {MR fill} bdef
/L1i {{currentfile picstr readhexstring pop} image} bdef
/tMatrix matrix def
/MakeOval {newpath tMatrix currentmatrix pop translate scale
0 0 1 0 360 arc tMatrix setmatrix} bdef
/FO {MakeOval stroke} bdef
/PO {MakeOval fill} bdef
/PD {currentlinewidth 2 div 0 360 arc fill
   PDlw -1 eq not {PDlw w /PDlw -1 def} if} def
/FA {newpath tMatrix currentmatrix pop translate scale
  0 0 1 5 -2 roll arc tMatrix setmatrix stroke} bdef
/PA {newpath tMatrix currentmatrix pop	translate 0 0 moveto scale
  0 0 1 5 -2 roll arc closepath tMatrix setmatrix fill} bdef
/FAn {newpath tMatrix currentmatrix pop translate scale
  0 0 1 5 -2 roll arcn tMatrix setmatrix stroke} bdef
/PAn {newpath tMatrix currentmatrix pop translate 0 0 moveto scale
  0 0 1 5 -2 roll arcn closepath tMatrix setmatrix fill} bdef
/vradius 0 def /hradius 0 def /lry 0 def
/lrx 0 def /uly 0 def /ulx 0 def /rad 0 def
/MRR {/vradius xdef /hradius xdef /lry xdef /lrx xdef /uly xdef
  /ulx xdef newpath tMatrix currentmatrix pop ulx hradius add uly
  vradius add translate hradius vradius scale 0 0 1 180 270 arc 
  tMatrix setmatrix lrx hradius sub uly vradius add translate
  hradius vradius scale 0 0 1 270 360 arc tMatrix setmatrix
  lrx hradius sub lry vradius sub translate hradius vradius scale
  0 0 1 0 90 arc tMatrix setmatrix ulx hradius add lry vradius sub
  translate hradius vradius scale 0 0 1 90 180 arc tMatrix setmatrix
  closepath} bdef
/FRR {MRR stroke } bdef
/PRR {MRR fill } bdef
/MlrRR {/lry xdef /lrx xdef /uly xdef /ulx xdef /rad lry uly sub 2 div def
  newpath tMatrix currentmatrix pop ulx rad add uly rad add translate
  rad rad scale 0 0 1 90 270 arc tMatrix setmatrix lrx rad sub lry rad
  sub translate rad rad scale 0 0 1 270 90 arc tMatrix setmatrix
  closepath} bdef
/FlrRR {MlrRR stroke } bdef
/PlrRR {MlrRR fill } bdef
/MtbRR {/lry xdef /lrx xdef /uly xdef /ulx xdef /rad lrx ulx sub 2 div def
  newpath tMatrix currentmatrix pop ulx rad add uly rad add translate
  rad rad scale 0 0 1 180 360 arc tMatrix setmatrix lrx rad sub lry rad
  sub translate rad rad scale 0 0 1 0 180 arc tMatrix setmatrix
  closepath} bdef
/FtbRR {MtbRR stroke } bdef
/PtbRR {MtbRR fill } bdef
/stri 6 array def /dtri 6 array def
/smat 6 array def /dmat 6 array def
/tmat1 6 array def /tmat2 6 array def /dif 3 array def
/asub {/ind2 exch def /ind1 exch def dup dup
  ind1 get exch ind2 get sub exch } bdef
/tri_to_matrix {
  2 0 asub 3 1 asub 4 0 asub 5 1 asub
  dup 0 get exch 1 get 7 -1 roll astore } bdef
/compute_transform {
  dmat dtri tri_to_matrix tmat1 invertmatrix 
  smat stri tri_to_matrix tmat2 concatmatrix } bdef
/ds {stri astore pop} bdef
/dt {dtri astore pop} bdef
/db {2 copy /cols xdef /rows xdef mul dup 3 mul string
  currentfile 
  3 index 0 eq {/ASCIIHexDecode filter}
  {/ASCII85Decode filter 3 index 2 eq {/RunLengthDecode filter} if }
  ifelse exch readstring pop
  dup 0 3 index getinterval /rbmap xdef
  dup 2 index dup getinterval /gbmap xdef
  1 index dup 2 mul exch getinterval /bbmap xdef pop pop}bdef
/it {gs np dtri aload pop moveto lineto lineto cp c
  cols rows 8 compute_transform 
  rbmap gbmap bbmap true 3 colorimage gr}bdef
/il {newpath moveto lineto stroke}bdef
currentdict end def
%%EndProlog

%%BeginSetup
MathWorks begin

0 cap

end
%%EndSetup

%%Page: 1 1
%%BeginPageSetup
%%PageBoundingBox:  -193   221   806   571
MathWorks begin
bpage
%%EndPageSetup

%%BeginObject: obj1
bplot

/dpi2point 12 def
portraitMode -2316 6852 csm

    0     0 11988  4195 rc
85 dict begin %Colortable dictionary
/c0 { 0.000000 0.000000 0.000000 sr} bdef
/c1 { 1.000000 1.000000 1.000000 sr} bdef
/c2 { 0.900000 0.000000 0.000000 sr} bdef
/c3 { 0.000000 0.820000 0.000000 sr} bdef
/c4 { 0.000000 0.000000 0.800000 sr} bdef
/c5 { 0.910000 0.820000 0.320000 sr} bdef
/c6 { 1.000000 0.260000 0.820000 sr} bdef
/c7 { 0.000000 0.820000 0.820000 sr} bdef
c0
1 j
1 sg
   0    0 11989 4196 rf
6 w
0 3189 3276 0 0 -3189 480 3692 4 MP
PP
-3276 0 0 3189 3276 0 0 -3189 480 3692 5 MP stroke
gs 480 503 3277 3190 rc
/c8 { 0.000000 0.000000 0.562500 sr} bdef
c8
3602  503 mt 3756  642 L
/c9 { 0.000000 0.000000 0.625000 sr} bdef
c9
2948  503 mt 3054  599 L
3054  599 mt 3197  730 L
3197  730 mt 3288  814 L
3288  814 mt 3426  941 L
3611 1112 mt 3691 1186 L
3691 1186 mt 3756 1245 L
/c10 { 0.000000 0.000000 0.750000 sr} bdef
c10
2367  503 mt 2586  704 L
2586  704 mt 2614  730 L
2614  730 mt 2820  922 L
2820  922 mt 2858  958 L
2858  958 mt 3054 1141 L
3054 1141 mt 3102 1186 L
3102 1186 mt 3288 1360 L
3288 1360 mt 3345 1414 L
3345 1414 mt 3522 1579 L
3522 1579 mt 3589 1641 L
3589 1641 mt 3756 1797 L
/c11 { 0.000000 0.000000 0.875000 sr} bdef
c11
1858  503 mt 1884  527 L
1884  527 mt 2100  730 L
2100  730 mt 2118  747 L
2118  747 mt 2340  958 L
2340  958 mt 2352  969 L
2352  969 mt 2579 1186 L
2579 1186 mt 2586 1192 L
2586 1192 mt 2817 1414 L
2817 1414 mt 2820 1416 L
2820 1416 mt 3054 1639 L
3054 1639 mt 3056 1641 L
3056 1641 mt 3288 1861 L
3288 1861 mt 3296 1869 L
3296 1869 mt 3522 2082 L
3522 2082 mt 3537 2097 L
3537 2097 mt 3756 2302 L
/c12 { 0.000000 0.000000 0.937500 sr} bdef
c12
1417  503 mt 1650  727 L
1650  727 mt 1652  730 L
1652  730 mt 1884  955 L
1884  955 mt 1887  958 L
1887  958 mt 2118 1184 L
2118 1184 mt 2120 1186 L
2120 1186 mt 2352 1413 L
2352 1413 mt 2353 1414 L
2353 1414 mt 2586 1641 L
2586 1641 mt 2586 1641 L
2586 1641 mt 2820 1869 L
2820 1869 mt 2820 1869 L
2820 1869 mt 3054 2095 L
3054 2095 mt 3056 2097 L
3056 2097 mt 3288 2320 L
3288 2320 mt 3293 2325 L
3293 2325 mt 3522 2542 L
3522 2542 mt 3532 2553 L
3532 2553 mt 3756 2763 L
/c13 { 0.000000 0.062500 1.000000 sr} bdef
c13
1056  503 mt 1182  636 L
1182  636 mt 1276  730 L
1276  730 mt 1416  875 L
1416  875 mt 1499  958 L
1499  958 mt 1650 1112 L
1650 1112 mt 1723 1186 L
1723 1186 mt 1884 1349 L
1884 1349 mt 1948 1414 L
1948 1414 mt 2118 1585 L
2118 1585 mt 2175 1641 L
2175 1641 mt 2352 1819 L
2352 1819 mt 2402 1869 L
2402 1869 mt 2586 2052 L
2586 2052 mt 2631 2097 L
2631 2097 mt 2820 2283 L
2820 2283 mt 2862 2325 L
2862 2325 mt 3054 2512 L
3054 2512 mt 3064 2522 L
3243 2695 mt 3288 2738 L
3288 2738 mt 3331 2780 L
3331 2780 mt 3522 2962 L
3522 2962 mt 3570 3008 L
3570 3008 mt 3756 3183 L
/c14 { 0.000000 0.187500 1.000000 sr} bdef
c14
 776  503 mt  948  713 L
 948  713 mt  964  730 L
 964  730 mt 1169  958 L
1169  958 mt 1182  972 L
1182  972 mt 1382 1186 L
1382 1186 mt 1416 1223 L
1416 1223 mt 1598 1414 L
1598 1414 mt 1650 1469 L
1650 1469 mt 1816 1641 L
1816 1641 mt 1884 1713 L
1884 1713 mt 2035 1869 L
2035 1869 mt 2118 1955 L
2118 1955 mt 2257 2097 L
2257 2097 mt 2352 2194 L
2352 2194 mt 2482 2325 L
2482 2325 mt 2586 2430 L
2586 2430 mt 2708 2553 L
2708 2553 mt 2820 2664 L
2820 2664 mt 2938 2780 L
2938 2780 mt 3054 2894 L
3054 2894 mt 3171 3008 L
3171 3008 mt 3288 3121 L
3288 3121 mt 3407 3236 L
3407 3236 mt 3522 3346 L
3522 3346 mt 3646 3464 L
3646 3464 mt 3756 3567 L
/c15 { 0.000000 0.312500 1.000000 sr} bdef
c15
 594  503 mt  714  710 L
 714  710 mt  730  730 L
 730  730 mt  910  958 L
 910  958 mt  948 1009 L
 948 1009 mt 1102 1186 L
1102 1186 mt 1182 1281 L
1182 1281 mt 1302 1414 L
1302 1414 mt 1416 1543 L
1416 1543 mt 1507 1641 L
1507 1641 mt 1650 1799 L
1650 1799 mt 1716 1869 L
1716 1869 mt 1884 2050 L
1884 2050 mt 1929 2097 L
1929 2097 mt 2118 2297 L
2118 2297 mt 2145 2325 L
2145 2325 mt 2352 2540 L
2352 2540 mt 2364 2553 L
2364 2553 mt 2586 2780 L
2586 2780 mt 2586 2780 L
2586 2780 mt 2813 3008 L
2813 3008 mt 2820 3015 L
2820 3015 mt 3043 3236 L
3043 3236 mt 3054 3246 L
3054 3246 mt 3277 3464 L
3277 3464 mt 3288 3474 L
3288 3474 mt 3515 3692 L
/c16 { 0.000000 0.375000 1.000000 sr} bdef
c16
3184 3692 mt 3054 3565 L
3054 3565 mt 2952 3464 L
2952 3464 mt 2820 3333 L
2820 3333 mt 2724 3236 L
2724 3236 mt 2586 3097 L
2586 3097 mt 2500 3008 L
2500 3008 mt 2352 2856 L
2352 2856 mt 2280 2780 L
2280 2780 mt 2118 2611 L
2118 2611 mt 2064 2553 L
2064 2553 mt 1884 2360 L
1884 2360 mt 1852 2325 L
1852 2325 mt 1650 2105 L
1650 2105 mt 1643 2097 L
1643 2097 mt 1441 1869 L
1441 1869 mt 1416 1842 L
1416 1842 mt 1245 1641 L
1245 1641 mt 1182 1570 L
1182 1570 mt 1057 1414 L
1057 1414 mt  948 1284 L
 948 1284 mt  878 1186 L
 878 1186 mt  714  970 L
 714  970 mt  707  958 L
 707  958 mt  582  730 L
 582  730 mt  480  566 L
/c17 { 0.000000 0.500000 1.000000 sr} bdef
c17
2885 3692 mt 2820 3626 L
2820 3626 mt 2659 3464 L
2659 3464 mt 2586 3389 L
2586 3389 mt 2438 3236 L
2438 3236 mt 2352 3147 L
2352 3147 mt 2221 3008 L
2221 3008 mt 2118 2899 L
2118 2899 mt 2009 2780 L
2009 2780 mt 1884 2645 L
1884 2645 mt 1802 2553 L
1802 2553 mt 1650 2385 L
1650 2385 mt 1598 2325 L
1598 2325 mt 1416 2117 L
1416 2117 mt 1399 2097 L
1399 2097 mt 1209 1869 L
1209 1869 mt 1182 1837 L
1182 1837 mt 1030 1641 L
1030 1641 mt  948 1540 L
 948 1540 mt  935 1522 L
 808 1340 mt  714 1212 L
 714 1212 mt  701 1186 L
 701 1186 mt  581  958 L
 581  958 mt  480  789 L
/c18 { 0.000000 0.625000 1.000000 sr} bdef
c18
2618 3692 mt 2586 3658 L
2586 3658 mt 2399 3464 L
2399 3464 mt 2352 3415 L
2352 3415 mt 2184 3236 L
2184 3236 mt 2118 3165 L
2118 3165 mt 1975 3008 L
1975 3008 mt 1884 2908 L
1884 2908 mt 1772 2780 L
1772 2780 mt 1650 2644 L
1650 2644 mt 1573 2553 L
1573 2553 mt 1416 2371 L
1416 2371 mt 1379 2325 L
1379 2325 mt 1191 2097 L
1191 2097 mt 1182 2085 L
1182 2085 mt 1020 1869 L
1020 1869 mt  948 1779 L
 948 1779 mt  859 1641 L
 859 1641 mt  714 1437 L
 714 1437 mt  702 1414 L
 702 1414 mt  587 1186 L
 587 1186 mt  480  998 L
/c19 { 0.000000 0.750000 1.000000 sr} bdef
c19
2381 3692 mt 2352 3661 L
2352 3661 mt 2168 3464 L
2168 3464 mt 2118 3410 L
2118 3410 mt 1961 3236 L
1961 3236 mt 1884 3151 L
1884 3151 mt 1760 3008 L
1760 3008 mt 1650 2884 L
1650 2884 mt 1564 2780 L
1564 2780 mt 1416 2606 L
1416 2606 mt 1374 2553 L
1374 2553 mt 1189 2325 L
1189 2325 mt 1182 2315 L
1182 2315 mt 1023 2097 L
1023 2097 mt  948 2000 L
 948 2000 mt  866 1869 L
 866 1869 mt  714 1648 L
 714 1648 mt  710 1641 L
 710 1641 mt  601 1414 L
 601 1414 mt  480 1194 L
/c20 { 0.000000 0.812500 1.000000 sr} bdef
c20
2171 3692 mt 2118 3634 L
2118 3634 mt 1965 3464 L
1965 3464 mt 1884 3374 L
1884 3374 mt 1765 3236 L
1765 3236 mt 1650 3105 L
1650 3105 mt 1571 3008 L
1571 3008 mt 1416 2824 L
1416 2824 mt 1382 2780 L
1382 2780 mt 1202 2553 L
1202 2553 mt 1182 2528 L
1182 2528 mt 1038 2325 L
1038 2325 mt  948 2206 L
 948 2206 mt  882 2097 L
 882 2097 mt  731 1869 L
 731 1869 mt  714 1844 L
 714 1844 mt  620 1641 L
 620 1641 mt  500 1414 L
 500 1414 mt  480 1377 L
/c21 { 0.000000 0.937500 1.000000 sr} bdef
c21
1985 3692 mt 1884 3580 L
1884 3580 mt 1785 3464 L
1785 3464 mt 1650 3309 L
1650 3309 mt 1591 3236 L
1591 3236 mt 1416 3026 L
1416 3026 mt 1402 3008 L
1402 3008 mt 1227 2780 L
1227 2780 mt 1182 2724 L
1182 2724 mt 1063 2553 L
1063 2553 mt  948 2397 L
 948 2397 mt  905 2325 L
 905 2325 mt  785 2135 L
 680 1950 mt  644 1869 L
 644 1869 mt  530 1641 L
 530 1641 mt  480 1547 L
/c22 { 0.062500 1.000000 0.937500 sr} bdef
c22
1818 3692 mt 1650 3498 L
1650 3498 mt 1622 3464 L
1622 3464 mt 1435 3236 L
1435 3236 mt 1416 3213 L
1416 3213 mt 1262 3008 L
1262 3008 mt 1182 2906 L
1182 2906 mt 1096 2780 L
1096 2780 mt  948 2577 L
 948 2577 mt  934 2553 L
 934 2553 mt  797 2325 L
 797 2325 mt  714 2196 L
 714 2196 mt  670 2097 L
 670 2097 mt  563 1869 L
 563 1869 mt  480 1709 L
/c23 { 0.125000 1.000000 0.875000 sr} bdef
c23
1666 3692 mt 1650 3673 L
1650 3673 mt 1482 3464 L
1482 3464 mt 1416 3383 L
1416 3383 mt 1306 3236 L
1306 3236 mt 1182 3076 L
1182 3076 mt 1136 3008 L
1136 3008 mt  976 2780 L
 976 2780 mt  948 2742 L
 948 2742 mt  838 2553 L
 838 2553 mt  714 2357 L
 714 2357 mt  700 2325 L
 700 2325 mt  599 2097 L
 599 2097 mt  483 1869 L
 483 1869 mt  480 1862 L
/c24 { 0.250000 1.000000 0.750000 sr} bdef
c24
1539 3692 mt 1416 3542 L
1416 3542 mt 1358 3464 L
1358 3464 mt 1182 3236 L
1182 3236 mt 1181 3236 L
1181 3236 mt 1029 3008 L
1029 3008 mt  948 2894 L
 948 2894 mt  883 2780 L
 883 2780 mt  743 2553 L
 743 2553 mt  714 2506 L
 714 2506 mt  637 2325 L
 637 2325 mt  528 2097 L
 528 2097 mt  480 2002 L
/c25 { 0.375000 1.000000 0.625000 sr} bdef
c25
1415 3692 mt 1247 3464 L
1247 3464 mt 1182 3379 L
1182 3379 mt 1087 3236 L
1087 3236 mt  948 3039 L
 948 3039 mt  930 3008 L
 930 3008 mt  799 2780 L
 799 2780 mt  714 2644 L
 714 2644 mt  700 2612 L
 618 2424 mt  574 2325 L
 574 2325 mt  480 2137 L
/c26 { 0.500000 1.000000 0.500000 sr} bdef
c26
1317 3692 mt 1182 3515 L
1182 3515 mt 1148 3464 L
1148 3464 mt  993 3236 L
 993 3236 mt  948 3172 L
 948 3172 mt  857 3008 L
 857 3008 mt  715 2780 L
 715 2780 mt  714 2778 L
 714 2778 mt  620 2553 L
 620 2553 mt  511 2325 L
 511 2325 mt  480 2262 L
/c27 { 0.562500 1.000000 0.437500 sr} bdef
c27
1220 3692 mt 1182 3641 L
1182 3641 mt 1066 3464 L
1066 3464 mt  948 3296 L
 948 3296 mt  915 3236 L
 915 3236 mt  783 3008 L
 783 3008 mt  714 2896 L
 714 2896 mt  666 2780 L
 666 2780 mt  565 2553 L
 565 2553 mt  480 2381 L
/c28 { 0.687500 1.000000 0.312500 sr} bdef
c28
1139 3692 mt  984 3464 L
 984 3464 mt  948 3412 L
 948 3412 mt  851 3236 L
 851 3236 mt  714 3014 L
 714 3014 mt  711 3008 L
 711 3008 mt  618 2780 L
 618 2780 mt  509 2553 L
 509 2553 mt  480 2492 L
/c29 { 0.812500 1.000000 0.187500 sr} bdef
c29
1068 3692 mt  948 3520 L
 948 3520 mt  917 3464 L
 917 3464 mt  787 3236 L
 787 3236 mt  714 3117 L
 714 3117 mt  669 3008 L
 669 3008 mt  605 2863 L
 578 2800 mt  569 2780 L
 569 2780 mt  480 2598 L
/c30 { 0.937500 1.000000 0.062500 sr} bdef
c30
 998 3692 mt  948 3620 L
 948 3620 mt  862 3464 L
 862 3464 mt  723 3236 L
 723 3236 mt  714 3220 L
 714 3220 mt  627 3008 L
 627 3008 mt  521 2780 L
 521 2780 mt  480 2696 L
/c31 { 1.000000 1.000000 0.000000 sr} bdef
c31
 934 3692 mt  808 3464 L
 808 3464 mt  714 3311 L
 714 3311 mt  683 3236 L
 683 3236 mt  586 3008 L
 586 3008 mt  480 2793 L
/c32 { 1.000000 0.875000 0.000000 sr} bdef
c32
 888 3692 mt  753 3464 L
 753 3464 mt  714 3400 L
 714 3400 mt  647 3236 L
 647 3236 mt  544 3008 L
 544 3008 mt  480 2878 L
/c33 { 1.000000 0.750000 0.000000 sr} bdef
c33
 842 3692 mt  714 3484 L
 714 3484 mt  705 3464 L
 705 3464 mt  630 3281 L
 543 3093 mt  502 3008 L
 502 3008 mt  480 2963 L
/c34 { 1.000000 0.687500 0.000000 sr} bdef
c34
 796 3692 mt  714 3558 L
 714 3558 mt  675 3464 L
 675 3464 mt  575 3236 L
 575 3236 mt  480 3042 L
/c35 { 1.000000 0.562500 0.000000 sr} bdef
c35
 750 3692 mt  714 3632 L
 714 3632 mt  645 3464 L
 645 3464 mt  540 3236 L
 540 3236 mt  480 3114 L
/c36 { 1.000000 0.437500 0.000000 sr} bdef
c36
 709 3692 mt  615 3464 L
 615 3464 mt  504 3236 L
 504 3236 mt  480 3187 L
/c37 { 1.000000 0.312500 0.000000 sr} bdef
c37
 684 3692 mt  608 3518 L
 517 3331 mt  480 3255 L
/c38 { 1.000000 0.250000 0.000000 sr} bdef
c38
 659 3692 mt  554 3464 L
 554 3464 mt  480 3315 L
/c39 { 1.000000 0.125000 0.000000 sr} bdef
c39
 634 3692 mt  524 3464 L
 524 3464 mt  480 3375 L
/c40 { 1.000000 0.000000 0.000000 sr} bdef
c40
 609 3692 mt  494 3464 L
 494 3464 mt  480 3435 L
/c41 { 0.875000 0.000000 0.000000 sr} bdef
c41
 585 3692 mt  480 3489 L
/c42 { 0.812500 0.000000 0.000000 sr} bdef
c42
 560 3692 mt  480 3536 L
/c43 { 0.687500 0.000000 0.000000 sr} bdef
c43
 535 3692 mt  480 3584 L
/c44 { 0.562500 0.000000 0.000000 sr} bdef
c44
 510 3692 mt  480 3632 L
/c45 { 0.500000 0.000000 0.000000 sr} bdef
c45
 486 3692 mt  480 3680 L
0 sg
%%IncludeResource: font Helvetica
/Helvetica /ISOLatin1Encoding 120 FMSR

3444  972 mt  -296 rotate
(1.5) s
296 rotate
3080 2553 mt  -295 rotate
(1.6) s
295 rotate
 807 1365 mt  -288 rotate
(1.7) s
288 rotate
 667 1974 mt  -284 rotate
(1.8) s
284 rotate
 601 2445 mt  -281 rotate
(1.9) s
281 rotate
 544 2807 mt  -281 rotate
(2) s
281 rotate
 528 3115 mt  -282 rotate
(2.1) s
282 rotate
 505 3352 mt  -282 rotate
(2.2) s
282 rotate
gr

0 sg
%%IncludeResource: font Symbol
/Symbol /ISOLatin1Encoding 120 FMSR

2012 3949 mt 
(f) s
%%IncludeResource: font Symbol
/Symbol /ISOLatin1Encoding 96 FMSR

2074 4009 mt 
(D) s
%%IncludeResource: font Helvetica
/Helvetica /ISOLatin1Encoding 96 FMSR

2132 4009 mt 
( Y) s
%%IncludeResource: font Symbol
/Symbol /ISOLatin1Encoding 120 FMSR

 136 2203 mt  -90 rotate
(f) s
90 rotate
%%IncludeResource: font Symbol
/Symbol /ISOLatin1Encoding 96 FMSR

 196 2141 mt  -90 rotate
(D) s
90 rotate
%%IncludeResource: font Helvetica
/Helvetica /ISOLatin1Encoding 96 FMSR

 196 2083 mt  -90 rotate
( V) s
90 rotate
%%IncludeResource: font Symbol
/Symbol /ISOLatin1Encoding 120 FMSR

2049  354 mt 
(s) s
%%IncludeResource: font Helvetica
/Helvetica /ISOLatin1Encoding 96 FMSR

2121  414 mt 
(Y) s
gs 480 503 3277 3190 rc
24 w
DO
 800 3692 mt  714 3551 L
 714 3551 mt  678 3464 L
 678 3464 mt  579 3236 L
 579 3236 mt  480 3036 L
gr

24 w
DO
4 w
SO
6 w
 480 3692 mt 3756 3692 L
 480  503 mt 3756  503 L
 480 3692 mt  480  503 L
3756 3692 mt 3756  503 L
 480 3692 mt 3756 3692 L
 480 3692 mt  480  503 L
 480 3692 mt  480 3659 L
 480  503 mt  480  535 L
%%IncludeResource: font Helvetica
/Helvetica /ISOLatin1Encoding 120 FMSR

 447 3837 mt 
(0) s
1299 3692 mt 1299 3659 L
1299  503 mt 1299  535 L
1216 3837 mt 
(0.5) s
2118 3692 mt 2118 3659 L
2118  503 mt 2118  535 L
2085 3837 mt 
(1) s
2937 3692 mt 2937 3659 L
2937  503 mt 2937  535 L
2854 3837 mt 
(1.5) s
3756 3692 mt 3756 3659 L
3756  503 mt 3756  535 L
3723 3837 mt 
(2) s
 480 3692 mt  512 3692 L
3756 3692 mt 3723 3692 L
 379 3736 mt 
(0) s
 480 3373 mt  512 3373 L
3756 3373 mt 3723 3373 L
 279 3417 mt 
(0.2) s
 480 3054 mt  512 3054 L
3756 3054 mt 3723 3054 L
 279 3098 mt 
(0.4) s
 480 2735 mt  512 2735 L
3756 2735 mt 3723 2735 L
 279 2779 mt 
(0.6) s
 480 2416 mt  512 2416 L
3756 2416 mt 3723 2416 L
 279 2460 mt 
(0.8) s
 480 2097 mt  512 2097 L
3756 2097 mt 3723 2097 L
 379 2141 mt 
(1) s
 480 1778 mt  512 1778 L
3756 1778 mt 3723 1778 L
 279 1822 mt 
(1.2) s
 480 1459 mt  512 1459 L
3756 1459 mt 3723 1459 L
 279 1503 mt 
(1.4) s
 480 1140 mt  512 1140 L
3756 1140 mt 3723 1140 L
 279 1184 mt 
(1.6) s
 480  821 mt  512  821 L
3756  821 mt 3723  821 L
 279  865 mt 
(1.8) s
 480  503 mt  512  503 L
3756  503 mt 3723  503 L
 379  547 mt 
(2) s
 480 3692 mt 3756 3692 L
 480  503 mt 3756  503 L
 480 3692 mt  480  503 L
3756 3692 mt 3756  503 L
1 sg
0 3189 3276 0 0 -3189 4356 3692 4 MP
PP
-3276 0 0 3189 3276 0 0 -3189 4356 3692 5 MP stroke
gs 4356 503 3277 3190 rc
c8
4356 3459 mt 4365 3464 L
4365 3464 mt 4356 3475 L
/c46 { 0.000000 0.000000 0.687500 sr} bdef
c46
4646 3692 mt 4624 3464 L
4624 3464 mt 4590 3381 L
4590 3381 mt 4356 3240 L
/c47 { 0.000000 0.000000 0.812500 sr} bdef
c47
4725 3692 mt 4702 3464 L
4702 3464 mt 4609 3236 L
4609 3236 mt 4590 3202 L
4590 3202 mt 4356 3078 L
c12
4804 3692 mt 4780 3464 L
4780 3464 mt 4698 3236 L
4698 3236 mt 4590 3043 L
4590 3043 mt 4524 3008 L
4524 3008 mt 4356 2914 L
/c48 { 0.000000 0.125000 1.000000 sr} bdef
c48
4889 3692 mt 4863 3464 L
4863 3464 mt 4824 3342 L
4824 3342 mt 4788 3236 L
4788 3236 mt 4733 3127 L
4593 2884 mt 4590 2879 L
4590 2879 mt 4413 2780 L
4413 2780 mt 4356 2745 L
/c49 { 0.000000 0.250000 1.000000 sr} bdef
c49
4975 3692 mt 4950 3464 L
4950 3464 mt 4881 3236 L
4881 3236 mt 4824 3103 L
4824 3103 mt 4777 3008 L
4777 3008 mt 4638 2780 L
4638 2780 mt 4590 2708 L
4590 2708 mt 4356 2562 L
c16
5062 3692 mt 5058 3656 L
5058 3656 mt 5037 3464 L
5037 3464 mt 4976 3236 L
4976 3236 mt 4883 3008 L
4883 3008 mt 4824 2891 L
4824 2891 mt 4759 2780 L
4759 2780 mt 4608 2553 L
4608 2553 mt 4590 2526 L
4590 2526 mt 4356 2360 L
/c50 { 0.000000 0.562500 1.000000 sr} bdef
c50
5160 3692 mt 5134 3464 L
5134 3464 mt 5072 3236 L
5072 3236 mt 5058 3197 L
5058 3197 mt 4988 3008 L
4988 3008 mt 4878 2780 L
4878 2780 mt 4824 2680 L
4824 2680 mt 4743 2553 L
4743 2553 mt 4590 2328 L
4590 2328 mt 4584 2325 L
4584 2325 mt 4356 2137 L
/c51 { 0.000000 0.687500 1.000000 sr} bdef
c51
5259 3692 mt 5234 3464 L
5234 3464 mt 5178 3236 L
5178 3236 mt 5095 3008 L
5095 3008 mt 5058 2922 L
5058 2922 mt 4994 2780 L
4994 2780 mt 4875 2553 L
4875 2553 mt 4824 2462 L
4824 2462 mt 4808 2439 L
4648 2198 mt 4590 2111 L
4590 2111 mt 4573 2097 L
4573 2097 mt 4356 1889 L
c20
5366 3692 mt 5339 3464 L
5339 3464 mt 5292 3271 L
5292 3271 mt 5283 3236 L
5283 3236 mt 5209 3008 L
5209 3008 mt 5113 2780 L
5113 2780 mt 5058 2665 L
5058 2665 mt 5002 2553 L
5002 2553 mt 4877 2325 L
4877 2325 mt 4824 2231 L
4824 2231 mt 4736 2097 L
4736 2097 mt 4590 1872 L
4590 1872 mt 4586 1869 L
4586 1869 mt 4381 1641 L
4381 1641 mt 4356 1609 L
c21
5476 3692 mt 5452 3464 L
5452 3464 mt 5399 3236 L
5399 3236 mt 5325 3008 L
5325 3008 mt 5292 2924 L
5292 2924 mt 5235 2780 L
5235 2780 mt 5131 2553 L
5131 2553 mt 5058 2407 L
5058 2407 mt 5014 2325 L
5014 2325 mt 4888 2097 L
4888 2097 mt 4824 1983 L
4824 1983 mt 4751 1869 L
4751 1869 mt 4610 1641 L
4610 1641 mt 4590 1606 L
4590 1606 mt 4438 1414 L
4438 1414 mt 4356 1290 L
c23
5593 3692 mt 5567 3464 L
5567 3464 mt 5526 3280 L
5526 3280 mt 5516 3236 L
5516 3236 mt 5448 3008 L
5448 3008 mt 5362 2780 L
5362 2780 mt 5292 2620 L
5292 2620 mt 5262 2553 L
5262 2553 mt 5153 2325 L
5153 2325 mt 5058 2140 L
5058 2140 mt 5034 2097 L
5034 2097 mt 4909 1869 L
4909 1869 mt 4824 1714 L
4824 1714 mt 4779 1641 L
4779 1641 mt 4647 1414 L
4647 1414 mt 4590 1309 L
4590 1309 mt 4505 1186 L
4505 1186 mt 4371  958 L
4371  958 mt 4356  927 L
c24
5715 3692 mt 5691 3464 L
5691 3464 mt 5642 3236 L
5642 3236 mt 5574 3008 L
5574 3008 mt 5526 2874 L
5526 2874 mt 5492 2780 L
5492 2780 mt 5398 2553 L
5398 2553 mt 5293 2325 L
5293 2325 mt 5292 2322 L
5292 2322 mt 5182 2097 L
5182 2097 mt 5063 1869 L
5063 1869 mt 5058 1858 L
5058 1858 mt 4941 1641 L
4941 1641 mt 4824 1422 L
4824 1422 mt 4819 1414 L
4819 1414 mt 4775 1333 L
4645 1088 mt 4590  979 L
4590  979 mt 4577  958 L
4577  958 mt 4456  730 L
4456  730 mt 4356  508 L
c25
4542  503 mt 4590  602 L
4590  602 mt 4646  730 L
4646  730 mt 4753  958 L
4753  958 mt 4824 1096 L
4824 1096 mt 4868 1186 L
4868 1186 mt 4984 1414 L
4984 1414 mt 5058 1554 L
5058 1554 mt 5102 1641 L
5102 1641 mt 5218 1869 L
5218 1869 mt 5292 2017 L
5292 2017 mt 5331 2097 L
5331 2097 mt 5438 2325 L
5438 2325 mt 5526 2526 L
5526 2526 mt 5537 2553 L
5537 2553 mt 5629 2780 L
5629 2780 mt 5707 3008 L
5707 3008 mt 5760 3198 L
5760 3198 mt 5770 3236 L
5770 3236 mt 5819 3464 L
5819 3464 mt 5843 3692 L
c26
4720  503 mt 4820  730 L
4820  730 mt 4824  738 L
4824  738 mt 4926  958 L
4926  958 mt 5037 1186 L
5037 1186 mt 5058 1227 L
5058 1227 mt 5150 1414 L
5150 1414 mt 5263 1641 L
5263 1641 mt 5292 1698 L
5292 1698 mt 5375 1869 L
5375 1869 mt 5483 2097 L
5483 2097 mt 5526 2190 L
5526 2190 mt 5586 2325 L
5586 2325 mt 5682 2553 L
5682 2553 mt 5760 2758 L
5760 2758 mt 5768 2780 L
5768 2780 mt 5845 3008 L
5845 3008 mt 5907 3236 L
5907 3236 mt 5952 3464 L
5952 3464 mt 5976 3692 L
c28
4894  503 mt 4994  730 L
4994  730 mt 5058  868 L
5058  868 mt 5099  958 L
5099  958 mt 5208 1186 L
5208 1186 mt 5292 1360 L
5292 1360 mt 5317 1414 L
5317 1414 mt 5428 1641 L
5428 1641 mt 5526 1849 L
5526 1849 mt 5535 1869 L
5535 1869 mt 5640 2097 L
5640 2097 mt 5738 2325 L
5738 2325 mt 5760 2377 L
5760 2377 mt 5831 2553 L
5831 2553 mt 5915 2780 L
5915 2780 mt 5987 3008 L
5987 3008 mt 5994 3034 L
5994 3034 mt 6048 3236 L
6048 3236 mt 6092 3464 L
6092 3464 mt 6116 3692 L
c29
5069  503 mt 5170  730 L
5170  730 mt 5274  958 L
5274  958 mt 5292  995 L
5292  995 mt 5381 1186 L
5381 1186 mt 5488 1414 L
5488 1414 mt 5526 1493 L
5526 1493 mt 5595 1641 L
5595 1641 mt 5700 1869 L
5700 1869 mt 5760 2005 L
5760 2005 mt 5800 2097 L
5800 2097 mt 5897 2325 L
5897 2325 mt 5984 2553 L
5984 2553 mt 5994 2578 L
5994 2578 mt 6066 2780 L
6066 2780 mt 6088 2850 L
6160 3100 mt 6194 3236 L
6194 3236 mt 6228 3421 L
6228 3421 mt 6236 3464 L
6236 3464 mt 6259 3692 L
c30
5249  503 mt 5292  599 L
5292  599 mt 5350  730 L
5350  730 mt 5453  958 L
5453  958 mt 5526 1116 L
5526 1116 mt 5557 1186 L
5557 1186 mt 5663 1414 L
5663 1414 mt 5760 1627 L
5760 1627 mt 5766 1641 L
5766 1641 mt 5868 1869 L
5868 1869 mt 5965 2097 L
5965 2097 mt 5994 2166 L
5994 2166 mt 6058 2325 L
6058 2325 mt 6144 2553 L
6144 2553 mt 6221 2780 L
6221 2780 mt 6228 2802 L
6228 2802 mt 6290 3008 L
6290 3008 mt 6346 3236 L
6346 3236 mt 6387 3464 L
6387 3464 mt 6410 3692 L
c32
5434  503 mt 5526  714 L
5526  714 mt 5533  730 L
5533  730 mt 5636  958 L
5636  958 mt 5738 1186 L
5738 1186 mt 5760 1234 L
5760 1234 mt 5841 1414 L
5841 1414 mt 5942 1641 L
5942 1641 mt 5994 1761 L
5994 1761 mt 6041 1869 L
6041 1869 mt 6136 2097 L
6136 2097 mt 6224 2325 L
6224 2325 mt 6228 2334 L
6228 2334 mt 6308 2553 L
6308 2553 mt 6384 2780 L
6384 2780 mt 6448 3008 L
6448 3008 mt 6462 3064 L
6462 3064 mt 6503 3236 L
6503 3236 mt 6543 3464 L
6543 3464 mt 6566 3692 L
c33
5622  503 mt 5721  730 L
5721  730 mt 5760  818 L
5760  818 mt 5822  958 L
5822  958 mt 5923 1186 L
5923 1186 mt 5994 1347 L
5994 1347 mt 6023 1414 L
6023 1414 mt 6122 1641 L
6122 1641 mt 6217 1869 L
6217 1869 mt 6228 1894 L
6228 1894 mt 6310 2097 L
6310 2097 mt 6397 2325 L
6397 2325 mt 6462 2510 L
6462 2510 mt 6477 2553 L
6477 2553 mt 6550 2780 L
6550 2780 mt 6614 3008 L
6614 3008 mt 6665 3236 L
6665 3236 mt 6696 3417 L
6696 3417 mt 6704 3464 L
6704 3464 mt 6726 3692 L
/c52 { 1.000000 0.625000 0.000000 sr} bdef
c52
5815  503 mt 5914  730 L
5914  730 mt 5994  915 L
5994  915 mt 6012  958 L
6012  958 mt 6112 1186 L
6112 1186 mt 6210 1414 L
6210 1414 mt 6228 1456 L
6228 1456 mt 6306 1641 L
6306 1641 mt 6400 1869 L
6400 1869 mt 6462 2028 L
6462 2028 mt 6489 2097 L
6489 2097 mt 6574 2325 L
6574 2325 mt 6651 2553 L
6651 2553 mt 6696 2697 L
6696 2697 mt 6721 2780 L
6721 2780 mt 6741 2851 L
6804 3101 mt 6834 3236 L
6834 3236 mt 6871 3464 L
6871 3464 mt 6892 3692 L
/c53 { 1.000000 0.500000 0.000000 sr} bdef
c53
6012  503 mt 6110  730 L
6110  730 mt 6208  958 L
6208  958 mt 6228 1005 L
6228 1005 mt 6305 1186 L
6305 1186 mt 6401 1414 L
6401 1414 mt 6462 1560 L
6462 1560 mt 6495 1641 L
6495 1641 mt 6586 1869 L
6586 1869 mt 6673 2097 L
6673 2097 mt 6696 2160 L
6696 2160 mt 6755 2325 L
6755 2325 mt 6831 2553 L
6831 2553 mt 6899 2780 L
6899 2780 mt 6930 2900 L
6930 2900 mt 6958 3008 L
6958 3008 mt 7007 3236 L
7007 3236 mt 7044 3464 L
7044 3464 mt 7065 3692 L
c37
6215  503 mt 6228  532 L
6228  532 mt 6312  730 L
6312  730 mt 6408  958 L
6408  958 mt 6462 1087 L
6462 1087 mt 6503 1186 L
6503 1186 mt 6598 1414 L
6598 1414 mt 6689 1641 L
6689 1641 mt 6696 1659 L
6696 1659 mt 6778 1869 L
6778 1869 mt 6862 2097 L
6862 2097 mt 6930 2292 L
6930 2292 mt 6941 2325 L
6941 2325 mt 7015 2553 L
7015 2553 mt 7081 2780 L
7081 2780 mt 7138 3008 L
7138 3008 mt 7164 3131 L
7164 3131 mt 7186 3236 L
7186 3236 mt 7221 3464 L
7221 3464 mt 7242 3692 L
/c54 { 1.000000 0.187500 0.000000 sr} bdef
c54
6423  503 mt 6462  596 L
6462  596 mt 6518  730 L
6518  730 mt 6612  958 L
6612  958 mt 6696 1161 L
6696 1161 mt 6706 1186 L
6706 1186 mt 6798 1414 L
6798 1414 mt 6887 1641 L
6887 1641 mt 6930 1753 L
6930 1753 mt 6974 1869 L
6974 1869 mt 7056 2097 L
7056 2097 mt 7133 2325 L
7133 2325 mt 7164 2423 L
7164 2423 mt 7204 2553 L
7204 2553 mt 7269 2780 L
7269 2780 mt 7325 3008 L
7325 3008 mt 7370 3236 L
7370 3236 mt 7398 3423 L
7398 3423 mt 7404 3464 L
7404 3464 mt 7424 3692 L
/c55 { 1.000000 0.062500 0.000000 sr} bdef
c55
6635  503 mt 6696  651 L
6696  651 mt 6728  730 L
6728  730 mt 6822  958 L
6822  958 mt 6913 1186 L
6913 1186 mt 6930 1228 L
6930 1228 mt 7003 1414 L
7003 1414 mt 7091 1641 L
7091 1641 mt 7164 1840 L
7164 1840 mt 7174 1869 L
7174 1869 mt 7255 2097 L
7255 2097 mt 7330 2325 L
7330 2325 mt 7398 2549 L
7398 2549 mt 7398 2553 L
7398 2553 mt 7461 2780 L
7461 2780 mt 7478 2851 L
7534 3102 mt 7560 3236 L
7560 3236 mt 7593 3464 L
7593 3464 mt 7612 3692 L
c41
6852  503 mt 6930  695 L
6930  695 mt 6944  730 L
6944  730 mt 7036  958 L
7036  958 mt 7125 1186 L
7125 1186 mt 7164 1285 L
7164 1285 mt 7213 1414 L
7213 1414 mt 7299 1641 L
7299 1641 mt 7380 1869 L
7380 1869 mt 7398 1919 L
7398 1919 mt 7459 2097 L
7459 2097 mt 7532 2325 L
7532 2325 mt 7599 2553 L
7599 2553 mt 7632 2677 L
/c56 { 0.750000 0.000000 0.000000 sr} bdef
c56
7074  503 mt 7164  729 L
7164  729 mt 7164  730 L
7164  730 mt 7254  958 L
7254  958 mt 7342 1186 L
7342 1186 mt 7398 1332 L
7398 1332 mt 7428 1414 L
7428 1414 mt 7512 1641 L
7512 1641 mt 7592 1869 L
7592 1869 mt 7632 1989 L
/c57 { 0.625000 0.000000 0.000000 sr} bdef
c57
7300  503 mt 7389  730 L
7389  730 mt 7398  752 L
7398  752 mt 7478  958 L
7478  958 mt 7564 1186 L
7564 1186 mt 7632 1369 L
c45
7532  503 mt 7619  730 L
7619  730 mt 7632  763 L
0 sg
4595 2903 mt  -285 rotate
(0.02) s
285 rotate
4654 2219 mt  -287 rotate
(0.03) s
287 rotate
4640 1107 mt  -283 rotate
(0.04) s
283 rotate
6068 2865 mt  -277 rotate
(0.05) s
277 rotate
6719 2865 mt  -276 rotate
(0.06) s
276 rotate
7453 2865 mt  -275 rotate
(0.07) s
275 rotate
gr

0 sg
%%IncludeResource: font Symbol
/Symbol /ISOLatin1Encoding 120 FMSR

5888 3949 mt 
(f) s
%%IncludeResource: font Symbol
/Symbol /ISOLatin1Encoding 96 FMSR

5950 4009 mt 
(D) s
%%IncludeResource: font Helvetica
/Helvetica /ISOLatin1Encoding 96 FMSR

6008 4009 mt 
( Y) s
%%IncludeResource: font Symbol
/Symbol /ISOLatin1Encoding 120 FMSR

4012 2203 mt  -90 rotate
(f) s
90 rotate
%%IncludeResource: font Symbol
/Symbol /ISOLatin1Encoding 96 FMSR

4072 2141 mt  -90 rotate
(D) s
90 rotate
%%IncludeResource: font Helvetica
/Helvetica /ISOLatin1Encoding 96 FMSR

4072 2083 mt  -90 rotate
( V) s
90 rotate
%%IncludeResource: font Symbol
/Symbol /ISOLatin1Encoding 120 FMSR

5931  347 mt 
(s) s
%%IncludeResource: font Symbol
/Symbol /ISOLatin1Encoding 96 FMSR

6003  407 mt 
(p) s
4 w
DO
SO
6 w
4356 3692 mt 7632 3692 L
4356  503 mt 7632  503 L
4356 3692 mt 4356  503 L
7632 3692 mt 7632  503 L
4356 3692 mt 7632 3692 L
4356 3692 mt 4356  503 L
4356 3692 mt 4356 3659 L
4356  503 mt 4356  535 L
%%IncludeResource: font Helvetica
/Helvetica /ISOLatin1Encoding 120 FMSR

4323 3837 mt 
(0) s
5175 3692 mt 5175 3659 L
5175  503 mt 5175  535 L
5092 3837 mt 
(0.5) s
5994 3692 mt 5994 3659 L
5994  503 mt 5994  535 L
5961 3837 mt 
(1) s
6813 3692 mt 6813 3659 L
6813  503 mt 6813  535 L
6730 3837 mt 
(1.5) s
7632 3692 mt 7632 3659 L
7632  503 mt 7632  535 L
7599 3837 mt 
(2) s
4356 3692 mt 4388 3692 L
7632 3692 mt 7599 3692 L
4255 3736 mt 
(0) s
4356 3373 mt 4388 3373 L
7632 3373 mt 7599 3373 L
4155 3417 mt 
(0.2) s
4356 3054 mt 4388 3054 L
7632 3054 mt 7599 3054 L
4155 3098 mt 
(0.4) s
4356 2735 mt 4388 2735 L
7632 2735 mt 7599 2735 L
4155 2779 mt 
(0.6) s
4356 2416 mt 4388 2416 L
7632 2416 mt 7599 2416 L
4155 2460 mt 
(0.8) s
4356 2097 mt 4388 2097 L
7632 2097 mt 7599 2097 L
4255 2141 mt 
(1) s
4356 1778 mt 4388 1778 L
7632 1778 mt 7599 1778 L
4155 1822 mt 
(1.2) s
4356 1459 mt 4388 1459 L
7632 1459 mt 7599 1459 L
4155 1503 mt 
(1.4) s
4356 1140 mt 4388 1140 L
7632 1140 mt 7599 1140 L
4155 1184 mt 
(1.6) s
4356  821 mt 4388  821 L
7632  821 mt 7599  821 L
4155  865 mt 
(1.8) s
4356  503 mt 4388  503 L
7632  503 mt 7599  503 L
4255  547 mt 
(2) s
4356 3692 mt 7632 3692 L
4356  503 mt 7632  503 L
4356 3692 mt 4356  503 L
7632 3692 mt 7632  503 L
1 sg
0 3189 3276 0 0 -3189 8232 3692 4 MP
PP
-3276 0 0 3189 3276 0 0 -3189 8232 3692 5 MP stroke
gs 8232 503 3277 3190 rc
c8
10806 2958 mt 10688 2780 L
10688 2780 mt 10572 2667 L
10572 2667 mt 10404 2553 L
10404 2553 mt 10338 2518 L
10338 2518 mt 10104 2469 L
10104 2469 mt 9870 2521 L
9870 2521 mt 9833 2553 L
9833 2553 mt 9733 2780 L
9733 2780 mt 9781 3008 L
9781 3008 mt 9870 3145 L
9870 3145 mt 9951 3236 L
9951 3236 mt 10104 3342 L
10104 3342 mt 10338 3453 L
10338 3453 mt 10451 3464 L
10451 3464 mt 10572 3471 L
10572 3471 mt 10603 3464 L
10603 3464 mt 10806 3321 L
10806 3321 mt 10853 3236 L
10853 3236 mt 10832 3008 L
10832 3008 mt 10806 2958 L
c9
9979 3692 mt 9870 3621 L
9870 3621 mt 9659 3464 L
9659 3464 mt 9636 3441 L
9636 3441 mt 9456 3236 L
9456 3236 mt 9402 3155 L
9402 3155 mt 9322 3008 L
9322 3008 mt 9243 2780 L
9243 2780 mt 9215 2553 L
9215 2553 mt 9251 2325 L
9251 2325 mt 9356 2097 L
9356 2097 mt 9402 2034 L
9402 2034 mt 9621 1869 L
9621 1869 mt 9636 1860 L
9636 1860 mt 9870 1802 L
9870 1802 mt 10104 1806 L
10104 1806 mt 10338 1859 L
10338 1859 mt 10363 1869 L
10363 1869 mt 10572 1961 L
10572 1961 mt 10798 2097 L
10798 2097 mt 10806 2102 L
10806 2102 mt 11040 2296 L
11040 2296 mt 11069 2325 L
11069 2325 mt 11272 2553 L
11272 2553 mt 11274 2554 L
11274 2554 mt 11418 2780 L
11418 2780 mt 11508 2968 L
11474 3692 mt 11508 3628 L
c10
9627 3692 mt 9402 3485 L
9402 3485 mt 9382 3464 L
9382 3464 mt 9202 3236 L
9202 3236 mt 9168 3182 L
9168 3182 mt 9080 3008 L
9080 3008 mt 8992 2780 L
8992 2780 mt 8940 2553 L
8940 2553 mt 8934 2372 L
8934 2372 mt 8932 2325 L
8932 2325 mt 8934 2311 L
8934 2311 mt 8969 2097 L
8969 2097 mt 9052 1869 L
9052 1869 mt 9168 1658 L
9168 1658 mt 9183 1641 L
9183 1641 mt 9402 1447 L
9402 1447 mt 9471 1414 L
9471 1414 mt 9636 1344 L
9636 1344 mt 9870 1307 L
9870 1307 mt 10104 1320 L
10104 1320 mt 10286 1362 L
10779 1574 mt 10806 1588 L
10806 1588 mt 10887 1641 L
10887 1641 mt 11040 1747 L
11040 1747 mt 11190 1869 L
11190 1869 mt 11274 1942 L
11274 1942 mt 11430 2097 L
11430 2097 mt 11508 2182 L
c11
9413 3692 mt 9402 3681 L
9402 3681 mt 9194 3464 L
9194 3464 mt 9168 3431 L
9168 3431 mt 9034 3236 L
9034 3236 mt 8934 3068 L
8934 3068 mt 8906 3008 L
8906 3008 mt 8829 2780 L
8829 2780 mt 8774 2553 L
8774 2553 mt 8748 2325 L
8748 2325 mt 8753 2097 L
8753 2097 mt 8789 1869 L
8789 1869 mt 8854 1641 L
8854 1641 mt 8934 1439 L
8934 1439 mt 8950 1414 L
8950 1414 mt 9126 1186 L
9126 1186 mt 9168 1138 L
9168 1138 mt 9402  976 L
9402  976 mt 9451  958 L
9451  958 mt 9636  895 L
9636  895 mt 9870  868 L
9870  868 mt 10104  886 L
10104  886 mt 10338  939 L
10338  939 mt 10390  958 L
10390  958 mt 10572 1026 L
10572 1026 mt 10806 1141 L
10806 1141 mt 10880 1186 L
10880 1186 mt 11040 1285 L
11040 1285 mt 11216 1414 L
11216 1414 mt 11274 1458 L
11274 1458 mt 11486 1641 L
11486 1641 mt 11508 1661 L
/c58 { 0.000000 0.000000 1.000000 sr} bdef
c58
9264 3692 mt 9168 3592 L
9168 3592 mt 9061 3464 L
9061 3464 mt 8934 3294 L
8934 3294 mt 8899 3236 L
8899 3236 mt 8786 3008 L
8786 3008 mt 8700 2805 L
8700 2805 mt 8692 2780 L
8692 2780 mt 8649 2553 L
8649 2553 mt 8622 2325 L
8622 2325 mt 8613 2097 L
8613 2097 mt 8624 1869 L
8624 1869 mt 8652 1641 L
8652 1641 mt 8697 1414 L
8697 1414 mt 8700 1405 L
8700 1405 mt 8796 1186 L
8796 1186 mt 8916  958 L
8916  958 mt 8934  928 L
8934  928 mt 9120  730 L
9120  730 mt 9168  683 L
9168  683 mt 9402  544 L
9402  544 mt 9535  503 L
10228  503 mt 10338  528 L
10338  528 mt 10572  613 L
10572  613 mt 10806  724 L
10806  724 mt 10817  730 L
10817  730 mt 11040  861 L
11040  861 mt 11182  958 L
11182  958 mt 11274 1022 L
11274 1022 mt 11480 1186 L
11480 1186 mt 11508 1209 L
c48
8912  503 mt 8771  730 L
8771  730 mt 8700  857 L
8700  857 mt 8666  958 L
8666  958 mt 8602 1186 L
8602 1186 mt 8550 1414 L
8550 1414 mt 8514 1641 L
8514 1641 mt 8496 1869 L
8496 1869 mt 8496 2097 L
8496 2097 mt 8516 2325 L
8516 2325 mt 8556 2553 L
8556 2553 mt 8612 2780 L
8612 2780 mt 8681 3008 L
8681 3008 mt 8700 3057 L
8700 3057 mt 8801 3236 L
8801 3236 mt 8934 3459 L
8934 3459 mt 8937 3464 L
8937 3464 mt 9136 3692 L
11111  503 mt 11274  611 L
11274  611 mt 11431  730 L
11431  730 mt 11508  789 L
c49
8651  503 mt 8572  730 L
8572  730 mt 8503  958 L
8503  958 mt 8466 1106 L
8466 1106 mt 8456 1186 L
8456 1186 mt 8436 1414 L
8436 1414 mt 8424 1641 L
8424 1641 mt 8421 1869 L
8421 1869 mt 8426 2097 L
8426 2097 mt 8441 2325 L
8441 2325 mt 8464 2553 L
8464 2553 mt 8466 2562 L
8466 2562 mt 8531 2780 L
8531 2780 mt 8545 2820 L
8660 3130 mt 8700 3231 L
8700 3231 mt 8702 3236 L
8702 3236 mt 8858 3464 L
8858 3464 mt 8934 3570 L
8934 3570 mt 9040 3692 L
c16
8474  503 mt 8466  528 L
8466  528 mt 8434  730 L
8434  730 mt 8404  958 L
8404  958 mt 8381 1186 L
8381 1186 mt 8366 1414 L
8366 1414 mt 8359 1641 L
8359 1641 mt 8362 1869 L
8362 1869 mt 8373 2097 L
8373 2097 mt 8393 2325 L
8393 2325 mt 8422 2553 L
8422 2553 mt 8459 2780 L
8459 2780 mt 8466 2811 L
8466 2811 mt 8545 3008 L
8545 3008 mt 8646 3236 L
8646 3236 mt 8700 3346 L
8700 3346 mt 8780 3464 L
8780 3464 mt 8934 3679 L
8934 3679 mt 8944 3692 L
c17
8380  503 mt 8348  730 L
8348  730 mt 8324  958 L
8324  958 mt 8306 1186 L
8306 1186 mt 8296 1414 L
8296 1414 mt 8295 1641 L
8295 1641 mt 8303 1869 L
8303 1869 mt 8320 2097 L
8320 2097 mt 8346 2325 L
8346 2325 mt 8381 2553 L
8381 2553 mt 8423 2780 L
8423 2780 mt 8466 2978 L
8466 2978 mt 8478 3008 L
8478 3008 mt 8591 3236 L
8591 3236 mt 8700 3459 L
8700 3459 mt 8702 3464 L
8702 3464 mt 8881 3692 L
c50
8290  503 mt 8263  730 L
8263  730 mt 8243  958 L
8243  958 mt 8232 1175 L
8821 3692 mt 8700 3536 L
8700 3536 mt 8658 3464 L
8658 3464 mt 8536 3236 L
8536 3236 mt 8466 3097 L
8466 3097 mt 8441 3008 L
8441 3008 mt 8387 2780 L
8387 2780 mt 8339 2553 L
8339 2553 mt 8299 2325 L
8299 2325 mt 8267 2097 L
8267 2097 mt 8244 1869 L
8244 1869 mt 8232 1656 L
c51
8762 3692 mt 8700 3612 L
8700 3612 mt 8615 3464 L
8615 3464 mt 8481 3236 L
8481 3236 mt 8466 3205 L
8466 3205 mt 8411 3008 L
8411 3008 mt 8353 2785 L
8281 2471 mt 8251 2325 L
8251 2325 mt 8232 2200 L
c20
8703 3692 mt 8700 3687 L
8700 3687 mt 8572 3464 L
8572 3464 mt 8466 3287 L
8466 3287 mt 8448 3236 L
8448 3236 mt 8381 3008 L
8381 3008 mt 8316 2780 L
8316 2780 mt 8256 2553 L
8256 2553 mt 8232 2438 L
c21
8669 3692 mt 8528 3464 L
8528 3464 mt 8466 3359 L
8466 3359 mt 8424 3236 L
8424 3236 mt 8351 3008 L
8351 3008 mt 8280 2780 L
8280 2780 mt 8232 2605 L
c22
8636 3692 mt 8485 3464 L
8485 3464 mt 8466 3431 L
8466 3431 mt 8399 3236 L
8399 3236 mt 8321 3008 L
8321 3008 mt 8245 2780 L
8245 2780 mt 8232 2733 L
/c59 { 0.187500 1.000000 0.812500 sr} bdef
c59
8604 3692 mt 8466 3489 L
8466 3489 mt 8455 3464 L
8455 3464 mt 8375 3237 L
8285 2988 mt 8232 2835 L
/c60 { 0.312500 1.000000 0.687500 sr} bdef
c60
8571 3692 mt 8466 3537 L
8466 3537 mt 8436 3464 L
8436 3464 mt 8351 3236 L
8351 3236 mt 8262 3008 L
8262 3008 mt 8232 2921 L
/c61 { 0.437500 1.000000 0.562500 sr} bdef
c61
8539 3692 mt 8466 3584 L
8466 3584 mt 8417 3464 L
8417 3464 mt 8327 3236 L
8327 3236 mt 8232 3008 L
8232 3008 mt 8232 3008 L
c27
8507 3692 mt 8466 3632 L
8466 3632 mt 8398 3464 L
8398 3464 mt 8302 3236 L
8302 3236 mt 8232 3066 L
/c62 { 0.625000 1.000000 0.375000 sr} bdef
c62
8474 3692 mt 8466 3679 L
8466 3679 mt 8379 3464 L
8379 3464 mt 8278 3236 L
8278 3236 mt 8232 3124 L
/c63 { 0.750000 1.000000 0.250000 sr} bdef
c63
8455 3692 mt 8360 3464 L
8360 3464 mt 8254 3236 L
8254 3236 mt 8232 3183 L
/c64 { 0.875000 1.000000 0.125000 sr} bdef
c64
8441 3692 mt 8341 3464 L
8341 3464 mt 8232 3239 L
c31
8427 3692 mt 8322 3464 L
8322 3464 mt 8232 3278 L
c32
8413 3692 mt 8303 3464 L
8303 3464 mt 8232 3317 L
c33
8399 3692 mt 8284 3464 L
8284 3464 mt 8232 3356 L
c52
8385 3692 mt 8265 3464 L
8265 3464 mt 8232 3394 L
c53
8371 3692 mt 8247 3464 L
8247 3464 mt 8232 3433 L
c36
8357 3692 mt 8232 3469 L
c37
8342 3692 mt 8232 3494 L
c54
8328 3692 mt 8232 3519 L
c55
8314 3692 mt 8232 3544 L
/c65 { 0.937500 0.000000 0.000000 sr} bdef
c65
8300 3692 mt 8232 3569 L
c42
8286 3692 mt 8232 3594 L
c43
8272 3692 mt 8232 3619 L
c44
8258 3692 mt 8232 3644 L
c45
8244 3692 mt 8232 3669 L
0 sg
10404 1392 mt  -317 rotate
(0.004) s
317 rotate
8535 2834 mt  -279 rotate
(0.006) s
279 rotate
8258 2483 mt  -276 rotate
(0.008) s
276 rotate
8269 3004 mt  -279 rotate
(0.01) s
279 rotate
gr

0 sg
%%IncludeResource: font Symbol
/Symbol /ISOLatin1Encoding 120 FMSR

9764 3949 mt 
(f) s
%%IncludeResource: font Symbol
/Symbol /ISOLatin1Encoding 96 FMSR

9826 4009 mt 
(D) s
%%IncludeResource: font Helvetica
/Helvetica /ISOLatin1Encoding 96 FMSR

9884 4009 mt 
( Y) s
%%IncludeResource: font Symbol
/Symbol /ISOLatin1Encoding 120 FMSR

7888 2203 mt  -90 rotate
(f) s
90 rotate
%%IncludeResource: font Symbol
/Symbol /ISOLatin1Encoding 96 FMSR

7948 2141 mt  -90 rotate
(D) s
90 rotate
%%IncludeResource: font Helvetica
/Helvetica /ISOLatin1Encoding 96 FMSR

7948 2083 mt  -90 rotate
( V) s
90 rotate
%%IncludeResource: font Helvetica
/Helvetica /ISOLatin1Encoding 120 FMSR

9762  408 mt 
(loss) s
gs 8232 503 3277 3190 rc
24 w
DO
8464 3692 mt 8372 3464 L
8372 3464 mt 8268 3236 L
8268 3236 mt 8232 3148 L
SO
6 w
gr

  30   30 10338 3008 PO
  30   30 10338 3008 FO
gs 8232 503 3277 3190 rc
gr

4 w
DO
SO
6 w
8232 3692 mt 11508 3692 L
8232  503 mt 11508  503 L
8232 3692 mt 8232  503 L
11508 3692 mt 11508  503 L
8232 3692 mt 11508 3692 L
8232 3692 mt 8232  503 L
8232 3692 mt 8232 3659 L
8232  503 mt 8232  535 L
8199 3837 mt 
(0) s
9051 3692 mt 9051 3659 L
9051  503 mt 9051  535 L
8968 3837 mt 
(0.5) s
9870 3692 mt 9870 3659 L
9870  503 mt 9870  535 L
9837 3837 mt 
(1) s
10689 3692 mt 10689 3659 L
10689  503 mt 10689  535 L
10606 3837 mt 
(1.5) s
11508 3692 mt 11508 3659 L
11508  503 mt 11508  535 L
11475 3837 mt 
(2) s
8232 3692 mt 8264 3692 L
11508 3692 mt 11475 3692 L
8131 3736 mt 
(0) s
8232 3373 mt 8264 3373 L
11508 3373 mt 11475 3373 L
8031 3417 mt 
(0.2) s
8232 3054 mt 8264 3054 L
11508 3054 mt 11475 3054 L
8031 3098 mt 
(0.4) s
8232 2735 mt 8264 2735 L
11508 2735 mt 11475 2735 L
8031 2779 mt 
(0.6) s
8232 2416 mt 8264 2416 L
11508 2416 mt 11475 2416 L
8031 2460 mt 
(0.8) s
8232 2097 mt 8264 2097 L
11508 2097 mt 11475 2097 L
8131 2141 mt 
(1) s
8232 1778 mt 8264 1778 L
11508 1778 mt 11475 1778 L
8031 1822 mt 
(1.2) s
8232 1459 mt 8264 1459 L
11508 1459 mt 11475 1459 L
8031 1503 mt 
(1.4) s
8232 1140 mt 8264 1140 L
11508 1140 mt 11475 1140 L
8031 1184 mt 
(1.6) s
8232  821 mt 8264  821 L
11508  821 mt 11475  821 L
8031  865 mt 
(1.8) s
8232  503 mt 8264  503 L
11508  503 mt 11475  503 L
8131  547 mt 
(2) s
8232 3692 mt 11508 3692 L
8232  503 mt 11508  503 L
8232 3692 mt 8232  503 L
11508 3692 mt 11508  503 L

end %%Color Dict

eplot
%%EndObject

epage
end

showpage

%%Trailer
%%EOF
