%!PS-Adobe-3.0 EPSF-3.0
%%Creator: MATLAB, The MathWorks, Inc. Version 8.1.0.604 (R2013a). Operating System: Linux 2.6.18-407.el5 #1 SMP Wed Nov 11 08:39:12 CST 2015 x86_64.
%%Title: /a/msulx1/lcl/msu/home/m1hxw02/jmp/psi-sweep.eps
%%CreationDate: 01/13/2016  14:46:37
%%DocumentNeededFonts: Helvetica
%%DocumentProcessColors: Cyan Magenta Yellow Black
%%LanguageLevel: 2
%%Pages: 1
%%BoundingBox:     7     9   472   350
%%EndComments

%%BeginProlog
% MathWorks dictionary
/MathWorks 160 dict begin
% definition operators
/bdef {bind def} bind def
/ldef {load def} bind def
/xdef {exch def} bdef
/xstore {exch store} bdef
% operator abbreviations
/c  /clip ldef
/cc /concat ldef
/cp /closepath ldef
/gr /grestore ldef
/gs /gsave ldef
/mt /moveto ldef
/np /newpath ldef
/cm /currentmatrix ldef
/sm /setmatrix ldef
/rm /rmoveto ldef
/rl /rlineto ldef
/s {show newpath} bdef
/sc {setcmykcolor} bdef
/sr /setrgbcolor ldef
/sg /setgray ldef
/w /setlinewidth ldef
/j /setlinejoin ldef
/cap /setlinecap ldef
/rc {rectclip} bdef
/rf {rectfill} bdef
% page state control
/pgsv () def
/bpage {/pgsv save def} bdef
/epage {pgsv restore} bdef
/bplot /gsave ldef
/eplot {stroke grestore} bdef
% orientation switch
/portraitMode 0 def /landscapeMode 1 def /rotateMode 2 def
% coordinate system mappings
/dpi2point 0 def
% font control
/FontSize 0 def
/FMS {/FontSize xstore findfont [FontSize 0 0 FontSize neg 0 0]
  makefont setfont} bdef
/reencode {exch dup where {pop load} {pop StandardEncoding} ifelse
  exch dup 3 1 roll findfont dup length dict begin
  { 1 index /FID ne {def}{pop pop} ifelse } forall
  /Encoding exch def currentdict end definefont pop} bdef
/isroman {findfont /CharStrings get /Agrave known} bdef
/FMSR {3 1 roll 1 index dup isroman {reencode} {pop pop} ifelse
  exch FMS} bdef
/csm {1 dpi2point div -1 dpi2point div scale neg translate
 dup landscapeMode eq {pop -90 rotate}
  {rotateMode eq {90 rotate} if} ifelse} bdef
% line types: solid, dotted, dashed, dotdash
/dom { dpi2point 1 currentlinewidth 0.08 mul add mul mul } bdef/dam { dpi2point 2 currentlinewidth 0.04 mul add mul mul } bdef/SO { [] 0 setdash 0 setlinecap } bdef/DO { [1 dom 1.2 dom] 0 setdash 0 setlinecap } bdef/DA { [4 dam 1.5 dam] 0 setdash 0 setlinecap } bdef/DD { [1 dom 1.2 dom 4 dam 1.2 dom] 0 setdash 0 setlinecap } bdef/GR { [0 dpi2point mul 4 dpi2point mul] 0 setdash 1 setlinecap } bdef% macros for lines and objects
/L {lineto stroke} bdef
/MP {3 1 roll moveto 1 sub {rlineto} repeat} bdef
/AP {{rlineto} repeat} bdef
/PDlw -1 def
/W {/PDlw currentlinewidth def setlinewidth} def
/PP {closepath eofill} bdef
/DP {closepath stroke} bdef
/MR {4 -2 roll moveto dup  0 exch rlineto exch 0 rlineto
  neg 0 exch rlineto closepath} bdef
/FR {MR stroke} bdef
/PR {MR fill} bdef
/L1i {{currentfile picstr readhexstring pop} image} bdef
/tMatrix matrix def
/MakeOval {newpath tMatrix currentmatrix pop translate scale
0 0 1 0 360 arc tMatrix setmatrix} bdef
/FO {MakeOval stroke} bdef
/PO {MakeOval fill} bdef
/PD {currentlinewidth 2 div 0 360 arc fill
   PDlw -1 eq not {PDlw w /PDlw -1 def} if} def
/FA {newpath tMatrix currentmatrix pop translate scale
  0 0 1 5 -2 roll arc tMatrix setmatrix stroke} bdef
/PA {newpath tMatrix currentmatrix pop	translate 0 0 moveto scale
  0 0 1 5 -2 roll arc closepath tMatrix setmatrix fill} bdef
/FAn {newpath tMatrix currentmatrix pop translate scale
  0 0 1 5 -2 roll arcn tMatrix setmatrix stroke} bdef
/PAn {newpath tMatrix currentmatrix pop translate 0 0 moveto scale
  0 0 1 5 -2 roll arcn closepath tMatrix setmatrix fill} bdef
/vradius 0 def /hradius 0 def /lry 0 def
/lrx 0 def /uly 0 def /ulx 0 def /rad 0 def
/MRR {/vradius xdef /hradius xdef /lry xdef /lrx xdef /uly xdef
  /ulx xdef newpath tMatrix currentmatrix pop ulx hradius add uly
  vradius add translate hradius vradius scale 0 0 1 180 270 arc 
  tMatrix setmatrix lrx hradius sub uly vradius add translate
  hradius vradius scale 0 0 1 270 360 arc tMatrix setmatrix
  lrx hradius sub lry vradius sub translate hradius vradius scale
  0 0 1 0 90 arc tMatrix setmatrix ulx hradius add lry vradius sub
  translate hradius vradius scale 0 0 1 90 180 arc tMatrix setmatrix
  closepath} bdef
/FRR {MRR stroke } bdef
/PRR {MRR fill } bdef
/MlrRR {/lry xdef /lrx xdef /uly xdef /ulx xdef /rad lry uly sub 2 div def
  newpath tMatrix currentmatrix pop ulx rad add uly rad add translate
  rad rad scale 0 0 1 90 270 arc tMatrix setmatrix lrx rad sub lry rad
  sub translate rad rad scale 0 0 1 270 90 arc tMatrix setmatrix
  closepath} bdef
/FlrRR {MlrRR stroke } bdef
/PlrRR {MlrRR fill } bdef
/MtbRR {/lry xdef /lrx xdef /uly xdef /ulx xdef /rad lrx ulx sub 2 div def
  newpath tMatrix currentmatrix pop ulx rad add uly rad add translate
  rad rad scale 0 0 1 180 360 arc tMatrix setmatrix lrx rad sub lry rad
  sub translate rad rad scale 0 0 1 0 180 arc tMatrix setmatrix
  closepath} bdef
/FtbRR {MtbRR stroke } bdef
/PtbRR {MtbRR fill } bdef
/stri 6 array def /dtri 6 array def
/smat 6 array def /dmat 6 array def
/tmat1 6 array def /tmat2 6 array def /dif 3 array def
/asub {/ind2 exch def /ind1 exch def dup dup
  ind1 get exch ind2 get sub exch } bdef
/tri_to_matrix {
  2 0 asub 3 1 asub 4 0 asub 5 1 asub
  dup 0 get exch 1 get 7 -1 roll astore } bdef
/compute_transform {
  dmat dtri tri_to_matrix tmat1 invertmatrix 
  smat stri tri_to_matrix tmat2 concatmatrix } bdef
/ds {stri astore pop} bdef
/dt {dtri astore pop} bdef
/db {2 copy /cols xdef /rows xdef mul dup 3 mul string
  currentfile 
  3 index 0 eq {/ASCIIHexDecode filter}
  {/ASCII85Decode filter 3 index 2 eq {/RunLengthDecode filter} if }
  ifelse exch readstring pop
  dup 0 3 index getinterval /rbmap xdef
  dup 2 index dup getinterval /gbmap xdef
  1 index dup 2 mul exch getinterval /bbmap xdef pop pop}bdef
/it {gs np dtri aload pop moveto lineto lineto cp c
  cols rows 8 compute_transform 
  rbmap gbmap bbmap true 3 colorimage gr}bdef
/il {newpath moveto lineto stroke}bdef
currentdict end def
%%EndProlog

%%BeginSetup
MathWorks begin

0 cap

end
%%EndSetup

%%Page: 1 1
%%BeginPageSetup
%%PageBoundingBox:     7     9   472   350
MathWorks begin
bpage
%%EndPageSetup

%%BeginObject: obj1
bplot

/dpi2point 12 def
portraitMode 0084 4200 csm

    0     0  5588  4092 rc
80 dict begin %Colortable dictionary
/c0 { 0.000000 0.000000 0.000000 sr} bdef
/c1 { 1.000000 1.000000 1.000000 sr} bdef
/c2 { 0.900000 0.000000 0.000000 sr} bdef
/c3 { 0.000000 0.820000 0.000000 sr} bdef
/c4 { 0.000000 0.000000 0.800000 sr} bdef
/c5 { 0.910000 0.820000 0.320000 sr} bdef
/c6 { 1.000000 0.260000 0.820000 sr} bdef
/c7 { 0.000000 0.820000 0.820000 sr} bdef
c0
1 j
1 sg
   0    0 5589 4093 rf
6 w
0 1431 4986 0 0 -1431 502 1690 4 MP
PP
-4986 0 0 1431 4986 0 0 -1431 502 1690 5 MP stroke
4 w
DO
6 w
SO
0 sg
 502 1690 mt 5488 1690 L
 502  259 mt 5488  259 L
 502 1690 mt  502  259 L
5488 1690 mt 5488  259 L
 502 1690 mt 5488 1690 L
 502 1690 mt  502  259 L
 502 1690 mt  502 1640 L
 502  259 mt  502  308 L
%%IncludeResource: font Helvetica
/Helvetica /ISOLatin1Encoding 168 FMSR

 456 1880 mt 
(0) s
1056 1690 mt 1056 1640 L
1056  259 mt 1056  308 L
1010 1880 mt 
(2) s
1610 1690 mt 1610 1640 L
1610  259 mt 1610  308 L
1564 1880 mt 
(4) s
2164 1690 mt 2164 1640 L
2164  259 mt 2164  308 L
2118 1880 mt 
(6) s
2718 1690 mt 2718 1640 L
2718  259 mt 2718  308 L
2672 1880 mt 
(8) s
3272 1690 mt 3272 1640 L
3272  259 mt 3272  308 L
3179 1880 mt 
(10) s
3826 1690 mt 3826 1640 L
3826  259 mt 3826  308 L
3733 1880 mt 
(12) s
4380 1690 mt 4380 1640 L
4380  259 mt 4380  308 L
4287 1880 mt 
(14) s
4934 1690 mt 4934 1640 L
4934  259 mt 4934  308 L
4841 1880 mt 
(16) s
5488 1690 mt 5488 1640 L
5488  259 mt 5488  308 L
5395 1880 mt 
(18) s
 502 1690 mt  551 1690 L
5488 1690 mt 5438 1690 L
 374 1752 mt 
(0) s
 502 1040 mt  551 1040 L
5488 1040 mt 5438 1040 L
 374 1102 mt 
(5) s
 502  390 mt  551  390 L
5488  390 mt 5438  390 L
 281  452 mt 
(10) s
 502 1690 mt 5488 1690 L
 502  259 mt 5488  259 L
 502 1690 mt  502  259 L
5488 1690 mt 5488  259 L
gs 502 259 4987 1432 rc
24 w
/c8 { 1.000000 0.000000 0.000000 sr} bdef
c8
50 -1 50 -1 50 -2 50 -1 50 -1 50 -2 50 -1 49 -2 
50 -1 50 -2 50 -1 50 -2 50 -2 50 -2 49 -1 50 -2 
50 -2 50 -2 50 -2 50 -2 50 -3 49 -2 50 -2 50 -2 
50 -3 50 -2 50 -3 50 -3 49 -3 50 -2 50 -3 50 -3 
50 -4 50 -3 50 -3 49 -4 50 -3 50 -4 50 -4 50 -4 
50 -4 50 -4 49 -4 50 -5 50 -4 50 -5 50 -5 50 -5 
50 -6 49 -5 50 -6 50 -6 50 -6 50 -6 50 -7 50 -6 
50 -7 49 -8 50 -7 50 -8 50 -8 50 -8 50 -9 50 -9 
49 -9 50 -10 50 -10 50 -10 50 -11 50 -11 50 -12 49 -12 
50 -12 50 -13 50 -14 50 -14 50 -14 50 -16 49 -15 50 -17 
50 -17 50 -17 50 -19 50 -19 50 -20 49 -21 50 -21 50 -23 
50 -23 50 -24 50 -25 50 -27 49 -27 50 -28 50 -30 50 -31 
50 -34 50 -37 50 -46 49 -80 502 1506 101 MP stroke
DA
/c9 { 0.000000 0.000000 1.000000 sr} bdef
c9
50 0 50 0 50 0 50 0 50 0 50 0 50 0 49 0 
50 0 50 0 50 0 50 0 50 0 50 0 49 0 50 0 
50 0 50 0 50 0 50 0 50 0 49 0 50 0 50 0 
50 0 50 0 50 0 50 0 49 0 50 0 50 0 50 0 
50 0 50 0 50 0 49 -1 50 0 50 0 50 0 50 0 
50 0 50 0 49 0 50 0 50 0 50 0 50 0 50 0 
50 0 49 0 50 0 50 0 50 0 50 0 50 0 50 0 
50 0 49 0 50 0 50 -1 50 0 50 0 50 0 50 0 
49 0 50 0 50 0 50 0 50 0 50 0 50 0 49 0 
50 -1 50 0 50 0 50 0 50 0 50 0 49 0 50 0 
50 -1 50 0 50 0 50 0 50 0 49 0 50 -1 50 0 
50 0 50 0 50 -1 50 0 49 0 50 -1 50 0 50 -1 
50 0 50 -1 50 -1 49 -2 502 1668 101 MP stroke
6 w
DO
0 sg
0 -1431 4290 1690 2 MP stroke
gr

DO
 189 1567 mt  -90 rotate
(sd. rel. to output) s
90 rotate
2537  127 mt 
(Stock prices) s
SO
1 sg
0 1431 4986 0 0 -1431 502 3677 4 MP
PP
-4986 0 0 1431 4986 0 0 -1431 502 3677 5 MP stroke
4 w
DO
6 w
SO
0 sg
 502 3677 mt 5488 3677 L
 502 2246 mt 5488 2246 L
 502 3677 mt  502 2246 L
5488 3677 mt 5488 2246 L
 502 3677 mt 5488 3677 L
 502 3677 mt  502 2246 L
 502 3677 mt  502 3627 L
 502 2246 mt  502 2295 L
 456 3867 mt 
(0) s
1056 3677 mt 1056 3627 L
1056 2246 mt 1056 2295 L
1010 3867 mt 
(2) s
1610 3677 mt 1610 3627 L
1610 2246 mt 1610 2295 L
1564 3867 mt 
(4) s
2164 3677 mt 2164 3627 L
2164 2246 mt 2164 2295 L
2118 3867 mt 
(6) s
2718 3677 mt 2718 3627 L
2718 2246 mt 2718 2295 L
2672 3867 mt 
(8) s
3272 3677 mt 3272 3627 L
3272 2246 mt 3272 2295 L
3179 3867 mt 
(10) s
3826 3677 mt 3826 3627 L
3826 2246 mt 3826 2295 L
3733 3867 mt 
(12) s
4380 3677 mt 4380 3627 L
4380 2246 mt 4380 2295 L
4287 3867 mt 
(14) s
4934 3677 mt 4934 3627 L
4934 2246 mt 4934 2295 L
4841 3867 mt 
(16) s
5488 3677 mt 5488 3627 L
5488 2246 mt 5488 2295 L
5395 3867 mt 
(18) s
 502 3677 mt  551 3677 L
5488 3677 mt 5438 3677 L
 374 3739 mt 
(0) s
 502 3386 mt  551 3386 L
5488 3386 mt 5438 3386 L
 374 3448 mt 
(1) s
 502 3096 mt  551 3096 L
5488 3096 mt 5438 3096 L
 374 3158 mt 
(2) s
 502 2805 mt  551 2805 L
5488 2805 mt 5438 2805 L
 374 2867 mt 
(3) s
 502 2515 mt  551 2515 L
5488 2515 mt 5438 2515 L
 374 2577 mt 
(4) s
 502 3677 mt 5488 3677 L
 502 2246 mt 5488 2246 L
 502 3677 mt  502 2246 L
5488 3677 mt 5488 2246 L
gs 502 2246 4987 1432 rc
24 w
c8
50 4 50 4 50 4 50 4 50 5 50 4 50 4 49 5 
50 4 50 5 50 5 50 4 50 5 50 5 49 5 50 5 
50 4 50 5 50 5 50 6 50 5 49 5 50 5 50 6 
50 5 50 5 50 6 50 5 49 6 50 6 50 6 50 5 
50 6 50 6 50 6 49 6 50 6 50 6 50 7 50 6 
50 6 50 7 49 6 50 7 50 6 50 7 50 7 50 6 
50 7 49 7 50 7 50 7 50 7 50 7 50 7 50 7 
50 7 49 8 50 7 50 7 50 7 50 7 50 8 50 7 
49 7 50 7 50 7 50 7 50 7 50 7 50 7 49 7 
50 7 50 6 50 7 50 6 50 6 50 5 49 6 50 5 
50 5 50 5 50 4 50 3 50 4 49 2 50 3 50 1 
50 1 50 1 50 0 50 0 49 -1 50 -1 50 0 50 1 
50 1 50 -5 50 -31 49 -167 502 2687 101 MP stroke
DA
c9
50 0 50 1 50 1 50 1 50 1 50 0 50 1 49 1 
50 1 50 1 50 1 50 0 50 1 50 1 49 1 50 1 
50 1 50 1 50 1 50 1 50 1 49 1 50 1 50 1 
50 1 50 1 50 2 50 1 49 1 50 1 50 1 50 2 
50 1 50 1 50 1 49 2 50 1 50 2 50 1 50 1 
50 2 50 1 49 2 50 2 50 1 50 2 50 1 50 2 
50 2 49 2 50 2 50 2 50 1 50 2 50 3 50 2 
50 2 49 2 50 2 50 3 50 2 50 3 50 2 50 3 
49 2 50 3 50 3 50 3 50 3 50 4 50 3 49 3 
50 4 50 4 50 4 50 4 50 4 50 4 49 5 50 5 
50 5 50 5 50 6 50 6 50 6 49 7 50 7 50 8 
50 9 50 9 50 10 50 10 49 12 50 14 50 15 50 18 
50 22 50 29 50 44 49 156 502 3012 101 MP stroke
6 w
DO
0 sg
0 -1431 4290 3677 2 MP stroke
gr

DO
 282 3554 mt  -90 rotate
(sd. rel. to output) s
90 rotate
2587 2114 mt 
(Investment) s
%%IncludeResource: font Symbol
/Symbol /ISOLatin1Encoding 168 FMSR

2936 4037 mt 
(y) s
SO

end %%Color Dict

eplot
%%EndObject

epage
end

showpage

%%Trailer
%%EOF
