%!PS-Adobe-3.0 EPSF-3.0
%%Creator: MATLAB, The MathWorks, Inc. Version 8.3.0.532 (R2014a). Operating System: Microsoft Windows 7 Enterprise .
%%Title: C:\Users\winklerh\Dropbox\PhD\jmp\psi-sweep.eps
%%CreationDate: 01/13/2015  13:46:03
%%DocumentNeededFonts: Helvetica
%%DocumentProcessColors: Cyan Magenta Yellow Black
%%LanguageLevel: 2
%%Pages: 1
%%BoundingBox:     0    -1   368   289
%%EndComments

%%BeginProlog
% MathWorks dictionary
/MathWorks 160 dict begin
% definition operators
/bdef {bind def} bind def
/ldef {load def} bind def
/xdef {exch def} bdef
/xstore {exch store} bdef
% operator abbreviations
/c  /clip ldef
/cc /concat ldef
/cp /closepath ldef
/gr /grestore ldef
/gs /gsave ldef
/mt /moveto ldef
/np /newpath ldef
/cm /currentmatrix ldef
/sm /setmatrix ldef
/rm /rmoveto ldef
/rl /rlineto ldef
/s {show newpath} bdef
/sc {setcmykcolor} bdef
/sr /setrgbcolor ldef
/sg /setgray ldef
/w /setlinewidth ldef
/j /setlinejoin ldef
/cap /setlinecap ldef
/rc {rectclip} bdef
/rf {rectfill} bdef
% page state control
/pgsv () def
/bpage {/pgsv save def} bdef
/epage {pgsv restore} bdef
/bplot /gsave ldef
/eplot {stroke grestore} bdef
% orientation switch
/portraitMode 0 def /landscapeMode 1 def /rotateMode 2 def
% coordinate system mappings
/dpi2point 0 def
% font control
/FontSize 0 def
/FMS {/FontSize xstore findfont [FontSize 0 0 FontSize neg 0 0]
  makefont setfont} bdef
/ISOLatin1Encoding where {pop /WindowsLatin1Encoding 256 array bdef
ISOLatin1Encoding WindowsLatin1Encoding copy pop
/.notdef/.notdef/quotesinglbase/florin/quotedblbase/ellipsis/dagger
/daggerdbl/circumflex/perthousand/Scaron/guilsinglleft/OE/.notdef/.notdef
/.notdef/.notdef/quoteleft/quoteright/quotedblleft/quotedblright/bullet
/endash/emdash/tilde/trademark/scaron/guilsinglright/oe/.notdef/.notdef
/Ydieresis WindowsLatin1Encoding 128 32 getinterval astore pop}
{/WindowsLatin1Encoding StandardEncoding bdef} ifelse
/reencode {exch dup where {pop load} {pop StandardEncoding} ifelse
  exch dup 3 1 roll findfont dup length dict begin
  { 1 index /FID ne {def}{pop pop} ifelse } forall
  /Encoding exch def currentdict end definefont pop} bdef
/isroman {findfont /CharStrings get /Agrave known} bdef
/FMSR {3 1 roll 1 index dup isroman {reencode} {pop pop} ifelse
  exch FMS} bdef
/csm {1 dpi2point div -1 dpi2point div scale neg translate
 dup landscapeMode eq {pop -90 rotate}
  {rotateMode eq {90 rotate} if} ifelse} bdef
% line types: solid, dotted, dashed, dotdash
/dom { dpi2point 1 currentlinewidth 0.08 mul add mul mul } bdef/dam { dpi2point 2 currentlinewidth 0.04 mul add mul mul } bdef/SO { [] 0 setdash 0 setlinecap } bdef/DO { [1 dom 1.2 dom] 0 setdash 0 setlinecap } bdef/DA { [4 dam 1.5 dam] 0 setdash 0 setlinecap } bdef/DD { [1 dom 1.2 dom 4 dam 1.2 dom] 0 setdash 0 setlinecap } bdef/GR { [0 dpi2point mul 4 dpi2point mul] 0 setdash 1 setlinecap } bdef% macros for lines and objects
/L {lineto stroke} bdef
/MP {3 1 roll moveto 1 sub {rlineto} repeat} bdef
/AP {{rlineto} repeat} bdef
/PDlw -1 def
/W {/PDlw currentlinewidth def setlinewidth} def
/PP {closepath eofill} bdef
/DP {closepath stroke} bdef
/MR {4 -2 roll moveto dup  0 exch rlineto exch 0 rlineto
  neg 0 exch rlineto closepath} bdef
/FR {MR stroke} bdef
/PR {MR fill} bdef
/L1i {{currentfile picstr readhexstring pop} image} bdef
/tMatrix matrix def
/MakeOval {newpath tMatrix currentmatrix pop translate scale
0 0 1 0 360 arc tMatrix setmatrix} bdef
/FO {MakeOval stroke} bdef
/PO {MakeOval fill} bdef
/PD {currentlinewidth 2 div 0 360 arc fill
   PDlw -1 eq not {PDlw w /PDlw -1 def} if} def
/FA {newpath tMatrix currentmatrix pop translate scale
  0 0 1 5 -2 roll arc tMatrix setmatrix stroke} bdef
/PA {newpath tMatrix currentmatrix pop	translate 0 0 moveto scale
  0 0 1 5 -2 roll arc closepath tMatrix setmatrix fill} bdef
/FAn {newpath tMatrix currentmatrix pop translate scale
  0 0 1 5 -2 roll arcn tMatrix setmatrix stroke} bdef
/PAn {newpath tMatrix currentmatrix pop translate 0 0 moveto scale
  0 0 1 5 -2 roll arcn closepath tMatrix setmatrix fill} bdef
/vradius 0 def /hradius 0 def /lry 0 def
/lrx 0 def /uly 0 def /ulx 0 def /rad 0 def
/MRR {/vradius xdef /hradius xdef /lry xdef /lrx xdef /uly xdef
  /ulx xdef newpath tMatrix currentmatrix pop ulx hradius add uly
  vradius add translate hradius vradius scale 0 0 1 180 270 arc 
  tMatrix setmatrix lrx hradius sub uly vradius add translate
  hradius vradius scale 0 0 1 270 360 arc tMatrix setmatrix
  lrx hradius sub lry vradius sub translate hradius vradius scale
  0 0 1 0 90 arc tMatrix setmatrix ulx hradius add lry vradius sub
  translate hradius vradius scale 0 0 1 90 180 arc tMatrix setmatrix
  closepath} bdef
/FRR {MRR stroke } bdef
/PRR {MRR fill } bdef
/MlrRR {/lry xdef /lrx xdef /uly xdef /ulx xdef /rad lry uly sub 2 div def
  newpath tMatrix currentmatrix pop ulx rad add uly rad add translate
  rad rad scale 0 0 1 90 270 arc tMatrix setmatrix lrx rad sub lry rad
  sub translate rad rad scale 0 0 1 270 90 arc tMatrix setmatrix
  closepath} bdef
/FlrRR {MlrRR stroke } bdef
/PlrRR {MlrRR fill } bdef
/MtbRR {/lry xdef /lrx xdef /uly xdef /ulx xdef /rad lrx ulx sub 2 div def
  newpath tMatrix currentmatrix pop ulx rad add uly rad add translate
  rad rad scale 0 0 1 180 360 arc tMatrix setmatrix lrx rad sub lry rad
  sub translate rad rad scale 0 0 1 0 180 arc tMatrix setmatrix
  closepath} bdef
/FtbRR {MtbRR stroke } bdef
/PtbRR {MtbRR fill } bdef
/stri 6 array def /dtri 6 array def
/smat 6 array def /dmat 6 array def
/tmat1 6 array def /tmat2 6 array def /dif 3 array def
/asub {/ind2 exch def /ind1 exch def dup dup
  ind1 get exch ind2 get sub exch } bdef
/tri_to_matrix {
  2 0 asub 3 1 asub 4 0 asub 5 1 asub
  dup 0 get exch 1 get 7 -1 roll astore } bdef
/compute_transform {
  dmat dtri tri_to_matrix tmat1 invertmatrix 
  smat stri tri_to_matrix tmat2 concatmatrix } bdef
/ds {stri astore pop} bdef
/dt {dtri astore pop} bdef
/db {2 copy /cols xdef /rows xdef mul dup 3 mul string
  currentfile 
  3 index 0 eq {/ASCIIHexDecode filter}
  {/ASCII85Decode filter 3 index 2 eq {/RunLengthDecode filter} if }
  ifelse exch readstring pop
  dup 0 3 index getinterval /rbmap xdef
  dup 2 index dup getinterval /gbmap xdef
  1 index dup 2 mul exch getinterval /bbmap xdef pop pop}bdef
/it {gs np dtri aload pop moveto lineto lineto cp c
  cols rows 8 compute_transform 
  rbmap gbmap bbmap true 3 colorimage gr}bdef
/il {newpath moveto lineto stroke}bdef
currentdict end def
%%EndProlog

%%BeginSetup
MathWorks begin

0 cap

end
%%EndSetup

%%Page: 1 1
%%BeginPageSetup
%%PageBoundingBox:     0    -1   368   289
MathWorks begin
bpage
%%EndPageSetup

%%BeginObject: obj1
bplot

/dpi2point 12 def
portraitMode 0000 3468 csm

    0     0  4419  3482 rc
80 dict begin %Colortable dictionary
/c0 { 0.000000 0.000000 0.000000 sr} bdef
/c1 { 1.000000 1.000000 1.000000 sr} bdef
/c2 { 0.900000 0.000000 0.000000 sr} bdef
/c3 { 0.000000 0.820000 0.000000 sr} bdef
/c4 { 0.000000 0.000000 0.800000 sr} bdef
/c5 { 0.910000 0.820000 0.320000 sr} bdef
/c6 { 1.000000 0.260000 0.820000 sr} bdef
/c7 { 0.000000 0.820000 0.820000 sr} bdef
c0
1 j
1 sg
   0    0 4420 3483 rf
6 w
0 1293 3906 0 0 -1293 441 1344 4 MP
PP
-3906 0 0 1293 3906 0 0 -1293 441 1344 5 MP stroke
4 w
DO

6 wSO
0 sg
 441   51 mt 4347   51 L
 441 1344 mt 4347 1344 L
4347 1344 mt 4347   51 L
 441 1344 mt  441   51 L
 441 1344 mt 4347 1344 L
 441 1344 mt  441   51 L
 441 1344 mt  441 1304 L
 441   51 mt  441   90 L
%%IncludeResource: font Helvetica
/Helvetica /WindowsLatin1Encoding 120 FMSR

 408 1489 mt 
(0) s
1222 1344 mt 1222 1304 L
1222   51 mt 1222   90 L
1189 1489 mt 
(2) s
2003 1344 mt 2003 1304 L
2003   51 mt 2003   90 L
1970 1489 mt 
(4) s
2784 1344 mt 2784 1304 L
2784   51 mt 2784   90 L
2751 1489 mt 
(6) s
3565 1344 mt 3565 1304 L
3565   51 mt 3565   90 L
3532 1489 mt 
(8) s
4347 1344 mt 4347 1304 L
4347   51 mt 4347   90 L
4281 1489 mt 
(10) s
 441 1344 mt  480 1344 L
4347 1344 mt 4307 1344 L
 340 1388 mt 
(0) s
 441  937 mt  480  937 L
4347  937 mt 4307  937 L
 340  981 mt 
(2) s
 441  530 mt  480  530 L
4347  530 mt 4307  530 L
 340  574 mt 
(4) s
 441  124 mt  480  124 L
4347  124 mt 4307  124 L
 340  168 mt 
(6) s
 441   51 mt 4347   51 L
 441 1344 mt 4347 1344 L
4347 1344 mt 4347   51 L
 441 1344 mt  441   51 L
gs 441 51 3907 1294 rc
24 w
/c8 { 1.000000 0.000000 0.000000 sr} bdef
c8
157 10 156 10 156 11 156 11 157 11 156 11 156 12 156 13 
157 13 156 13 156 14 156 15 157 15 156 16 156 17 156 17 
157 19 156 20 156 22 156 24 157 28 156 34 156 48 156 82 
156 -195 441 461 26 MP stroke
DA
/c9 { 0.000000 0.000000 1.000000 sr} bdef
c9
157 2 156 3 156 2 156 3 157 2 156 3 156 3 156 3 
157 4 156 4 156 4 156 4 157 5 156 5 156 6 156 6 
157 7 156 9 156 9 156 12 157 14 156 19 156 28 156 49 
156 370 441 644 26 MP stroke

6 wDO
0 sg
0 -1293 3763 1344 2 MP stroke
gr

DO
%%IncludeResource: font Symbol
/Symbol /WindowsLatin1Encoding 120 FMSR

 250  921 mt  -90 rotate
(s) s
90 rotate
%%IncludeResource: font Helvetica
/Helvetica /WindowsLatin1Encoding 120 FMSR

 250  849 mt  -90 rotate
(\(I\)/) s
90 rotate
%%IncludeResource: font Symbol
/Symbol /WindowsLatin1Encoding 120 FMSR

 250  703 mt  -90 rotate
(s) s
90 rotate
%%IncludeResource: font Helvetica
/Helvetica /WindowsLatin1Encoding 120 FMSR

 250  631 mt  -90 rotate
(\(Y\)) s
90 rotate
SO
1 sg
0 1292 3906 0 0 -1292 441 3139 4 MP
PP
-3906 0 0 1292 3906 0 0 -1292 441 3139 5 MP stroke
4 w
DO

6 wSO
0 sg
 441 1847 mt 4347 1847 L
 441 3139 mt 4347 3139 L
4347 3139 mt 4347 1847 L
 441 3139 mt  441 1847 L
 441 3139 mt 4347 3139 L
 441 3139 mt  441 1847 L
 441 3139 mt  441 3099 L
 441 1847 mt  441 1886 L
 408 3284 mt 
(0) s
1222 3139 mt 1222 3099 L
1222 1847 mt 1222 1886 L
1189 3284 mt 
(2) s
2003 3139 mt 2003 3099 L
2003 1847 mt 2003 1886 L
1970 3284 mt 
(4) s
2784 3139 mt 2784 3099 L
2784 1847 mt 2784 1886 L
2751 3284 mt 
(6) s
3565 3139 mt 3565 3099 L
3565 1847 mt 3565 1886 L
3532 3284 mt 
(8) s
4347 3139 mt 4347 3099 L
4347 1847 mt 4347 1886 L
4281 3284 mt 
(10) s
 441 3139 mt  480 3139 L
4347 3139 mt 4307 3139 L
 340 3183 mt 
(0) s
 441 2649 mt  480 2649 L
4347 2649 mt 4307 2649 L
 240 2693 mt 
(0.5) s
 441 2159 mt  480 2159 L
4347 2159 mt 4307 2159 L
 340 2203 mt 
(1) s
 441 1847 mt 4347 1847 L
 441 3139 mt 4347 3139 L
4347 3139 mt 4347 1847 L
 441 3139 mt  441 1847 L
gs 441 1847 3907 1293 rc
24 w
c8
157 -11 156 -11 156 -12 156 -12 157 -13 156 -13 156 -14 156 -15 
157 -15 156 -15 156 -17 156 -16 157 -18 156 -18 156 -18 156 -19 
157 -20 156 -19 156 -21 156 -21 157 -24 156 -28 156 -47 156 -137 
156 225 441 2802 26 MP stroke
DA
c9
157 -2 156 -2 156 -3 156 -3 157 -2 156 -3 156 -4 156 -3 
157 -4 156 -3 156 -5 156 -4 157 -5 156 -6 156 -6 156 -6 
157 -8 156 -9 156 -10 156 -12 157 -15 156 -19 156 -26 156 -44 
156 -237 441 2503 26 MP stroke

6 wDO
0 sg
0 -1292 3763 3139 2 MP stroke
gr

DO
%%IncludeResource: font Symbol
/Symbol /WindowsLatin1Encoding 120 FMSR

 150 2744 mt  -90 rotate
(s) s
90 rotate
%%IncludeResource: font Helvetica
/Helvetica /WindowsLatin1Encoding 120 FMSR

 150 2672 mt  -90 rotate
(\(C\)/) s
90 rotate
%%IncludeResource: font Symbol
/Symbol /WindowsLatin1Encoding 120 FMSR

 150 2473 mt  -90 rotate
(s) s
90 rotate
%%IncludeResource: font Helvetica
/Helvetica /WindowsLatin1Encoding 120 FMSR

 150 2401 mt  -90 rotate
(\(Y\)) s
90 rotate
%%IncludeResource: font Symbol
/Symbol /WindowsLatin1Encoding 120 FMSR

2352 3421 mt 
(y) s
%%IncludeResource: font Helvetica
/Helvetica /WindowsLatin1Encoding 120 FMSR

 424 3182 mt 
( ) s
4331 1889 mt 
( ) s
SO
1 sg
0 378 935 0 0 -378 2699 3055 4 MP
PP
-935 0 0 378 935 0 0 -378 2699 3055 5 MP stroke
4 w
DO

6 wSO
0 sg
2699 2677 mt 3634 2677 L
2699 3055 mt 3634 3055 L
3634 3055 mt 3634 2677 L
2699 3055 mt 2699 2677 L
2699 3055 mt 3634 3055 L
2699 3055 mt 2699 2677 L
2699 2677 mt 3634 2677 L
2699 3055 mt 3634 3055 L
3634 3055 mt 3634 2677 L
2699 3055 mt 2699 2677 L
3172 2824 mt 
(learning) s
gs 2699 2677 936 379 rc
24 w
c8
363 0 2771 2782 2 MP stroke
gr

24 w
c8
0 sg
3172 2993 mt 
(RE) s
gs 2699 2677 936 379 rc
DA
c9
363 0 2771 2950 2 MP stroke

6 wSO
gr

6 w
c9

end %%Color Dict

eplot
%%EndObject

epage
end

showpage

%%Trailer
%%EOF
