%!PS-Adobe-3.0 EPSF-3.0
%%Creator: MATLAB, The MathWorks, Inc. Version 8.3.0.532 (R2014a). Operating System: Microsoft Windows 7 Enterprise .
%%Title: C:\Users\winklerh\Dropbox\PhD\jmp\timeseries.eps
%%CreationDate: 10/10/2014  18:54:53
%%DocumentNeededFonts: Helvetica
%%DocumentProcessColors: Cyan Magenta Yellow Black
%%LanguageLevel: 2
%%Pages: 1
%%BoundingBox:    87   265   507   576
%%EndComments

%%BeginProlog
% MathWorks dictionary
/MathWorks 160 dict begin
% definition operators
/bdef {bind def} bind def
/ldef {load def} bind def
/xdef {exch def} bdef
/xstore {exch store} bdef
% operator abbreviations
/c  /clip ldef
/cc /concat ldef
/cp /closepath ldef
/gr /grestore ldef
/gs /gsave ldef
/mt /moveto ldef
/np /newpath ldef
/cm /currentmatrix ldef
/sm /setmatrix ldef
/rm /rmoveto ldef
/rl /rlineto ldef
/s {show newpath} bdef
/sc {setcmykcolor} bdef
/sr /setrgbcolor ldef
/sg /setgray ldef
/w /setlinewidth ldef
/j /setlinejoin ldef
/cap /setlinecap ldef
/rc {rectclip} bdef
/rf {rectfill} bdef
% page state control
/pgsv () def
/bpage {/pgsv save def} bdef
/epage {pgsv restore} bdef
/bplot /gsave ldef
/eplot {stroke grestore} bdef
% orientation switch
/portraitMode 0 def /landscapeMode 1 def /rotateMode 2 def
% coordinate system mappings
/dpi2point 0 def
% font control
/FontSize 0 def
/FMS {/FontSize xstore findfont [FontSize 0 0 FontSize neg 0 0]
  makefont setfont} bdef
/ISOLatin1Encoding where {pop /WindowsLatin1Encoding 256 array bdef
ISOLatin1Encoding WindowsLatin1Encoding copy pop
/.notdef/.notdef/quotesinglbase/florin/quotedblbase/ellipsis/dagger
/daggerdbl/circumflex/perthousand/Scaron/guilsinglleft/OE/.notdef/.notdef
/.notdef/.notdef/quoteleft/quoteright/quotedblleft/quotedblright/bullet
/endash/emdash/tilde/trademark/scaron/guilsinglright/oe/.notdef/.notdef
/Ydieresis WindowsLatin1Encoding 128 32 getinterval astore pop}
{/WindowsLatin1Encoding StandardEncoding bdef} ifelse
/reencode {exch dup where {pop load} {pop StandardEncoding} ifelse
  exch dup 3 1 roll findfont dup length dict begin
  { 1 index /FID ne {def}{pop pop} ifelse } forall
  /Encoding exch def currentdict end definefont pop} bdef
/isroman {findfont /CharStrings get /Agrave known} bdef
/FMSR {3 1 roll 1 index dup isroman {reencode} {pop pop} ifelse
  exch FMS} bdef
/csm {1 dpi2point div -1 dpi2point div scale neg translate
 dup landscapeMode eq {pop -90 rotate}
  {rotateMode eq {90 rotate} if} ifelse} bdef
% line types: solid, dotted, dashed, dotdash
/dom { dpi2point 1 currentlinewidth 0.08 mul add mul mul } bdef/dam { dpi2point 2 currentlinewidth 0.04 mul add mul mul } bdef/SO { [] 0 setdash 0 setlinecap } bdef/DO { [1 dom 1.2 dom] 0 setdash 0 setlinecap } bdef/DA { [4 dam 1.5 dam] 0 setdash 0 setlinecap } bdef/DD { [1 dom 1.2 dom 4 dam 1.2 dom] 0 setdash 0 setlinecap } bdef/GR { [0 dpi2point mul 4 dpi2point mul] 0 setdash 1 setlinecap } bdef% macros for lines and objects
/L {lineto stroke} bdef
/MP {3 1 roll moveto 1 sub {rlineto} repeat} bdef
/AP {{rlineto} repeat} bdef
/PDlw -1 def
/W {/PDlw currentlinewidth def setlinewidth} def
/PP {closepath eofill} bdef
/DP {closepath stroke} bdef
/MR {4 -2 roll moveto dup  0 exch rlineto exch 0 rlineto
  neg 0 exch rlineto closepath} bdef
/FR {MR stroke} bdef
/PR {MR fill} bdef
/L1i {{currentfile picstr readhexstring pop} image} bdef
/tMatrix matrix def
/MakeOval {newpath tMatrix currentmatrix pop translate scale
0 0 1 0 360 arc tMatrix setmatrix} bdef
/FO {MakeOval stroke} bdef
/PO {MakeOval fill} bdef
/PD {currentlinewidth 2 div 0 360 arc fill
   PDlw -1 eq not {PDlw w /PDlw -1 def} if} def
/FA {newpath tMatrix currentmatrix pop translate scale
  0 0 1 5 -2 roll arc tMatrix setmatrix stroke} bdef
/PA {newpath tMatrix currentmatrix pop	translate 0 0 moveto scale
  0 0 1 5 -2 roll arc closepath tMatrix setmatrix fill} bdef
/FAn {newpath tMatrix currentmatrix pop translate scale
  0 0 1 5 -2 roll arcn tMatrix setmatrix stroke} bdef
/PAn {newpath tMatrix currentmatrix pop translate 0 0 moveto scale
  0 0 1 5 -2 roll arcn closepath tMatrix setmatrix fill} bdef
/vradius 0 def /hradius 0 def /lry 0 def
/lrx 0 def /uly 0 def /ulx 0 def /rad 0 def
/MRR {/vradius xdef /hradius xdef /lry xdef /lrx xdef /uly xdef
  /ulx xdef newpath tMatrix currentmatrix pop ulx hradius add uly
  vradius add translate hradius vradius scale 0 0 1 180 270 arc 
  tMatrix setmatrix lrx hradius sub uly vradius add translate
  hradius vradius scale 0 0 1 270 360 arc tMatrix setmatrix
  lrx hradius sub lry vradius sub translate hradius vradius scale
  0 0 1 0 90 arc tMatrix setmatrix ulx hradius add lry vradius sub
  translate hradius vradius scale 0 0 1 90 180 arc tMatrix setmatrix
  closepath} bdef
/FRR {MRR stroke } bdef
/PRR {MRR fill } bdef
/MlrRR {/lry xdef /lrx xdef /uly xdef /ulx xdef /rad lry uly sub 2 div def
  newpath tMatrix currentmatrix pop ulx rad add uly rad add translate
  rad rad scale 0 0 1 90 270 arc tMatrix setmatrix lrx rad sub lry rad
  sub translate rad rad scale 0 0 1 270 90 arc tMatrix setmatrix
  closepath} bdef
/FlrRR {MlrRR stroke } bdef
/PlrRR {MlrRR fill } bdef
/MtbRR {/lry xdef /lrx xdef /uly xdef /ulx xdef /rad lrx ulx sub 2 div def
  newpath tMatrix currentmatrix pop ulx rad add uly rad add translate
  rad rad scale 0 0 1 180 360 arc tMatrix setmatrix lrx rad sub lry rad
  sub translate rad rad scale 0 0 1 0 180 arc tMatrix setmatrix
  closepath} bdef
/FtbRR {MtbRR stroke } bdef
/PtbRR {MtbRR fill } bdef
/stri 6 array def /dtri 6 array def
/smat 6 array def /dmat 6 array def
/tmat1 6 array def /tmat2 6 array def /dif 3 array def
/asub {/ind2 exch def /ind1 exch def dup dup
  ind1 get exch ind2 get sub exch } bdef
/tri_to_matrix {
  2 0 asub 3 1 asub 4 0 asub 5 1 asub
  dup 0 get exch 1 get 7 -1 roll astore } bdef
/compute_transform {
  dmat dtri tri_to_matrix tmat1 invertmatrix 
  smat stri tri_to_matrix tmat2 concatmatrix } bdef
/ds {stri astore pop} bdef
/dt {dtri astore pop} bdef
/db {2 copy /cols xdef /rows xdef mul dup 3 mul string
  currentfile 
  3 index 0 eq {/ASCIIHexDecode filter}
  {/ASCII85Decode filter 3 index 2 eq {/RunLengthDecode filter} if }
  ifelse exch readstring pop
  dup 0 3 index getinterval /rbmap xdef
  dup 2 index dup getinterval /gbmap xdef
  1 index dup 2 mul exch getinterval /bbmap xdef pop pop}bdef
/it {gs np dtri aload pop moveto lineto lineto cp c
  cols rows 8 compute_transform 
  rbmap gbmap bbmap true 3 colorimage gr}bdef
/il {newpath moveto lineto stroke}bdef
currentdict end def
%%EndProlog

%%BeginSetup
MathWorks begin

0 cap

end
%%EndSetup

%%Page: 1 1
%%BeginPageSetup
%%PageBoundingBox:    87   265   507   576
MathWorks begin
bpage
%%EndPageSetup

%%BeginObject: obj1
bplot

/dpi2point 12 def
portraitMode 1044 6912 csm

    0     0  5045  3728 rc
86 dict begin %Colortable dictionary
/c0 { 0.000000 0.000000 0.000000 sr} bdef
/c1 { 1.000000 1.000000 1.000000 sr} bdef
/c2 { 0.900000 0.000000 0.000000 sr} bdef
/c3 { 0.000000 0.820000 0.000000 sr} bdef
/c4 { 0.000000 0.000000 0.800000 sr} bdef
/c5 { 0.910000 0.820000 0.320000 sr} bdef
/c6 { 1.000000 0.260000 0.820000 sr} bdef
/c7 { 0.000000 0.820000 0.820000 sr} bdef
c0
1 j
1 sg
   0    0 5046 3729 rf
6 w
0 3039 3910 0 0 -3039 656 3318 4 MP
PP
-3910 0 0 3039 3910 0 0 -3039 656 3318 5 MP stroke
4 w
DO

6 wSO
0 sg
 656  279 mt 4566  279 L
 656 3318 mt 4566 3318 L
4566 3318 mt 4566  279 L
 656 3318 mt  656  279 L
 656 3318 mt 4566 3318 L
 656 3318 mt  656  279 L
 656 3318 mt  656 3278 L
 656  280 mt  656  319 L
%%IncludeResource: font Helvetica
/Helvetica /WindowsLatin1Encoding 120 FMSR

 623 3463 mt 
(0) s
1544 3318 mt 1544 3278 L
1544  280 mt 1544  319 L
1478 3463 mt 
(50) s
2433 3318 mt 2433 3278 L
2433  280 mt 2433  319 L
2333 3463 mt 
(100) s
3321 3318 mt 3321 3278 L
3321  280 mt 3321  319 L
3221 3463 mt 
(150) s
4210 3318 mt 4210 3278 L
4210  280 mt 4210  319 L
4110 3463 mt 
(200) s
 656 3223 mt  695 3223 L
4566 3223 mt 4526 3223 L
 555 3267 mt 
(0) s
 656 2787 mt  695 2787 L
4566 2787 mt 4526 2787 L
 455 2831 mt 
(0.2) s
 656 2351 mt  695 2351 L
4566 2351 mt 4526 2351 L
 455 2395 mt 
(0.4) s
 656 1915 mt  695 1915 L
4566 1915 mt 4526 1915 L
 455 1959 mt 
(0.6) s
 656 1478 mt  695 1478 L
4566 1478 mt 4526 1478 L
 455 1522 mt 
(0.8) s
 656 1042 mt  695 1042 L
4566 1042 mt 4526 1042 L
 555 1086 mt 
(1) s
 656  606 mt  695  606 L
4566  606 mt 4526  606 L
 455  650 mt 
(1.2) s
 656  279 mt 4566  279 L
 656 3318 mt 4566 3318 L
4566 3318 mt 4566  279 L
 656 3318 mt  656  279 L
 612 3388 mt 
( ) s
4523  349 mt 
( ) s
gs 656 280 3911 3039 rc
DO
0.66 sg
1 0 18 0 18 0 18 0 18 0 17 0 18 0 18 0 
18 0 17 0 18 0 18 0 18 0 18 0 17 0 18 0 
18 0 18 0 17 0 18 0 18 0 18 0 17 0 18 0 
18 0 18 0 18 0 17 0 18 0 18 0 18 0 17 0 
18 0 18 0 18 0 18 0 17 0 18 0 18 0 18 0 
17 0 18 0 18 0 18 0 17 0 18 0 18 0 18 0 
18 0 17 0 18 0 18 0 18 0 17 0 18 0 18 0 
18 0 18 0 17 0 18 0 18 0 18 0 17 0 18 0 
18 0 18 0 17 0 18 0 18 0 18 0 18 0 17 0 
18 0 18 0 18 0 17 0 18 0 18 0 18 0 18 0 
17 0 18 0 18 0 18 0 17 0 18 0 18 0 18 0 
17 0 18 0 18 0 18 0 18 0 17 0 18 0 18 0 
18 0 17 0 18 0 18 0 18 0 18 0 17 0 18 0 
18 0 18 0 17 0 18 0 18 0 18 0 17 0 18 0 
18 0 18 0 18 0 17 0 18 0 18 0 18 0 17 0 
18 0 18 0 18 0 18 0 17 0 18 0 18 0 18 0 
17 0 18 0 18 0 18 0 17 0 18 0 18 0 18 0 
18 0 17 0 18 0 18 0 18 0 17 0 18 0 18 0 
18 0 18 0 17 0 18 0 18 0 18 0 17 0 18 0 
18 0 18 0 17 0 18 0 18 0 18 0 18 0 17 0 
18 0 18 0 18 0 17 0 18 0 18 0 18 0 18 0 
17 0 18 0 18 0 18 0 17 0 18 0 18 0 18 0 
17 0 18 0 18 0 18 0 18 0 17 0 18 0 18 0 
18 0 17 0 18 0 18 0 18 0 18 0 17 0 18 0 
18 0 18 0 17 0 18 0 18 0 18 0 17 0 18 0 
18 0 18 0 18 0 17 0 18 0 18 0 18 0 17 0 
18 0 18 0 18 0 18 0 17 0 18 0 18 0 18 0 
17 0 18 0 18 0 18 0 673 3223 221 MP stroke
1 0 18 0 18 0 18 0 18 0 17 0 18 0 18 0 
18 0 17 0 18 0 18 0 18 0 18 0 17 0 18 0 
18 0 18 0 17 0 18 0 18 0 18 0 17 0 18 0 
18 0 18 0 18 0 17 0 18 0 18 0 18 0 17 0 
18 0 18 0 18 0 18 0 17 0 18 0 18 0 18 0 
17 0 18 0 18 0 18 0 17 0 18 0 18 0 18 0 
18 0 17 0 18 0 18 0 18 0 17 0 18 0 18 0 
18 0 18 0 17 0 18 0 18 0 18 0 17 0 18 0 
18 0 18 0 17 0 18 0 18 0 18 0 18 0 17 0 
18 0 18 0 18 0 17 0 18 0 18 0 18 0 18 0 
17 0 18 0 18 0 18 0 17 0 18 0 18 0 18 0 
17 0 18 0 18 0 18 0 18 0 17 0 18 0 18 0 
18 0 17 0 18 0 18 0 18 0 18 0 17 0 18 0 
18 0 18 0 17 0 18 0 18 0 18 0 17 0 18 0 
18 0 18 0 18 0 17 0 18 0 18 0 18 0 17 0 
18 0 18 0 18 0 18 0 17 0 18 0 18 0 18 0 
17 0 18 0 18 0 18 0 17 0 18 0 18 0 18 0 
18 0 17 0 18 0 18 0 18 0 17 0 18 0 18 0 
18 0 18 0 17 0 18 0 18 0 18 0 17 0 18 0 
18 0 18 0 17 0 18 0 18 0 18 0 18 0 17 0 
18 0 18 0 18 0 17 0 18 0 18 0 18 0 18 0 
17 0 18 0 18 0 18 0 17 0 18 0 18 0 18 0 
17 0 18 0 18 0 18 0 18 0 17 0 18 0 18 0 
18 0 17 0 18 0 18 0 18 0 18 0 17 0 18 0 
18 0 18 0 17 0 18 0 18 0 18 0 17 0 18 0 
18 0 18 0 18 0 17 0 18 0 18 0 18 0 17 0 
18 0 18 0 18 0 18 0 17 0 18 0 18 0 18 0 
17 0 18 0 18 0 18 0 673 3005 221 MP stroke
1 0 18 0 18 0 18 0 18 0 17 0 18 0 18 0 
18 0 17 0 18 0 18 0 18 0 18 0 17 0 18 0 
18 0 18 0 17 0 18 0 18 0 18 0 17 0 18 0 
18 0 18 0 18 0 17 0 18 0 18 0 18 0 17 0 
18 0 18 0 18 0 18 0 17 0 18 0 18 0 18 0 
17 0 18 0 18 0 18 0 17 0 18 0 18 0 18 0 
18 0 17 0 18 0 18 0 18 0 17 0 18 0 18 0 
18 0 18 0 17 0 18 0 18 0 18 0 17 0 18 0 
18 0 18 0 17 0 18 0 18 0 18 0 18 0 17 0 
18 0 18 0 18 0 17 0 18 0 18 0 18 0 18 0 
17 0 18 0 18 0 18 0 17 0 18 0 18 0 18 0 
17 0 18 0 18 0 18 0 18 0 17 0 18 0 18 0 
18 0 17 0 18 0 18 0 18 0 18 0 17 0 18 0 
18 0 18 0 17 0 18 0 18 0 18 0 17 0 18 0 
18 0 18 0 18 0 17 0 18 0 18 0 18 0 17 0 
18 0 18 0 18 0 18 0 17 0 18 0 18 0 18 0 
17 0 18 0 18 0 18 0 17 0 18 0 18 0 18 0 
18 0 17 0 18 0 18 0 18 0 17 0 18 0 18 0 
18 0 18 0 17 0 18 0 18 0 18 0 17 0 18 0 
18 0 18 0 17 0 18 0 18 0 18 0 18 0 17 0 
18 0 18 0 18 0 17 0 18 0 18 0 18 0 18 0 
17 0 18 0 18 0 18 0 17 0 18 0 18 0 18 0 
17 0 18 0 18 0 18 0 18 0 17 0 18 0 18 0 
18 0 17 0 18 0 18 0 18 0 18 0 17 0 18 0 
18 0 18 0 17 0 18 0 18 0 18 0 17 0 18 0 
18 0 18 0 18 0 17 0 18 0 18 0 18 0 17 0 
18 0 18 0 18 0 18 0 17 0 18 0 18 0 18 0 
17 0 18 0 18 0 18 0 673 2787 221 MP stroke
1 0 18 0 18 0 18 0 18 0 17 0 18 0 18 0 
18 0 17 0 18 0 18 0 18 0 18 0 17 0 18 0 
18 0 18 0 17 0 18 0 18 0 18 0 17 0 18 0 
18 0 18 0 18 0 17 0 18 0 18 0 18 0 17 0 
18 0 18 0 18 0 18 0 17 0 18 0 18 0 18 0 
17 0 18 0 18 0 18 0 17 0 18 0 18 0 18 0 
18 0 17 0 18 0 18 0 18 0 17 0 18 0 18 0 
18 0 18 0 17 0 18 0 18 0 18 0 17 0 18 0 
18 0 18 0 17 0 18 0 18 0 18 0 18 0 17 0 
18 0 18 0 18 0 17 0 18 0 18 0 18 0 18 0 
17 0 18 0 18 0 18 0 17 0 18 0 18 0 18 0 
17 0 18 0 18 0 18 0 18 0 17 0 18 0 18 0 
18 0 17 0 18 0 18 0 18 0 18 0 17 0 18 0 
18 0 18 0 17 0 18 0 18 0 18 0 17 0 18 0 
18 0 18 0 18 0 17 0 18 0 18 0 18 0 17 0 
18 0 18 0 18 0 18 0 17 0 18 0 18 0 18 0 
17 0 18 0 18 0 18 0 17 0 18 0 18 0 18 0 
18 0 17 0 18 0 18 0 18 0 17 0 18 0 18 0 
18 0 18 0 17 0 18 0 18 0 18 0 17 0 18 0 
18 0 18 0 17 0 18 0 18 0 18 0 18 0 17 0 
18 0 18 0 18 0 17 0 18 0 18 0 18 0 18 0 
17 0 18 0 18 0 18 0 17 0 18 0 18 0 18 0 
17 0 18 0 18 0 18 0 18 0 17 0 18 0 18 0 
18 0 17 0 18 0 18 0 18 0 18 0 17 0 18 0 
18 0 18 0 17 0 18 0 18 0 18 0 17 0 18 0 
18 0 18 0 18 0 17 0 18 0 18 0 18 0 17 0 
18 0 18 0 18 0 18 0 17 0 18 0 18 0 18 0 
17 0 18 0 18 0 18 0 673 2569 221 MP stroke
1 0 18 0 18 0 18 0 18 0 17 0 18 0 18 0 
18 0 17 0 18 0 18 0 18 0 18 0 17 0 18 0 
18 0 18 0 17 0 18 0 18 0 18 0 17 0 18 0 
18 0 18 0 18 0 17 0 18 0 18 0 18 0 17 0 
18 0 18 0 18 0 18 0 17 0 18 0 18 0 18 0 
17 0 18 0 18 0 18 0 17 0 18 0 18 0 18 0 
18 0 17 0 18 0 18 0 18 0 17 0 18 0 18 0 
18 0 18 0 17 0 18 0 18 0 18 0 17 0 18 0 
18 0 18 0 17 0 18 0 18 0 18 0 18 0 17 0 
18 0 18 0 18 0 17 0 18 0 18 0 18 0 18 0 
17 0 18 0 18 0 18 0 17 0 18 0 18 0 18 0 
17 0 18 0 18 0 18 0 18 0 17 0 18 0 18 0 
18 0 17 0 18 0 18 0 18 0 18 0 17 0 18 0 
18 0 18 0 17 0 18 0 18 0 18 0 17 0 18 0 
18 0 18 0 18 0 17 0 18 0 18 0 18 0 17 0 
18 0 18 0 18 0 18 0 17 0 18 0 18 0 18 0 
17 0 18 0 18 0 18 0 17 0 18 0 18 0 18 0 
18 0 17 0 18 0 18 0 18 0 17 0 18 0 18 0 
18 0 18 0 17 0 18 0 18 0 18 0 17 0 18 0 
18 0 18 0 17 0 18 0 18 0 18 0 18 0 17 0 
18 0 18 0 18 0 17 0 18 0 18 0 18 0 18 0 
17 0 18 0 18 0 18 0 17 0 18 0 18 0 18 0 
17 0 18 0 18 0 18 0 18 0 17 0 18 0 18 0 
18 0 17 0 18 0 18 0 18 0 18 0 17 0 18 0 
18 0 18 0 17 0 18 0 18 0 18 0 17 0 18 0 
18 0 18 0 18 0 17 0 18 0 18 0 18 0 17 0 
18 0 18 0 18 0 18 0 17 0 18 0 18 0 18 0 
17 0 18 0 18 0 18 0 673 2351 221 MP stroke
1 0 18 0 18 0 18 0 18 0 17 0 18 0 18 0 
18 0 17 0 18 0 18 0 18 0 18 0 17 0 18 0 
18 0 18 0 17 0 18 0 18 0 18 0 17 0 18 0 
18 0 18 0 18 0 17 0 18 0 18 0 18 0 17 0 
18 0 18 0 18 0 18 0 17 0 18 0 18 0 18 0 
17 0 18 0 18 0 18 0 17 0 18 0 18 0 18 0 
18 0 17 0 18 0 18 0 18 0 17 0 18 0 18 0 
18 0 18 0 17 0 18 0 18 0 18 0 17 0 18 0 
18 0 18 0 17 0 18 0 18 0 18 0 18 0 17 0 
18 0 18 0 18 0 17 0 18 0 18 0 18 0 18 0 
17 0 18 0 18 0 18 0 17 0 18 0 18 0 18 0 
17 0 18 0 18 0 18 0 18 0 17 0 18 0 18 0 
18 0 17 0 18 0 18 0 18 0 18 0 17 0 18 0 
18 0 18 0 17 0 18 0 18 0 18 0 17 0 18 0 
18 0 18 0 18 0 17 0 18 0 18 0 18 0 17 0 
18 0 18 0 18 0 18 0 17 0 18 0 18 0 18 0 
17 0 18 0 18 0 18 0 17 0 18 0 18 0 18 0 
18 0 17 0 18 0 18 0 18 0 17 0 18 0 18 0 
18 0 18 0 17 0 18 0 18 0 18 0 17 0 18 0 
18 0 18 0 17 0 18 0 18 0 18 0 18 0 17 0 
18 0 18 0 18 0 17 0 18 0 18 0 18 0 18 0 
17 0 18 0 18 0 18 0 17 0 18 0 18 0 18 0 
17 0 18 0 18 0 18 0 18 0 17 0 18 0 18 0 
18 0 17 0 18 0 18 0 18 0 18 0 17 0 18 0 
18 0 18 0 17 0 18 0 18 0 18 0 17 0 18 0 
18 0 18 0 18 0 17 0 18 0 18 0 18 0 17 0 
18 0 18 0 18 0 18 0 17 0 18 0 18 0 18 0 
17 0 18 0 18 0 18 0 673 2133 221 MP stroke
1 0 18 0 18 0 18 0 18 0 17 0 18 0 18 0 
18 0 17 0 18 0 18 0 18 0 18 0 17 0 18 0 
18 0 18 0 17 0 18 0 18 0 18 0 17 0 18 0 
18 0 18 0 18 0 17 0 18 0 18 0 18 0 17 0 
18 0 18 0 18 0 18 0 17 0 18 0 18 0 18 0 
17 0 18 0 18 0 18 0 17 0 18 0 18 0 18 0 
18 0 17 0 18 0 18 0 18 0 17 0 18 0 18 0 
18 0 18 0 17 0 18 0 18 0 18 0 17 0 18 0 
18 0 18 0 17 0 18 0 18 0 18 0 18 0 17 0 
18 0 18 0 18 0 17 0 18 0 18 0 18 0 18 0 
17 0 18 0 18 0 18 0 17 0 18 0 18 0 18 0 
17 0 18 0 18 0 18 0 18 0 17 0 18 0 18 0 
18 0 17 0 18 0 18 0 18 0 18 0 17 0 18 0 
18 0 18 0 17 0 18 0 18 0 18 0 17 0 18 0 
18 0 18 0 18 0 17 0 18 0 18 0 18 0 17 0 
18 0 18 0 18 0 18 0 17 0 18 0 18 0 18 0 
17 0 18 0 18 0 18 0 17 0 18 0 18 0 18 0 
18 0 17 0 18 0 18 0 18 0 17 0 18 0 18 0 
18 0 18 0 17 0 18 0 18 0 18 0 17 0 18 0 
18 0 18 0 17 0 18 0 18 0 18 0 18 0 17 0 
18 0 18 0 18 0 17 0 18 0 18 0 18 0 18 0 
17 0 18 0 18 0 18 0 17 0 18 0 18 0 18 0 
17 0 18 0 18 0 18 0 18 0 17 0 18 0 18 0 
18 0 17 0 18 0 18 0 18 0 18 0 17 0 18 0 
18 0 18 0 17 0 18 0 18 0 18 0 17 0 18 0 
18 0 18 0 18 0 17 0 18 0 18 0 18 0 17 0 
18 0 18 0 18 0 18 0 17 0 18 0 18 0 18 0 
17 0 18 0 18 0 18 0 673 1915 221 MP stroke
1 0 18 0 18 0 18 0 18 0 17 0 18 0 18 0 
18 0 17 0 18 0 18 0 18 0 18 0 17 0 18 0 
18 0 18 0 17 0 18 0 18 0 18 0 17 0 18 0 
18 0 18 0 18 0 17 0 18 0 18 0 18 0 17 0 
18 0 18 0 18 0 18 0 17 0 18 0 18 0 18 0 
17 0 18 0 18 0 18 0 17 0 18 0 18 0 18 0 
18 0 17 0 18 0 18 0 18 0 17 0 18 0 18 0 
18 0 18 0 17 0 18 0 18 0 18 0 17 0 18 0 
18 0 18 0 17 0 18 0 18 0 18 0 18 0 17 0 
18 0 18 0 18 0 17 0 18 0 18 0 18 0 18 0 
17 0 18 0 18 0 18 0 17 0 18 0 18 0 18 0 
17 0 18 0 18 0 18 0 18 0 17 0 18 0 18 0 
18 0 17 0 18 0 18 0 18 0 18 0 17 0 18 0 
18 0 18 0 17 0 18 0 18 0 18 0 17 0 18 0 
18 0 18 0 18 0 17 0 18 0 18 0 18 0 17 0 
18 0 18 0 18 0 18 0 17 0 18 0 18 0 18 0 
17 0 18 0 18 0 18 0 17 0 18 0 18 0 18 0 
18 0 17 0 18 0 18 0 18 0 17 0 18 0 18 0 
18 0 18 0 17 0 18 0 18 0 18 0 17 0 18 0 
18 0 18 0 17 0 18 0 18 0 18 0 18 0 17 0 
18 0 18 0 18 0 17 0 18 0 18 0 18 0 18 0 
17 0 18 0 18 0 18 0 17 0 18 0 18 0 18 0 
17 0 18 0 18 0 18 0 18 0 17 0 18 0 18 0 
18 0 17 0 18 0 18 0 18 0 18 0 17 0 18 0 
18 0 18 0 17 0 18 0 18 0 18 0 17 0 18 0 
18 0 18 0 18 0 17 0 18 0 18 0 18 0 17 0 
18 0 18 0 18 0 18 0 17 0 18 0 18 0 18 0 
17 0 18 0 18 0 18 0 673 1697 221 MP stroke
1 0 18 0 18 0 18 0 18 0 17 0 18 0 18 0 
18 0 17 0 18 0 18 0 18 0 18 0 17 0 18 0 
18 0 18 0 17 0 18 0 18 0 18 0 17 0 18 0 
18 0 18 0 18 0 17 0 18 0 18 0 18 0 17 0 
18 0 18 0 18 0 18 0 17 0 18 0 18 0 18 0 
17 0 18 0 18 0 18 0 17 0 18 0 18 0 18 0 
18 0 17 0 18 0 18 0 18 0 17 0 18 0 18 0 
18 0 18 0 17 0 18 0 18 0 18 0 17 0 18 0 
18 0 18 0 17 0 18 0 18 0 18 0 18 0 17 0 
18 0 18 0 18 0 17 0 18 0 18 0 18 0 18 0 
17 0 18 0 18 0 18 0 17 0 18 0 18 0 18 0 
17 0 18 0 18 0 18 0 18 0 17 0 18 0 18 0 
18 0 17 0 18 0 18 0 18 0 18 0 17 0 18 0 
18 0 18 0 17 0 18 0 18 0 18 0 17 0 18 0 
18 0 18 0 18 0 17 0 18 0 18 0 18 0 17 0 
18 0 18 0 18 0 18 0 17 0 18 0 18 0 18 0 
17 0 18 0 18 0 18 0 17 0 18 0 18 0 18 0 
18 0 17 0 18 0 18 0 18 0 17 0 18 0 18 0 
18 0 18 0 17 0 18 0 18 0 18 0 17 0 18 0 
18 0 18 0 17 0 18 0 18 0 18 0 18 0 17 0 
18 0 18 0 18 0 17 0 18 0 18 0 18 0 18 0 
17 0 18 0 18 0 18 0 17 0 18 0 18 0 18 0 
17 0 18 0 18 0 18 0 18 0 17 0 18 0 18 0 
18 0 17 0 18 0 18 0 18 0 18 0 17 0 18 0 
18 0 18 0 17 0 18 0 18 0 18 0 17 0 18 0 
18 0 18 0 18 0 17 0 18 0 18 0 18 0 17 0 
18 0 18 0 18 0 18 0 17 0 18 0 18 0 18 0 
17 0 18 0 18 0 18 0 673 1478 221 MP stroke
1 0 18 0 18 0 18 0 18 0 17 0 18 0 18 0 
18 0 17 0 18 0 18 0 18 0 18 0 17 0 18 0 
18 0 18 0 17 0 18 0 18 0 18 0 17 0 18 0 
18 0 18 0 18 0 17 0 18 0 18 0 18 0 17 0 
18 0 18 0 18 0 18 0 17 0 18 0 18 0 18 0 
17 0 18 0 18 0 18 0 17 0 18 0 18 0 18 0 
18 0 17 0 18 0 18 0 18 0 17 0 18 0 18 0 
18 0 18 0 17 0 18 0 18 0 18 0 17 0 18 0 
18 0 18 0 17 0 18 0 18 0 18 0 18 0 17 0 
18 0 18 0 18 0 17 0 18 0 18 0 18 0 18 0 
17 0 18 0 18 0 18 0 17 0 18 0 18 0 18 0 
17 0 18 0 18 0 18 0 18 0 17 0 18 0 18 0 
18 0 17 0 18 0 18 0 18 0 18 0 17 0 18 0 
18 0 18 0 17 0 18 0 18 0 18 0 17 0 18 0 
18 0 18 0 18 0 17 0 18 0 18 0 18 0 17 0 
18 0 18 0 18 0 18 0 17 0 18 0 18 0 18 0 
17 0 18 0 18 0 18 0 17 0 18 0 18 0 18 0 
18 0 17 0 18 0 18 0 18 0 17 0 18 0 18 0 
18 0 18 0 17 0 18 0 18 0 18 0 17 0 18 0 
18 0 18 0 17 0 18 0 18 0 18 0 18 0 17 0 
18 0 18 0 18 0 17 0 18 0 18 0 18 0 18 0 
17 0 18 0 18 0 18 0 17 0 18 0 18 0 18 0 
17 0 18 0 18 0 18 0 18 0 17 0 18 0 18 0 
18 0 17 0 18 0 18 0 18 0 18 0 17 0 18 0 
18 0 18 0 17 0 18 0 18 0 18 0 17 0 18 0 
18 0 18 0 18 0 17 0 18 0 18 0 18 0 17 0 
18 0 18 0 18 0 18 0 17 0 18 0 18 0 18 0 
17 0 18 0 18 0 18 0 673 1260 221 MP stroke
1 0 18 0 18 0 18 0 18 0 17 0 18 0 18 0 
18 0 17 0 18 0 18 0 18 0 18 0 17 0 18 0 
18 0 18 0 17 0 18 0 18 0 18 0 17 0 18 0 
18 0 18 0 18 0 17 0 18 0 18 0 18 0 17 0 
18 0 18 0 18 0 18 0 17 0 18 0 18 0 18 0 
17 0 18 0 18 0 18 0 17 0 18 0 18 0 18 0 
18 0 17 0 18 0 18 0 18 0 17 0 18 0 18 0 
18 0 18 0 17 0 18 0 18 0 18 0 17 0 18 0 
18 0 18 0 17 0 18 0 18 0 18 0 18 0 17 0 
18 0 18 0 18 0 17 0 18 0 18 0 18 0 18 0 
17 0 18 0 18 0 18 0 17 0 18 0 18 0 18 0 
17 0 18 0 18 0 18 0 18 0 17 0 18 0 18 0 
18 0 17 0 18 0 18 0 18 0 18 0 17 0 18 0 
18 0 18 0 17 0 18 0 18 0 18 0 17 0 18 0 
18 0 18 0 18 0 17 0 18 0 18 0 18 0 17 0 
18 0 18 0 18 0 18 0 17 0 18 0 18 0 18 0 
17 0 18 0 18 0 18 0 17 0 18 0 18 0 18 0 
18 0 17 0 18 0 18 0 18 0 17 0 18 0 18 0 
18 0 18 0 17 0 18 0 18 0 18 0 17 0 18 0 
18 0 18 0 17 0 18 0 18 0 18 0 18 0 17 0 
18 0 18 0 18 0 17 0 18 0 18 0 18 0 18 0 
17 0 18 0 18 0 18 0 17 0 18 0 18 0 18 0 
17 0 18 0 18 0 18 0 18 0 17 0 18 0 18 0 
18 0 17 0 18 0 18 0 18 0 18 0 17 0 18 0 
18 0 18 0 17 0 18 0 18 0 18 0 17 0 18 0 
18 0 18 0 18 0 17 0 18 0 18 0 18 0 17 0 
18 0 18 0 18 0 18 0 17 0 18 0 18 0 18 0 
17 0 18 0 18 0 18 0 673 1042 221 MP stroke
1 0 18 0 18 0 18 0 18 0 17 0 18 0 18 0 
18 0 17 0 18 0 18 0 18 0 18 0 17 0 18 0 
18 0 18 0 17 0 18 0 18 0 18 0 17 0 18 0 
18 0 18 0 18 0 17 0 18 0 18 0 18 0 17 0 
18 0 18 0 18 0 18 0 17 0 18 0 18 0 18 0 
17 0 18 0 18 0 18 0 17 0 18 0 18 0 18 0 
18 0 17 0 18 0 18 0 18 0 17 0 18 0 18 0 
18 0 18 0 17 0 18 0 18 0 18 0 17 0 18 0 
18 0 18 0 17 0 18 0 18 0 18 0 18 0 17 0 
18 0 18 0 18 0 17 0 18 0 18 0 18 0 18 0 
17 0 18 0 18 0 18 0 17 0 18 0 18 0 18 0 
17 0 18 0 18 0 18 0 18 0 17 0 18 0 18 0 
18 0 17 0 18 0 18 0 18 0 18 0 17 0 18 0 
18 0 18 0 17 0 18 0 18 0 18 0 17 0 18 0 
18 0 18 0 18 0 17 0 18 0 18 0 18 0 17 0 
18 0 18 0 18 0 18 0 17 0 18 0 18 0 18 0 
17 0 18 0 18 0 18 0 17 0 18 0 18 0 18 0 
18 0 17 0 18 0 18 0 18 0 17 0 18 0 18 0 
18 0 18 0 17 0 18 0 18 0 18 0 17 0 18 0 
18 0 18 0 17 0 18 0 18 0 18 0 18 0 17 0 
18 0 18 0 18 0 17 0 18 0 18 0 18 0 18 0 
17 0 18 0 18 0 18 0 17 0 18 0 18 0 18 0 
17 0 18 0 18 0 18 0 18 0 17 0 18 0 18 0 
18 0 17 0 18 0 18 0 18 0 18 0 17 0 18 0 
18 0 18 0 17 0 18 0 18 0 18 0 17 0 18 0 
18 0 18 0 18 0 17 0 18 0 18 0 18 0 17 0 
18 0 18 0 18 0 18 0 17 0 18 0 18 0 18 0 
17 0 18 0 18 0 18 0 673 824 221 MP stroke
1 0 18 0 18 0 18 0 18 0 17 0 18 0 18 0 
18 0 17 0 18 0 18 0 18 0 18 0 17 0 18 0 
18 0 18 0 17 0 18 0 18 0 18 0 17 0 18 0 
18 0 18 0 18 0 17 0 18 0 18 0 18 0 17 0 
18 0 18 0 18 0 18 0 17 0 18 0 18 0 18 0 
17 0 18 0 18 0 18 0 17 0 18 0 18 0 18 0 
18 0 17 0 18 0 18 0 18 0 17 0 18 0 18 0 
18 0 18 0 17 0 18 0 18 0 18 0 17 0 18 0 
18 0 18 0 17 0 18 0 18 0 18 0 18 0 17 0 
18 0 18 0 18 0 17 0 18 0 18 0 18 0 18 0 
17 0 18 0 18 0 18 0 17 0 18 0 18 0 18 0 
17 0 18 0 18 0 18 0 18 0 17 0 18 0 18 0 
18 0 17 0 18 0 18 0 18 0 18 0 17 0 18 0 
18 0 18 0 17 0 18 0 18 0 18 0 17 0 18 0 
18 0 18 0 18 0 17 0 18 0 18 0 18 0 17 0 
18 0 18 0 18 0 18 0 17 0 18 0 18 0 18 0 
17 0 18 0 18 0 18 0 17 0 18 0 18 0 18 0 
18 0 17 0 18 0 18 0 18 0 17 0 18 0 18 0 
18 0 18 0 17 0 18 0 18 0 18 0 17 0 18 0 
18 0 18 0 17 0 18 0 18 0 18 0 18 0 17 0 
18 0 18 0 18 0 17 0 18 0 18 0 18 0 18 0 
17 0 18 0 18 0 18 0 17 0 18 0 18 0 18 0 
17 0 18 0 18 0 18 0 18 0 17 0 18 0 18 0 
18 0 17 0 18 0 18 0 18 0 18 0 17 0 18 0 
18 0 18 0 17 0 18 0 18 0 18 0 17 0 18 0 
18 0 18 0 18 0 17 0 18 0 18 0 18 0 17 0 
18 0 18 0 18 0 18 0 17 0 18 0 18 0 18 0 
17 0 18 0 18 0 18 0 673 606 221 MP stroke
1 0 18 0 18 0 18 0 18 0 17 0 18 0 18 0 
18 0 17 0 18 0 18 0 18 0 18 0 17 0 18 0 
18 0 18 0 17 0 18 0 18 0 18 0 17 0 18 0 
18 0 18 0 18 0 17 0 18 0 18 0 18 0 17 0 
18 0 18 0 18 0 18 0 17 0 18 0 18 0 18 0 
17 0 18 0 18 0 18 0 17 0 18 0 18 0 18 0 
18 0 17 0 18 0 18 0 18 0 17 0 18 0 18 0 
18 0 18 0 17 0 18 0 18 0 18 0 17 0 18 0 
18 0 18 0 17 0 18 0 18 0 18 0 18 0 17 0 
18 0 18 0 18 0 17 0 18 0 18 0 18 0 18 0 
17 0 18 0 18 0 18 0 17 0 18 0 18 0 18 0 
17 0 18 0 18 0 18 0 18 0 17 0 18 0 18 0 
18 0 17 0 18 0 18 0 18 0 18 0 17 0 18 0 
18 0 18 0 17 0 18 0 18 0 18 0 17 0 18 0 
18 0 18 0 18 0 17 0 18 0 18 0 18 0 17 0 
18 0 18 0 18 0 18 0 17 0 18 0 18 0 18 0 
17 0 18 0 18 0 18 0 17 0 18 0 18 0 18 0 
18 0 17 0 18 0 18 0 18 0 17 0 18 0 18 0 
18 0 18 0 17 0 18 0 18 0 18 0 17 0 18 0 
18 0 18 0 17 0 18 0 18 0 18 0 18 0 17 0 
18 0 18 0 18 0 17 0 18 0 18 0 18 0 18 0 
17 0 18 0 18 0 18 0 17 0 18 0 18 0 18 0 
17 0 18 0 18 0 18 0 18 0 17 0 18 0 18 0 
18 0 17 0 18 0 18 0 18 0 18 0 17 0 18 0 
18 0 18 0 17 0 18 0 18 0 18 0 17 0 18 0 
18 0 18 0 18 0 17 0 18 0 18 0 18 0 17 0 
18 0 18 0 18 0 18 0 17 0 18 0 18 0 18 0 
17 0 18 0 18 0 18 0 673 388 221 MP stroke

18 wSO
/c8 { 0.000000 0.000000 1.000000 sr} bdef
c8
18 -26 18 -106 18 -134 18 -90 17 -22 18 35 18 58 18 -28 
17 -124 18 -184 18 -136 18 -122 18 -129 17 -135 18 -101 18 -69 
18 -64 17 -57 18 -46 18 -59 18 -43 17 -37 18 -30 18 -33 
18 -13 18 -25 17 -31 18 -19 18 -8 18 -22 17 -31 18 -21 
18 -47 18 -44 18 -46 17 -42 18 -17 18 -13 18 -33 17 -4 
18 -2 18 34 18 54 17 -2 18 -1 18 -19 18 -24 18 15 
17 46 18 47 18 2 18 -34 17 -24 18 0 18 8 18 -32 
18 -48 17 -49 18 -65 18 -40 18 -10 17 -48 18 -67 18 -83 
18 -86 17 -11 18 34 18 78 18 91 18 153 17 211 18 218 
18 197 18 178 17 158 18 130 18 79 18 78 18 82 17 93 
18 124 18 35 18 -40 17 -41 18 -6 18 -29 18 -81 17 -115 
18 -80 18 -80 18 -41 18 -41 17 -38 18 -81 18 -87 18 -55 
17 -22 18 -7 18 -38 18 -30 18 -74 17 -111 18 -102 18 -89 
18 -92 17 -72 18 -43 18 -47 18 -79 17 -66 18 -60 18 -52 
18 -70 18 -61 17 -33 18 0 18 95 18 67 17 -1 18 8 
18 -5 18 -44 18 -35 17 -39 18 -29 18 -30 18 31 17 18 
18 15 18 -10 18 -42 17 -43 18 -47 18 -8 18 -22 18 -23 
17 -11 18 -10 18 -20 18 -41 17 -35 18 2 18 13 18 24 
18 33 17 13 18 31 18 15 18 -22 17 -5 18 1 18 32 
18 20 17 -28 18 -62 18 -82 18 -30 18 8 17 80 18 82 
18 24 18 -37 17 -37 18 -12 18 -21 18 -20 18 -9 17 -19 
18 -36 18 -47 18 -62 17 -31 18 -34 18 21 18 98 17 73 
18 72 18 45 18 41 18 11 17 3 18 -11 18 17 18 23 
17 16 18 -29 18 -61 18 -55 18 -39 17 -14 18 -3 18 17 
18 -23 17 16 18 -15 18 -21 18 -52 17 -68 656 3256 199 MP stroke
18 -21 18 -30 18 -34 18 2 17 24 18 49 18 53 18 85 
17 48 18 2 18 10 18 -5 18 -22 17 -18 18 7 18 58 
18 170 17 213 18 201 18 144 18 120 17 41 4175 280 23 MP stroke
/c9 { 1.000000 0.000000 0.000000 sr} bdef
c9
18 -5 18 -7 18 -23 18 -6 17 -11 18 -5 18 16 18 -16 
17 -1 18 10 18 -17 18 0 18 -12 17 -17 18 -26 18 23 
18 16 17 21 18 -15 18 25 18 -23 17 -9 18 -13 18 29 
18 -20 18 -71 17 -29 18 22 18 -16 18 -24 17 7 18 -26 
18 -42 18 -11 18 23 17 -34 18 -55 18 -38 18 -18 17 -12 
18 0 18 -14 18 -29 17 -11 18 -10 18 -21 18 -9 18 -15 
17 -16 18 -19 18 0 18 -3 17 -23 18 -9 18 -12 18 -8 
18 -33 17 -5 18 -10 18 -6 18 -2 17 -6 18 -1 18 13 
18 -19 17 8 18 -9 18 -7 18 -7 18 -7 17 2 18 -1 
18 1 18 -8 17 -15 18 -6 18 3 18 17 18 -13 17 -8 
18 -40 18 -35 18 -9 17 12 18 -25 18 -20 18 -10 17 -23 
18 15 18 -13 18 26 18 36 17 16 18 4 18 6 18 5 
17 5 18 -12 18 -4 18 7 18 1 17 23 18 -21 18 -10 
18 -11 17 -17 18 -10 18 -17 18 3 17 -19 18 -35 18 -26 
18 -24 18 -4 17 -11 18 -5 18 -31 18 -33 17 -12 18 -18 
18 -5 18 -14 18 -6 17 -8 18 -13 18 -24 18 -25 17 -30 
18 -19 18 6 18 -13 17 -18 18 -24 18 3 18 -39 18 -30 
17 -25 18 19 18 -5 18 -19 17 3 18 -3 18 -5 18 -4 
18 -12 17 -16 18 -20 18 -8 18 -14 17 -6 18 4 18 6 
18 -2 17 -15 18 -26 18 -26 18 0 18 -25 17 -10 18 4 
18 1 18 -30 17 -9 18 -9 18 -1 18 1 18 -6 17 2 
18 -9 18 -9 18 -4 17 -13 18 9 18 0 18 -8 17 16 
18 1 18 -55 18 -25 18 11 17 -1 18 -4 18 -2 18 -14 
17 -4 18 -24 18 -4 18 -5 18 -11 17 -2 18 -3 18 -7 
18 -23 17 -36 18 -3 18 12 18 -25 17 12 18 -7 18 6 
18 -5 18 -2 17 -14 18 -3 18 -8 18 1 17 -6 18 -4 
18 -8 18 -25 18 -28 17 -7 18 2 18 -25 18 12 17 -23 
18 -1 18 -5 18 5 17 -20 656 3234 221 MP stroke
DO
0 sg
18 -5 18 -10 18 -17 18 -12 17 -17 18 -8 18 -6 18 -8 
17 5 18 8 18 -18 18 -1 18 -11 17 -14 18 -25 18 -20 
18 -23 17 8 18 -5 18 7 18 -1 17 -5 18 15 18 0 
18 0 18 -41 17 -41 18 -13 18 -7 18 12 17 -7 18 4 
18 -31 18 -12 18 -10 17 -10 18 -30 18 -31 18 -15 17 -9 
18 -11 18 -4 18 -26 17 -11 18 -10 18 -14 18 -13 18 -16 
17 -12 18 -16 18 -4 18 -4 17 -16 18 -15 18 -4 18 -8 
18 -26 17 -9 18 -8 18 -1 18 -5 17 -7 18 -11 18 3 
18 -3 17 7 18 -7 18 -3 18 -14 18 -18 17 -2 18 8 
18 2 18 -5 17 -15 18 -6 18 -5 18 2 18 -11 17 -16 
18 -21 18 -25 18 -9 17 1 18 -15 18 -12 18 -17 17 -28 
18 -4 18 -7 18 1 18 0 17 3 18 6 18 3 18 0 
17 2 18 0 18 -6 18 0 18 -6 17 -16 18 -1 18 6 
18 -3 17 -25 18 -7 18 -12 18 0 17 -3 18 -32 18 -17 
18 -25 18 0 17 -13 18 -4 18 -18 18 -28 17 -20 18 -9 
18 -9 18 -6 18 -6 17 -6 18 -5 18 -26 18 -12 17 -23 
18 -18 18 -3 18 -5 17 -18 18 -19 18 -8 18 -25 18 -15 
17 -25 18 -17 18 -4 18 5 17 0 18 -3 18 -6 18 -2 
18 -12 17 -12 18 -18 18 -14 18 -14 17 -7 18 8 18 -3 
18 -3 17 -14 18 -18 18 -24 18 2 18 -23 17 -11 18 0 
18 3 18 -24 17 -11 18 -11 18 -5 18 -5 18 1 17 -6 
18 -7 18 -3 18 -5 17 -13 18 -3 18 3 18 -3 17 3 
18 -12 18 -18 18 -26 18 -16 17 -11 18 9 18 7 18 -11 
17 -5 18 -21 18 -4 18 -5 18 -11 17 -4 18 -4 18 -13 
18 -13 17 -28 18 -6 18 -23 18 -16 17 6 18 0 18 2 
18 1 18 -2 17 -10 18 -8 18 -13 18 -5 17 5 18 -8 
18 -7 18 -20 18 -21 17 -7 18 -4 18 -20 18 6 17 -19 
18 1 18 -7 18 -5 17 -8 656 3239 221 MP stroke

6 wSO
gr

1 sg
0 708 819 0 0 -708 735 2153 4 MP
PP
-819 0 0 708 819 0 0 -708 735 2153 5 MP stroke
4 w
DO

6 wSO
0 sg
 735 1445 mt 1554 1445 L
 735 2153 mt 1554 2153 L
1554 2153 mt 1554 1445 L
 735 2153 mt  735 1445 L
 735 2153 mt 1554 2153 L
 735 2153 mt  735 1445 L
 735 1445 mt 1554 1445 L
 735 2153 mt 1554 2153 L
1554 2153 mt 1554 1445 L
 735 2153 mt  735 1445 L
1204 1592 mt 
(Y) s
%%IncludeResource: font Helvetica
/Helvetica /WindowsLatin1Encoding 96 FMSR

1284 1652 mt 
(RE) s
gs 735 1445 820 709 rc

18 wDO
360 0 807 1577 2 MP stroke
SO
gr

18 w
%%IncludeResource: font Helvetica
/Helvetica /WindowsLatin1Encoding 120 FMSR

1204 1815 mt 
(Y) s
%%IncludeResource: font Helvetica
/Helvetica /WindowsLatin1Encoding 96 FMSR

1284 1875 mt 
(learn) s
gs 735 1445 820 709 rc
c9
360 0 807 1799 2 MP stroke
gr

c9
0 sg
%%IncludeResource: font Helvetica
/Helvetica /WindowsLatin1Encoding 120 FMSR

1204 2037 mt 
(V) s
%%IncludeResource: font Helvetica
/Helvetica /WindowsLatin1Encoding 96 FMSR

1284 2097 mt 
(learn) s
gs 735 1445 820 709 rc
c8
360 0 807 2021 2 MP stroke
6 w
gr

6 w
c8

end %%Color Dict

eplot
%%EndObject

epage
end

showpage

%%Trailer
%%EOF
