%!PS-Adobe-3.0 EPSF-3.0
%%Creator: MATLAB, The MathWorks, Inc. Version 8.1.0.604 (R2013a). Operating System: Linux 2.6.18-412.el5 #1 SMP Wed Aug 31 05:40:53 CDT 2016 x86_64.
%%Title: /a/msulx1/lcl/msu/home/m1hxw02/jmp/wouterirf.eps
%%CreationDate: 10/17/2016  15:45:22
%%DocumentNeededFonts: Helvetica
%%DocumentProcessColors: Cyan Magenta Yellow Black
%%LanguageLevel: 2
%%Pages: 1
%%BoundingBox:     0     0   671   405
%%EndComments

%%BeginProlog
% MathWorks dictionary
/MathWorks 160 dict begin
% definition operators
/bdef {bind def} bind def
/ldef {load def} bind def
/xdef {exch def} bdef
/xstore {exch store} bdef
% operator abbreviations
/c  /clip ldef
/cc /concat ldef
/cp /closepath ldef
/gr /grestore ldef
/gs /gsave ldef
/mt /moveto ldef
/np /newpath ldef
/cm /currentmatrix ldef
/sm /setmatrix ldef
/rm /rmoveto ldef
/rl /rlineto ldef
/s {show newpath} bdef
/sc {setcmykcolor} bdef
/sr /setrgbcolor ldef
/sg /setgray ldef
/w /setlinewidth ldef
/j /setlinejoin ldef
/cap /setlinecap ldef
/rc {rectclip} bdef
/rf {rectfill} bdef
% page state control
/pgsv () def
/bpage {/pgsv save def} bdef
/epage {pgsv restore} bdef
/bplot /gsave ldef
/eplot {stroke grestore} bdef
% orientation switch
/portraitMode 0 def /landscapeMode 1 def /rotateMode 2 def
% coordinate system mappings
/dpi2point 0 def
% font control
/FontSize 0 def
/FMS {/FontSize xstore findfont [FontSize 0 0 FontSize neg 0 0]
  makefont setfont} bdef
/reencode {exch dup where {pop load} {pop StandardEncoding} ifelse
  exch dup 3 1 roll findfont dup length dict begin
  { 1 index /FID ne {def}{pop pop} ifelse } forall
  /Encoding exch def currentdict end definefont pop} bdef
/isroman {findfont /CharStrings get /Agrave known} bdef
/FMSR {3 1 roll 1 index dup isroman {reencode} {pop pop} ifelse
  exch FMS} bdef
/csm {1 dpi2point div -1 dpi2point div scale neg translate
 dup landscapeMode eq {pop -90 rotate}
  {rotateMode eq {90 rotate} if} ifelse} bdef
% line types: solid, dotted, dashed, dotdash
/dom { dpi2point 1 currentlinewidth 0.08 mul add mul mul } bdef/dam { dpi2point 2 currentlinewidth 0.04 mul add mul mul } bdef/SO { [] 0 setdash 0 setlinecap } bdef/DO { [1 dom 1.2 dom] 0 setdash 0 setlinecap } bdef/DA { [4 dam 1.5 dam] 0 setdash 0 setlinecap } bdef/DD { [1 dom 1.2 dom 4 dam 1.2 dom] 0 setdash 0 setlinecap } bdef/GR { [0 dpi2point mul 4 dpi2point mul] 0 setdash 1 setlinecap } bdef% macros for lines and objects
/L {lineto stroke} bdef
/MP {3 1 roll moveto 1 sub {rlineto} repeat} bdef
/AP {{rlineto} repeat} bdef
/PDlw -1 def
/W {/PDlw currentlinewidth def setlinewidth} def
/PP {closepath eofill} bdef
/DP {closepath stroke} bdef
/MR {4 -2 roll moveto dup  0 exch rlineto exch 0 rlineto
  neg 0 exch rlineto closepath} bdef
/FR {MR stroke} bdef
/PR {MR fill} bdef
/L1i {{currentfile picstr readhexstring pop} image} bdef
/tMatrix matrix def
/MakeOval {newpath tMatrix currentmatrix pop translate scale
0 0 1 0 360 arc tMatrix setmatrix} bdef
/FO {MakeOval stroke} bdef
/PO {MakeOval fill} bdef
/PD {currentlinewidth 2 div 0 360 arc fill
   PDlw -1 eq not {PDlw w /PDlw -1 def} if} def
/FA {newpath tMatrix currentmatrix pop translate scale
  0 0 1 5 -2 roll arc tMatrix setmatrix stroke} bdef
/PA {newpath tMatrix currentmatrix pop	translate 0 0 moveto scale
  0 0 1 5 -2 roll arc closepath tMatrix setmatrix fill} bdef
/FAn {newpath tMatrix currentmatrix pop translate scale
  0 0 1 5 -2 roll arcn tMatrix setmatrix stroke} bdef
/PAn {newpath tMatrix currentmatrix pop translate 0 0 moveto scale
  0 0 1 5 -2 roll arcn closepath tMatrix setmatrix fill} bdef
/vradius 0 def /hradius 0 def /lry 0 def
/lrx 0 def /uly 0 def /ulx 0 def /rad 0 def
/MRR {/vradius xdef /hradius xdef /lry xdef /lrx xdef /uly xdef
  /ulx xdef newpath tMatrix currentmatrix pop ulx hradius add uly
  vradius add translate hradius vradius scale 0 0 1 180 270 arc 
  tMatrix setmatrix lrx hradius sub uly vradius add translate
  hradius vradius scale 0 0 1 270 360 arc tMatrix setmatrix
  lrx hradius sub lry vradius sub translate hradius vradius scale
  0 0 1 0 90 arc tMatrix setmatrix ulx hradius add lry vradius sub
  translate hradius vradius scale 0 0 1 90 180 arc tMatrix setmatrix
  closepath} bdef
/FRR {MRR stroke } bdef
/PRR {MRR fill } bdef
/MlrRR {/lry xdef /lrx xdef /uly xdef /ulx xdef /rad lry uly sub 2 div def
  newpath tMatrix currentmatrix pop ulx rad add uly rad add translate
  rad rad scale 0 0 1 90 270 arc tMatrix setmatrix lrx rad sub lry rad
  sub translate rad rad scale 0 0 1 270 90 arc tMatrix setmatrix
  closepath} bdef
/FlrRR {MlrRR stroke } bdef
/PlrRR {MlrRR fill } bdef
/MtbRR {/lry xdef /lrx xdef /uly xdef /ulx xdef /rad lrx ulx sub 2 div def
  newpath tMatrix currentmatrix pop ulx rad add uly rad add translate
  rad rad scale 0 0 1 180 360 arc tMatrix setmatrix lrx rad sub lry rad
  sub translate rad rad scale 0 0 1 0 180 arc tMatrix setmatrix
  closepath} bdef
/FtbRR {MtbRR stroke } bdef
/PtbRR {MtbRR fill } bdef
/stri 6 array def /dtri 6 array def
/smat 6 array def /dmat 6 array def
/tmat1 6 array def /tmat2 6 array def /dif 3 array def
/asub {/ind2 exch def /ind1 exch def dup dup
  ind1 get exch ind2 get sub exch } bdef
/tri_to_matrix {
  2 0 asub 3 1 asub 4 0 asub 5 1 asub
  dup 0 get exch 1 get 7 -1 roll astore } bdef
/compute_transform {
  dmat dtri tri_to_matrix tmat1 invertmatrix 
  smat stri tri_to_matrix tmat2 concatmatrix } bdef
/ds {stri astore pop} bdef
/dt {dtri astore pop} bdef
/db {2 copy /cols xdef /rows xdef mul dup 3 mul string
  currentfile 
  3 index 0 eq {/ASCIIHexDecode filter}
  {/ASCII85Decode filter 3 index 2 eq {/RunLengthDecode filter} if }
  ifelse exch readstring pop
  dup 0 3 index getinterval /rbmap xdef
  dup 2 index dup getinterval /gbmap xdef
  1 index dup 2 mul exch getinterval /bbmap xdef pop pop}bdef
/it {gs np dtri aload pop moveto lineto lineto cp c
  cols rows 8 compute_transform 
  rbmap gbmap bbmap true 3 colorimage gr}bdef
/il {newpath moveto lineto stroke}bdef
currentdict end def
%%EndProlog

%%BeginSetup
MathWorks begin

0 cap

end
%%EndSetup

%%Page: 1 1
%%BeginPageSetup
%%PageBoundingBox:     0     0   671   405
MathWorks begin
bpage
%%EndPageSetup

%%BeginObject: obj1
bplot

/dpi2point 12 def
portraitMode 0000 4860 csm

    0     0  8052  4861 rc
85 dict begin %Colortable dictionary
/c0 { 0.000000 0.000000 0.000000 sr} bdef
/c1 { 1.000000 1.000000 1.000000 sr} bdef
/c2 { 0.900000 0.000000 0.000000 sr} bdef
/c3 { 0.000000 0.820000 0.000000 sr} bdef
/c4 { 0.000000 0.000000 0.800000 sr} bdef
/c5 { 0.910000 0.820000 0.320000 sr} bdef
/c6 { 1.000000 0.260000 0.820000 sr} bdef
/c7 { 0.000000 0.820000 0.820000 sr} bdef
c0
1 j
1 sg
   0    0 8053 4862 rf
6 w
0 1491 2590 0 0 -1491 1260 1997 4 MP
PP
-2590 0 0 1491 2590 0 0 -1491 1260 1997 5 MP stroke
4 w
DO
6 w
SO
0 sg
1260 1997 mt 3850 1997 L
1260  506 mt 3850  506 L
1260 1997 mt 1260  506 L
3850 1997 mt 3850  506 L
1260 1997 mt 3850 1997 L
1260 1997 mt 1260  506 L
1260 1997 mt 1260 1971 L
1260  506 mt 1260  531 L
%%IncludeResource: font Helvetica
/Helvetica /ISOLatin1Encoding 168 FMSR

1214 2187 mt 
(0) s
1778 1997 mt 1778 1971 L
1778  506 mt 1778  531 L
1732 2187 mt 
(8) s
2296 1997 mt 2296 1971 L
2296  506 mt 2296  531 L
2203 2187 mt 
(16) s
2814 1997 mt 2814 1971 L
2814  506 mt 2814  531 L
2721 2187 mt 
(24) s
3332 1997 mt 3332 1971 L
3332  506 mt 3332  531 L
3239 2187 mt 
(32) s
3850 1997 mt 3850 1971 L
3850  506 mt 3850  531 L
3757 2187 mt 
(40) s
1260 1997 mt 1285 1997 L
3850 1997 mt 3824 1997 L
1034 2059 mt 
(-5) s
1260 1500 mt 1285 1500 L
3850 1500 mt 3824 1500 L
1132 1562 mt 
(0) s
1260 1003 mt 1285 1003 L
3850 1003 mt 3824 1003 L
1132 1065 mt 
(5) s
1260  506 mt 1285  506 L
3850  506 mt 3824  506 L
1039  568 mt 
(10) s
1260 1997 mt 3850 1997 L
1260  506 mt 3850  506 L
1260 1997 mt 1260  506 L
3850 1997 mt 3850  506 L
gs 1260 506 2591 1492 rc
1 0 65 0 65 0 65 0 64 0 65 0 65 0 65 0 
64 0 65 0 65 0 65 0 64 0 65 0 65 0 65 0 
64 0 65 0 65 0 65 0 64 0 65 0 65 0 65 0 
64 0 65 0 65 0 65 0 64 0 65 0 65 0 65 0 
64 0 65 0 65 0 65 0 64 0 65 0 65 0 65 0 
1324 1500 41 MP stroke
24 w
/c8 { 1.000000 0.000000 0.000000 sr} bdef
c8
1 0 65 -4 65 -4 65 -4 64 -3 65 -2 65 -2 65 -1 
64 1 65 1 65 3 65 4 64 6 65 8 65 10 65 12 
64 15 65 18 65 22 65 25 64 29 65 33 65 38 65 43 
64 48 65 54 65 60 65 65 64 71 65 76 65 79 65 80 
64 75 65 61 65 36 65 -12 64 -94 65 -231 65 -455 65 -19 
1324 1500 41 MP stroke
DD
0 sg
1 0 65 -4 65 -4 65 -4 64 -3 65 -2 65 -2 65 -1 
64 1 65 1 65 3 65 4 64 6 65 8 65 10 65 12 
64 15 65 18 65 22 65 25 64 29 65 33 65 38 65 43 
64 48 65 54 65 60 65 65 64 71 65 76 65 79 65 80 
64 75 65 61 65 36 65 -12 64 -94 65 -231 65 -455 65 -19 
1324 1500 41 MP stroke
gr

24 w
DD
2139  374 mt 
(Stock price) s
6 w
SO
1 sg
0 1491 2590 0 0 -1491 4669 1997 4 MP
PP
-2590 0 0 1491 2590 0 0 -1491 4669 1997 5 MP stroke
4 w
DO
6 w
SO
0 sg
4669 1997 mt 7259 1997 L
4669  506 mt 7259  506 L
4669 1997 mt 4669  506 L
7259 1997 mt 7259  506 L
4669 1997 mt 7259 1997 L
4669 1997 mt 4669  506 L
4669 1997 mt 4669 1971 L
4669  506 mt 4669  531 L
4623 2187 mt 
(0) s
5187 1997 mt 5187 1971 L
5187  506 mt 5187  531 L
5141 2187 mt 
(8) s
5705 1997 mt 5705 1971 L
5705  506 mt 5705  531 L
5612 2187 mt 
(16) s
6223 1997 mt 6223 1971 L
6223  506 mt 6223  531 L
6130 2187 mt 
(24) s
6741 1997 mt 6741 1971 L
6741  506 mt 6741  531 L
6648 2187 mt 
(32) s
7259 1997 mt 7259 1971 L
7259  506 mt 7259  531 L
7166 2187 mt 
(40) s
4669 1997 mt 4694 1997 L
7259 1997 mt 7233 1997 L
4541 2059 mt 
(0) s
4669 1500 mt 4694 1500 L
7259 1500 mt 7233 1500 L
4401 1562 mt 
(0.5) s
4669 1003 mt 4694 1003 L
7259 1003 mt 7233 1003 L
4541 1065 mt 
(1) s
4669  506 mt 4694  506 L
7259  506 mt 7233  506 L
4401  568 mt 
(1.5) s
4669 1997 mt 7259 1997 L
4669  506 mt 7259  506 L
4669 1997 mt 4669  506 L
7259 1997 mt 7259  506 L
gs 4669 506 2591 1492 rc
1 0 65 0 65 0 65 0 64 0 65 0 65 0 65 0 
64 0 65 0 65 0 65 0 64 0 65 0 65 0 65 0 
64 0 65 0 65 0 65 0 64 0 65 0 65 0 65 0 
64 0 65 0 65 0 65 0 64 0 65 0 65 0 65 0 
64 0 65 0 65 0 65 0 64 0 65 0 65 0 65 0 
4733 1997 41 MP stroke
24 w
c8
1 0 65 1 65 1 65 2 64 2 65 3 65 3 65 3 
64 5 65 5 65 5 65 7 64 7 65 9 65 10 65 10 
64 12 65 14 65 15 65 17 64 19 65 20 65 23 65 25 
64 28 65 30 65 33 65 37 64 39 65 44 65 48 65 52 
64 59 65 65 65 74 65 85 64 101 65 121 65 -462 65 -598 
4733 1997 41 MP stroke
DD
0 sg
1 0 65 0 65 1 65 1 64 1 65 2 65 2 65 2 
64 3 65 4 65 4 65 4 64 6 65 6 65 7 65 7 
64 9 65 10 65 11 65 12 64 14 65 15 65 17 65 19 
64 21 65 22 65 25 65 27 64 30 65 32 65 36 65 39 
64 42 65 47 65 53 65 55 64 98 65 -222 65 534 65 -1027 
4733 1997 41 MP stroke
gr

24 w
DD
5711  374 mt 
(Output) s
6 w
SO
1 sg
0 1491 2590 0 0 -1491 1260 4153 4 MP
PP
-2590 0 0 1491 2590 0 0 -1491 1260 4153 5 MP stroke
4 w
DO
6 w
SO
0 sg
1260 4153 mt 3850 4153 L
1260 2662 mt 3850 2662 L
1260 4153 mt 1260 2662 L
3850 4153 mt 3850 2662 L
1260 4153 mt 3850 4153 L
1260 4153 mt 1260 2662 L
1260 4153 mt 1260 4127 L
1260 2662 mt 1260 2687 L
1214 4343 mt 
(0) s
1778 4153 mt 1778 4127 L
1778 2662 mt 1778 2687 L
1732 4343 mt 
(8) s
2296 4153 mt 2296 4127 L
2296 2662 mt 2296 2687 L
2203 4343 mt 
(16) s
2814 4153 mt 2814 4127 L
2814 2662 mt 2814 2687 L
2721 4343 mt 
(24) s
3332 4153 mt 3332 4127 L
3332 2662 mt 3332 2687 L
3239 4343 mt 
(32) s
3850 4153 mt 3850 4127 L
3850 2662 mt 3850 2687 L
3757 4343 mt 
(40) s
1260 4153 mt 1285 4153 L
3850 4153 mt 3824 4153 L
1034 4215 mt 
(-1) s
1260 3656 mt 1285 3656 L
3850 3656 mt 3824 3656 L
1132 3718 mt 
(0) s
1260 3159 mt 1285 3159 L
3850 3159 mt 3824 3159 L
1132 3221 mt 
(1) s
1260 2662 mt 1285 2662 L
3850 2662 mt 3824 2662 L
1132 2724 mt 
(2) s
1260 4153 mt 3850 4153 L
1260 2662 mt 3850 2662 L
1260 4153 mt 1260 2662 L
3850 4153 mt 3850 2662 L
gs 1260 2662 2591 1492 rc
1 0 65 0 65 0 65 0 64 0 65 0 65 0 65 0 
64 0 65 0 65 0 65 0 64 0 65 0 65 0 65 0 
64 0 65 0 65 0 65 0 64 0 65 0 65 0 65 0 
64 0 65 0 65 0 65 0 64 0 65 0 65 0 65 0 
64 0 65 0 65 0 65 0 64 0 65 0 65 0 65 0 
1324 3656 41 MP stroke
24 w
c8
1 0 65 -5 65 -5 65 -4 64 -4 65 -3 65 -3 65 -1 
64 -1 65 0 65 2 65 3 64 5 65 7 65 9 65 11 
64 15 65 17 65 21 65 25 64 29 65 34 65 39 65 44 
64 51 65 57 65 63 65 70 64 76 65 83 65 86 65 87 
64 84 65 70 65 44 65 -5 64 -92 65 -236 65 -472 65 -126 
1324 3656 41 MP stroke
DD
0 sg
1 0 65 -4 65 -4 65 -3 64 -3 65 -4 65 -3 65 -3 
64 -2 65 -3 65 -1 65 -2 64 0 65 0 65 1 65 3 
64 3 65 5 65 6 65 9 64 10 65 12 65 15 65 18 
64 21 65 24 65 28 65 32 64 36 65 40 65 44 65 48 
64 50 65 53 65 50 65 44 64 30 65 2 65 -52 65 -492 
1324 3656 41 MP stroke
gr

24 w
DD
2147 2530 mt 
(Investment) s
6 w
SO
1 sg
0 1491 2590 0 0 -1491 4669 4153 4 MP
PP
-2590 0 0 1491 2590 0 0 -1491 4669 4153 5 MP stroke
4 w
DO
6 w
SO
0 sg
4669 4153 mt 7259 4153 L
4669 2662 mt 7259 2662 L
4669 4153 mt 4669 2662 L
7259 4153 mt 7259 2662 L
4669 4153 mt 7259 4153 L
4669 4153 mt 4669 2662 L
4669 4153 mt 4669 4127 L
4669 2662 mt 4669 2687 L
4623 4343 mt 
(0) s
5187 4153 mt 5187 4127 L
5187 2662 mt 5187 2687 L
5141 4343 mt 
(8) s
5705 4153 mt 5705 4127 L
5705 2662 mt 5705 2687 L
5612 4343 mt 
(16) s
6223 4153 mt 6223 4127 L
6223 2662 mt 6223 2687 L
6130 4343 mt 
(24) s
6741 4153 mt 6741 4127 L
6741 2662 mt 6741 2687 L
6648 4343 mt 
(32) s
7259 4153 mt 7259 4127 L
7259 2662 mt 7259 2687 L
7166 4343 mt 
(40) s
4669 4153 mt 4694 4153 L
7259 4153 mt 7233 4153 L
4541 4215 mt 
(0) s
4669 3780 mt 4694 3780 L
7259 3780 mt 7233 3780 L
4401 3842 mt 
(0.2) s
4669 3407 mt 4694 3407 L
7259 3407 mt 7233 3407 L
4401 3469 mt 
(0.4) s
4669 3034 mt 4694 3034 L
7259 3034 mt 7233 3034 L
4401 3096 mt 
(0.6) s
4669 2662 mt 4694 2662 L
7259 2662 mt 7233 2662 L
4401 2724 mt 
(0.8) s
4669 4153 mt 7259 4153 L
4669 2662 mt 7259 2662 L
4669 4153 mt 4669 2662 L
7259 4153 mt 7259 2662 L
gs 4669 2662 2591 1492 rc
1 0 65 0 65 0 65 0 64 0 65 0 65 0 65 0 
64 0 65 0 65 0 65 0 64 0 65 0 65 0 65 0 
64 0 65 0 65 0 65 0 64 0 65 0 65 0 65 0 
64 0 65 0 65 0 65 0 64 0 65 0 65 0 65 0 
64 0 65 0 65 0 65 0 64 0 65 0 65 0 65 0 
4733 4153 41 MP stroke
24 w
c8
1 0 65 6 65 6 65 6 64 8 65 8 65 10 65 10 
64 11 65 13 65 14 65 15 64 16 65 18 65 19 65 22 
64 22 65 25 65 27 65 28 64 31 65 33 65 35 65 37 
64 40 65 42 65 45 65 47 64 49 65 51 65 53 65 54 
64 54 65 53 65 50 65 43 64 31 65 10 65 -24 65 -1078 
4733 4153 41 MP stroke
DD
0 sg
1 0 65 3 65 2 65 4 64 4 65 5 65 5 65 6 
64 8 65 8 65 9 65 11 64 11 65 14 65 14 65 17 
64 18 65 20 65 21 65 24 64 27 65 28 65 31 65 34 
64 36 65 40 65 42 65 46 64 49 65 52 65 55 65 59 
64 63 65 66 65 68 65 72 64 69 65 104 65 -216 65 -953 
4733 4153 41 MP stroke
gr

24 w
DD
5468 2530 mt 
(Consumption) s
%%IncludeResource: font Helvetica
/Helvetica /ISOLatin1Encoding 120 FMSR

4652 4196 mt 
( ) s
7243 2704 mt 
( ) s
6 w
SO
1 sg
0 491 1556 0 0 -491 5664 3218 4 MP
PP
-1556 0 0 491 1556 0 0 -491 5664 3218 5 MP stroke
4 w
DO
6 w
SO
0 sg
5664 3218 mt 7220 3218 L
5664 2727 mt 7220 2727 L
5664 3218 mt 5664 2727 L
7220 3218 mt 7220 2727 L
5664 3218 mt 7220 3218 L
5664 3218 mt 5664 2727 L
5664 3218 mt 7220 3218 L
5664 2727 mt 7220 2727 L
5664 3218 mt 5664 2727 L
7220 3218 mt 7220 2727 L
%%IncludeResource: font Helvetica
/Helvetica /ISOLatin1Encoding 168 FMSR

6137 2921 mt 
(learning) s
gs 5664 2727 1557 492 rc
24 w
c8
364 0 5736 2860 2 MP stroke
gr

24 w
c8
0 sg
6137 3145 mt 
(counterfactual) s
gs 5664 2727 1557 492 rc
DD
364 0 5736 3084 2 MP stroke
6 w
SO
gr

6 w

end %%Color Dict

eplot
%%EndObject

epage
end

showpage

%%Trailer
%%EOF
