%!PS-Adobe-3.0 EPSF-3.0
%%Creator: MATLAB, The MathWorks, Inc. Version 8.1.0.604 (R2013a). Operating System: Linux 2.6.18-411.el5 #1 SMP Mon Jul 11 11:41:24 CDT 2016 x86_64.
%%Title: /a/msulx1/lcl/msu/home/m1hxw02/jmp/xr-sweep.eps
%%CreationDate: 08/31/2016  17:45:11
%%DocumentNeededFonts: Helvetica
%%DocumentProcessColors: Cyan Magenta Yellow Black
%%LanguageLevel: 2
%%Pages: 1
%%BoundingBox:     0     0   497   355
%%EndComments

%%BeginProlog
% MathWorks dictionary
/MathWorks 160 dict begin
% definition operators
/bdef {bind def} bind def
/ldef {load def} bind def
/xdef {exch def} bdef
/xstore {exch store} bdef
% operator abbreviations
/c  /clip ldef
/cc /concat ldef
/cp /closepath ldef
/gr /grestore ldef
/gs /gsave ldef
/mt /moveto ldef
/np /newpath ldef
/cm /currentmatrix ldef
/sm /setmatrix ldef
/rm /rmoveto ldef
/rl /rlineto ldef
/s {show newpath} bdef
/sc {setcmykcolor} bdef
/sr /setrgbcolor ldef
/sg /setgray ldef
/w /setlinewidth ldef
/j /setlinejoin ldef
/cap /setlinecap ldef
/rc {rectclip} bdef
/rf {rectfill} bdef
% page state control
/pgsv () def
/bpage {/pgsv save def} bdef
/epage {pgsv restore} bdef
/bplot /gsave ldef
/eplot {stroke grestore} bdef
% orientation switch
/portraitMode 0 def /landscapeMode 1 def /rotateMode 2 def
% coordinate system mappings
/dpi2point 0 def
% font control
/FontSize 0 def
/FMS {/FontSize xstore findfont [FontSize 0 0 FontSize neg 0 0]
  makefont setfont} bdef
/reencode {exch dup where {pop load} {pop StandardEncoding} ifelse
  exch dup 3 1 roll findfont dup length dict begin
  { 1 index /FID ne {def}{pop pop} ifelse } forall
  /Encoding exch def currentdict end definefont pop} bdef
/isroman {findfont /CharStrings get /Agrave known} bdef
/FMSR {3 1 roll 1 index dup isroman {reencode} {pop pop} ifelse
  exch FMS} bdef
/csm {1 dpi2point div -1 dpi2point div scale neg translate
 dup landscapeMode eq {pop -90 rotate}
  {rotateMode eq {90 rotate} if} ifelse} bdef
% line types: solid, dotted, dashed, dotdash
/SO { [] 0 setdash } bdef
/DO { [.5 dpi2point mul 4 dpi2point mul] 0 setdash } bdef
/DA { [6 dpi2point mul] 0 setdash } bdef
/DD { [.5 dpi2point mul 4 dpi2point mul 6 dpi2point mul 4
  dpi2point mul] 0 setdash } bdef
% macros for lines and objects
/L {lineto stroke} bdef
/MP {3 1 roll moveto 1 sub {rlineto} repeat} bdef
/AP {{rlineto} repeat} bdef
/PDlw -1 def
/W {/PDlw currentlinewidth def setlinewidth} def
/PP {closepath eofill} bdef
/DP {closepath stroke} bdef
/MR {4 -2 roll moveto dup  0 exch rlineto exch 0 rlineto
  neg 0 exch rlineto closepath} bdef
/FR {MR stroke} bdef
/PR {MR fill} bdef
/L1i {{currentfile picstr readhexstring pop} image} bdef
/tMatrix matrix def
/MakeOval {newpath tMatrix currentmatrix pop translate scale
0 0 1 0 360 arc tMatrix setmatrix} bdef
/FO {MakeOval stroke} bdef
/PO {MakeOval fill} bdef
/PD {currentlinewidth 2 div 0 360 arc fill
   PDlw -1 eq not {PDlw w /PDlw -1 def} if} def
/FA {newpath tMatrix currentmatrix pop translate scale
  0 0 1 5 -2 roll arc tMatrix setmatrix stroke} bdef
/PA {newpath tMatrix currentmatrix pop	translate 0 0 moveto scale
  0 0 1 5 -2 roll arc closepath tMatrix setmatrix fill} bdef
/FAn {newpath tMatrix currentmatrix pop translate scale
  0 0 1 5 -2 roll arcn tMatrix setmatrix stroke} bdef
/PAn {newpath tMatrix currentmatrix pop translate 0 0 moveto scale
  0 0 1 5 -2 roll arcn closepath tMatrix setmatrix fill} bdef
/vradius 0 def /hradius 0 def /lry 0 def
/lrx 0 def /uly 0 def /ulx 0 def /rad 0 def
/MRR {/vradius xdef /hradius xdef /lry xdef /lrx xdef /uly xdef
  /ulx xdef newpath tMatrix currentmatrix pop ulx hradius add uly
  vradius add translate hradius vradius scale 0 0 1 180 270 arc 
  tMatrix setmatrix lrx hradius sub uly vradius add translate
  hradius vradius scale 0 0 1 270 360 arc tMatrix setmatrix
  lrx hradius sub lry vradius sub translate hradius vradius scale
  0 0 1 0 90 arc tMatrix setmatrix ulx hradius add lry vradius sub
  translate hradius vradius scale 0 0 1 90 180 arc tMatrix setmatrix
  closepath} bdef
/FRR {MRR stroke } bdef
/PRR {MRR fill } bdef
/MlrRR {/lry xdef /lrx xdef /uly xdef /ulx xdef /rad lry uly sub 2 div def
  newpath tMatrix currentmatrix pop ulx rad add uly rad add translate
  rad rad scale 0 0 1 90 270 arc tMatrix setmatrix lrx rad sub lry rad
  sub translate rad rad scale 0 0 1 270 90 arc tMatrix setmatrix
  closepath} bdef
/FlrRR {MlrRR stroke } bdef
/PlrRR {MlrRR fill } bdef
/MtbRR {/lry xdef /lrx xdef /uly xdef /ulx xdef /rad lrx ulx sub 2 div def
  newpath tMatrix currentmatrix pop ulx rad add uly rad add translate
  rad rad scale 0 0 1 180 360 arc tMatrix setmatrix lrx rad sub lry rad
  sub translate rad rad scale 0 0 1 0 180 arc tMatrix setmatrix
  closepath} bdef
/FtbRR {MtbRR stroke } bdef
/PtbRR {MtbRR fill } bdef
/stri 6 array def /dtri 6 array def
/smat 6 array def /dmat 6 array def
/tmat1 6 array def /tmat2 6 array def /dif 3 array def
/asub {/ind2 exch def /ind1 exch def dup dup
  ind1 get exch ind2 get sub exch } bdef
/tri_to_matrix {
  2 0 asub 3 1 asub 4 0 asub 5 1 asub
  dup 0 get exch 1 get 7 -1 roll astore } bdef
/compute_transform {
  dmat dtri tri_to_matrix tmat1 invertmatrix 
  smat stri tri_to_matrix tmat2 concatmatrix } bdef
/ds {stri astore pop} bdef
/dt {dtri astore pop} bdef
/db {2 copy /cols xdef /rows xdef mul dup 3 mul string
  currentfile 
  3 index 0 eq {/ASCIIHexDecode filter}
  {/ASCII85Decode filter 3 index 2 eq {/RunLengthDecode filter} if }
  ifelse exch readstring pop
  dup 0 3 index getinterval /rbmap xdef
  dup 2 index dup getinterval /gbmap xdef
  1 index dup 2 mul exch getinterval /bbmap xdef pop pop}bdef
/it {gs np dtri aload pop moveto lineto lineto cp c
  cols rows 8 compute_transform 
  rbmap gbmap bbmap true 3 colorimage gr}bdef
/il {newpath moveto lineto stroke}bdef
currentdict end def
%%EndProlog

%%BeginSetup
MathWorks begin

0 cap

end
%%EndSetup

%%Page: 1 1
%%BeginPageSetup
%%PageBoundingBox:     0     0   497   355
MathWorks begin
bpage
%%EndPageSetup

%%BeginObject: obj1
bplot

/dpi2point 12 def
portraitMode 0000 4260 csm

    0     0  5967  4262 rc
80 dict begin %Colortable dictionary
/c0 { 0.000000 0.000000 0.000000 sr} bdef
/c1 { 1.000000 1.000000 1.000000 sr} bdef
/c2 { 0.900000 0.000000 0.000000 sr} bdef
/c3 { 0.000000 0.820000 0.000000 sr} bdef
/c4 { 0.000000 0.000000 0.800000 sr} bdef
/c5 { 0.910000 0.820000 0.320000 sr} bdef
/c6 { 1.000000 0.260000 0.820000 sr} bdef
/c7 { 0.000000 0.820000 0.820000 sr} bdef
c0
1 j
1 sg
   0    0 5968 4263 rf
6 w
0 1382 5029 0 0 -1382 726 1738 4 MP
PP
-5029 0 0 1382 5029 0 0 -1382 726 1738 5 MP stroke
4 w
DO
SO
6 w
0 sg
 726 1738 mt 5755 1738 L
 726  356 mt 5755  356 L
 726 1738 mt  726  356 L
5755 1738 mt 5755  356 L
 726 1738 mt 5755 1738 L
 726 1738 mt  726  356 L
 726 1738 mt  726 1687 L
 726  356 mt  726  406 L
%%IncludeResource: font Helvetica
/Helvetica /ISOLatin1Encoding 168 FMSR

 680 1928 mt 
(0) s
2402 1738 mt 2402 1687 L
2402  356 mt 2402  406 L
2239 1928 mt 
(0.05) s
4078 1738 mt 4078 1687 L
4078  356 mt 4078  406 L
3962 1928 mt 
(0.1) s
5755 1738 mt 5755 1687 L
5755  356 mt 5755  406 L
5592 1928 mt 
(0.15) s
 726 1738 mt  776 1738 L
5755 1738 mt 5704 1738 L
 598 1800 mt 
(0) s
 726 1354 mt  776 1354 L
5755 1354 mt 5704 1354 L
 598 1416 mt 
(1) s
 726  971 mt  776  971 L
5755  971 mt 5704  971 L
 598 1033 mt 
(2) s
 726  588 mt  776  588 L
5755  588 mt 5704  588 L
 598  650 mt 
(3) s
 726 1738 mt 5755 1738 L
 726  356 mt 5755  356 L
 726 1738 mt  726  356 L
5755 1738 mt 5755  356 L
gs 726 356 5030 1383 rc
24 w
/c8 { 1.000000 0.000000 0.000000 sr} bdef
c8
252 -139 251 -105 252 -84 251 -68 252 -58 251 -48 252 -43 251 -36 
252 -33 251 -29 251 -25 252 -22 251 -19 252 -17 251 -14 252 -12 
251 -10 252 -7 251 -6 251 -4 726 1365 21 MP stroke
DA
/c9 { 0.000000 0.000000 1.000000 sr} bdef
c9
252 0 251 -1 252 0 251 0 252 0 251 0 252 0 251 -1 
252 0 251 0 251 0 252 0 251 0 252 0 251 -1 252 0 
251 0 252 0 251 0 251 0 726 1365 21 MP stroke
DO
6 w
0 sg
0 -1382 3843 1738 2 MP stroke
gr

DO
 506 1253 mt  -90 rotate
(sd. %) s
90 rotate
2988  224 mt 
(Output) s
SO
1 sg
0 1383 5029 0 0 -1383 726 3659 4 MP
PP
-5029 0 0 1383 5029 0 0 -1383 726 3659 5 MP stroke
4 w
DO
SO
6 w
0 sg
 726 3659 mt 5755 3659 L
 726 2276 mt 5755 2276 L
 726 3659 mt  726 2276 L
5755 3659 mt 5755 2276 L
 726 3659 mt 5755 3659 L
 726 3659 mt  726 2276 L
 726 3659 mt  726 3608 L
 726 2276 mt  726 2326 L
 680 3849 mt 
(0) s
2402 3659 mt 2402 3608 L
2402 2276 mt 2402 2326 L
2239 3849 mt 
(0.05) s
4078 3659 mt 4078 3608 L
4078 2276 mt 4078 2326 L
3962 3849 mt 
(0.1) s
5755 3659 mt 5755 3608 L
5755 2276 mt 5755 2326 L
5592 3849 mt 
(0.15) s
 726 3659 mt  776 3659 L
5755 3659 mt 5704 3659 L
 598 3721 mt 
(0) s
 726 3266 mt  776 3266 L
5755 3266 mt 5704 3266 L
 505 3328 mt 
(10) s
 726 2874 mt  776 2874 L
5755 2874 mt 5704 2874 L
 505 2936 mt 
(20) s
 726 2482 mt  776 2482 L
5755 2482 mt 5704 2482 L
 505 2544 mt 
(30) s
 726 3659 mt 5755 3659 L
 726 2276 mt 5755 2276 L
 726 3659 mt  726 2276 L
5755 3659 mt 5755 2276 L
gs 726 2276 5030 1384 rc
24 w
c8
252 -88 251 -67 252 -54 251 -45 252 -38 251 -34 252 -29 251 -27 
252 -25 251 -23 251 -21 252 -21 251 -20 252 -18 251 -19 252 -17 
251 -17 252 -16 251 -16 251 -16 726 3117 21 MP stroke
DA
c9
252 0 251 0 252 0 251 0 252 0 251 0 252 0 251 0 
252 0 251 0 251 0 252 0 251 0 252 0 251 0 252 0 
251 0 252 0 251 0 251 0 726 3637 21 MP stroke
DO
6 w
0 sg
0 -1383 3843 3659 2 MP stroke
gr

DO
 413 3173 mt  -90 rotate
(sd. %) s
90 rotate
2783 2144 mt 
(Stock prices) s
3197 4027 mt 
(x) s
SO

end %%Color Dict

eplot
%%EndObject

epage
end

showpage

%%Trailer
%%EOF
