%!PS-Adobe-2.0 EPSF-2.0
%% This is a Stata generated postscript file
%%BoundingBox: 0 0 396 288
%%HiResBoundingBox: 0.000 0.000 396.000 288.000
%%DocumentNeededResources: font Helvetica
/xratio 0.012375 def
/yratio 0.012375 def
/Sbgfill {
	/y1 exch def
	/x1 exch def
	/y0 exch def
	/x0 exch def
	x0 y0 moveto
	x0 y1 lineto x1 y1 lineto x1 y0 lineto x0 y0 lineto
	fill
} def
/Spt {
	yratio mul
	/yp exch def
	xratio mul
	/xp exch def
	Slrgb setrgbcolor
	newpath
	xp yp moveto
	xp Slw add yp
	lineto
	currentlinecap
	1 setlinecap
	stroke
	setlinecap
} def
/Sln {
	yratio mul
	/y1p exch def
	xratio mul
	/x1p exch def
	yratio mul
	/y0p exch def
	xratio mul
	/x0p exch def
	Slw setlinewidth
	Slrgb setrgbcolor
	x0p y0p M x1p y1p lineto S
} def
/Scrv {
	yratio mul
	/y3p exch def
	xratio mul
	/x3p exch def
	yratio mul
	/y2p exch def
	xratio mul
	/x2p exch def
	yratio mul
	/y1p exch def
	xratio mul
	/x1p exch def
	Slw setlinewidth
	Slrgb setrgbcolor
	x1p y1p x2p y2p x3p y3p curveto
	stroke
} def
/Stxtl {
	/sp exch def
	yratio mul
	/sizep exch def
	dup
	/anglep exch def
	0 exch sub
	/angle2p exch def
	yratio mul
	/y0p exch def
	xratio mul
	/x0p exch def
	Strgb setrgbcolor
	x0p y0p M anglep rotate sizep fntsize sp show stroke angle2p rotate
} def
/Stxtc {
	/sp exch def
	yratio mul
	/sizep exch def
	dup
	/anglep exch def
	0 exch sub
	/angle2p exch def
	yratio mul
	/y0p exch def
	xratio mul
	/x0p exch def
	Strgb setrgbcolor
	x0p y0p M anglep rotate sizep fntsize sp stringwidth exch -2 div exch rm sp show stroke angle2p rotate
} def
/Stxtr {
	/sp exch def
	yratio mul
	/sizep exch def
	dup
	/anglep exch def
	0 exch sub
	/angle2p exch def
	yratio mul
	/y0p exch def
	xratio mul
	/x0p exch def
	Strgb setrgbcolor
	x0p y0p M anglep rotate sizep fntsize sp stringwidth 1 index -1 mul exch rm pop sp show stroke angle2p rotate
} def
/Srect {
	/sfill exch def
	yratio mul
	/y1 exch def
	xratio mul
	/x1 exch def
	yratio mul
	/y0 exch def
	xratio mul
	/x0 exch def
	sfill 1 eq {
		Ssrgb setrgbcolor
		x0 y0 moveto
		x0 y1 lineto x1 y1 lineto x1 y0 lineto x0 y0 lineto
		fill
	} if
	Slw setlinewidth
	Slrgb setrgbcolor
	x0 y0 moveto
	x0 y1 lineto x1 y1 lineto x1 y0 lineto x0 y0 lineto
	stroke
} def
/Sellipse {
	/sfill exch def
	yratio mul
	/yrad exch def
	xratio mul
	/xrad exch def
	yratio mul
	/y exch def
	xratio mul
	/x exch def
	sfill 1 eq {
		Ssrgb setrgbcolor
		/savematrix matrix currentmatrix def
		x y translate
		xrad yrad scale
		0 0 1 0 360 arc
		savematrix setmatrix
		fill
	} if
	Slw setlinewidth
	Slrgb setrgbcolor
		/savematrix matrix currentmatrix def
		x y translate
		xrad yrad scale
		0 0 1 0 360 arc
		savematrix setmatrix
	stroke
} def
/Stri {
	/sfill exch def
	xratio mul
	/r exch def
	yratio mul
	/y0 exch def
	xratio mul
	/x0 exch def
	/xcen x0 def
	y0 r add
	/ytop exch def
	r 2 div
	y0 exch sub
	/ybot exch def
	r 3 sqrt 2 div mul dup
	xcen exch sub
	/xleft exch def
	xcen add
	/xright exch def
	sfill 1 eq {
		Ssrgb setrgbcolor
		xcen ytop moveto xright ybot lineto xleft ybot lineto xcen ytop lineto fill
	} if
	Slw setlinewidth
	Slrgb setrgbcolor
	xcen ytop moveto xright ybot lineto xleft ybot lineto xcen ytop lineto stroke
} def
/Soldtri {
	/sfill exch def
	xratio mul
	/r exch def
	yratio mul
	/y0 exch def
	xratio mul
	/x0 exch def
	x0 r sub
	/x1 exch def
	y0 r sub
	/y1 exch def
	x0 r add
	/x2 exch def
	y0 r sub
	/y2 exch def
	/x3 x0 def
	y0 r add
	/y3 exch def
	sfill 1 eq {
		Ssrgb setrgbcolor
		x1 y1 moveto x2 y2 lineto x3 y3 lineto x1 y1 lineto fill
	} if
	Slw setlinewidth
	Slrgb setrgbcolor
	x1 y1 moveto x2 y2 lineto x3 y3 lineto x1 y1 lineto stroke
} def
/Sdia {
	/sfill exch def
	xratio mul
	/r exch def
	yratio mul
	/y exch def
	xratio mul
	/x exch def
	x r sub
	/x0 exch def
	/y0 y def
	/x1 x def
	y r sub
	/y1 exch def
	x r add
	/x2 exch def
	/y2 y def
	/x3 x def
	y r add
	/y3 exch def
	sfill 1 eq  {
		Ssrgb setrgbcolor
		x0 y0 moveto x1 y1 lineto x2 y2 lineto x3 y3 lineto x0 y0 lineto fill
	} if
	Slw setlinewidth
	Slrgb setrgbcolor
	x0 y0 moveto x1 y1 lineto x2 y2 lineto x3 y3 lineto x0 y0 lineto stroke
} def
/Scc {
	/sfill exch def
	xratio mul
	/r0 exch def
	yratio mul
	/y0 exch def
	xratio mul
	/x0 exch def
	sfill 1 eq {
		Ssrgb setrgbcolor
		x0 y0 r0 0 360 arc fill
	} if
	Slw setlinewidth
	Slrgb setrgbcolor
	x0 y0 r0 0 360 arc stroke
} def
/Spie {
	/sfill exch def
	/a1 exch def
	/a0 exch def
	xratio mul
	/r exch def
	yratio mul
	/y exch def
	xratio mul
	/x exch def
	sfill 1 eq {
		Ssrgb setrgbcolor
		newpath x y moveto x y r a0 a1 arc closepath
		fill
	} if
	Slw setlinewidth
	Slrgb setrgbcolor
	newpath x y moveto x y r a0 a1 arc closepath
	stroke
} def
/Splu {
	xratio mul
	/r exch def
	yratio mul
	/y exch def
	xratio mul
	/x exch def
	x r sub
	/x0 exch def
	x r add
	/x1 exch def
	x0 y M x1 y L
	y r sub
	/y0 exch def
	y r add
	/y1 exch def
	x y0 M x y1 L
} def
/Scro {
	xratio mul
	/r exch def
	yratio mul
	/y exch def
	xratio mul
	/x exch def
	x r sub
	/x0 exch def
	y r sub
	/y0 exch def
	x r add
	/x1 exch def
	y r add
	/y1 exch def
	x0 y0 M x1 y1 L
	x r add
	/x0 exch def
	y r sub
	/y0 exch def
	x r sub
	/x1 exch def
	y r add
	/y1 exch def
	x0 y0 M x1 y1 L
} def
/Sm {
	yratio mul
	/y exch def
	xratio mul
	/x exch def
	x y M
} def
/Sl {
	yratio mul
	/y exch def
	xratio mul
	/x exch def
	x y L
} def
/SPl {
	yratio mul
	/y exch def
	xratio mul
	/x exch def
	x y PL
} def
/Lcs {
	currentlinecap
	1 setlinecap
} def
/Lcr {
	setlinecap
} def
/Sbp {
	newpath
} def
/Sep {
	/sfill exch def
	closepath
	sfill 1 eq  {
		Ssrgb setrgbcolor
		gsave
		fill
		grestore
	} if
	Slw setlinewidth
	Slrgb setrgbcolor
	Lcs
	stroke
	Lcr
} def
/cp {currentpoint} def 
/M {moveto} def 
/rm {rmoveto} def 
/S {stroke} def 
/L {Slw setlinewidth Slrgb setrgbcolor lineto Lcs S Lcr} def 
/PL {Slw setlinewidth Slrgb setrgbcolor lineto} def 
/MF-Helvetica {
  /newfontname exch def
  /fontname exch def
  /fontdict fontname findfont def
  /newfont fontdict maxlength dict def
  fontdict {
  exch dup /FID eq {pop pop} {exch newfont 3 1 roll put} ifelse
  } forall
  newfont /FontName newfontname put
  newfont /Encoding ISOLatin1Encoding put
  newfontname newfont definefont pop
} def
/Helvetica /Helvetica-0 MF-Helvetica
/Slw 0.120 def
0.918 0.949 0.953 setrgbcolor
0 0 396.000 288.000 Sbgfill
/Slrgb {1.000 1.000 1.000} def
/Strgb {1.000 1.000 1.000} def
/Ssrgb {1.000 1.000 1.000} def
/Ssrgb {0.918 0.949 0.953} def
/Slw 0.576 def
/Slrgb {0.918 0.949 0.953} def
0 0 31999 23272 1 Srect
/Ssrgb {1.000 1.000 1.000} def
/Slrgb {1.000 1.000 1.000} def
3158 3158 31184 22457 1 Srect
/Slrgb {0.000 0.000 0.000} def
/Strgb {0.000 0.000 0.000} def
/Slw 0.864 def
/Slrgb {0.918 0.949 0.953} def
3158 3670 31184 3670 Sln
/Slw 0.576 def
/Slrgb {0.000 0.000 0.000} def
/Slw 0.864 def
/Slrgb {0.918 0.949 0.953} def
3158 7325 31184 7325 Sln
/Slw 0.576 def
/Slrgb {0.000 0.000 0.000} def
/Slw 0.864 def
/Slrgb {0.918 0.949 0.953} def
3158 10980 31184 10980 Sln
/Slw 0.576 def
/Slrgb {0.000 0.000 0.000} def
/Slw 0.864 def
/Slrgb {0.918 0.949 0.953} def
3158 14635 31184 14635 Sln
/Slw 0.576 def
/Slrgb {0.000 0.000 0.000} def
/Slw 0.864 def
/Slrgb {0.918 0.949 0.953} def
3158 18290 31184 18290 Sln
/Slw 0.576 def
/Slrgb {0.000 0.000 0.000} def
/Slw 0.864 def
/Slrgb {0.918 0.949 0.953} def
3158 21945 31184 21945 Sln
/Slw 0.576 def
/Slrgb {0.000 0.000 0.000} def
/Slw 0.864 def
/Slrgb {0.102 0.278 0.435} def
/Ssrgb {0.102 0.278 0.435} def
7410 18578 178 1 Scc 
7447 18594 178 1 Scc 
7585 18539 178 1 Scc 
7739 18301 178 1 Scc 
8047 17916 178 1 Scc 
8191 17665 178 1 Scc 
8367 17512 178 1 Scc 
8078 17880 178 1 Scc 
8175 17860 178 1 Scc 
8434 17695 178 1 Scc 
8322 18012 178 1 Scc 
8214 18330 178 1 Scc 
8183 18562 178 1 Scc 
7822 18936 178 1 Scc 
8129 18679 178 1 Scc 
8107 18763 178 1 Scc 
7841 19036 178 1 Scc 
7782 19211 178 1 Scc 
7790 19323 178 1 Scc 
7641 19491 178 1 Scc 
7796 19230 178 1 Scc 
7815 19120 178 1 Scc 
7617 19451 178 1 Scc 
7275 19819 178 1 Scc 
7465 19669 178 1 Scc 
7469 19565 178 1 Scc 
7404 19459 178 1 Scc 
7452 19329 178 1 Scc 
7599 19181 178 1 Scc 
7316 19416 178 1 Scc 
7337 19433 178 1 Scc 
7323 19451 178 1 Scc 
7447 19333 178 1 Scc 
7533 19333 178 1 Scc 
7776 19112 178 1 Scc 
7960 18992 178 1 Scc 
7916 18913 178 1 Scc 
7971 18790 178 1 Scc 
8093 18347 178 1 Scc 
8320 17996 178 1 Scc 
8460 17898 178 1 Scc 
8374 18109 178 1 Scc 
8367 18277 178 1 Scc 
8503 18242 178 1 Scc 
8587 18166 178 1 Scc 
8653 17996 178 1 Scc 
8367 18211 178 1 Scc 
8318 18299 178 1 Scc 
8366 18226 178 1 Scc 
8551 18151 178 1 Scc 
8614 18157 178 1 Scc 
8425 18375 178 1 Scc 
8186 18619 178 1 Scc 
8000 18741 178 1 Scc 
7841 18995 178 1 Scc 
7849 19103 178 1 Scc 
7861 19213 178 1 Scc 
7786 19141 178 1 Scc 
7896 19070 178 1 Scc 
8025 18971 178 1 Scc 
8154 18812 178 1 Scc 
8160 18721 178 1 Scc 
8060 18899 178 1 Scc 
7946 19109 178 1 Scc 
7918 19131 178 1 Scc 
7985 18831 178 1 Scc 
8171 18653 178 1 Scc 
8311 18567 178 1 Scc 
8252 18761 178 1 Scc 
8179 18851 178 1 Scc 
8417 18820 178 1 Scc 
8657 18624 178 1 Scc 
8824 18674 178 1 Scc 
8830 18580 178 1 Scc 
8657 18715 178 1 Scc 
8568 18663 178 1 Scc 
8689 18536 178 1 Scc 
8741 18496 178 1 Scc 
8844 18638 178 1 Scc 
8877 18717 178 1 Scc 
8960 18703 178 1 Scc 
9095 18120 178 1 Scc 
9226 16939 178 1 Scc 
9277 17013 178 1 Scc 
9292 17020 178 1 Scc 
9232 17235 178 1 Scc 
8792 17587 178 1 Scc 
8590 17856 178 1 Scc 
8566 17556 178 1 Scc 
8739 16970 178 1 Scc 
8892 16724 178 1 Scc 
9037 16524 178 1 Scc 
9058 16455 178 1 Scc 
8878 16050 178 1 Scc 
8888 15795 178 1 Scc 
8949 15569 178 1 Scc 
8863 15736 178 1 Scc 
8914 15974 178 1 Scc 
8944 15998 178 1 Scc 
9023 15595 178 1 Scc 
9157 15219 178 1 Scc 
9177 15198 178 1 Scc 
9248 15221 178 1 Scc 
9493 14956 178 1 Scc 
9768 14308 178 1 Scc 
9622 14014 178 1 Scc 
9704 14132 178 1 Scc 
9792 13493 178 1 Scc 
9764 13669 178 1 Scc 
9640 13855 178 1 Scc 
9907 13862 178 1 Scc 
10245 12909 178 1 Scc 
10392 12679 178 1 Scc 
10010 12662 178 1 Scc 
10004 13097 178 1 Scc 
10157 14631 178 1 Scc 
10557 14899 178 1 Scc 
10640 14423 178 1 Scc 
11053 14308 178 1 Scc 
11024 14305 178 1 Scc 
11475 14365 178 1 Scc 
11426 14093 178 1 Scc 
11472 14175 178 1 Scc 
11339 14663 178 1 Scc 
11368 15618 178 1 Scc 
11429 16156 178 1 Scc 
12028 16089 178 1 Scc 
12409 15715 178 1 Scc 
12661 15587 178 1 Scc 
11625 15668 178 1 Scc 
9458 16875 178 1 Scc 
9627 16777 178 1 Scc 
9708 16896 178 1 Scc 
10080 16875 178 1 Scc 
10317 16528 178 1 Scc 
10733 16394 178 1 Scc 
10305 16221 178 1 Scc 
9629 16608 178 1 Scc 
9497 16469 178 1 Scc 
9417 16356 178 1 Scc 
9410 16248 178 1 Scc 
8616 16807 178 1 Scc 
8252 17125 178 1 Scc 
7943 17311 178 1 Scc 
8133 17061 178 1 Scc 
8541 16588 178 1 Scc 
8705 16255 178 1 Scc 
8291 16804 178 1 Scc 
7906 17340 178 1 Scc 
7831 17500 178 1 Scc 
8033 17496 178 1 Scc 
7967 17762 178 1 Scc 
7384 18283 178 1 Scc 
6938 18724 178 1 Scc 
7036 18772 178 1 Scc 
6449 19297 178 1 Scc 
6494 19271 178 1 Scc 
6568 19250 178 1 Scc 
6683 19121 178 1 Scc 
6047 19833 178 1 Scc 
5836 19765 178 1 Scc 
5621 20052 178 1 Scc 
5805 19753 178 1 Scc 
7021 18133 178 1 Scc 
7515 17697 178 1 Scc 
7144 18263 178 1 Scc 
7284 18250 178 1 Scc 
7352 18172 178 1 Scc 
7537 17961 178 1 Scc 
7114 18342 178 1 Scc 
7138 18170 178 1 Scc 
7545 17469 178 1 Scc 
8712 16340 178 1 Scc 
9639 15680 178 1 Scc 
10191 15723 178 1 Scc 
9933 15990 178 1 Scc 
9948 15475 178 1 Scc 
9400 15331 178 1 Scc 
9604 15019 178 1 Scc 
9788 15013 178 1 Scc 
10126 15054 178 1 Scc 
10590 14870 178 1 Scc 
10223 14931 178 1 Scc 
10321 14820 178 1 Scc 
9633 15375 178 1 Scc 
9701 15533 178 1 Scc 
9405 16412 178 1 Scc 
9170 16602 178 1 Scc 
9028 16595 178 1 Scc 
9060 16940 178 1 Scc 
9200 16821 178 1 Scc 
9226 16633 178 1 Scc 
9226 16606 178 1 Scc 
9058 16712 178 1 Scc 
8716 16909 178 1 Scc 
9134 16202 178 1 Scc 
9608 16063 178 1 Scc 
9880 15975 178 1 Scc 
10205 15894 178 1 Scc 
10647 15633 178 1 Scc 
10794 15869 178 1 Scc 
10822 15861 178 1 Scc 
11324 15536 178 1 Scc 
11161 15498 178 1 Scc 
11410 15362 178 1 Scc 
11687 15170 178 1 Scc 
11695 15109 178 1 Scc 
11446 15200 178 1 Scc 
10803 14938 178 1 Scc 
10881 14560 178 1 Scc 
11041 14623 178 1 Scc 
10933 14750 178 1 Scc 
10774 14946 178 1 Scc 
10722 14878 178 1 Scc 
10529 14938 178 1 Scc 
10067 14897 178 1 Scc 
10176 14895 178 1 Scc 
10278 14648 178 1 Scc 
10182 14768 178 1 Scc 
9558 14963 178 1 Scc 
9087 15129 178 1 Scc 
8697 15378 178 1 Scc 
9148 15438 178 1 Scc 
9367 15405 178 1 Scc 
8709 16001 178 1 Scc 
7921 16406 178 1 Scc 
7498 16535 178 1 Scc 
7389 16327 178 1 Scc 
7519 16234 178 1 Scc 
7459 16188 178 1 Scc 
7239 16218 178 1 Scc 
7153 16249 178 1 Scc 
7247 16217 178 1 Scc 
7395 16336 178 1 Scc 
8303 15842 178 1 Scc 
8510 15839 178 1 Scc 
8477 16100 178 1 Scc 
9451 15968 178 1 Scc 
9972 16073 178 1 Scc 
10388 16254 178 1 Scc 
10245 16583 178 1 Scc 
10150 16844 178 1 Scc 
10103 16950 178 1 Scc 
9257 17505 178 1 Scc 
9427 17502 178 1 Scc 
9493 17509 178 1 Scc 
9525 17523 178 1 Scc 
9335 17424 178 1 Scc 
9827 17210 178 1 Scc 
9675 17133 178 1 Scc 
9371 17047 178 1 Scc 
9057 17193 178 1 Scc 
8998 17308 178 1 Scc 
8935 17337 178 1 Scc 
8877 17457 178 1 Scc 
8873 17338 178 1 Scc 
8110 17912 178 1 Scc 
7686 18354 178 1 Scc 
7777 18223 178 1 Scc 
7821 18041 178 1 Scc 
7953 17787 178 1 Scc 
7994 17797 178 1 Scc 
8095 17649 178 1 Scc 
7913 17835 178 1 Scc 
7900 17879 178 1 Scc 
7616 18159 178 1 Scc 
7620 18086 178 1 Scc 
7479 18230 178 1 Scc 
7378 18351 178 1 Scc 
7489 18231 178 1 Scc 
7665 17891 178 1 Scc 
7627 17888 178 1 Scc 
7619 18074 178 1 Scc 
7443 18312 178 1 Scc 
7250 18502 178 1 Scc 
7001 18665 178 1 Scc 
7098 18640 178 1 Scc 
7022 18660 178 1 Scc 
6870 18602 178 1 Scc 
6783 18815 178 1 Scc 
6865 18641 178 1 Scc 
7077 18251 178 1 Scc 
7277 17697 178 1 Scc 
7332 17475 178 1 Scc 
7450 16729 178 1 Scc 
7795 16296 178 1 Scc 
7931 16104 178 1 Scc 
8026 16128 178 1 Scc 
8287 15894 178 1 Scc 
8562 15788 178 1 Scc 
8736 15486 178 1 Scc 
8905 15266 178 1 Scc 
9111 15089 178 1 Scc 
9207 15142 178 1 Scc 
9290 15238 178 1 Scc 
8982 15279 178 1 Scc 
9065 15055 178 1 Scc 
8986 15187 178 1 Scc 
8712 15303 178 1 Scc 
8751 15160 178 1 Scc 
8886 14966 178 1 Scc 
8823 14864 178 1 Scc 
8939 14858 178 1 Scc 
8820 15161 178 1 Scc 
8883 15259 178 1 Scc 
9100 15232 178 1 Scc 
9212 15038 178 1 Scc 
9102 14984 178 1 Scc 
8985 15018 178 1 Scc 
9116 15061 178 1 Scc 
9078 14941 178 1 Scc 
9196 14917 178 1 Scc 
9331 14914 178 1 Scc 
9490 14746 178 1 Scc 
9456 14850 178 1 Scc 
9602 14812 178 1 Scc 
9826 14769 178 1 Scc 
9938 14626 178 1 Scc 
9778 15021 178 1 Scc 
9768 15203 178 1 Scc 
10150 15083 178 1 Scc 
10420 15153 178 1 Scc 
10641 15174 178 1 Scc 
10760 15366 178 1 Scc 
10968 15422 178 1 Scc 
10916 15567 178 1 Scc 
10630 15832 178 1 Scc 
11079 15828 178 1 Scc 
11095 16044 178 1 Scc 
11047 16246 178 1 Scc 
10802 16356 178 1 Scc 
10630 16792 178 1 Scc 
9575 17606 178 1 Scc 
9386 17955 178 1 Scc 
9309 18117 178 1 Scc 
9424 18079 178 1 Scc 
9427 18342 178 1 Scc 
9622 18374 178 1 Scc 
9355 18595 178 1 Scc 
9045 18849 178 1 Scc 
8855 18966 178 1 Scc 
8942 18866 178 1 Scc 
9200 18816 178 1 Scc 
9021 19151 178 1 Scc 
8817 19434 178 1 Scc 
8841 19347 178 1 Scc 
8677 19309 178 1 Scc 
8501 19526 178 1 Scc 
8418 19747 178 1 Scc 
8166 19859 178 1 Scc 
8212 19802 178 1 Scc 
8562 19586 178 1 Scc 
8800 19454 178 1 Scc 
9013 19452 178 1 Scc 
8845 19681 178 1 Scc 
8655 19830 178 1 Scc 
8561 19825 178 1 Scc 
8581 19649 178 1 Scc 
8206 19933 178 1 Scc 
8080 20062 178 1 Scc 
8051 20012 178 1 Scc 
7809 20057 178 1 Scc 
7778 19987 178 1 Scc 
7717 19790 178 1 Scc 
7634 19769 178 1 Scc 
7368 19796 178 1 Scc 
7551 19578 178 1 Scc 
7665 19434 178 1 Scc 
7691 19209 178 1 Scc 
7667 19152 178 1 Scc 
7600 19177 178 1 Scc 
7587 19063 178 1 Scc 
7633 19027 178 1 Scc 
7675 18997 178 1 Scc 
7674 19018 178 1 Scc 
7752 19027 178 1 Scc 
7854 19003 178 1 Scc 
7886 18940 178 1 Scc 
7444 19326 178 1 Scc 
7537 19137 178 1 Scc 
7543 19045 178 1 Scc 
7567 18931 178 1 Scc 
7431 19002 178 1 Scc 
7297 19134 178 1 Scc 
7522 18904 178 1 Scc 
7621 18843 178 1 Scc 
7512 18795 178 1 Scc 
7530 18771 178 1 Scc 
7498 18668 178 1 Scc 
7399 18824 178 1 Scc 
7498 18889 178 1 Scc 
7700 18609 178 1 Scc 
7841 18593 178 1 Scc 
7922 18351 178 1 Scc 
7908 18625 178 1 Scc 
8153 18491 178 1 Scc 
8291 18200 178 1 Scc 
8196 18188 178 1 Scc 
8197 18341 178 1 Scc 
8152 18313 178 1 Scc 
8119 18105 178 1 Scc 
8209 17901 178 1 Scc 
8340 17919 178 1 Scc 
8358 17826 178 1 Scc 
8284 17678 178 1 Scc 
8229 17625 178 1 Scc 
8418 17409 178 1 Scc 
8656 17247 178 1 Scc 
8683 17079 178 1 Scc 
8622 16884 178 1 Scc 
8647 16861 178 1 Scc 
8390 17051 178 1 Scc 
8404 17100 178 1 Scc 
8224 17214 178 1 Scc 
8288 17131 178 1 Scc 
8307 16852 178 1 Scc 
8094 16800 178 1 Scc 
8196 16412 178 1 Scc 
8264 16174 178 1 Scc 
8293 16075 178 1 Scc 
8389 15981 178 1 Scc 
8471 15868 178 1 Scc 
8550 15794 178 1 Scc 
8768 15604 178 1 Scc 
8995 15553 178 1 Scc 
9062 15571 178 1 Scc 
9255 15475 178 1 Scc 
9340 15510 178 1 Scc 
9446 15467 178 1 Scc 
9488 15485 178 1 Scc 
9623 15399 178 1 Scc 
9801 15263 178 1 Scc 
9885 15286 178 1 Scc 
10065 15087 178 1 Scc 
9987 15168 178 1 Scc 
10191 15056 178 1 Scc 
10150 15087 178 1 Scc 
10511 14808 178 1 Scc 
10934 14668 178 1 Scc 
10815 14643 178 1 Scc 
11060 14319 178 1 Scc 
10660 14468 178 1 Scc 
11101 14228 178 1 Scc 
11140 14277 178 1 Scc 
10808 14305 178 1 Scc 
10727 14110 178 1 Scc 
11082 13813 178 1 Scc 
11069 13812 178 1 Scc 
10743 13899 178 1 Scc 
10610 14050 178 1 Scc 
10933 13784 178 1 Scc 
10837 13825 178 1 Scc 
10543 13840 178 1 Scc 
10580 13793 178 1 Scc 
10637 13935 178 1 Scc 
10876 13970 178 1 Scc 
10733 14214 178 1 Scc 
10441 14505 178 1 Scc 
10542 14552 178 1 Scc 
10701 14546 178 1 Scc 
10971 14431 178 1 Scc 
11091 14312 178 1 Scc 
11197 14208 178 1 Scc 
10742 14523 178 1 Scc 
10417 14595 178 1 Scc 
9961 14822 178 1 Scc 
9790 15020 178 1 Scc 
9753 14998 178 1 Scc 
9896 14765 178 1 Scc 
9940 14751 178 1 Scc 
10094 14660 178 1 Scc 
10178 14482 178 1 Scc 
10438 14058 178 1 Scc 
10654 13511 178 1 Scc 
10846 13495 178 1 Scc 
11115 13443 178 1 Scc 
11311 13305 178 1 Scc 
11591 13054 178 1 Scc 
11801 13207 178 1 Scc 
11923 13286 178 1 Scc 
12219 13299 178 1 Scc 
12056 13392 178 1 Scc 
12237 13278 178 1 Scc 
12348 13400 178 1 Scc 
12445 13419 178 1 Scc 
12337 13451 178 1 Scc 
12648 13261 178 1 Scc 
12564 13384 178 1 Scc 
12180 13634 178 1 Scc 
12142 13642 178 1 Scc 
12145 13604 178 1 Scc 
12384 13554 178 1 Scc 
12064 13709 178 1 Scc 
11583 13895 178 1 Scc 
11327 13991 178 1 Scc 
11413 13990 178 1 Scc 
11329 14038 178 1 Scc 
11598 13868 178 1 Scc 
11402 14060 178 1 Scc 
11495 13957 178 1 Scc 
11259 14097 178 1 Scc 
11110 14231 178 1 Scc 
11351 14106 178 1 Scc 
11535 13939 178 1 Scc 
11953 13837 178 1 Scc 
12308 13709 178 1 Scc 
12594 13585 178 1 Scc 
12832 13524 178 1 Scc 
12925 13540 178 1 Scc 
12803 13392 178 1 Scc 
12747 13425 178 1 Scc 
13041 13358 178 1 Scc 
12936 13521 178 1 Scc 
12943 13551 178 1 Scc 
13266 13424 178 1 Scc 
13259 13367 178 1 Scc 
12872 13569 178 1 Scc 
12995 13476 178 1 Scc 
12973 13315 178 1 Scc 
12647 13535 178 1 Scc 
11953 13619 178 1 Scc 
10961 14017 178 1 Scc 
11113 13910 178 1 Scc 
11291 13562 178 1 Scc 
11199 13481 178 1 Scc 
10903 13544 178 1 Scc 
11341 13480 178 1 Scc 
11610 13345 178 1 Scc 
11891 13348 178 1 Scc 
11974 13426 178 1 Scc 
11917 13525 178 1 Scc 
12239 13409 178 1 Scc 
12344 13391 178 1 Scc 
12275 13349 178 1 Scc 
12134 13465 178 1 Scc 
12355 13411 178 1 Scc 
12570 13356 178 1 Scc 
12499 13342 178 1 Scc 
12359 13237 178 1 Scc 
12453 13263 178 1 Scc 
12658 13124 178 1 Scc 
12703 12909 178 1 Scc 
12802 12777 178 1 Scc 
12868 12980 178 1 Scc 
12892 13021 178 1 Scc 
12773 13131 178 1 Scc 
13032 12985 178 1 Scc 
12819 12941 178 1 Scc 
12900 12999 178 1 Scc 
12983 13006 178 1 Scc 
12972 13038 178 1 Scc 
12738 13126 178 1 Scc 
12910 12868 178 1 Scc 
12916 12808 178 1 Scc 
12864 12712 178 1 Scc 
12912 12734 178 1 Scc 
12977 12790 178 1 Scc 
12467 12778 178 1 Scc 
12398 12604 178 1 Scc 
12505 12507 178 1 Scc 
12743 12402 178 1 Scc 
12877 12365 178 1 Scc 
12885 12354 178 1 Scc 
12776 12181 178 1 Scc 
12866 12096 178 1 Scc 
12738 12018 178 1 Scc 
12302 12242 178 1 Scc 
12514 12035 178 1 Scc 
11999 11809 178 1 Scc 
11881 11842 178 1 Scc 
11802 11881 178 1 Scc 
11257 12255 178 1 Scc 
10939 12585 178 1 Scc 
10893 12700 178 1 Scc 
11272 12506 178 1 Scc 
11321 12713 178 1 Scc 
11587 12710 178 1 Scc 
11832 12712 178 1 Scc 
11995 12717 178 1 Scc 
12139 12773 178 1 Scc 
12291 12649 178 1 Scc 
12183 12608 178 1 Scc 
12310 12521 178 1 Scc 
12427 12403 178 1 Scc 
12529 12446 178 1 Scc 
12515 12379 178 1 Scc 
12238 12339 178 1 Scc 
12482 12474 178 1 Scc 
12428 12650 178 1 Scc 
12004 12867 178 1 Scc 
11824 13006 178 1 Scc 
12387 12775 178 1 Scc 
12548 12650 178 1 Scc 
12745 12571 178 1 Scc 
12687 12550 178 1 Scc 
12451 12749 178 1 Scc 
12697 12574 178 1 Scc 
12879 12492 178 1 Scc 
12980 12610 178 1 Scc 
13037 12642 178 1 Scc 
12612 12817 178 1 Scc 
12539 12688 178 1 Scc 
12319 12696 178 1 Scc 
12465 12542 178 1 Scc 
12722 12306 178 1 Scc 
12222 12411 178 1 Scc 
11823 12616 178 1 Scc 
11760 12514 178 1 Scc 
11771 12557 178 1 Scc 
11849 12638 178 1 Scc 
11899 12338 178 1 Scc 
11455 12268 178 1 Scc 
11378 12330 178 1 Scc 
11102 12331 178 1 Scc 
11221 12393 178 1 Scc 
10983 12330 178 1 Scc 
10135 12618 178 1 Scc 
10088 12624 178 1 Scc 
10092 12162 178 1 Scc 
10272 11879 178 1 Scc 
10660 11290 178 1 Scc 
10849 11314 178 1 Scc 
10879 11471 178 1 Scc 
11413 11039 178 1 Scc 
11735 11233 178 1 Scc 
12074 11484 178 1 Scc 
12317 11595 178 1 Scc 
12622 11555 178 1 Scc 
12510 11865 178 1 Scc 
12355 12057 178 1 Scc 
12302 12087 178 1 Scc 
12158 11917 178 1 Scc 
12356 11816 178 1 Scc 
12190 12084 178 1 Scc 
11812 12320 178 1 Scc 
12392 12062 178 1 Scc 
12755 12257 178 1 Scc 
12922 12360 178 1 Scc 
13142 12323 178 1 Scc 
13239 12340 178 1 Scc 
13142 12364 178 1 Scc 
13169 12395 178 1 Scc 
13088 12533 178 1 Scc 
13411 12396 178 1 Scc 
13261 12552 178 1 Scc 
13206 12453 178 1 Scc 
13610 12294 178 1 Scc 
13742 12381 178 1 Scc 
13797 12356 178 1 Scc 
13418 12424 178 1 Scc 
13244 12524 178 1 Scc 
13016 12580 178 1 Scc 
12706 12729 178 1 Scc 
12458 12879 178 1 Scc 
12496 12915 178 1 Scc 
12285 12997 178 1 Scc 
12389 12929 178 1 Scc 
12636 12776 178 1 Scc 
11907 13129 178 1 Scc 
11241 13441 178 1 Scc 
11302 13316 178 1 Scc 
11048 13449 178 1 Scc 
11318 13372 178 1 Scc 
10885 13759 178 1 Scc 
10627 14102 178 1 Scc 
10597 14136 178 1 Scc 
9736 14597 178 1 Scc 
9436 15026 178 1 Scc 
8793 15429 178 1 Scc 
8887 15238 178 1 Scc 
9055 14922 178 1 Scc 
8700 15230 178 1 Scc 
9077 15063 178 1 Scc 
9601 14657 178 1 Scc 
9834 14567 178 1 Scc 
9880 14599 178 1 Scc 
10251 14304 178 1 Scc 
10395 14313 178 1 Scc 
10401 14390 178 1 Scc 
9908 14829 178 1 Scc 
9832 14920 178 1 Scc 
10133 14645 178 1 Scc 
10260 14594 178 1 Scc 
10178 14804 178 1 Scc 
10770 14588 178 1 Scc 
11038 14599 178 1 Scc 
11068 14246 178 1 Scc 
11079 14201 178 1 Scc 
10982 14441 178 1 Scc 
10980 14678 178 1 Scc 
11093 14822 178 1 Scc 
10971 14999 178 1 Scc 
11069 15032 178 1 Scc 
10695 15278 178 1 Scc 
10530 15451 178 1 Scc 
10650 15272 178 1 Scc 
10511 15304 178 1 Scc 
10252 15302 178 1 Scc 
10153 15469 178 1 Scc 
9967 15579 178 1 Scc 
9866 15522 178 1 Scc 
9819 15526 178 1 Scc 
9809 15401 178 1 Scc 
9596 15506 178 1 Scc 
9444 15235 178 1 Scc 
9224 15402 178 1 Scc 
9188 15497 178 1 Scc 
9094 15555 178 1 Scc 
8840 15527 178 1 Scc 
8721 15519 178 1 Scc 
8666 15461 178 1 Scc 
8845 15516 178 1 Scc 
9067 15366 178 1 Scc 
9040 15175 178 1 Scc 
8975 15231 178 1 Scc 
9299 15056 178 1 Scc 
9258 15503 178 1 Scc 
9063 15944 178 1 Scc 
8730 16321 178 1 Scc 
8788 16321 178 1 Scc 
8935 16325 178 1 Scc 
8813 16462 178 1 Scc 
8867 16532 178 1 Scc 
8924 16586 178 1 Scc 
8757 16804 178 1 Scc 
8812 16775 178 1 Scc 
8808 16740 178 1 Scc 
8987 16471 178 1 Scc 
8991 16527 178 1 Scc 
8747 16658 178 1 Scc 
8667 16618 178 1 Scc 
8821 16461 178 1 Scc 
8923 16402 178 1 Scc 
9084 16073 178 1 Scc 
8544 16441 178 1 Scc 
8426 16491 178 1 Scc 
8604 16301 178 1 Scc 
8879 16006 178 1 Scc 
9076 15777 178 1 Scc 
9203 15973 178 1 Scc 
9297 15923 178 1 Scc 
9433 15807 178 1 Scc 
9647 15718 178 1 Scc 
9521 15771 178 1 Scc 
9462 15953 178 1 Scc 
9226 16272 178 1 Scc 
9397 16103 178 1 Scc 
9415 16087 178 1 Scc 
9267 16239 178 1 Scc 
9260 16298 178 1 Scc 
9088 16456 178 1 Scc 
9073 16353 178 1 Scc 
8569 16586 178 1 Scc 
8603 16532 178 1 Scc 
8703 16607 178 1 Scc 
8711 16705 178 1 Scc 
8425 16855 178 1 Scc 
8291 17079 178 1 Scc 
8122 17330 178 1 Scc 
8322 17179 178 1 Scc 
8305 17123 178 1 Scc 
8019 17366 178 1 Scc 
7999 17219 178 1 Scc 
8002 17181 178 1 Scc 
8494 16595 178 1 Scc 
8895 16235 178 1 Scc 
9103 16139 178 1 Scc 
9148 16082 178 1 Scc 
9330 16109 178 1 Scc 
9417 16196 178 1 Scc 
9605 16143 178 1 Scc 
9823 15920 178 1 Scc 
10063 15735 178 1 Scc 
10144 15787 178 1 Scc 
10148 15834 178 1 Scc 
9952 16089 178 1 Scc 
10119 15809 178 1 Scc 
10111 15290 178 1 Scc 
9988 14834 178 1 Scc 
9931 14772 178 1 Scc 
9980 14855 178 1 Scc 
9610 15140 178 1 Scc 
9589 15193 178 1 Scc 
9561 15105 178 1 Scc 
9489 14997 178 1 Scc 
9325 15229 178 1 Scc 
9233 15205 178 1 Scc 
9704 14789 178 1 Scc 
9747 14771 178 1 Scc 
9659 14887 178 1 Scc 
9673 14732 178 1 Scc 
9568 14802 178 1 Scc 
9788 14718 178 1 Scc 
10083 14606 178 1 Scc 
9993 14583 178 1 Scc 
10014 14638 178 1 Scc 
10142 14650 178 1 Scc 
10259 14653 178 1 Scc 
10356 14642 178 1 Scc 
10182 14843 178 1 Scc 
10010 14889 178 1 Scc 
10066 14805 178 1 Scc 
10437 14487 178 1 Scc 
10755 14381 178 1 Scc 
10750 14227 178 1 Scc 
11093 13896 178 1 Scc 
11491 13734 178 1 Scc 
11656 13630 178 1 Scc 
11646 13749 178 1 Scc 
11847 13749 178 1 Scc 
11634 13803 178 1 Scc 
11750 13402 178 1 Scc 
11488 13327 178 1 Scc 
11443 13239 178 1 Scc 
11679 13229 178 1 Scc 
11777 13345 178 1 Scc 
12274 13104 178 1 Scc 
12786 13297 178 1 Scc 
13140 13274 178 1 Scc 
12969 13410 178 1 Scc 
12897 13409 178 1 Scc 
13222 13275 178 1 Scc 
13444 13210 178 1 Scc 
13996 13104 178 1 Scc 
13607 13223 178 1 Scc 
12356 13697 178 1 Scc 
11221 14157 178 1 Scc 
11056 14220 178 1 Scc 
11307 14313 178 1 Scc 
11497 14152 178 1 Scc 
11686 13985 178 1 Scc 
11510 14027 178 1 Scc 
11238 14170 178 1 Scc 
11589 13898 178 1 Scc 
11477 13970 178 1 Scc 
11258 14053 178 1 Scc 
11319 13993 178 1 Scc 
11513 13798 178 1 Scc 
11260 13950 178 1 Scc 
11343 13970 178 1 Scc 
11522 13830 178 1 Scc 
11691 13758 178 1 Scc 
11589 13829 178 1 Scc 
11762 13649 178 1 Scc 
11985 13529 178 1 Scc 
12155 13430 178 1 Scc 
12268 13329 178 1 Scc 
12543 13211 178 1 Scc 
12458 13237 178 1 Scc 
12358 13261 178 1 Scc 
12079 13318 178 1 Scc 
12188 13242 178 1 Scc 
11910 13394 178 1 Scc 
11615 13467 178 1 Scc 
11743 13304 178 1 Scc 
11654 13156 178 1 Scc 
11855 13048 178 1 Scc 
12008 12968 178 1 Scc 
11960 12933 178 1 Scc 
11249 13337 178 1 Scc 
10863 13518 178 1 Scc 
10623 13572 178 1 Scc 
10756 13423 178 1 Scc 
11006 13196 178 1 Scc 
10929 13288 178 1 Scc 
11745 12994 178 1 Scc 
11964 12952 178 1 Scc 
12121 12960 178 1 Scc 
12077 13069 178 1 Scc 
12077 13150 178 1 Scc 
12090 13229 178 1 Scc 
12262 13128 178 1 Scc 
12184 13255 178 1 Scc 
12195 13248 178 1 Scc 
12192 13318 178 1 Scc 
12268 13381 178 1 Scc 
12848 13089 178 1 Scc 
12741 13296 178 1 Scc 
12598 13298 178 1 Scc 
12599 13259 178 1 Scc 
12761 13241 178 1 Scc 
12618 13318 178 1 Scc 
12749 13097 178 1 Scc 
12795 13151 178 1 Scc 
12790 13184 178 1 Scc 
12662 13347 178 1 Scc 
12890 13396 178 1 Scc 
13171 13292 178 1 Scc 
13137 13381 178 1 Scc 
13252 13445 178 1 Scc 
13409 13320 178 1 Scc 
13246 13221 178 1 Scc 
13283 13492 178 1 Scc 
13333 13616 178 1 Scc 
13316 13775 178 1 Scc 
13464 13691 178 1 Scc 
13574 13648 178 1 Scc 
13659 13633 178 1 Scc 
13621 13560 178 1 Scc 
13671 13592 178 1 Scc 
13787 13506 178 1 Scc 
13722 13703 178 1 Scc 
13523 13908 178 1 Scc 
13139 14106 178 1 Scc 
13184 14009 178 1 Scc 
13234 13936 178 1 Scc 
13140 14072 178 1 Scc 
13387 13665 178 1 Scc 
13421 13419 178 1 Scc 
13293 13435 178 1 Scc 
13174 13787 178 1 Scc 
12995 13923 178 1 Scc 
13201 13971 178 1 Scc 
13543 13795 178 1 Scc 
13773 13763 178 1 Scc 
14025 13740 178 1 Scc 
14299 13580 178 1 Scc 
14562 13409 178 1 Scc 
14868 13391 178 1 Scc 
14844 13194 178 1 Scc 
15178 12992 178 1 Scc 
15201 12882 178 1 Scc 
15390 13006 178 1 Scc 
15703 12948 178 1 Scc 
15611 12912 178 1 Scc 
16200 12569 178 1 Scc 
16061 12673 178 1 Scc 
16014 12695 178 1 Scc 
16231 12475 178 1 Scc 
16319 12493 178 1 Scc 
15747 12616 178 1 Scc 
15985 12510 178 1 Scc 
16100 12355 178 1 Scc 
16520 11986 178 1 Scc 
17074 11755 178 1 Scc 
17139 11565 178 1 Scc 
17506 11428 178 1 Scc 
18035 11168 178 1 Scc 
17873 10826 178 1 Scc 
17336 10938 178 1 Scc 
18541 10821 178 1 Scc 
19278 10526 178 1 Scc 
20089 10227 178 1 Scc 
20063 10135 178 1 Scc 
20174 9644 178 1 Scc 
20362 9715 178 1 Scc 
20086 9933 178 1 Scc 
20435 9894 178 1 Scc 
20398 9865 178 1 Scc 
21390 9503 178 1 Scc 
22249 9473 178 1 Scc 
22737 9207 178 1 Scc 
22553 9118 178 1 Scc 
22434 8898 178 1 Scc 
23168 8335 178 1 Scc 
21711 8641 178 1 Scc 
20734 8653 178 1 Scc 
20914 8568 178 1 Scc 
22765 8433 178 1 Scc 
23505 8268 178 1 Scc 
24378 8089 178 1 Scc 
24236 7846 178 1 Scc 
24708 7798 178 1 Scc 
25686 7888 178 1 Scc 
25750 8104 178 1 Scc 
25700 8339 178 1 Scc 
26556 8221 178 1 Scc 
25558 8365 178 1 Scc 
25294 8518 178 1 Scc 
24987 8661 178 1 Scc 
26470 8481 178 1 Scc 
27078 8509 178 1 Scc 
26896 8696 178 1 Scc 
26171 8841 178 1 Scc 
26905 8663 178 1 Scc 
27242 8652 178 1 Scc 
26578 8662 178 1 Scc 
27308 8675 178 1 Scc 
27659 8594 178 1 Scc 
28038 8528 178 1 Scc 
27930 8699 178 1 Scc 
26675 8904 178 1 Scc 
26507 9119 178 1 Scc 
25758 9365 178 1 Scc 
25973 9329 178 1 Scc 
25610 9477 178 1 Scc 
23720 9807 178 1 Scc 
23906 9706 178 1 Scc 
25403 9548 178 1 Scc 
24988 9735 178 1 Scc 
24376 9886 178 1 Scc 
23908 9968 178 1 Scc 
21591 10394 178 1 Scc 
22139 10175 178 1 Scc 
23049 10173 178 1 Scc 
23311 10210 178 1 Scc 
23234 10267 178 1 Scc 
22560 10409 178 1 Scc 
23476 10300 178 1 Scc 
22637 10461 178 1 Scc 
21964 10529 178 1 Scc 
20751 10657 178 1 Scc 
18967 11096 178 1 Scc 
19196 11146 178 1 Scc 
18510 11440 178 1 Scc 
18199 11644 178 1 Scc 
19048 11488 178 1 Scc 
18778 11589 178 1 Scc 
18676 11626 178 1 Scc 
17647 11929 178 1 Scc 
17764 11775 178 1 Scc 
18502 11703 178 1 Scc 
19283 11607 178 1 Scc 
20168 11417 178 1 Scc 
20102 11424 178 1 Scc 
19912 11300 178 1 Scc 
20262 11304 178 1 Scc 
20309 11332 178 1 Scc 
20226 11084 178 1 Scc 
20449 11026 178 1 Scc 
21045 10614 178 1 Scc 
21004 10543 178 1 Scc 
20512 10513 178 1 Scc 
20472 10635 178 1 Scc 
19847 10825 178 1 Scc 
20114 10555 178 1 Scc 
19564 10403 178 1 Scc 
19167 10563 178 1 Scc 
19421 10315 178 1 Scc 
19338 9584 178 1 Scc 
19985 9209 178 1 Scc 
20327 9175 178 1 Scc 
19860 9227 178 1 Scc 
19893 8972 178 1 Scc 
19619 8849 178 1 Scc 
19035 9424 178 1 Scc 
19042 9633 178 1 Scc 
19180 9662 178 1 Scc 
19301 9696 178 1 Scc 
19192 10003 178 1 Scc 
19080 10183 178 1 Scc 
18483 10383 178 1 Scc 
18875 10295 178 1 Scc 
19007 10298 178 1 Scc 
19077 10317 178 1 Scc 
18923 10225 178 1 Scc 
18998 10391 178 1 Scc 
18953 10536 178 1 Scc 
18669 10363 178 1 Scc 
18106 10348 178 1 Scc 
18052 10331 178 1 Scc 
18224 10288 178 1 Scc 
18434 10303 178 1 Scc 
18782 10317 178 1 Scc 
18900 10331 178 1 Scc 
19042 10388 178 1 Scc 
19001 10482 178 1 Scc 
19098 10540 178 1 Scc 
18574 10587 178 1 Scc 
19038 10519 178 1 Scc 
19398 10429 178 1 Scc 
19293 10296 178 1 Scc 
19202 10387 178 1 Scc 
18379 10134 178 1 Scc 
18659 10010 178 1 Scc 
18941 10038 178 1 Scc 
18051 10315 178 1 Scc 
18074 10341 178 1 Scc 
17004 10766 178 1 Scc 
16684 10965 178 1 Scc 
16235 11164 178 1 Scc 
16683 11019 178 1 Scc 
16930 10849 178 1 Scc 
16284 11007 178 1 Scc 
15476 11361 178 1 Scc 
15683 11366 178 1 Scc 
15060 11625 178 1 Scc 
12785 12378 178 1 Scc 
12023 12515 178 1 Scc 
12016 12544 178 1 Scc 
/Slrgb {0.565 0.208 0.231} def
5621 18127 Sm
16830 11730 Sl
16830 11730 Sm
28038 5333 Sl
/Slw 0.576 def
/Slrgb {0.000 0.000 0.000} def
3158 3158 3158 22457 Sln
3158 3670 2835 3670 Sln
2431 3670 0
/Helvetica-0 findfont 808 yratio mul scalefont setfont
(-1) stringwidth pop add
2 div xratio div
dup 4 3 roll exch 90.000 cos mul sub 3 1 roll 90.000 sin mul sub 2 copy
/fntsize {/Helvetica-0 findfont exch scalefont setfont } def
90.000 808
(-1) Stxtl
(-1) stringwidth pop xratio div
dup 4 3 roll exch 90.000 cos mul add 3 1 roll 90.000 sin mul add 2 copy
pop pop pop pop
3158 7325 2835 7325 Sln
2431 7325 0
/Helvetica-0 findfont 808 yratio mul scalefont setfont
(0) stringwidth pop add
2 div xratio div
dup 4 3 roll exch 90.000 cos mul sub 3 1 roll 90.000 sin mul sub 2 copy
/fntsize {/Helvetica-0 findfont exch scalefont setfont } def
90.000 808
(0) Stxtl
(0) stringwidth pop xratio div
dup 4 3 roll exch 90.000 cos mul add 3 1 roll 90.000 sin mul add 2 copy
pop pop pop pop
3158 10980 2835 10980 Sln
2431 10980 0
/Helvetica-0 findfont 808 yratio mul scalefont setfont
(1) stringwidth pop add
2 div xratio div
dup 4 3 roll exch 90.000 cos mul sub 3 1 roll 90.000 sin mul sub 2 copy
/fntsize {/Helvetica-0 findfont exch scalefont setfont } def
90.000 808
(1) Stxtl
(1) stringwidth pop xratio div
dup 4 3 roll exch 90.000 cos mul add 3 1 roll 90.000 sin mul add 2 copy
pop pop pop pop
3158 14635 2835 14635 Sln
2431 14635 0
/Helvetica-0 findfont 808 yratio mul scalefont setfont
(2) stringwidth pop add
2 div xratio div
dup 4 3 roll exch 90.000 cos mul sub 3 1 roll 90.000 sin mul sub 2 copy
/fntsize {/Helvetica-0 findfont exch scalefont setfont } def
90.000 808
(2) Stxtl
(2) stringwidth pop xratio div
dup 4 3 roll exch 90.000 cos mul add 3 1 roll 90.000 sin mul add 2 copy
pop pop pop pop
3158 18290 2835 18290 Sln
2431 18290 0
/Helvetica-0 findfont 808 yratio mul scalefont setfont
(3) stringwidth pop add
2 div xratio div
dup 4 3 roll exch 90.000 cos mul sub 3 1 roll 90.000 sin mul sub 2 copy
/fntsize {/Helvetica-0 findfont exch scalefont setfont } def
90.000 808
(3) Stxtl
(3) stringwidth pop xratio div
dup 4 3 roll exch 90.000 cos mul add 3 1 roll 90.000 sin mul add 2 copy
pop pop pop pop
3158 21945 2835 21945 Sln
2431 21945 0
/Helvetica-0 findfont 808 yratio mul scalefont setfont
(4) stringwidth pop add
2 div xratio div
dup 4 3 roll exch 90.000 cos mul sub 3 1 roll 90.000 sin mul sub 2 copy
/fntsize {/Helvetica-0 findfont exch scalefont setfont } def
90.000 808
(4) Stxtl
(4) stringwidth pop xratio div
dup 4 3 roll exch 90.000 cos mul add 3 1 roll 90.000 sin mul add 2 copy
pop pop pop pop
1542 12808 0
/Helvetica-0 findfont 808 yratio mul scalefont setfont
(Return 4 years from now) stringwidth pop add
2 div xratio div
dup 4 3 roll exch 90.000 cos mul sub 3 1 roll 90.000 sin mul sub 2 copy
/fntsize {/Helvetica-0 findfont exch scalefont setfont } def
90.000 808
(Return 4 years from now) Stxtl
(Return 4 years from now) stringwidth pop xratio div
dup 4 3 roll exch 90.000 cos mul add 3 1 roll 90.000 sin mul add 2 copy
pop pop pop pop
3158 3158 31184 3158 Sln
3670 3158 3670 2835 Sln
3670 2107 0
/Helvetica-0 findfont 808 yratio mul scalefont setfont
(0) stringwidth pop add
2 div xratio div
dup 4 3 roll exch 0.000 cos mul sub 3 1 roll 0.000 sin mul sub 2 copy
/fntsize {/Helvetica-0 findfont exch scalefont setfont } def
0.000 808
(0) Stxtl
(0) stringwidth pop xratio div
dup 4 3 roll exch 0.000 cos mul add 3 1 roll 0.000 sin mul add 2 copy
pop pop pop pop
9070 3158 9070 2835 Sln
9070 2107 0
/Helvetica-0 findfont 808 yratio mul scalefont setfont
(20) stringwidth pop add
2 div xratio div
dup 4 3 roll exch 0.000 cos mul sub 3 1 roll 0.000 sin mul sub 2 copy
/fntsize {/Helvetica-0 findfont exch scalefont setfont } def
0.000 808
(20) Stxtl
(20) stringwidth pop xratio div
dup 4 3 roll exch 0.000 cos mul add 3 1 roll 0.000 sin mul add 2 copy
pop pop pop pop
14471 3158 14471 2835 Sln
14471 2107 0
/Helvetica-0 findfont 808 yratio mul scalefont setfont
(40) stringwidth pop add
2 div xratio div
dup 4 3 roll exch 0.000 cos mul sub 3 1 roll 0.000 sin mul sub 2 copy
/fntsize {/Helvetica-0 findfont exch scalefont setfont } def
0.000 808
(40) Stxtl
(40) stringwidth pop xratio div
dup 4 3 roll exch 0.000 cos mul add 3 1 roll 0.000 sin mul add 2 copy
pop pop pop pop
19871 3158 19871 2835 Sln
19871 2107 0
/Helvetica-0 findfont 808 yratio mul scalefont setfont
(60) stringwidth pop add
2 div xratio div
dup 4 3 roll exch 0.000 cos mul sub 3 1 roll 0.000 sin mul sub 2 copy
/fntsize {/Helvetica-0 findfont exch scalefont setfont } def
0.000 808
(60) Stxtl
(60) stringwidth pop xratio div
dup 4 3 roll exch 0.000 cos mul add 3 1 roll 0.000 sin mul add 2 copy
pop pop pop pop
25272 3158 25272 2835 Sln
25272 2107 0
/Helvetica-0 findfont 808 yratio mul scalefont setfont
(80) stringwidth pop add
2 div xratio div
dup 4 3 roll exch 0.000 cos mul sub 3 1 roll 0.000 sin mul sub 2 copy
/fntsize {/Helvetica-0 findfont exch scalefont setfont } def
0.000 808
(80) Stxtl
(80) stringwidth pop xratio div
dup 4 3 roll exch 0.000 cos mul add 3 1 roll 0.000 sin mul add 2 copy
pop pop pop pop
30672 3158 30672 2835 Sln
30672 2107 0
/Helvetica-0 findfont 808 yratio mul scalefont setfont
(100) stringwidth pop add
2 div xratio div
dup 4 3 roll exch 0.000 cos mul sub 3 1 roll 0.000 sin mul sub 2 copy
/fntsize {/Helvetica-0 findfont exch scalefont setfont } def
0.000 808
(100) Stxtl
(100) stringwidth pop xratio div
dup 4 3 roll exch 0.000 cos mul add 3 1 roll 0.000 sin mul add 2 copy
pop pop pop pop
17171 1218 0
/Helvetica-0 findfont 808 yratio mul scalefont setfont
(PD ratio) stringwidth pop add
2 div xratio div
dup 4 3 roll exch 0.000 cos mul sub 3 1 roll 0.000 sin mul sub 2 copy
/fntsize {/Helvetica-0 findfont exch scalefont setfont } def
0.000 808
(PD ratio) Stxtl
(PD ratio) stringwidth pop xratio div
dup 4 3 roll exch 0.000 cos mul add 3 1 roll 0.000 sin mul add 2 copy
pop pop pop pop
S showpage
%%EOF
