%!PS-Adobe-2.0 EPSF-2.0
%% This is a Stata generated postscript file
%%BoundingBox: 0 0 396 288
%%HiResBoundingBox: 0.000 0.000 396.000 288.000
%%DocumentNeededResources: font Helvetica
/xratio 0.012375 def
/yratio 0.012375 def
/Sbgfill {
	/y1 exch def
	/x1 exch def
	/y0 exch def
	/x0 exch def
	x0 y0 moveto
	x0 y1 lineto x1 y1 lineto x1 y0 lineto x0 y0 lineto
	fill
} def
/Spt {
	yratio mul
	/yp exch def
	xratio mul
	/xp exch def
	Slrgb setrgbcolor
	newpath
	xp yp moveto
	xp Slw add yp
	lineto
	currentlinecap
	1 setlinecap
	stroke
	setlinecap
} def
/Sln {
	yratio mul
	/y1p exch def
	xratio mul
	/x1p exch def
	yratio mul
	/y0p exch def
	xratio mul
	/x0p exch def
	Slw setlinewidth
	Slrgb setrgbcolor
	x0p y0p M x1p y1p lineto S
} def
/Scrv {
	yratio mul
	/y3p exch def
	xratio mul
	/x3p exch def
	yratio mul
	/y2p exch def
	xratio mul
	/x2p exch def
	yratio mul
	/y1p exch def
	xratio mul
	/x1p exch def
	Slw setlinewidth
	Slrgb setrgbcolor
	x1p y1p x2p y2p x3p y3p curveto
	stroke
} def
/Stxtl {
	/sp exch def
	yratio mul
	/sizep exch def
	dup
	/anglep exch def
	0 exch sub
	/angle2p exch def
	yratio mul
	/y0p exch def
	xratio mul
	/x0p exch def
	Strgb setrgbcolor
	x0p y0p M anglep rotate sizep fntsize sp show stroke angle2p rotate
} def
/Stxtc {
	/sp exch def
	yratio mul
	/sizep exch def
	dup
	/anglep exch def
	0 exch sub
	/angle2p exch def
	yratio mul
	/y0p exch def
	xratio mul
	/x0p exch def
	Strgb setrgbcolor
	x0p y0p M anglep rotate sizep fntsize sp stringwidth exch -2 div exch rm sp show stroke angle2p rotate
} def
/Stxtr {
	/sp exch def
	yratio mul
	/sizep exch def
	dup
	/anglep exch def
	0 exch sub
	/angle2p exch def
	yratio mul
	/y0p exch def
	xratio mul
	/x0p exch def
	Strgb setrgbcolor
	x0p y0p M anglep rotate sizep fntsize sp stringwidth 1 index -1 mul exch rm pop sp show stroke angle2p rotate
} def
/Srect {
	/sfill exch def
	yratio mul
	/y1 exch def
	xratio mul
	/x1 exch def
	yratio mul
	/y0 exch def
	xratio mul
	/x0 exch def
	sfill 1 eq {
		Ssrgb setrgbcolor
		x0 y0 moveto
		x0 y1 lineto x1 y1 lineto x1 y0 lineto x0 y0 lineto
		fill
	} if
	Slw setlinewidth
	Slrgb setrgbcolor
	x0 y0 moveto
	x0 y1 lineto x1 y1 lineto x1 y0 lineto x0 y0 lineto
	stroke
} def
/Sellipse {
	/sfill exch def
	yratio mul
	/yrad exch def
	xratio mul
	/xrad exch def
	yratio mul
	/y exch def
	xratio mul
	/x exch def
	sfill 1 eq {
		Ssrgb setrgbcolor
		/savematrix matrix currentmatrix def
		x y translate
		xrad yrad scale
		0 0 1 0 360 arc
		savematrix setmatrix
		fill
	} if
	Slw setlinewidth
	Slrgb setrgbcolor
		/savematrix matrix currentmatrix def
		x y translate
		xrad yrad scale
		0 0 1 0 360 arc
		savematrix setmatrix
	stroke
} def
/Stri {
	/sfill exch def
	xratio mul
	/r exch def
	yratio mul
	/y0 exch def
	xratio mul
	/x0 exch def
	/xcen x0 def
	y0 r add
	/ytop exch def
	r 2 div
	y0 exch sub
	/ybot exch def
	r 3 sqrt 2 div mul dup
	xcen exch sub
	/xleft exch def
	xcen add
	/xright exch def
	sfill 1 eq {
		Ssrgb setrgbcolor
		xcen ytop moveto xright ybot lineto xleft ybot lineto xcen ytop lineto fill
	} if
	Slw setlinewidth
	Slrgb setrgbcolor
	xcen ytop moveto xright ybot lineto xleft ybot lineto xcen ytop lineto stroke
} def
/Soldtri {
	/sfill exch def
	xratio mul
	/r exch def
	yratio mul
	/y0 exch def
	xratio mul
	/x0 exch def
	x0 r sub
	/x1 exch def
	y0 r sub
	/y1 exch def
	x0 r add
	/x2 exch def
	y0 r sub
	/y2 exch def
	/x3 x0 def
	y0 r add
	/y3 exch def
	sfill 1 eq {
		Ssrgb setrgbcolor
		x1 y1 moveto x2 y2 lineto x3 y3 lineto x1 y1 lineto fill
	} if
	Slw setlinewidth
	Slrgb setrgbcolor
	x1 y1 moveto x2 y2 lineto x3 y3 lineto x1 y1 lineto stroke
} def
/Sdia {
	/sfill exch def
	xratio mul
	/r exch def
	yratio mul
	/y exch def
	xratio mul
	/x exch def
	x r sub
	/x0 exch def
	/y0 y def
	/x1 x def
	y r sub
	/y1 exch def
	x r add
	/x2 exch def
	/y2 y def
	/x3 x def
	y r add
	/y3 exch def
	sfill 1 eq  {
		Ssrgb setrgbcolor
		x0 y0 moveto x1 y1 lineto x2 y2 lineto x3 y3 lineto x0 y0 lineto fill
	} if
	Slw setlinewidth
	Slrgb setrgbcolor
	x0 y0 moveto x1 y1 lineto x2 y2 lineto x3 y3 lineto x0 y0 lineto stroke
} def
/Scc {
	/sfill exch def
	xratio mul
	/r0 exch def
	yratio mul
	/y0 exch def
	xratio mul
	/x0 exch def
	sfill 1 eq {
		Ssrgb setrgbcolor
		x0 y0 r0 0 360 arc fill
	} if
	Slw setlinewidth
	Slrgb setrgbcolor
	x0 y0 r0 0 360 arc stroke
} def
/Spie {
	/sfill exch def
	/a1 exch def
	/a0 exch def
	xratio mul
	/r exch def
	yratio mul
	/y exch def
	xratio mul
	/x exch def
	sfill 1 eq {
		Ssrgb setrgbcolor
		newpath x y moveto x y r a0 a1 arc closepath
		fill
	} if
	Slw setlinewidth
	Slrgb setrgbcolor
	newpath x y moveto x y r a0 a1 arc closepath
	stroke
} def
/Splu {
	xratio mul
	/r exch def
	yratio mul
	/y exch def
	xratio mul
	/x exch def
	x r sub
	/x0 exch def
	x r add
	/x1 exch def
	x0 y M x1 y L
	y r sub
	/y0 exch def
	y r add
	/y1 exch def
	x y0 M x y1 L
} def
/Scro {
	xratio mul
	/r exch def
	yratio mul
	/y exch def
	xratio mul
	/x exch def
	x r sub
	/x0 exch def
	y r sub
	/y0 exch def
	x r add
	/x1 exch def
	y r add
	/y1 exch def
	x0 y0 M x1 y1 L
	x r add
	/x0 exch def
	y r sub
	/y0 exch def
	x r sub
	/x1 exch def
	y r add
	/y1 exch def
	x0 y0 M x1 y1 L
} def
/Sm {
	yratio mul
	/y exch def
	xratio mul
	/x exch def
	x y M
} def
/Sl {
	yratio mul
	/y exch def
	xratio mul
	/x exch def
	x y L
} def
/SPl {
	yratio mul
	/y exch def
	xratio mul
	/x exch def
	x y PL
} def
/Lcs {
	currentlinecap
	1 setlinecap
} def
/Lcr {
	setlinecap
} def
/Sbp {
	newpath
} def
/Sep {
	/sfill exch def
	closepath
	sfill 1 eq  {
		Ssrgb setrgbcolor
		gsave
		fill
		grestore
	} if
	Slw setlinewidth
	Slrgb setrgbcolor
	Lcs
	stroke
	Lcr
} def
/cp {currentpoint} def 
/M {moveto} def 
/rm {rmoveto} def 
/S {stroke} def 
/L {Slw setlinewidth Slrgb setrgbcolor lineto Lcs S Lcr} def 
/PL {Slw setlinewidth Slrgb setrgbcolor lineto} def 
/MF-Helvetica {
  /newfontname exch def
  /fontname exch def
  /fontdict fontname findfont def
  /newfont fontdict maxlength dict def
  fontdict {
  exch dup /FID eq {pop pop} {exch newfont 3 1 roll put} ifelse
  } forall
  newfont /FontName newfontname put
  newfont /Encoding ISOLatin1Encoding put
  newfontname newfont definefont pop
} def
/Helvetica /Helvetica-0 MF-Helvetica
/Slw 0.120 def
0.918 0.949 0.953 setrgbcolor
0 0 396.000 288.000 Sbgfill
/Slrgb {1.000 1.000 1.000} def
/Strgb {1.000 1.000 1.000} def
/Ssrgb {1.000 1.000 1.000} def
/Ssrgb {0.918 0.949 0.953} def
/Slw 0.576 def
/Slrgb {0.918 0.949 0.953} def
0 0 31999 23272 1 Srect
/Slw 0.230 def
512 15344 10837 22760 1 Srect
/Ssrgb {1.000 1.000 1.000} def
/Slrgb {1.000 1.000 1.000} def
1510 17135 10809 22168 1 Srect
/Slrgb {0.000 0.000 0.000} def
/Strgb {0.000 0.000 0.000} def
/Slw 0.346 def
/Slrgb {0.918 0.949 0.953} def
1510 18881 10809 18881 Sln
/Slw 0.230 def
/Slrgb {0.000 0.000 0.000} def
/Slw 0.346 def
/Slrgb {0.918 0.949 0.953} def
1510 20422 10809 20422 Sln
/Slw 0.230 def
/Slrgb {0.000 0.000 0.000} def
/Slw 0.346 def
/Slrgb {0.918 0.949 0.953} def
1510 21963 10809 21963 Sln
/Slw 0.230 def
/Slrgb {0.000 0.000 0.000} def
/Ssrgb {0.753 0.753 0.753} def
/Slw 0.346 def
/Slrgb {0.753 0.753 0.753} def
Sbp
1714 19433 Sm
1714 19433 SPl
2307 19312 SPl
2900 18628 SPl
3492 18437 SPl
4085 18337 SPl
4678 18423 SPl
5270 18614 SPl
5863 18863 SPl
6456 19118 SPl
7048 19352 SPl
7641 19553 SPl
8234 19720 SPl
8826 19859 SPl
9419 19976 SPl
10012 20074 SPl
10604 20158 SPl
10604 21932 SPl
10012 21874 SPl
9419 21797 SPl
8826 21699 SPl
8234 21578 SPl
7641 21431 SPl
7048 21260 SPl
6456 21065 SPl
5863 20851 SPl
5270 20631 SPl
4678 20421 SPl
4085 20249 SPl
3492 20189 SPl
2900 20151 SPl
2307 20490 SPl
1714 20242 SPl
1714 19433 SPl
1 Sep
/Slrgb {0.102 0.278 0.435} def
1714 19837 Sm
2307 19900 Sl
2307 19900 Sm
2899 19389 Sl
2899 19389 Sm
3492 19313 Sl
3492 19313 Sm
4084 19292 Sl
4084 19292 Sm
4677 19421 Sl
4677 19421 Sm
5270 19622 Sl
5270 19622 Sm
5862 19857 Sl
5862 19857 Sm
6455 20091 Sl
6455 20091 Sm
7048 20305 Sl
7048 20305 Sm
7640 20492 Sl
7640 20492 Sm
8233 20649 Sl
8233 20649 Sm
8826 20779 Sl
8826 20779 Sm
9418 20886 Sl
9418 20886 Sm
10011 20973 Sl
10011 20973 Sm
10604 21045 Sl
/Slw 0.230 def
/Slrgb {0.000 0.000 0.000} def
1510 17135 1510 22168 Sln
1510 17340 1380 17340 Sln
1316 17227 0
/Helvetica-0 findfont 323 yratio mul scalefont setfont
(-.01) stringwidth pop add
xratio div
dup 4 3 roll exch 0.000 cos mul sub 3 1 roll 0.000 sin mul sub 2 copy
/fntsize {/Helvetica-0 findfont exch scalefont setfont } def
0.000 323
(-.01) Stxtl
(-.01) stringwidth pop xratio div
dup 4 3 roll exch 0.000 cos mul add 3 1 roll 0.000 sin mul add 2 copy
pop pop pop pop
1510 18881 1380 18881 Sln
1316 18768 0
/Helvetica-0 findfont 323 yratio mul scalefont setfont
(0) stringwidth pop add
xratio div
dup 4 3 roll exch 0.000 cos mul sub 3 1 roll 0.000 sin mul sub 2 copy
/fntsize {/Helvetica-0 findfont exch scalefont setfont } def
0.000 323
(0) Stxtl
(0) stringwidth pop xratio div
dup 4 3 roll exch 0.000 cos mul add 3 1 roll 0.000 sin mul add 2 copy
pop pop pop pop
1510 20422 1380 20422 Sln
1316 20309 0
/Helvetica-0 findfont 323 yratio mul scalefont setfont
(.01) stringwidth pop add
xratio div
dup 4 3 roll exch 0.000 cos mul sub 3 1 roll 0.000 sin mul sub 2 copy
/fntsize {/Helvetica-0 findfont exch scalefont setfont } def
0.000 323
(.01) Stxtl
(.01) stringwidth pop xratio div
dup 4 3 roll exch 0.000 cos mul add 3 1 roll 0.000 sin mul add 2 copy
pop pop pop pop
1510 21963 1380 21963 Sln
1316 21850 0
/Helvetica-0 findfont 323 yratio mul scalefont setfont
(.02) stringwidth pop add
xratio div
dup 4 3 roll exch 0.000 cos mul sub 3 1 roll 0.000 sin mul sub 2 copy
/fntsize {/Helvetica-0 findfont exch scalefont setfont } def
0.000 323
(.02) Stxtl
(.02) stringwidth pop xratio div
dup 4 3 roll exch 0.000 cos mul add 3 1 roll 0.000 sin mul add 2 copy
pop pop pop pop
1510 17135 10809 17135 Sln
1714 17135 1714 17006 Sln
1714 16715 0
/Helvetica-0 findfont 323 yratio mul scalefont setfont
(0) stringwidth pop add
2 div xratio div
dup 4 3 roll exch 0.000 cos mul sub 3 1 roll 0.000 sin mul sub 2 copy
/fntsize {/Helvetica-0 findfont exch scalefont setfont } def
0.000 323
(0) Stxtl
(0) stringwidth pop xratio div
dup 4 3 roll exch 0.000 cos mul add 3 1 roll 0.000 sin mul add 2 copy
pop pop pop pop
4678 17135 4678 17006 Sln
4678 16715 0
/Helvetica-0 findfont 323 yratio mul scalefont setfont
(5) stringwidth pop add
2 div xratio div
dup 4 3 roll exch 0.000 cos mul sub 3 1 roll 0.000 sin mul sub 2 copy
/fntsize {/Helvetica-0 findfont exch scalefont setfont } def
0.000 323
(5) Stxtl
(5) stringwidth pop xratio div
dup 4 3 roll exch 0.000 cos mul add 3 1 roll 0.000 sin mul add 2 copy
pop pop pop pop
7641 17135 7641 17006 Sln
7641 16715 0
/Helvetica-0 findfont 323 yratio mul scalefont setfont
(10) stringwidth pop add
2 div xratio div
dup 4 3 roll exch 0.000 cos mul sub 3 1 roll 0.000 sin mul sub 2 copy
/fntsize {/Helvetica-0 findfont exch scalefont setfont } def
0.000 323
(10) Stxtl
(10) stringwidth pop xratio div
dup 4 3 roll exch 0.000 cos mul add 3 1 roll 0.000 sin mul add 2 copy
pop pop pop pop
10604 17135 10604 17006 Sln
10604 16715 0
/Helvetica-0 findfont 323 yratio mul scalefont setfont
(15) stringwidth pop add
2 div xratio div
dup 4 3 roll exch 0.000 cos mul sub 3 1 roll 0.000 sin mul sub 2 copy
/fntsize {/Helvetica-0 findfont exch scalefont setfont } def
0.000 323
(15) Stxtl
(15) stringwidth pop xratio div
dup 4 3 roll exch 0.000 cos mul add 3 1 roll 0.000 sin mul add 2 copy
pop pop pop pop
6159 16359 0
/Helvetica-0 findfont 323 yratio mul scalefont setfont
(step) stringwidth pop add
2 div xratio div
dup 4 3 roll exch 0.000 cos mul sub 3 1 roll 0.000 sin mul sub 2 copy
/fntsize {/Helvetica-0 findfont exch scalefont setfont } def
0.000 323
(step) Stxtl
(step) stringwidth pop xratio div
dup 4 3 roll exch 0.000 cos mul add 3 1 roll 0.000 sin mul add 2 copy
pop pop pop pop
/Ssrgb {1.000 1.000 1.000} def
2453 15484 9865 16086 1 Srect
/Ssrgb {0.753 0.753 0.753} def
/Slw 0.346 def
/Slrgb {0.753 0.753 0.753} def
2593 15623 3803 15946 1 Srect
/Slrgb {0.102 0.278 0.435} def
7569 15785 8779 15785 Sln
4288 15672 2 copy
/fntsize {/Helvetica-0 findfont exch scalefont setfont } def
0.000 323
(90% CI for oirf) Stxtl
(90% CI for oirf) stringwidth pop xratio div
dup 4 3 roll exch 0.000 cos mul add 3 1 roll 0.000 sin mul add 2 copy
pop pop pop pop
9264 15672 2 copy
/fntsize {/Helvetica-0 findfont exch scalefont setfont } def
0.000 323
(oirf) Stxtl
(oirf) stringwidth pop xratio div
dup 4 3 roll exch 0.000 cos mul add 3 1 roll 0.000 sin mul add 2 copy
pop pop pop pop
/Ssrgb {0.851 0.902 0.922} def
/Slw 0.230 def
/Slrgb {0.918 0.949 0.953} def
1510 22168 10809 22732 1 Srect
6159 22360 0
/Helvetica-0 findfont 453 yratio mul scalefont setfont
(IRF: z -> I) stringwidth pop add
2 div xratio div
dup 4 3 roll exch 0.000 cos mul sub 3 1 roll 0.000 sin mul sub 2 copy
/fntsize {/Helvetica-0 findfont exch scalefont setfont } def
0.000 453
(IRF: z -> I) Stxtl
(IRF: z -> I) stringwidth pop xratio div
dup 4 3 roll exch 0.000 cos mul add 3 1 roll 0.000 sin mul add 2 copy
pop pop pop pop
/Ssrgb {0.918 0.949 0.953} def
10837 15344 21162 22760 1 Srect
/Ssrgb {1.000 1.000 1.000} def
/Slrgb {1.000 1.000 1.000} def
11835 17135 21134 22168 1 Srect
/Slrgb {0.000 0.000 0.000} def
/Slw 0.346 def
/Slrgb {0.918 0.949 0.953} def
11835 17340 21134 17340 Sln
/Slw 0.230 def
/Slrgb {0.000 0.000 0.000} def
/Slw 0.346 def
/Slrgb {0.918 0.949 0.953} def
11835 18496 21134 18496 Sln
/Slw 0.230 def
/Slrgb {0.000 0.000 0.000} def
/Slw 0.346 def
/Slrgb {0.918 0.949 0.953} def
11835 19652 21134 19652 Sln
/Slw 0.230 def
/Slrgb {0.000 0.000 0.000} def
/Slw 0.346 def
/Slrgb {0.918 0.949 0.953} def
11835 20807 21134 20807 Sln
/Slw 0.230 def
/Slrgb {0.000 0.000 0.000} def
/Slw 0.346 def
/Slrgb {0.918 0.949 0.953} def
11835 21963 21134 21963 Sln
/Slw 0.230 def
/Slrgb {0.000 0.000 0.000} def
/Ssrgb {0.753 0.753 0.753} def
/Slw 0.346 def
/Slrgb {0.753 0.753 0.753} def
Sbp
12039 19251 Sm
12039 19251 SPl
12632 18511 SPl
13225 17884 SPl
13817 17798 SPl
14410 18086 SPl
15003 18381 SPl
15595 18618 SPl
16188 18766 SPl
16781 18844 SPl
17373 18877 SPl
17966 18889 SPl
18559 18899 SPl
19151 18916 SPl
19744 18942 SPl
20337 18976 SPl
20929 19014 SPl
20929 21712 SPl
20337 21719 SPl
19744 21723 SPl
19151 21722 SPl
18559 21716 SPl
17966 21704 SPl
17373 21687 SPl
16781 21659 SPl
16188 21612 SPl
15595 21530 SPl
15003 21389 SPl
14410 21199 SPl
13817 20952 SPl
13225 20764 SPl
12632 20670 SPl
12039 20460 SPl
12039 19251 SPl
1 Sep
/Slrgb {0.102 0.278 0.435} def
12039 19855 Sm
12632 19590 Sl
12632 19590 Sm
13224 19323 Sl
13224 19323 Sm
13817 19375 Sl
13817 19375 Sm
14410 19642 Sl
14410 19642 Sm
15002 19885 Sl
15002 19885 Sm
15595 20074 Sl
15595 20074 Sm
16187 20188 Sl
16187 20188 Sm
16780 20251 Sl
16780 20251 Sm
17373 20281 Sl
17373 20281 Sm
17965 20296 Sl
17965 20296 Sm
18558 20307 Sl
18558 20307 Sm
19151 20318 Sl
19151 20318 Sm
19743 20332 Sl
19743 20332 Sm
20336 20347 Sl
20336 20347 Sm
20929 20363 Sl
/Slw 0.230 def
/Slrgb {0.000 0.000 0.000} def
11835 17135 11835 22168 Sln
11835 17340 11705 17340 Sln
11641 17227 0
/Helvetica-0 findfont 323 yratio mul scalefont setfont
(-.02) stringwidth pop add
xratio div
dup 4 3 roll exch 0.000 cos mul sub 3 1 roll 0.000 sin mul sub 2 copy
/fntsize {/Helvetica-0 findfont exch scalefont setfont } def
0.000 323
(-.02) Stxtl
(-.02) stringwidth pop xratio div
dup 4 3 roll exch 0.000 cos mul add 3 1 roll 0.000 sin mul add 2 copy
pop pop pop pop
11835 18496 11705 18496 Sln
11641 18383 0
/Helvetica-0 findfont 323 yratio mul scalefont setfont
(-.01) stringwidth pop add
xratio div
dup 4 3 roll exch 0.000 cos mul sub 3 1 roll 0.000 sin mul sub 2 copy
/fntsize {/Helvetica-0 findfont exch scalefont setfont } def
0.000 323
(-.01) Stxtl
(-.01) stringwidth pop xratio div
dup 4 3 roll exch 0.000 cos mul add 3 1 roll 0.000 sin mul add 2 copy
pop pop pop pop
11835 19652 11705 19652 Sln
11641 19539 0
/Helvetica-0 findfont 323 yratio mul scalefont setfont
(0) stringwidth pop add
xratio div
dup 4 3 roll exch 0.000 cos mul sub 3 1 roll 0.000 sin mul sub 2 copy
/fntsize {/Helvetica-0 findfont exch scalefont setfont } def
0.000 323
(0) Stxtl
(0) stringwidth pop xratio div
dup 4 3 roll exch 0.000 cos mul add 3 1 roll 0.000 sin mul add 2 copy
pop pop pop pop
11835 20807 11705 20807 Sln
11641 20694 0
/Helvetica-0 findfont 323 yratio mul scalefont setfont
(.01) stringwidth pop add
xratio div
dup 4 3 roll exch 0.000 cos mul sub 3 1 roll 0.000 sin mul sub 2 copy
/fntsize {/Helvetica-0 findfont exch scalefont setfont } def
0.000 323
(.01) Stxtl
(.01) stringwidth pop xratio div
dup 4 3 roll exch 0.000 cos mul add 3 1 roll 0.000 sin mul add 2 copy
pop pop pop pop
11835 21963 11705 21963 Sln
11641 21850 0
/Helvetica-0 findfont 323 yratio mul scalefont setfont
(.02) stringwidth pop add
xratio div
dup 4 3 roll exch 0.000 cos mul sub 3 1 roll 0.000 sin mul sub 2 copy
/fntsize {/Helvetica-0 findfont exch scalefont setfont } def
0.000 323
(.02) Stxtl
(.02) stringwidth pop xratio div
dup 4 3 roll exch 0.000 cos mul add 3 1 roll 0.000 sin mul add 2 copy
pop pop pop pop
11835 17135 21134 17135 Sln
12039 17135 12039 17006 Sln
12039 16715 0
/Helvetica-0 findfont 323 yratio mul scalefont setfont
(0) stringwidth pop add
2 div xratio div
dup 4 3 roll exch 0.000 cos mul sub 3 1 roll 0.000 sin mul sub 2 copy
/fntsize {/Helvetica-0 findfont exch scalefont setfont } def
0.000 323
(0) Stxtl
(0) stringwidth pop xratio div
dup 4 3 roll exch 0.000 cos mul add 3 1 roll 0.000 sin mul add 2 copy
pop pop pop pop
15003 17135 15003 17006 Sln
15003 16715 0
/Helvetica-0 findfont 323 yratio mul scalefont setfont
(5) stringwidth pop add
2 div xratio div
dup 4 3 roll exch 0.000 cos mul sub 3 1 roll 0.000 sin mul sub 2 copy
/fntsize {/Helvetica-0 findfont exch scalefont setfont } def
0.000 323
(5) Stxtl
(5) stringwidth pop xratio div
dup 4 3 roll exch 0.000 cos mul add 3 1 roll 0.000 sin mul add 2 copy
pop pop pop pop
17966 17135 17966 17006 Sln
17966 16715 0
/Helvetica-0 findfont 323 yratio mul scalefont setfont
(10) stringwidth pop add
2 div xratio div
dup 4 3 roll exch 0.000 cos mul sub 3 1 roll 0.000 sin mul sub 2 copy
/fntsize {/Helvetica-0 findfont exch scalefont setfont } def
0.000 323
(10) Stxtl
(10) stringwidth pop xratio div
dup 4 3 roll exch 0.000 cos mul add 3 1 roll 0.000 sin mul add 2 copy
pop pop pop pop
20929 17135 20929 17006 Sln
20929 16715 0
/Helvetica-0 findfont 323 yratio mul scalefont setfont
(15) stringwidth pop add
2 div xratio div
dup 4 3 roll exch 0.000 cos mul sub 3 1 roll 0.000 sin mul sub 2 copy
/fntsize {/Helvetica-0 findfont exch scalefont setfont } def
0.000 323
(15) Stxtl
(15) stringwidth pop xratio div
dup 4 3 roll exch 0.000 cos mul add 3 1 roll 0.000 sin mul add 2 copy
pop pop pop pop
16484 16359 0
/Helvetica-0 findfont 323 yratio mul scalefont setfont
(step) stringwidth pop add
2 div xratio div
dup 4 3 roll exch 0.000 cos mul sub 3 1 roll 0.000 sin mul sub 2 copy
/fntsize {/Helvetica-0 findfont exch scalefont setfont } def
0.000 323
(step) Stxtl
(step) stringwidth pop xratio div
dup 4 3 roll exch 0.000 cos mul add 3 1 roll 0.000 sin mul add 2 copy
pop pop pop pop
/Ssrgb {1.000 1.000 1.000} def
12778 15484 20190 16086 1 Srect
/Ssrgb {0.753 0.753 0.753} def
/Slw 0.346 def
/Slrgb {0.753 0.753 0.753} def
12918 15623 14128 15946 1 Srect
/Slrgb {0.102 0.278 0.435} def
17894 15785 19104 15785 Sln
14613 15672 2 copy
/fntsize {/Helvetica-0 findfont exch scalefont setfont } def
0.000 323
(90% CI for oirf) Stxtl
(90% CI for oirf) stringwidth pop xratio div
dup 4 3 roll exch 0.000 cos mul add 3 1 roll 0.000 sin mul add 2 copy
pop pop pop pop
19589 15672 2 copy
/fntsize {/Helvetica-0 findfont exch scalefont setfont } def
0.000 323
(oirf) Stxtl
(oirf) stringwidth pop xratio div
dup 4 3 roll exch 0.000 cos mul add 3 1 roll 0.000 sin mul add 2 copy
pop pop pop pop
/Ssrgb {0.851 0.902 0.922} def
/Slw 0.230 def
/Slrgb {0.918 0.949 0.953} def
11835 22168 21134 22732 1 Srect
16484 22360 0
/Helvetica-0 findfont 453 yratio mul scalefont setfont
(IRF: z -> P) stringwidth pop add
2 div xratio div
dup 4 3 roll exch 0.000 cos mul sub 3 1 roll 0.000 sin mul sub 2 copy
/fntsize {/Helvetica-0 findfont exch scalefont setfont } def
0.000 453
(IRF: z -> P) Stxtl
(IRF: z -> P) stringwidth pop xratio div
dup 4 3 roll exch 0.000 cos mul add 3 1 roll 0.000 sin mul add 2 copy
pop pop pop pop
/Ssrgb {0.918 0.949 0.953} def
21162 15344 31487 22760 1 Srect
/Ssrgb {1.000 1.000 1.000} def
/Slrgb {1.000 1.000 1.000} def
22537 17135 31459 22168 1 Srect
/Slrgb {0.000 0.000 0.000} def
/Slw 0.346 def
/Slrgb {0.918 0.949 0.953} def
22537 17340 31459 17340 Sln
/Slw 0.230 def
/Slrgb {0.000 0.000 0.000} def
/Slw 0.346 def
/Slrgb {0.918 0.949 0.953} def
22537 18496 31459 18496 Sln
/Slw 0.230 def
/Slrgb {0.000 0.000 0.000} def
/Slw 0.346 def
/Slrgb {0.918 0.949 0.953} def
22537 19652 31459 19652 Sln
/Slw 0.230 def
/Slrgb {0.000 0.000 0.000} def
/Slw 0.346 def
/Slrgb {0.918 0.949 0.953} def
22537 20807 31459 20807 Sln
/Slw 0.230 def
/Slrgb {0.000 0.000 0.000} def
/Slw 0.346 def
/Slrgb {0.918 0.949 0.953} def
22537 21963 31459 21963 Sln
/Slw 0.230 def
/Slrgb {0.000 0.000 0.000} def
/Ssrgb {0.753 0.753 0.753} def
/Slw 0.346 def
/Slrgb {0.753 0.753 0.753} def
Sbp
22741 17747 Sm
22741 17747 SPl
23309 18151 SPl
23877 18000 SPl
24444 18244 SPl
25012 18397 SPl
25579 18385 SPl
26147 18355 SPl
26714 18320 SPl
27282 18315 SPl
27849 18346 SPl
28417 18415 SPl
28984 18515 SPl
29552 18634 SPl
30119 18760 SPl
30687 18884 SPl
31254 19001 SPl
31254 20106 SPl
30687 20083 SPl
30119 20060 SPl
29552 20036 SPl
28984 20012 SPl
28417 19994 SPl
27849 19995 SPl
27282 20039 SPl
26714 20159 SPl
26147 20386 SPl
25579 20713 SPl
25012 21128 SPl
24444 21419 SPl
23877 21384 SPl
23309 21125 SPl
22741 20097 SPl
22741 17747 SPl
1 Sep
/Slrgb {0.102 0.278 0.435} def
22741 18922 Sm
23308 19637 Sl
23308 19637 Sm
23876 19692 Sl
23876 19692 Sm
24444 19831 Sl
24444 19831 Sm
25011 19762 Sl
25011 19762 Sm
25579 19549 Sl
25579 19549 Sm
26146 19370 Sl
26146 19370 Sm
26714 19239 Sl
26714 19239 Sm
27281 19177 Sl
27281 19177 Sm
27849 19170 Sl
27849 19170 Sm
28416 19204 Sl
28416 19204 Sm
28984 19263 Sl
28984 19263 Sm
29551 19334 Sl
29551 19334 Sm
30119 19409 Sl
30119 19409 Sm
30686 19483 Sl
30686 19483 Sm
31254 19553 Sl
/Slw 0.230 def
/Slrgb {0.000 0.000 0.000} def
22537 17135 22537 22168 Sln
22537 17340 22407 17340 Sln
22343 17227 0
/Helvetica-0 findfont 323 yratio mul scalefont setfont
(-.0004) stringwidth pop add
xratio div
dup 4 3 roll exch 0.000 cos mul sub 3 1 roll 0.000 sin mul sub 2 copy
/fntsize {/Helvetica-0 findfont exch scalefont setfont } def
0.000 323
(-.0004) Stxtl
(-.0004) stringwidth pop xratio div
dup 4 3 roll exch 0.000 cos mul add 3 1 roll 0.000 sin mul add 2 copy
pop pop pop pop
22537 18496 22407 18496 Sln
22343 18383 0
/Helvetica-0 findfont 323 yratio mul scalefont setfont
(-.0002) stringwidth pop add
xratio div
dup 4 3 roll exch 0.000 cos mul sub 3 1 roll 0.000 sin mul sub 2 copy
/fntsize {/Helvetica-0 findfont exch scalefont setfont } def
0.000 323
(-.0002) Stxtl
(-.0002) stringwidth pop xratio div
dup 4 3 roll exch 0.000 cos mul add 3 1 roll 0.000 sin mul add 2 copy
pop pop pop pop
22537 19652 22407 19652 Sln
22343 19539 0
/Helvetica-0 findfont 323 yratio mul scalefont setfont
(0) stringwidth pop add
xratio div
dup 4 3 roll exch 0.000 cos mul sub 3 1 roll 0.000 sin mul sub 2 copy
/fntsize {/Helvetica-0 findfont exch scalefont setfont } def
0.000 323
(0) Stxtl
(0) stringwidth pop xratio div
dup 4 3 roll exch 0.000 cos mul add 3 1 roll 0.000 sin mul add 2 copy
pop pop pop pop
22537 20807 22407 20807 Sln
22343 20694 0
/Helvetica-0 findfont 323 yratio mul scalefont setfont
(.0002) stringwidth pop add
xratio div
dup 4 3 roll exch 0.000 cos mul sub 3 1 roll 0.000 sin mul sub 2 copy
/fntsize {/Helvetica-0 findfont exch scalefont setfont } def
0.000 323
(.0002) Stxtl
(.0002) stringwidth pop xratio div
dup 4 3 roll exch 0.000 cos mul add 3 1 roll 0.000 sin mul add 2 copy
pop pop pop pop
22537 21963 22407 21963 Sln
22343 21850 0
/Helvetica-0 findfont 323 yratio mul scalefont setfont
(.0004) stringwidth pop add
xratio div
dup 4 3 roll exch 0.000 cos mul sub 3 1 roll 0.000 sin mul sub 2 copy
/fntsize {/Helvetica-0 findfont exch scalefont setfont } def
0.000 323
(.0004) Stxtl
(.0004) stringwidth pop xratio div
dup 4 3 roll exch 0.000 cos mul add 3 1 roll 0.000 sin mul add 2 copy
pop pop pop pop
22537 17135 31459 17135 Sln
22741 17135 22741 17006 Sln
22741 16715 0
/Helvetica-0 findfont 323 yratio mul scalefont setfont
(0) stringwidth pop add
2 div xratio div
dup 4 3 roll exch 0.000 cos mul sub 3 1 roll 0.000 sin mul sub 2 copy
/fntsize {/Helvetica-0 findfont exch scalefont setfont } def
0.000 323
(0) Stxtl
(0) stringwidth pop xratio div
dup 4 3 roll exch 0.000 cos mul add 3 1 roll 0.000 sin mul add 2 copy
pop pop pop pop
25579 17135 25579 17006 Sln
25579 16715 0
/Helvetica-0 findfont 323 yratio mul scalefont setfont
(5) stringwidth pop add
2 div xratio div
dup 4 3 roll exch 0.000 cos mul sub 3 1 roll 0.000 sin mul sub 2 copy
/fntsize {/Helvetica-0 findfont exch scalefont setfont } def
0.000 323
(5) Stxtl
(5) stringwidth pop xratio div
dup 4 3 roll exch 0.000 cos mul add 3 1 roll 0.000 sin mul add 2 copy
pop pop pop pop
28417 17135 28417 17006 Sln
28417 16715 0
/Helvetica-0 findfont 323 yratio mul scalefont setfont
(10) stringwidth pop add
2 div xratio div
dup 4 3 roll exch 0.000 cos mul sub 3 1 roll 0.000 sin mul sub 2 copy
/fntsize {/Helvetica-0 findfont exch scalefont setfont } def
0.000 323
(10) Stxtl
(10) stringwidth pop xratio div
dup 4 3 roll exch 0.000 cos mul add 3 1 roll 0.000 sin mul add 2 copy
pop pop pop pop
31254 17135 31254 17006 Sln
31254 16715 0
/Helvetica-0 findfont 323 yratio mul scalefont setfont
(15) stringwidth pop add
2 div xratio div
dup 4 3 roll exch 0.000 cos mul sub 3 1 roll 0.000 sin mul sub 2 copy
/fntsize {/Helvetica-0 findfont exch scalefont setfont } def
0.000 323
(15) Stxtl
(15) stringwidth pop xratio div
dup 4 3 roll exch 0.000 cos mul add 3 1 roll 0.000 sin mul add 2 copy
pop pop pop pop
26998 16359 0
/Helvetica-0 findfont 323 yratio mul scalefont setfont
(step) stringwidth pop add
2 div xratio div
dup 4 3 roll exch 0.000 cos mul sub 3 1 roll 0.000 sin mul sub 2 copy
/fntsize {/Helvetica-0 findfont exch scalefont setfont } def
0.000 323
(step) Stxtl
(step) stringwidth pop xratio div
dup 4 3 roll exch 0.000 cos mul add 3 1 roll 0.000 sin mul add 2 copy
pop pop pop pop
/Ssrgb {1.000 1.000 1.000} def
23292 15484 30704 16086 1 Srect
/Ssrgb {0.753 0.753 0.753} def
/Slw 0.346 def
/Slrgb {0.753 0.753 0.753} def
23432 15623 24642 15946 1 Srect
/Slrgb {0.102 0.278 0.435} def
28407 15785 29617 15785 Sln
25127 15672 2 copy
/fntsize {/Helvetica-0 findfont exch scalefont setfont } def
0.000 323
(90% CI for oirf) Stxtl
(90% CI for oirf) stringwidth pop xratio div
dup 4 3 roll exch 0.000 cos mul add 3 1 roll 0.000 sin mul add 2 copy
pop pop pop pop
30102 15672 2 copy
/fntsize {/Helvetica-0 findfont exch scalefont setfont } def
0.000 323
(oirf) Stxtl
(oirf) stringwidth pop xratio div
dup 4 3 roll exch 0.000 cos mul add 3 1 roll 0.000 sin mul add 2 copy
pop pop pop pop
/Ssrgb {0.851 0.902 0.922} def
/Slw 0.230 def
/Slrgb {0.918 0.949 0.953} def
22537 22168 31459 22732 1 Srect
26998 22360 0
/Helvetica-0 findfont 453 yratio mul scalefont setfont
(IRF: z -> s) stringwidth pop add
2 div xratio div
dup 4 3 roll exch 0.000 cos mul sub 3 1 roll 0.000 sin mul sub 2 copy
/fntsize {/Helvetica-0 findfont exch scalefont setfont } def
0.000 453
(IRF: z -> s) Stxtl
(IRF: z -> s) stringwidth pop xratio div
dup 4 3 roll exch 0.000 cos mul add 3 1 roll 0.000 sin mul add 2 copy
pop pop pop pop
/Ssrgb {0.918 0.949 0.953} def
512 7928 10837 15344 1 Srect
/Ssrgb {1.000 1.000 1.000} def
/Slrgb {1.000 1.000 1.000} def
1510 9719 10809 14752 1 Srect
/Slrgb {0.000 0.000 0.000} def
/Slw 0.346 def
/Slrgb {0.918 0.949 0.953} def
1510 9924 10809 9924 Sln
/Slw 0.230 def
/Slrgb {0.000 0.000 0.000} def
/Slw 0.346 def
/Slrgb {0.918 0.949 0.953} def
1510 11465 10809 11465 Sln
/Slw 0.230 def
/Slrgb {0.000 0.000 0.000} def
/Slw 0.346 def
/Slrgb {0.918 0.949 0.953} def
1510 13006 10809 13006 Sln
/Slw 0.230 def
/Slrgb {0.000 0.000 0.000} def
/Slw 0.346 def
/Slrgb {0.918 0.949 0.953} def
1510 14547 10809 14547 Sln
/Slw 0.230 def
/Slrgb {0.000 0.000 0.000} def
/Ssrgb {0.753 0.753 0.753} def
/Slw 0.346 def
/Slrgb {0.753 0.753 0.753} def
Sbp
1714 14547 Sm
1714 14547 SPl
2307 13336 SPl
2900 12321 SPl
3492 11667 SPl
4085 11185 SPl
4678 10887 SPl
5270 10693 SPl
5863 10586 SPl
6456 10553 SPl
7048 10586 SPl
7641 10676 SPl
8234 10808 SPl
8826 10971 SPl
9419 11151 SPl
10012 11338 SPl
10604 11524 SPl
10604 13932 SPl
10012 13863 SPl
9419 13793 SPl
8826 13726 SPl
8234 13663 SPl
7641 13605 SPl
7048 13553 SPl
6456 13506 SPl
5863 13465 SPl
5270 13431 SPl
4678 13412 SPl
4085 13422 SPl
3492 13527 SPl
2900 13724 SPl
2307 14141 SPl
1714 14547 SPl
1714 14547 SPl
1 Sep
/Slrgb {0.102 0.278 0.435} def
1714 14547 Sm
2307 13738 Sl
2307 13738 Sm
2899 13022 Sl
2899 13022 Sm
3492 12597 Sl
3492 12597 Sm
4084 12303 Sl
4084 12303 Sm
4677 12149 Sl
4677 12149 Sm
5270 12061 Sl
5270 12061 Sm
5862 12025 Sl
5862 12025 Sm
6455 12029 Sl
6455 12029 Sm
7048 12069 Sl
7048 12069 Sm
7640 12140 Sl
7640 12140 Sm
8233 12235 Sl
8233 12235 Sm
8826 12348 Sl
8826 12348 Sm
9418 12472 Sl
9418 12472 Sm
10011 12600 Sl
10011 12600 Sm
10604 12728 Sl
/Slw 0.230 def
/Slrgb {0.000 0.000 0.000} def
1510 9719 1510 14752 Sln
1510 9924 1380 9924 Sln
1316 9811 0
/Helvetica-0 findfont 323 yratio mul scalefont setfont
(-.03) stringwidth pop add
xratio div
dup 4 3 roll exch 0.000 cos mul sub 3 1 roll 0.000 sin mul sub 2 copy
/fntsize {/Helvetica-0 findfont exch scalefont setfont } def
0.000 323
(-.03) Stxtl
(-.03) stringwidth pop xratio div
dup 4 3 roll exch 0.000 cos mul add 3 1 roll 0.000 sin mul add 2 copy
pop pop pop pop
1510 11465 1380 11465 Sln
1316 11352 0
/Helvetica-0 findfont 323 yratio mul scalefont setfont
(-.02) stringwidth pop add
xratio div
dup 4 3 roll exch 0.000 cos mul sub 3 1 roll 0.000 sin mul sub 2 copy
/fntsize {/Helvetica-0 findfont exch scalefont setfont } def
0.000 323
(-.02) Stxtl
(-.02) stringwidth pop xratio div
dup 4 3 roll exch 0.000 cos mul add 3 1 roll 0.000 sin mul add 2 copy
pop pop pop pop
1510 13006 1380 13006 Sln
1316 12893 0
/Helvetica-0 findfont 323 yratio mul scalefont setfont
(-.01) stringwidth pop add
xratio div
dup 4 3 roll exch 0.000 cos mul sub 3 1 roll 0.000 sin mul sub 2 copy
/fntsize {/Helvetica-0 findfont exch scalefont setfont } def
0.000 323
(-.01) Stxtl
(-.01) stringwidth pop xratio div
dup 4 3 roll exch 0.000 cos mul add 3 1 roll 0.000 sin mul add 2 copy
pop pop pop pop
1510 14547 1380 14547 Sln
1316 14434 0
/Helvetica-0 findfont 323 yratio mul scalefont setfont
(0) stringwidth pop add
xratio div
dup 4 3 roll exch 0.000 cos mul sub 3 1 roll 0.000 sin mul sub 2 copy
/fntsize {/Helvetica-0 findfont exch scalefont setfont } def
0.000 323
(0) Stxtl
(0) stringwidth pop xratio div
dup 4 3 roll exch 0.000 cos mul add 3 1 roll 0.000 sin mul add 2 copy
pop pop pop pop
1510 9719 10809 9719 Sln
1714 9719 1714 9590 Sln
1714 9299 0
/Helvetica-0 findfont 323 yratio mul scalefont setfont
(0) stringwidth pop add
2 div xratio div
dup 4 3 roll exch 0.000 cos mul sub 3 1 roll 0.000 sin mul sub 2 copy
/fntsize {/Helvetica-0 findfont exch scalefont setfont } def
0.000 323
(0) Stxtl
(0) stringwidth pop xratio div
dup 4 3 roll exch 0.000 cos mul add 3 1 roll 0.000 sin mul add 2 copy
pop pop pop pop
4678 9719 4678 9590 Sln
4678 9299 0
/Helvetica-0 findfont 323 yratio mul scalefont setfont
(5) stringwidth pop add
2 div xratio div
dup 4 3 roll exch 0.000 cos mul sub 3 1 roll 0.000 sin mul sub 2 copy
/fntsize {/Helvetica-0 findfont exch scalefont setfont } def
0.000 323
(5) Stxtl
(5) stringwidth pop xratio div
dup 4 3 roll exch 0.000 cos mul add 3 1 roll 0.000 sin mul add 2 copy
pop pop pop pop
7641 9719 7641 9590 Sln
7641 9299 0
/Helvetica-0 findfont 323 yratio mul scalefont setfont
(10) stringwidth pop add
2 div xratio div
dup 4 3 roll exch 0.000 cos mul sub 3 1 roll 0.000 sin mul sub 2 copy
/fntsize {/Helvetica-0 findfont exch scalefont setfont } def
0.000 323
(10) Stxtl
(10) stringwidth pop xratio div
dup 4 3 roll exch 0.000 cos mul add 3 1 roll 0.000 sin mul add 2 copy
pop pop pop pop
10604 9719 10604 9590 Sln
10604 9299 0
/Helvetica-0 findfont 323 yratio mul scalefont setfont
(15) stringwidth pop add
2 div xratio div
dup 4 3 roll exch 0.000 cos mul sub 3 1 roll 0.000 sin mul sub 2 copy
/fntsize {/Helvetica-0 findfont exch scalefont setfont } def
0.000 323
(15) Stxtl
(15) stringwidth pop xratio div
dup 4 3 roll exch 0.000 cos mul add 3 1 roll 0.000 sin mul add 2 copy
pop pop pop pop
6159 8943 0
/Helvetica-0 findfont 323 yratio mul scalefont setfont
(step) stringwidth pop add
2 div xratio div
dup 4 3 roll exch 0.000 cos mul sub 3 1 roll 0.000 sin mul sub 2 copy
/fntsize {/Helvetica-0 findfont exch scalefont setfont } def
0.000 323
(step) Stxtl
(step) stringwidth pop xratio div
dup 4 3 roll exch 0.000 cos mul add 3 1 roll 0.000 sin mul add 2 copy
pop pop pop pop
/Ssrgb {1.000 1.000 1.000} def
2453 8068 9865 8670 1 Srect
/Ssrgb {0.753 0.753 0.753} def
/Slw 0.346 def
/Slrgb {0.753 0.753 0.753} def
2593 8207 3803 8530 1 Srect
/Slrgb {0.102 0.278 0.435} def
7569 8369 8779 8369 Sln
4288 8256 2 copy
/fntsize {/Helvetica-0 findfont exch scalefont setfont } def
0.000 323
(90% CI for oirf) Stxtl
(90% CI for oirf) stringwidth pop xratio div
dup 4 3 roll exch 0.000 cos mul add 3 1 roll 0.000 sin mul add 2 copy
pop pop pop pop
9264 8256 2 copy
/fntsize {/Helvetica-0 findfont exch scalefont setfont } def
0.000 323
(oirf) Stxtl
(oirf) stringwidth pop xratio div
dup 4 3 roll exch 0.000 cos mul add 3 1 roll 0.000 sin mul add 2 copy
pop pop pop pop
/Ssrgb {0.851 0.902 0.922} def
/Slw 0.230 def
/Slrgb {0.918 0.949 0.953} def
1510 14752 10809 15316 1 Srect
6159 14944 0
/Helvetica-0 findfont 453 yratio mul scalefont setfont
(IRF: s -> I) stringwidth pop add
2 div xratio div
dup 4 3 roll exch 0.000 cos mul sub 3 1 roll 0.000 sin mul sub 2 copy
/fntsize {/Helvetica-0 findfont exch scalefont setfont } def
0.000 453
(IRF: s -> I) Stxtl
(IRF: s -> I) stringwidth pop xratio div
dup 4 3 roll exch 0.000 cos mul add 3 1 roll 0.000 sin mul add 2 copy
pop pop pop pop
/Ssrgb {0.918 0.949 0.953} def
10837 7928 21162 15344 1 Srect
/Ssrgb {1.000 1.000 1.000} def
/Slrgb {1.000 1.000 1.000} def
11835 9719 21134 14752 1 Srect
/Slrgb {0.000 0.000 0.000} def
/Slw 0.346 def
/Slrgb {0.918 0.949 0.953} def
11835 9924 21134 9924 Sln
/Slw 0.230 def
/Slrgb {0.000 0.000 0.000} def
/Slw 0.346 def
/Slrgb {0.918 0.949 0.953} def
11835 10977 21134 10977 Sln
/Slw 0.230 def
/Slrgb {0.000 0.000 0.000} def
/Slw 0.346 def
/Slrgb {0.918 0.949 0.953} def
11835 12030 21134 12030 Sln
/Slw 0.230 def
/Slrgb {0.000 0.000 0.000} def
/Slw 0.346 def
/Slrgb {0.918 0.949 0.953} def
11835 13083 21134 13083 Sln
/Slw 0.230 def
/Slrgb {0.000 0.000 0.000} def
/Slw 0.346 def
/Slrgb {0.918 0.949 0.953} def
11835 14136 21134 14136 Sln
/Slw 0.230 def
/Slrgb {0.000 0.000 0.000} def
/Ssrgb {0.753 0.753 0.753} def
/Slw 0.346 def
/Slrgb {0.753 0.753 0.753} def
Sbp
12039 11296 Sm
12039 11296 SPl
12632 10735 SPl
13225 11000 SPl
13817 11061 SPl
14410 10927 SPl
15003 10699 SPl
15595 10497 SPl
16188 10349 SPl
16781 10267 SPl
17373 10242 SPl
17966 10261 SPl
18559 10309 SPl
19151 10373 SPl
19744 10446 SPl
20337 10524 SPl
20929 10605 SPl
20929 14199 SPl
20337 14212 SPl
19744 14225 SPl
19151 14239 SPl
18559 14255 SPl
17966 14277 SPl
17373 14305 SPl
16781 14342 SPl
16188 14388 SPl
15595 14444 SPl
15003 14502 SPl
14410 14547 SPl
13817 14496 SPl
13225 14192 SPl
12632 13499 SPl
12039 13253 SPl
12039 11296 SPl
1 Sep
/Slrgb {0.102 0.278 0.435} def
12039 12274 Sm
12632 12117 Sl
12632 12117 Sm
13224 12596 Sl
13224 12596 Sm
13817 12778 Sl
13817 12778 Sm
14410 12736 Sl
14410 12736 Sm
15002 12600 Sl
15002 12600 Sm
15595 12470 Sl
15595 12470 Sm
16187 12368 Sl
16187 12368 Sm
16780 12304 Sl
16780 12304 Sm
17373 12273 Sl
17373 12273 Sm
17965 12269 Sl
17965 12269 Sm
18558 12282 Sl
18558 12282 Sm
19151 12305 Sl
19151 12305 Sm
19743 12335 Sl
19743 12335 Sm
20336 12368 Sl
20336 12368 Sm
20929 12402 Sl
/Slw 0.230 def
/Slrgb {0.000 0.000 0.000} def
11835 9719 11835 14752 Sln
11835 9924 11705 9924 Sln
11641 9811 0
/Helvetica-0 findfont 323 yratio mul scalefont setfont
(-.04) stringwidth pop add
xratio div
dup 4 3 roll exch 0.000 cos mul sub 3 1 roll 0.000 sin mul sub 2 copy
/fntsize {/Helvetica-0 findfont exch scalefont setfont } def
0.000 323
(-.04) Stxtl
(-.04) stringwidth pop xratio div
dup 4 3 roll exch 0.000 cos mul add 3 1 roll 0.000 sin mul add 2 copy
pop pop pop pop
11835 10977 11705 10977 Sln
11641 10864 0
/Helvetica-0 findfont 323 yratio mul scalefont setfont
(-.03) stringwidth pop add
xratio div
dup 4 3 roll exch 0.000 cos mul sub 3 1 roll 0.000 sin mul sub 2 copy
/fntsize {/Helvetica-0 findfont exch scalefont setfont } def
0.000 323
(-.03) Stxtl
(-.03) stringwidth pop xratio div
dup 4 3 roll exch 0.000 cos mul add 3 1 roll 0.000 sin mul add 2 copy
pop pop pop pop
11835 12030 11705 12030 Sln
11641 11917 0
/Helvetica-0 findfont 323 yratio mul scalefont setfont
(-.02) stringwidth pop add
xratio div
dup 4 3 roll exch 0.000 cos mul sub 3 1 roll 0.000 sin mul sub 2 copy
/fntsize {/Helvetica-0 findfont exch scalefont setfont } def
0.000 323
(-.02) Stxtl
(-.02) stringwidth pop xratio div
dup 4 3 roll exch 0.000 cos mul add 3 1 roll 0.000 sin mul add 2 copy
pop pop pop pop
11835 13083 11705 13083 Sln
11641 12970 0
/Helvetica-0 findfont 323 yratio mul scalefont setfont
(-.01) stringwidth pop add
xratio div
dup 4 3 roll exch 0.000 cos mul sub 3 1 roll 0.000 sin mul sub 2 copy
/fntsize {/Helvetica-0 findfont exch scalefont setfont } def
0.000 323
(-.01) Stxtl
(-.01) stringwidth pop xratio div
dup 4 3 roll exch 0.000 cos mul add 3 1 roll 0.000 sin mul add 2 copy
pop pop pop pop
11835 14136 11705 14136 Sln
11641 14023 0
/Helvetica-0 findfont 323 yratio mul scalefont setfont
(0) stringwidth pop add
xratio div
dup 4 3 roll exch 0.000 cos mul sub 3 1 roll 0.000 sin mul sub 2 copy
/fntsize {/Helvetica-0 findfont exch scalefont setfont } def
0.000 323
(0) Stxtl
(0) stringwidth pop xratio div
dup 4 3 roll exch 0.000 cos mul add 3 1 roll 0.000 sin mul add 2 copy
pop pop pop pop
11835 9719 21134 9719 Sln
12039 9719 12039 9590 Sln
12039 9299 0
/Helvetica-0 findfont 323 yratio mul scalefont setfont
(0) stringwidth pop add
2 div xratio div
dup 4 3 roll exch 0.000 cos mul sub 3 1 roll 0.000 sin mul sub 2 copy
/fntsize {/Helvetica-0 findfont exch scalefont setfont } def
0.000 323
(0) Stxtl
(0) stringwidth pop xratio div
dup 4 3 roll exch 0.000 cos mul add 3 1 roll 0.000 sin mul add 2 copy
pop pop pop pop
15003 9719 15003 9590 Sln
15003 9299 0
/Helvetica-0 findfont 323 yratio mul scalefont setfont
(5) stringwidth pop add
2 div xratio div
dup 4 3 roll exch 0.000 cos mul sub 3 1 roll 0.000 sin mul sub 2 copy
/fntsize {/Helvetica-0 findfont exch scalefont setfont } def
0.000 323
(5) Stxtl
(5) stringwidth pop xratio div
dup 4 3 roll exch 0.000 cos mul add 3 1 roll 0.000 sin mul add 2 copy
pop pop pop pop
17966 9719 17966 9590 Sln
17966 9299 0
/Helvetica-0 findfont 323 yratio mul scalefont setfont
(10) stringwidth pop add
2 div xratio div
dup 4 3 roll exch 0.000 cos mul sub 3 1 roll 0.000 sin mul sub 2 copy
/fntsize {/Helvetica-0 findfont exch scalefont setfont } def
0.000 323
(10) Stxtl
(10) stringwidth pop xratio div
dup 4 3 roll exch 0.000 cos mul add 3 1 roll 0.000 sin mul add 2 copy
pop pop pop pop
20929 9719 20929 9590 Sln
20929 9299 0
/Helvetica-0 findfont 323 yratio mul scalefont setfont
(15) stringwidth pop add
2 div xratio div
dup 4 3 roll exch 0.000 cos mul sub 3 1 roll 0.000 sin mul sub 2 copy
/fntsize {/Helvetica-0 findfont exch scalefont setfont } def
0.000 323
(15) Stxtl
(15) stringwidth pop xratio div
dup 4 3 roll exch 0.000 cos mul add 3 1 roll 0.000 sin mul add 2 copy
pop pop pop pop
16484 8943 0
/Helvetica-0 findfont 323 yratio mul scalefont setfont
(step) stringwidth pop add
2 div xratio div
dup 4 3 roll exch 0.000 cos mul sub 3 1 roll 0.000 sin mul sub 2 copy
/fntsize {/Helvetica-0 findfont exch scalefont setfont } def
0.000 323
(step) Stxtl
(step) stringwidth pop xratio div
dup 4 3 roll exch 0.000 cos mul add 3 1 roll 0.000 sin mul add 2 copy
pop pop pop pop
/Ssrgb {1.000 1.000 1.000} def
12778 8068 20190 8670 1 Srect
/Ssrgb {0.753 0.753 0.753} def
/Slw 0.346 def
/Slrgb {0.753 0.753 0.753} def
12918 8207 14128 8530 1 Srect
/Slrgb {0.102 0.278 0.435} def
17894 8369 19104 8369 Sln
14613 8256 2 copy
/fntsize {/Helvetica-0 findfont exch scalefont setfont } def
0.000 323
(90% CI for oirf) Stxtl
(90% CI for oirf) stringwidth pop xratio div
dup 4 3 roll exch 0.000 cos mul add 3 1 roll 0.000 sin mul add 2 copy
pop pop pop pop
19589 8256 2 copy
/fntsize {/Helvetica-0 findfont exch scalefont setfont } def
0.000 323
(oirf) Stxtl
(oirf) stringwidth pop xratio div
dup 4 3 roll exch 0.000 cos mul add 3 1 roll 0.000 sin mul add 2 copy
pop pop pop pop
/Ssrgb {0.851 0.902 0.922} def
/Slw 0.230 def
/Slrgb {0.918 0.949 0.953} def
11835 14752 21134 15316 1 Srect
16484 14944 0
/Helvetica-0 findfont 453 yratio mul scalefont setfont
(IRF: s -> P) stringwidth pop add
2 div xratio div
dup 4 3 roll exch 0.000 cos mul sub 3 1 roll 0.000 sin mul sub 2 copy
/fntsize {/Helvetica-0 findfont exch scalefont setfont } def
0.000 453
(IRF: s -> P) Stxtl
(IRF: s -> P) stringwidth pop xratio div
dup 4 3 roll exch 0.000 cos mul add 3 1 roll 0.000 sin mul add 2 copy
pop pop pop pop
/Ssrgb {0.918 0.949 0.953} def
21162 7928 31487 15344 1 Srect
/Ssrgb {1.000 1.000 1.000} def
/Slrgb {1.000 1.000 1.000} def
22348 9719 31459 14752 1 Srect
/Slrgb {0.000 0.000 0.000} def
/Slw 0.346 def
/Slrgb {0.918 0.949 0.953} def
22348 9924 31459 9924 Sln
/Slw 0.230 def
/Slrgb {0.000 0.000 0.000} def
/Slw 0.346 def
/Slrgb {0.918 0.949 0.953} def
22348 11465 31459 11465 Sln
/Slw 0.230 def
/Slrgb {0.000 0.000 0.000} def
/Slw 0.346 def
/Slrgb {0.918 0.949 0.953} def
22348 13006 31459 13006 Sln
/Slw 0.230 def
/Slrgb {0.000 0.000 0.000} def
/Slw 0.346 def
/Slrgb {0.918 0.949 0.953} def
22348 14547 31459 14547 Sln
/Slw 0.230 def
/Slrgb {0.000 0.000 0.000} def
/Ssrgb {0.753 0.753 0.753} def
/Slw 0.346 def
/Slrgb {0.753 0.753 0.753} def
Sbp
22553 13006 Sm
22553 13006 SPl
23133 12127 SPl
23713 12513 SPl
24293 12379 SPl
24873 12152 SPl
25453 11883 SPl
26033 11659 SPl
26614 11463 SPl
27194 11294 SPl
27774 11140 SPl
28354 10995 SPl
28934 10853 SPl
29514 10715 SPl
30094 10581 SPl
30674 10453 SPl
31254 10334 SPl
31254 13212 SPl
30674 13295 SPl
30094 13389 SPl
29514 13492 SPl
28934 13602 SPl
28354 13715 SPl
27774 13823 SPl
27194 13917 SPl
26614 13991 SPl
26033 14042 SPl
25453 14080 SPl
24873 14126 SPl
24293 14149 SPl
23713 14053 SPl
23133 13278 SPl
22553 13006 SPl
22553 13006 SPl
1 Sep
/Slrgb {0.102 0.278 0.435} def
22552 13006 Sm
23133 12702 Sl
23133 12702 Sm
23713 13283 Sl
23713 13283 Sm
24293 13264 Sl
24293 13264 Sm
24873 13138 Sl
24873 13138 Sm
25453 12981 Sl
25453 12981 Sm
26033 12850 Sl
26033 12850 Sm
26613 12726 Sl
26613 12726 Sm
27193 12605 Sl
27193 12605 Sm
27773 12481 Sl
27773 12481 Sm
28353 12354 Sl
28353 12354 Sm
28933 12227 Sl
28933 12227 Sm
29514 12103 Sl
29514 12103 Sm
30094 11985 Sl
30094 11985 Sm
30674 11874 Sl
30674 11874 Sm
31254 11773 Sl
/Slw 0.230 def
/Slrgb {0.000 0.000 0.000} def
22348 9719 22348 14752 Sln
22348 9924 22219 9924 Sln
22154 9811 0
/Helvetica-0 findfont 323 yratio mul scalefont setfont
(-.004) stringwidth pop add
xratio div
dup 4 3 roll exch 0.000 cos mul sub 3 1 roll 0.000 sin mul sub 2 copy
/fntsize {/Helvetica-0 findfont exch scalefont setfont } def
0.000 323
(-.004) Stxtl
(-.004) stringwidth pop xratio div
dup 4 3 roll exch 0.000 cos mul add 3 1 roll 0.000 sin mul add 2 copy
pop pop pop pop
22348 11465 22219 11465 Sln
22154 11352 0
/Helvetica-0 findfont 323 yratio mul scalefont setfont
(-.002) stringwidth pop add
xratio div
dup 4 3 roll exch 0.000 cos mul sub 3 1 roll 0.000 sin mul sub 2 copy
/fntsize {/Helvetica-0 findfont exch scalefont setfont } def
0.000 323
(-.002) Stxtl
(-.002) stringwidth pop xratio div
dup 4 3 roll exch 0.000 cos mul add 3 1 roll 0.000 sin mul add 2 copy
pop pop pop pop
22348 13006 22219 13006 Sln
22154 12893 0
/Helvetica-0 findfont 323 yratio mul scalefont setfont
(0) stringwidth pop add
xratio div
dup 4 3 roll exch 0.000 cos mul sub 3 1 roll 0.000 sin mul sub 2 copy
/fntsize {/Helvetica-0 findfont exch scalefont setfont } def
0.000 323
(0) Stxtl
(0) stringwidth pop xratio div
dup 4 3 roll exch 0.000 cos mul add 3 1 roll 0.000 sin mul add 2 copy
pop pop pop pop
22348 14547 22219 14547 Sln
22154 14434 0
/Helvetica-0 findfont 323 yratio mul scalefont setfont
(.002) stringwidth pop add
xratio div
dup 4 3 roll exch 0.000 cos mul sub 3 1 roll 0.000 sin mul sub 2 copy
/fntsize {/Helvetica-0 findfont exch scalefont setfont } def
0.000 323
(.002) Stxtl
(.002) stringwidth pop xratio div
dup 4 3 roll exch 0.000 cos mul add 3 1 roll 0.000 sin mul add 2 copy
pop pop pop pop
22348 9719 31459 9719 Sln
22553 9719 22553 9590 Sln
22553 9299 0
/Helvetica-0 findfont 323 yratio mul scalefont setfont
(0) stringwidth pop add
2 div xratio div
dup 4 3 roll exch 0.000 cos mul sub 3 1 roll 0.000 sin mul sub 2 copy
/fntsize {/Helvetica-0 findfont exch scalefont setfont } def
0.000 323
(0) Stxtl
(0) stringwidth pop xratio div
dup 4 3 roll exch 0.000 cos mul add 3 1 roll 0.000 sin mul add 2 copy
pop pop pop pop
25453 9719 25453 9590 Sln
25453 9299 0
/Helvetica-0 findfont 323 yratio mul scalefont setfont
(5) stringwidth pop add
2 div xratio div
dup 4 3 roll exch 0.000 cos mul sub 3 1 roll 0.000 sin mul sub 2 copy
/fntsize {/Helvetica-0 findfont exch scalefont setfont } def
0.000 323
(5) Stxtl
(5) stringwidth pop xratio div
dup 4 3 roll exch 0.000 cos mul add 3 1 roll 0.000 sin mul add 2 copy
pop pop pop pop
28354 9719 28354 9590 Sln
28354 9299 0
/Helvetica-0 findfont 323 yratio mul scalefont setfont
(10) stringwidth pop add
2 div xratio div
dup 4 3 roll exch 0.000 cos mul sub 3 1 roll 0.000 sin mul sub 2 copy
/fntsize {/Helvetica-0 findfont exch scalefont setfont } def
0.000 323
(10) Stxtl
(10) stringwidth pop xratio div
dup 4 3 roll exch 0.000 cos mul add 3 1 roll 0.000 sin mul add 2 copy
pop pop pop pop
31254 9719 31254 9590 Sln
31254 9299 0
/Helvetica-0 findfont 323 yratio mul scalefont setfont
(15) stringwidth pop add
2 div xratio div
dup 4 3 roll exch 0.000 cos mul sub 3 1 roll 0.000 sin mul sub 2 copy
/fntsize {/Helvetica-0 findfont exch scalefont setfont } def
0.000 323
(15) Stxtl
(15) stringwidth pop xratio div
dup 4 3 roll exch 0.000 cos mul add 3 1 roll 0.000 sin mul add 2 copy
pop pop pop pop
26904 8943 0
/Helvetica-0 findfont 323 yratio mul scalefont setfont
(step) stringwidth pop add
2 div xratio div
dup 4 3 roll exch 0.000 cos mul sub 3 1 roll 0.000 sin mul sub 2 copy
/fntsize {/Helvetica-0 findfont exch scalefont setfont } def
0.000 323
(step) Stxtl
(step) stringwidth pop xratio div
dup 4 3 roll exch 0.000 cos mul add 3 1 roll 0.000 sin mul add 2 copy
pop pop pop pop
/Ssrgb {1.000 1.000 1.000} def
23198 8068 30610 8670 1 Srect
/Ssrgb {0.753 0.753 0.753} def
/Slw 0.346 def
/Slrgb {0.753 0.753 0.753} def
23337 8207 24547 8530 1 Srect
/Slrgb {0.102 0.278 0.435} def
28313 8369 29523 8369 Sln
25032 8256 2 copy
/fntsize {/Helvetica-0 findfont exch scalefont setfont } def
0.000 323
(90% CI for oirf) Stxtl
(90% CI for oirf) stringwidth pop xratio div
dup 4 3 roll exch 0.000 cos mul add 3 1 roll 0.000 sin mul add 2 copy
pop pop pop pop
30008 8256 2 copy
/fntsize {/Helvetica-0 findfont exch scalefont setfont } def
0.000 323
(oirf) Stxtl
(oirf) stringwidth pop xratio div
dup 4 3 roll exch 0.000 cos mul add 3 1 roll 0.000 sin mul add 2 copy
pop pop pop pop
/Ssrgb {0.851 0.902 0.922} def
/Slw 0.230 def
/Slrgb {0.918 0.949 0.953} def
22348 14752 31459 15316 1 Srect
26904 14944 0
/Helvetica-0 findfont 453 yratio mul scalefont setfont
(IRF: s -> z) stringwidth pop add
2 div xratio div
dup 4 3 roll exch 0.000 cos mul sub 3 1 roll 0.000 sin mul sub 2 copy
/fntsize {/Helvetica-0 findfont exch scalefont setfont } def
0.000 453
(IRF: s -> z) Stxtl
(IRF: s -> z) stringwidth pop xratio div
dup 4 3 roll exch 0.000 cos mul add 3 1 roll 0.000 sin mul add 2 copy
pop pop pop pop
/Ssrgb {0.918 0.949 0.953} def
512 512 10837 7928 1 Srect
/Ssrgb {1.000 1.000 1.000} def
/Slrgb {1.000 1.000 1.000} def
1510 2303 10809 7336 1 Srect
/Slrgb {0.000 0.000 0.000} def
/Slw 0.346 def
/Slrgb {0.918 0.949 0.953} def
1510 2508 10809 2508 Sln
/Slw 0.230 def
/Slrgb {0.000 0.000 0.000} def
/Slw 0.346 def
/Slrgb {0.918 0.949 0.953} def
1510 3863 10809 3863 Sln
/Slw 0.230 def
/Slrgb {0.000 0.000 0.000} def
/Slw 0.346 def
/Slrgb {0.918 0.949 0.953} def
1510 5219 10809 5219 Sln
/Slw 0.230 def
/Slrgb {0.000 0.000 0.000} def
/Slw 0.346 def
/Slrgb {0.918 0.949 0.953} def
1510 6574 10809 6574 Sln
/Slw 0.230 def
/Slrgb {0.000 0.000 0.000} def
/Ssrgb {0.753 0.753 0.753} def
/Slw 0.346 def
/Slrgb {0.753 0.753 0.753} def
Sbp
1714 3863 Sm
1714 3863 SPl
2307 3989 SPl
2900 4780 SPl
3492 5244 SPl
4085 5463 SPl
4678 5433 SPl
5270 5235 SPl
5863 4952 SPl
6456 4644 SPl
7048 4347 SPl
7641 4078 SPl
8234 3842 SPl
8826 3639 SPl
9419 3468 SPl
10012 3323 SPl
10604 3204 SPl
10604 5480 SPl
10012 5579 SPl
9419 5694 SPl
8826 5830 SPl
8234 5991 SPl
7641 6182 SPl
7048 6403 SPl
6456 6647 SPl
5863 6887 SPl
5270 7074 SPl
4678 7131 SPl
4085 6961 SPl
3492 6458 SPl
2900 5664 SPl
2307 4562 SPl
1714 3863 SPl
1714 3863 SPl
1 Sep
/Slrgb {0.102 0.278 0.435} def
1714 3863 Sm
2307 4275 Sl
2307 4275 Sm
2899 5222 Sl
2899 5222 Sm
3492 5851 Sl
3492 5851 Sm
4084 6212 Sl
4084 6212 Sm
4677 6282 Sl
4677 6282 Sm
5270 6154 Sl
5270 6154 Sm
5862 5919 Sl
5862 5919 Sm
6455 5645 Sl
6455 5645 Sm
7048 5375 Sl
7048 5375 Sm
7640 5129 Sl
7640 5129 Sm
8233 4916 Sl
8233 4916 Sm
8826 4734 Sl
8826 4734 Sm
9418 4581 Sl
9418 4581 Sm
10011 4451 Sl
10011 4451 Sm
10604 4341 Sl
/Slw 0.230 def
/Slrgb {0.000 0.000 0.000} def
1510 2303 1510 7336 Sln
1510 2508 1380 2508 Sln
1316 2395 0
/Helvetica-0 findfont 323 yratio mul scalefont setfont
(-.01) stringwidth pop add
xratio div
dup 4 3 roll exch 0.000 cos mul sub 3 1 roll 0.000 sin mul sub 2 copy
/fntsize {/Helvetica-0 findfont exch scalefont setfont } def
0.000 323
(-.01) Stxtl
(-.01) stringwidth pop xratio div
dup 4 3 roll exch 0.000 cos mul add 3 1 roll 0.000 sin mul add 2 copy
pop pop pop pop
1510 3863 1380 3863 Sln
1316 3750 0
/Helvetica-0 findfont 323 yratio mul scalefont setfont
(0) stringwidth pop add
xratio div
dup 4 3 roll exch 0.000 cos mul sub 3 1 roll 0.000 sin mul sub 2 copy
/fntsize {/Helvetica-0 findfont exch scalefont setfont } def
0.000 323
(0) Stxtl
(0) stringwidth pop xratio div
dup 4 3 roll exch 0.000 cos mul add 3 1 roll 0.000 sin mul add 2 copy
pop pop pop pop
1510 5219 1380 5219 Sln
1316 5106 0
/Helvetica-0 findfont 323 yratio mul scalefont setfont
(.01) stringwidth pop add
xratio div
dup 4 3 roll exch 0.000 cos mul sub 3 1 roll 0.000 sin mul sub 2 copy
/fntsize {/Helvetica-0 findfont exch scalefont setfont } def
0.000 323
(.01) Stxtl
(.01) stringwidth pop xratio div
dup 4 3 roll exch 0.000 cos mul add 3 1 roll 0.000 sin mul add 2 copy
pop pop pop pop
1510 6574 1380 6574 Sln
1316 6461 0
/Helvetica-0 findfont 323 yratio mul scalefont setfont
(.02) stringwidth pop add
xratio div
dup 4 3 roll exch 0.000 cos mul sub 3 1 roll 0.000 sin mul sub 2 copy
/fntsize {/Helvetica-0 findfont exch scalefont setfont } def
0.000 323
(.02) Stxtl
(.02) stringwidth pop xratio div
dup 4 3 roll exch 0.000 cos mul add 3 1 roll 0.000 sin mul add 2 copy
pop pop pop pop
1510 2303 10809 2303 Sln
1714 2303 1714 2174 Sln
1714 1883 0
/Helvetica-0 findfont 323 yratio mul scalefont setfont
(0) stringwidth pop add
2 div xratio div
dup 4 3 roll exch 0.000 cos mul sub 3 1 roll 0.000 sin mul sub 2 copy
/fntsize {/Helvetica-0 findfont exch scalefont setfont } def
0.000 323
(0) Stxtl
(0) stringwidth pop xratio div
dup 4 3 roll exch 0.000 cos mul add 3 1 roll 0.000 sin mul add 2 copy
pop pop pop pop
4678 2303 4678 2174 Sln
4678 1883 0
/Helvetica-0 findfont 323 yratio mul scalefont setfont
(5) stringwidth pop add
2 div xratio div
dup 4 3 roll exch 0.000 cos mul sub 3 1 roll 0.000 sin mul sub 2 copy
/fntsize {/Helvetica-0 findfont exch scalefont setfont } def
0.000 323
(5) Stxtl
(5) stringwidth pop xratio div
dup 4 3 roll exch 0.000 cos mul add 3 1 roll 0.000 sin mul add 2 copy
pop pop pop pop
7641 2303 7641 2174 Sln
7641 1883 0
/Helvetica-0 findfont 323 yratio mul scalefont setfont
(10) stringwidth pop add
2 div xratio div
dup 4 3 roll exch 0.000 cos mul sub 3 1 roll 0.000 sin mul sub 2 copy
/fntsize {/Helvetica-0 findfont exch scalefont setfont } def
0.000 323
(10) Stxtl
(10) stringwidth pop xratio div
dup 4 3 roll exch 0.000 cos mul add 3 1 roll 0.000 sin mul add 2 copy
pop pop pop pop
10604 2303 10604 2174 Sln
10604 1883 0
/Helvetica-0 findfont 323 yratio mul scalefont setfont
(15) stringwidth pop add
2 div xratio div
dup 4 3 roll exch 0.000 cos mul sub 3 1 roll 0.000 sin mul sub 2 copy
/fntsize {/Helvetica-0 findfont exch scalefont setfont } def
0.000 323
(15) Stxtl
(15) stringwidth pop xratio div
dup 4 3 roll exch 0.000 cos mul add 3 1 roll 0.000 sin mul add 2 copy
pop pop pop pop
6159 1527 0
/Helvetica-0 findfont 323 yratio mul scalefont setfont
(step) stringwidth pop add
2 div xratio div
dup 4 3 roll exch 0.000 cos mul sub 3 1 roll 0.000 sin mul sub 2 copy
/fntsize {/Helvetica-0 findfont exch scalefont setfont } def
0.000 323
(step) Stxtl
(step) stringwidth pop xratio div
dup 4 3 roll exch 0.000 cos mul add 3 1 roll 0.000 sin mul add 2 copy
pop pop pop pop
/Ssrgb {1.000 1.000 1.000} def
2453 652 9865 1254 1 Srect
/Ssrgb {0.753 0.753 0.753} def
/Slw 0.346 def
/Slrgb {0.753 0.753 0.753} def
2593 791 3803 1114 1 Srect
/Slrgb {0.102 0.278 0.435} def
7569 953 8779 953 Sln
4288 840 2 copy
/fntsize {/Helvetica-0 findfont exch scalefont setfont } def
0.000 323
(90% CI for oirf) Stxtl
(90% CI for oirf) stringwidth pop xratio div
dup 4 3 roll exch 0.000 cos mul add 3 1 roll 0.000 sin mul add 2 copy
pop pop pop pop
9264 840 2 copy
/fntsize {/Helvetica-0 findfont exch scalefont setfont } def
0.000 323
(oirf) Stxtl
(oirf) stringwidth pop xratio div
dup 4 3 roll exch 0.000 cos mul add 3 1 roll 0.000 sin mul add 2 copy
pop pop pop pop
/Ssrgb {0.851 0.902 0.922} def
/Slw 0.230 def
/Slrgb {0.918 0.949 0.953} def
1510 7336 10809 7900 1 Srect
6159 7528 0
/Helvetica-0 findfont 453 yratio mul scalefont setfont
(IRF: P -> I) stringwidth pop add
2 div xratio div
dup 4 3 roll exch 0.000 cos mul sub 3 1 roll 0.000 sin mul sub 2 copy
/fntsize {/Helvetica-0 findfont exch scalefont setfont } def
0.000 453
(IRF: P -> I) Stxtl
(IRF: P -> I) stringwidth pop xratio div
dup 4 3 roll exch 0.000 cos mul add 3 1 roll 0.000 sin mul add 2 copy
pop pop pop pop
/Ssrgb {0.918 0.949 0.953} def
10837 512 21162 7928 1 Srect
/Ssrgb {1.000 1.000 1.000} def
/Slrgb {1.000 1.000 1.000} def
12777 2303 21134 7336 1 Srect
/Slrgb {0.000 0.000 0.000} def
/Slw 0.346 def
/Slrgb {0.918 0.949 0.953} def
12777 2508 21134 2508 Sln
/Slw 0.230 def
/Slrgb {0.000 0.000 0.000} def
/Slw 0.346 def
/Slrgb {0.918 0.949 0.953} def
12777 4570 21134 4570 Sln
/Slw 0.230 def
/Slrgb {0.000 0.000 0.000} def
/Slw 0.346 def
/Slrgb {0.918 0.949 0.953} def
12777 6633 21134 6633 Sln
/Slw 0.230 def
/Slrgb {0.000 0.000 0.000} def
/Ssrgb {0.753 0.753 0.753} def
/Slw 0.346 def
/Slrgb {0.753 0.753 0.753} def
Sbp
12982 6633 Sm
12982 6633 SPl
13512 3418 SPl
14042 2731 SPl
14572 2743 SPl
15101 3166 SPl
15631 3711 SPl
16161 4218 SPl
16691 4633 SPl
17221 4930 SPl
17750 5119 SPl
18280 5228 SPl
18810 5288 SPl
19340 5321 SPl
19870 5341 SPl
20399 5352 SPl
20929 5358 SPl
20929 6935 SPl
20399 7003 SPl
19870 7065 SPl
19340 7112 SPl
18810 7131 SPl
18280 7108 SPl
17750 7024 SPl
17221 6861 SPl
16691 6600 SPl
16161 6228 SPl
15631 5758 SPl
15101 5237 SPl
14572 4805 SPl
14042 4620 SPl
13512 4790 SPl
12982 6633 SPl
12982 6633 SPl
1 Sep
/Slrgb {0.102 0.278 0.435} def
12982 6632 Sm
13511 4103 Sl
13511 4103 Sm
14041 3675 Sl
14041 3675 Sm
14571 3774 Sl
14571 3774 Sm
15101 4201 Sl
15101 4201 Sm
15631 4734 Sl
15631 4734 Sm
16160 5223 Sl
16160 5223 Sm
16690 5616 Sl
16690 5616 Sm
17220 5895 Sl
17220 5895 Sm
17750 6071 Sl
17750 6071 Sm
18280 6168 Sl
18280 6168 Sm
18810 6209 Sl
18810 6209 Sm
19339 6216 Sl
19339 6216 Sm
19869 6202 Sl
19869 6202 Sm
20399 6177 Sl
20399 6177 Sm
20929 6146 Sl
/Slw 0.230 def
/Slrgb {0.000 0.000 0.000} def
12777 2303 12777 7336 Sln
12777 2508 12648 2508 Sln
12583 2395 0
/Helvetica-0 findfont 323 yratio mul scalefont setfont
(-.001) stringwidth pop add
xratio div
dup 4 3 roll exch 0.000 cos mul sub 3 1 roll 0.000 sin mul sub 2 copy
/fntsize {/Helvetica-0 findfont exch scalefont setfont } def
0.000 323
(-.001) Stxtl
(-.001) stringwidth pop xratio div
dup 4 3 roll exch 0.000 cos mul add 3 1 roll 0.000 sin mul add 2 copy
pop pop pop pop
12777 4570 12648 4570 Sln
12583 4457 0
/Helvetica-0 findfont 323 yratio mul scalefont setfont
(-.0005) stringwidth pop add
xratio div
dup 4 3 roll exch 0.000 cos mul sub 3 1 roll 0.000 sin mul sub 2 copy
/fntsize {/Helvetica-0 findfont exch scalefont setfont } def
0.000 323
(-.0005) Stxtl
(-.0005) stringwidth pop xratio div
dup 4 3 roll exch 0.000 cos mul add 3 1 roll 0.000 sin mul add 2 copy
pop pop pop pop
12777 6633 12648 6633 Sln
12583 6520 0
/Helvetica-0 findfont 323 yratio mul scalefont setfont
(0) stringwidth pop add
xratio div
dup 4 3 roll exch 0.000 cos mul sub 3 1 roll 0.000 sin mul sub 2 copy
/fntsize {/Helvetica-0 findfont exch scalefont setfont } def
0.000 323
(0) Stxtl
(0) stringwidth pop xratio div
dup 4 3 roll exch 0.000 cos mul add 3 1 roll 0.000 sin mul add 2 copy
pop pop pop pop
12777 2303 21134 2303 Sln
12982 2303 12982 2174 Sln
12982 1883 0
/Helvetica-0 findfont 323 yratio mul scalefont setfont
(0) stringwidth pop add
2 div xratio div
dup 4 3 roll exch 0.000 cos mul sub 3 1 roll 0.000 sin mul sub 2 copy
/fntsize {/Helvetica-0 findfont exch scalefont setfont } def
0.000 323
(0) Stxtl
(0) stringwidth pop xratio div
dup 4 3 roll exch 0.000 cos mul add 3 1 roll 0.000 sin mul add 2 copy
pop pop pop pop
15631 2303 15631 2174 Sln
15631 1883 0
/Helvetica-0 findfont 323 yratio mul scalefont setfont
(5) stringwidth pop add
2 div xratio div
dup 4 3 roll exch 0.000 cos mul sub 3 1 roll 0.000 sin mul sub 2 copy
/fntsize {/Helvetica-0 findfont exch scalefont setfont } def
0.000 323
(5) Stxtl
(5) stringwidth pop xratio div
dup 4 3 roll exch 0.000 cos mul add 3 1 roll 0.000 sin mul add 2 copy
pop pop pop pop
18280 2303 18280 2174 Sln
18280 1883 0
/Helvetica-0 findfont 323 yratio mul scalefont setfont
(10) stringwidth pop add
2 div xratio div
dup 4 3 roll exch 0.000 cos mul sub 3 1 roll 0.000 sin mul sub 2 copy
/fntsize {/Helvetica-0 findfont exch scalefont setfont } def
0.000 323
(10) Stxtl
(10) stringwidth pop xratio div
dup 4 3 roll exch 0.000 cos mul add 3 1 roll 0.000 sin mul add 2 copy
pop pop pop pop
20929 2303 20929 2174 Sln
20929 1883 0
/Helvetica-0 findfont 323 yratio mul scalefont setfont
(15) stringwidth pop add
2 div xratio div
dup 4 3 roll exch 0.000 cos mul sub 3 1 roll 0.000 sin mul sub 2 copy
/fntsize {/Helvetica-0 findfont exch scalefont setfont } def
0.000 323
(15) Stxtl
(15) stringwidth pop xratio div
dup 4 3 roll exch 0.000 cos mul add 3 1 roll 0.000 sin mul add 2 copy
pop pop pop pop
16956 1527 0
/Helvetica-0 findfont 323 yratio mul scalefont setfont
(step) stringwidth pop add
2 div xratio div
dup 4 3 roll exch 0.000 cos mul sub 3 1 roll 0.000 sin mul sub 2 copy
/fntsize {/Helvetica-0 findfont exch scalefont setfont } def
0.000 323
(step) Stxtl
(step) stringwidth pop xratio div
dup 4 3 roll exch 0.000 cos mul add 3 1 roll 0.000 sin mul add 2 copy
pop pop pop pop
/Ssrgb {1.000 1.000 1.000} def
13250 652 20662 1254 1 Srect
/Ssrgb {0.753 0.753 0.753} def
/Slw 0.346 def
/Slrgb {0.753 0.753 0.753} def
13389 791 14600 1114 1 Srect
/Slrgb {0.102 0.278 0.435} def
18365 953 19575 953 Sln
15084 840 2 copy
/fntsize {/Helvetica-0 findfont exch scalefont setfont } def
0.000 323
(90% CI for oirf) Stxtl
(90% CI for oirf) stringwidth pop xratio div
dup 4 3 roll exch 0.000 cos mul add 3 1 roll 0.000 sin mul add 2 copy
pop pop pop pop
20060 840 2 copy
/fntsize {/Helvetica-0 findfont exch scalefont setfont } def
0.000 323
(oirf) Stxtl
(oirf) stringwidth pop xratio div
dup 4 3 roll exch 0.000 cos mul add 3 1 roll 0.000 sin mul add 2 copy
pop pop pop pop
/Ssrgb {0.851 0.902 0.922} def
/Slw 0.230 def
/Slrgb {0.918 0.949 0.953} def
12777 7336 21134 7900 1 Srect
16956 7528 0
/Helvetica-0 findfont 453 yratio mul scalefont setfont
(IRF: P -> s) stringwidth pop add
2 div xratio div
dup 4 3 roll exch 0.000 cos mul sub 3 1 roll 0.000 sin mul sub 2 copy
/fntsize {/Helvetica-0 findfont exch scalefont setfont } def
0.000 453
(IRF: P -> s) Stxtl
(IRF: P -> s) stringwidth pop xratio div
dup 4 3 roll exch 0.000 cos mul add 3 1 roll 0.000 sin mul add 2 copy
pop pop pop pop
/Ssrgb {0.918 0.949 0.953} def
21162 512 31487 7928 1 Srect
/Ssrgb {1.000 1.000 1.000} def
/Slrgb {1.000 1.000 1.000} def
22348 2303 31459 7336 1 Srect
/Slrgb {0.000 0.000 0.000} def
/Slw 0.346 def
/Slrgb {0.918 0.949 0.953} def
22348 3041 31459 3041 Sln
/Slw 0.230 def
/Slrgb {0.000 0.000 0.000} def
/Slw 0.346 def
/Slrgb {0.918 0.949 0.953} def
22348 4314 31459 4314 Sln
/Slw 0.230 def
/Slrgb {0.000 0.000 0.000} def
/Slw 0.346 def
/Slrgb {0.918 0.949 0.953} def
22348 5587 31459 5587 Sln
/Slw 0.230 def
/Slrgb {0.000 0.000 0.000} def
/Slw 0.346 def
/Slrgb {0.918 0.949 0.953} def
22348 6860 31459 6860 Sln
/Slw 0.230 def
/Slrgb {0.000 0.000 0.000} def
/Ssrgb {0.753 0.753 0.753} def
/Slw 0.346 def
/Slrgb {0.753 0.753 0.753} def
Sbp
22553 4314 Sm
22553 4314 SPl
23133 3466 SPl
23713 2811 SPl
24293 2508 SPl
24873 2537 SPl
25453 2748 SPl
26033 3027 SPl
26614 3308 SPl
27194 3559 SPl
27774 3770 SPl
28354 3946 SPl
28934 4095 SPl
29514 4224 SPl
30094 4338 SPl
30674 4437 SPl
31254 4524 SPl
31254 7131 SPl
30674 6984 SPl
30094 6821 SPl
29514 6635 SPl
28934 6422 SPl
28354 6173 SPl
27774 5883 SPl
27194 5549 SPl
26614 5173 SPl
26033 4774 SPl
25453 4385 SPl
24873 4065 SPl
24293 3918 SPl
23713 4068 SPl
23133 4435 SPl
22553 4314 SPl
22553 4314 SPl
1 Sep
/Slrgb {0.102 0.278 0.435} def
22552 4314 Sm
23133 3950 Sl
23133 3950 Sm
23713 3439 Sl
23713 3439 Sm
24293 3212 Sl
24293 3212 Sm
24873 3301 Sl
24873 3301 Sm
25453 3566 Sl
25453 3566 Sm
26033 3900 Sl
26033 3900 Sm
26613 4240 Sl
26613 4240 Sm
27193 4553 Sl
27193 4553 Sm
27773 4826 Sl
27773 4826 Sm
28353 5059 Sl
28353 5059 Sm
28933 5258 Sl
28933 5258 Sm
29514 5429 Sl
29514 5429 Sm
30094 5579 Sl
30094 5579 Sm
30674 5710 Sl
30674 5710 Sm
31254 5827 Sl
/Slw 0.230 def
/Slrgb {0.000 0.000 0.000} def
22348 2303 22348 7336 Sln
22348 3041 22219 3041 Sln
22154 2928 0
/Helvetica-0 findfont 323 yratio mul scalefont setfont
(-.002) stringwidth pop add
xratio div
dup 4 3 roll exch 0.000 cos mul sub 3 1 roll 0.000 sin mul sub 2 copy
/fntsize {/Helvetica-0 findfont exch scalefont setfont } def
0.000 323
(-.002) Stxtl
(-.002) stringwidth pop xratio div
dup 4 3 roll exch 0.000 cos mul add 3 1 roll 0.000 sin mul add 2 copy
pop pop pop pop
22348 4314 22219 4314 Sln
22154 4201 0
/Helvetica-0 findfont 323 yratio mul scalefont setfont
(0) stringwidth pop add
xratio div
dup 4 3 roll exch 0.000 cos mul sub 3 1 roll 0.000 sin mul sub 2 copy
/fntsize {/Helvetica-0 findfont exch scalefont setfont } def
0.000 323
(0) Stxtl
(0) stringwidth pop xratio div
dup 4 3 roll exch 0.000 cos mul add 3 1 roll 0.000 sin mul add 2 copy
pop pop pop pop
22348 5587 22219 5587 Sln
22154 5474 0
/Helvetica-0 findfont 323 yratio mul scalefont setfont
(.002) stringwidth pop add
xratio div
dup 4 3 roll exch 0.000 cos mul sub 3 1 roll 0.000 sin mul sub 2 copy
/fntsize {/Helvetica-0 findfont exch scalefont setfont } def
0.000 323
(.002) Stxtl
(.002) stringwidth pop xratio div
dup 4 3 roll exch 0.000 cos mul add 3 1 roll 0.000 sin mul add 2 copy
pop pop pop pop
22348 6860 22219 6860 Sln
22154 6747 0
/Helvetica-0 findfont 323 yratio mul scalefont setfont
(.004) stringwidth pop add
xratio div
dup 4 3 roll exch 0.000 cos mul sub 3 1 roll 0.000 sin mul sub 2 copy
/fntsize {/Helvetica-0 findfont exch scalefont setfont } def
0.000 323
(.004) Stxtl
(.004) stringwidth pop xratio div
dup 4 3 roll exch 0.000 cos mul add 3 1 roll 0.000 sin mul add 2 copy
pop pop pop pop
22348 2303 31459 2303 Sln
22553 2303 22553 2174 Sln
22553 1883 0
/Helvetica-0 findfont 323 yratio mul scalefont setfont
(0) stringwidth pop add
2 div xratio div
dup 4 3 roll exch 0.000 cos mul sub 3 1 roll 0.000 sin mul sub 2 copy
/fntsize {/Helvetica-0 findfont exch scalefont setfont } def
0.000 323
(0) Stxtl
(0) stringwidth pop xratio div
dup 4 3 roll exch 0.000 cos mul add 3 1 roll 0.000 sin mul add 2 copy
pop pop pop pop
25453 2303 25453 2174 Sln
25453 1883 0
/Helvetica-0 findfont 323 yratio mul scalefont setfont
(5) stringwidth pop add
2 div xratio div
dup 4 3 roll exch 0.000 cos mul sub 3 1 roll 0.000 sin mul sub 2 copy
/fntsize {/Helvetica-0 findfont exch scalefont setfont } def
0.000 323
(5) Stxtl
(5) stringwidth pop xratio div
dup 4 3 roll exch 0.000 cos mul add 3 1 roll 0.000 sin mul add 2 copy
pop pop pop pop
28354 2303 28354 2174 Sln
28354 1883 0
/Helvetica-0 findfont 323 yratio mul scalefont setfont
(10) stringwidth pop add
2 div xratio div
dup 4 3 roll exch 0.000 cos mul sub 3 1 roll 0.000 sin mul sub 2 copy
/fntsize {/Helvetica-0 findfont exch scalefont setfont } def
0.000 323
(10) Stxtl
(10) stringwidth pop xratio div
dup 4 3 roll exch 0.000 cos mul add 3 1 roll 0.000 sin mul add 2 copy
pop pop pop pop
31254 2303 31254 2174 Sln
31254 1883 0
/Helvetica-0 findfont 323 yratio mul scalefont setfont
(15) stringwidth pop add
2 div xratio div
dup 4 3 roll exch 0.000 cos mul sub 3 1 roll 0.000 sin mul sub 2 copy
/fntsize {/Helvetica-0 findfont exch scalefont setfont } def
0.000 323
(15) Stxtl
(15) stringwidth pop xratio div
dup 4 3 roll exch 0.000 cos mul add 3 1 roll 0.000 sin mul add 2 copy
pop pop pop pop
26904 1527 0
/Helvetica-0 findfont 323 yratio mul scalefont setfont
(step) stringwidth pop add
2 div xratio div
dup 4 3 roll exch 0.000 cos mul sub 3 1 roll 0.000 sin mul sub 2 copy
/fntsize {/Helvetica-0 findfont exch scalefont setfont } def
0.000 323
(step) Stxtl
(step) stringwidth pop xratio div
dup 4 3 roll exch 0.000 cos mul add 3 1 roll 0.000 sin mul add 2 copy
pop pop pop pop
/Ssrgb {1.000 1.000 1.000} def
23198 652 30610 1254 1 Srect
/Ssrgb {0.753 0.753 0.753} def
/Slw 0.346 def
/Slrgb {0.753 0.753 0.753} def
23337 791 24547 1114 1 Srect
/Slrgb {0.102 0.278 0.435} def
28313 953 29523 953 Sln
25032 840 2 copy
/fntsize {/Helvetica-0 findfont exch scalefont setfont } def
0.000 323
(90% CI for oirf) Stxtl
(90% CI for oirf) stringwidth pop xratio div
dup 4 3 roll exch 0.000 cos mul add 3 1 roll 0.000 sin mul add 2 copy
pop pop pop pop
30008 840 2 copy
/fntsize {/Helvetica-0 findfont exch scalefont setfont } def
0.000 323
(oirf) Stxtl
(oirf) stringwidth pop xratio div
dup 4 3 roll exch 0.000 cos mul add 3 1 roll 0.000 sin mul add 2 copy
pop pop pop pop
/Ssrgb {0.851 0.902 0.922} def
/Slw 0.230 def
/Slrgb {0.918 0.949 0.953} def
22348 7336 31459 7900 1 Srect
26904 7528 0
/Helvetica-0 findfont 453 yratio mul scalefont setfont
(IRF: P -> z) stringwidth pop add
2 div xratio div
dup 4 3 roll exch 0.000 cos mul sub 3 1 roll 0.000 sin mul sub 2 copy
/fntsize {/Helvetica-0 findfont exch scalefont setfont } def
0.000 453
(IRF: P -> z) Stxtl
(IRF: P -> z) stringwidth pop xratio div
dup 4 3 roll exch 0.000 cos mul add 3 1 roll 0.000 sin mul add 2 copy
pop pop pop pop
S showpage
%%EOF
