%!PS-Adobe-2.0 EPSF-2.0
%% This is a Stata generated postscript file
%%BoundingBox: 0 0 396 288
%%HiResBoundingBox: 0.000 0.000 396.000 288.000
%%DocumentNeededResources: font Helvetica
/xratio 0.012375 def
/yratio 0.012375 def
/Sbgfill {
	/y1 exch def
	/x1 exch def
	/y0 exch def
	/x0 exch def
	x0 y0 moveto
	x0 y1 lineto x1 y1 lineto x1 y0 lineto x0 y0 lineto
	fill
} def
/Spt {
	yratio mul
	/yp exch def
	xratio mul
	/xp exch def
	Slrgb setrgbcolor
	newpath
	xp yp moveto
	xp Slw add yp
	lineto
	currentlinecap
	1 setlinecap
	stroke
	setlinecap
} def
/Sln {
	yratio mul
	/y1p exch def
	xratio mul
	/x1p exch def
	yratio mul
	/y0p exch def
	xratio mul
	/x0p exch def
	Slw setlinewidth
	Slrgb setrgbcolor
	x0p y0p M x1p y1p lineto S
} def
/Scrv {
	yratio mul
	/y3p exch def
	xratio mul
	/x3p exch def
	yratio mul
	/y2p exch def
	xratio mul
	/x2p exch def
	yratio mul
	/y1p exch def
	xratio mul
	/x1p exch def
	Slw setlinewidth
	Slrgb setrgbcolor
	x1p y1p x2p y2p x3p y3p curveto
	stroke
} def
/Stxtl {
	/sp exch def
	yratio mul
	/sizep exch def
	dup
	/anglep exch def
	0 exch sub
	/angle2p exch def
	yratio mul
	/y0p exch def
	xratio mul
	/x0p exch def
	Strgb setrgbcolor
	x0p y0p M anglep rotate sizep fntsize sp show stroke angle2p rotate
} def
/Stxtc {
	/sp exch def
	yratio mul
	/sizep exch def
	dup
	/anglep exch def
	0 exch sub
	/angle2p exch def
	yratio mul
	/y0p exch def
	xratio mul
	/x0p exch def
	Strgb setrgbcolor
	x0p y0p M anglep rotate sizep fntsize sp stringwidth exch -2 div exch rm sp show stroke angle2p rotate
} def
/Stxtr {
	/sp exch def
	yratio mul
	/sizep exch def
	dup
	/anglep exch def
	0 exch sub
	/angle2p exch def
	yratio mul
	/y0p exch def
	xratio mul
	/x0p exch def
	Strgb setrgbcolor
	x0p y0p M anglep rotate sizep fntsize sp stringwidth 1 index -1 mul exch rm pop sp show stroke angle2p rotate
} def
/Srect {
	/sfill exch def
	yratio mul
	/y1 exch def
	xratio mul
	/x1 exch def
	yratio mul
	/y0 exch def
	xratio mul
	/x0 exch def
	sfill 1 eq {
		Ssrgb setrgbcolor
		x0 y0 moveto
		x0 y1 lineto x1 y1 lineto x1 y0 lineto x0 y0 lineto
		fill
	} if
	Slw setlinewidth
	Slrgb setrgbcolor
	x0 y0 moveto
	x0 y1 lineto x1 y1 lineto x1 y0 lineto x0 y0 lineto
	stroke
} def
/Sellipse {
	/sfill exch def
	yratio mul
	/yrad exch def
	xratio mul
	/xrad exch def
	yratio mul
	/y exch def
	xratio mul
	/x exch def
	sfill 1 eq {
		Ssrgb setrgbcolor
		/savematrix matrix currentmatrix def
		x y translate
		xrad yrad scale
		0 0 1 0 360 arc
		savematrix setmatrix
		fill
	} if
	Slw setlinewidth
	Slrgb setrgbcolor
		/savematrix matrix currentmatrix def
		x y translate
		xrad yrad scale
		0 0 1 0 360 arc
		savematrix setmatrix
	stroke
} def
/Stri {
	/sfill exch def
	xratio mul
	/r exch def
	yratio mul
	/y0 exch def
	xratio mul
	/x0 exch def
	/xcen x0 def
	y0 r add
	/ytop exch def
	r 2 div
	y0 exch sub
	/ybot exch def
	r 3 sqrt 2 div mul dup
	xcen exch sub
	/xleft exch def
	xcen add
	/xright exch def
	sfill 1 eq {
		Ssrgb setrgbcolor
		xcen ytop moveto xright ybot lineto xleft ybot lineto xcen ytop lineto fill
	} if
	Slw setlinewidth
	Slrgb setrgbcolor
	xcen ytop moveto xright ybot lineto xleft ybot lineto xcen ytop lineto stroke
} def
/Soldtri {
	/sfill exch def
	xratio mul
	/r exch def
	yratio mul
	/y0 exch def
	xratio mul
	/x0 exch def
	x0 r sub
	/x1 exch def
	y0 r sub
	/y1 exch def
	x0 r add
	/x2 exch def
	y0 r sub
	/y2 exch def
	/x3 x0 def
	y0 r add
	/y3 exch def
	sfill 1 eq {
		Ssrgb setrgbcolor
		x1 y1 moveto x2 y2 lineto x3 y3 lineto x1 y1 lineto fill
	} if
	Slw setlinewidth
	Slrgb setrgbcolor
	x1 y1 moveto x2 y2 lineto x3 y3 lineto x1 y1 lineto stroke
} def
/Sdia {
	/sfill exch def
	xratio mul
	/r exch def
	yratio mul
	/y exch def
	xratio mul
	/x exch def
	x r sub
	/x0 exch def
	/y0 y def
	/x1 x def
	y r sub
	/y1 exch def
	x r add
	/x2 exch def
	/y2 y def
	/x3 x def
	y r add
	/y3 exch def
	sfill 1 eq  {
		Ssrgb setrgbcolor
		x0 y0 moveto x1 y1 lineto x2 y2 lineto x3 y3 lineto x0 y0 lineto fill
	} if
	Slw setlinewidth
	Slrgb setrgbcolor
	x0 y0 moveto x1 y1 lineto x2 y2 lineto x3 y3 lineto x0 y0 lineto stroke
} def
/Scc {
	/sfill exch def
	xratio mul
	/r0 exch def
	yratio mul
	/y0 exch def
	xratio mul
	/x0 exch def
	sfill 1 eq {
		Ssrgb setrgbcolor
		x0 y0 r0 0 360 arc fill
	} if
	Slw setlinewidth
	Slrgb setrgbcolor
	x0 y0 r0 0 360 arc stroke
} def
/Spie {
	/sfill exch def
	/a1 exch def
	/a0 exch def
	xratio mul
	/r exch def
	yratio mul
	/y exch def
	xratio mul
	/x exch def
	sfill 1 eq {
		Ssrgb setrgbcolor
		newpath x y moveto x y r a0 a1 arc closepath
		fill
	} if
	Slw setlinewidth
	Slrgb setrgbcolor
	newpath x y moveto x y r a0 a1 arc closepath
	stroke
} def
/Splu {
	xratio mul
	/r exch def
	yratio mul
	/y exch def
	xratio mul
	/x exch def
	x r sub
	/x0 exch def
	x r add
	/x1 exch def
	x0 y M x1 y L
	y r sub
	/y0 exch def
	y r add
	/y1 exch def
	x y0 M x y1 L
} def
/Scro {
	xratio mul
	/r exch def
	yratio mul
	/y exch def
	xratio mul
	/x exch def
	x r sub
	/x0 exch def
	y r sub
	/y0 exch def
	x r add
	/x1 exch def
	y r add
	/y1 exch def
	x0 y0 M x1 y1 L
	x r add
	/x0 exch def
	y r sub
	/y0 exch def
	x r sub
	/x1 exch def
	y r add
	/y1 exch def
	x0 y0 M x1 y1 L
} def
/Sm {
	yratio mul
	/y exch def
	xratio mul
	/x exch def
	x y M
} def
/Sl {
	yratio mul
	/y exch def
	xratio mul
	/x exch def
	x y L
} def
/SPl {
	yratio mul
	/y exch def
	xratio mul
	/x exch def
	x y PL
} def
/Lcs {
	currentlinecap
	1 setlinecap
} def
/Lcr {
	setlinecap
} def
/Sbp {
	newpath
} def
/Sep {
	/sfill exch def
	closepath
	sfill 1 eq  {
		Ssrgb setrgbcolor
		gsave
		fill
		grestore
	} if
	Slw setlinewidth
	Slrgb setrgbcolor
	Lcs
	stroke
	Lcr
} def
/cp {currentpoint} def 
/M {moveto} def 
/rm {rmoveto} def 
/S {stroke} def 
/L {Slw setlinewidth Slrgb setrgbcolor lineto Lcs S Lcr} def 
/PL {Slw setlinewidth Slrgb setrgbcolor lineto} def 
/MF-Helvetica {
  /newfontname exch def
  /fontname exch def
  /fontdict fontname findfont def
  /newfont fontdict maxlength dict def
  fontdict {
  exch dup /FID eq {pop pop} {exch newfont 3 1 roll put} ifelse
  } forall
  newfont /FontName newfontname put
  newfont /Encoding ISOLatin1Encoding put
  newfontname newfont definefont pop
} def
/Helvetica /Helvetica-0 MF-Helvetica
/Slw 0.120 def
0.918 0.949 0.953 setrgbcolor
0 0 396.000 288.000 Sbgfill
/Slrgb {1.000 1.000 1.000} def
/Strgb {1.000 1.000 1.000} def
/Ssrgb {1.000 1.000 1.000} def
/Ssrgb {0.918 0.949 0.953} def
/Slw 0.576 def
/Slrgb {0.918 0.949 0.953} def
0 0 31999 23272 1 Srect
/Slw 0.230 def
512 15344 10837 22760 1 Srect
/Ssrgb {1.000 1.000 1.000} def
/Slrgb {1.000 1.000 1.000} def
1510 17135 10809 22168 1 Srect
/Slrgb {0.000 0.000 0.000} def
/Strgb {0.000 0.000 0.000} def
/Slw 0.346 def
/Slrgb {0.918 0.949 0.953} def
1510 18881 10809 18881 Sln
/Slw 0.230 def
/Slrgb {0.000 0.000 0.000} def
/Slw 0.346 def
/Slrgb {0.918 0.949 0.953} def
1510 20422 10809 20422 Sln
/Slw 0.230 def
/Slrgb {0.000 0.000 0.000} def
/Slw 0.346 def
/Slrgb {0.918 0.949 0.953} def
1510 21963 10809 21963 Sln
/Slw 0.230 def
/Slrgb {0.000 0.000 0.000} def
/Ssrgb {0.753 0.753 0.753} def
/Slw 0.346 def
/Slrgb {0.753 0.753 0.753} def
Sbp
1714 19407 Sm
1714 19407 SPl
2307 19239 SPl
2900 18570 SPl
3492 18420 SPl
4085 18349 SPl
4678 18458 SPl
5270 18657 SPl
5863 18904 SPl
6456 19152 SPl
7048 19380 SPl
7641 19579 SPl
8234 19747 SPl
8826 19889 SPl
9419 20009 SPl
10012 20111 SPl
10604 20196 SPl
10604 21894 SPl
10012 21837 SPl
9419 21763 SPl
8826 21669 SPl
8234 21551 SPl
7641 21405 SPl
7048 21232 SPl
6456 21031 SPl
5863 20811 SPl
5270 20588 SPl
4678 20385 SPl
4085 20237 SPl
3492 20207 SPl
2900 20209 SPl
2307 20563 SPl
1714 20268 SPl
1714 19407 SPl
1 Sep
/Slrgb {0.102 0.278 0.435} def
1714 19837 Sm
2307 19900 Sl
2307 19900 Sm
2899 19389 Sl
2899 19389 Sm
3492 19313 Sl
3492 19313 Sm
4084 19292 Sl
4084 19292 Sm
4677 19421 Sl
4677 19421 Sm
5270 19622 Sl
5270 19622 Sm
5862 19857 Sl
5862 19857 Sm
6455 20091 Sl
6455 20091 Sm
7048 20305 Sl
7048 20305 Sm
7640 20492 Sl
7640 20492 Sm
8233 20649 Sl
8233 20649 Sm
8826 20779 Sl
8826 20779 Sm
9418 20886 Sl
9418 20886 Sm
10011 20973 Sl
10011 20973 Sm
10604 21045 Sl
/Slw 0.230 def
/Slrgb {0.000 0.000 0.000} def
1510 17135 1510 22168 Sln
1510 17340 1380 17340 Sln
1316 17227 0
/Helvetica-0 findfont 323 yratio mul scalefont setfont
(-.01) stringwidth pop add
xratio div
dup 4 3 roll exch 0.000 cos mul sub 3 1 roll 0.000 sin mul sub 2 copy
/fntsize {/Helvetica-0 findfont exch scalefont setfont } def
0.000 323
(-.01) Stxtl
(-.01) stringwidth pop xratio div
dup 4 3 roll exch 0.000 cos mul add 3 1 roll 0.000 sin mul add 2 copy
pop pop pop pop
1510 18881 1380 18881 Sln
1316 18768 0
/Helvetica-0 findfont 323 yratio mul scalefont setfont
(0) stringwidth pop add
xratio div
dup 4 3 roll exch 0.000 cos mul sub 3 1 roll 0.000 sin mul sub 2 copy
/fntsize {/Helvetica-0 findfont exch scalefont setfont } def
0.000 323
(0) Stxtl
(0) stringwidth pop xratio div
dup 4 3 roll exch 0.000 cos mul add 3 1 roll 0.000 sin mul add 2 copy
pop pop pop pop
1510 20422 1380 20422 Sln
1316 20309 0
/Helvetica-0 findfont 323 yratio mul scalefont setfont
(.01) stringwidth pop add
xratio div
dup 4 3 roll exch 0.000 cos mul sub 3 1 roll 0.000 sin mul sub 2 copy
/fntsize {/Helvetica-0 findfont exch scalefont setfont } def
0.000 323
(.01) Stxtl
(.01) stringwidth pop xratio div
dup 4 3 roll exch 0.000 cos mul add 3 1 roll 0.000 sin mul add 2 copy
pop pop pop pop
1510 21963 1380 21963 Sln
1316 21850 0
/Helvetica-0 findfont 323 yratio mul scalefont setfont
(.02) stringwidth pop add
xratio div
dup 4 3 roll exch 0.000 cos mul sub 3 1 roll 0.000 sin mul sub 2 copy
/fntsize {/Helvetica-0 findfont exch scalefont setfont } def
0.000 323
(.02) Stxtl
(.02) stringwidth pop xratio div
dup 4 3 roll exch 0.000 cos mul add 3 1 roll 0.000 sin mul add 2 copy
pop pop pop pop
1510 17135 10809 17135 Sln
1714 17135 1714 17006 Sln
1714 16715 0
/Helvetica-0 findfont 323 yratio mul scalefont setfont
(0) stringwidth pop add
2 div xratio div
dup 4 3 roll exch 0.000 cos mul sub 3 1 roll 0.000 sin mul sub 2 copy
/fntsize {/Helvetica-0 findfont exch scalefont setfont } def
0.000 323
(0) Stxtl
(0) stringwidth pop xratio div
dup 4 3 roll exch 0.000 cos mul add 3 1 roll 0.000 sin mul add 2 copy
pop pop pop pop
4678 17135 4678 17006 Sln
4678 16715 0
/Helvetica-0 findfont 323 yratio mul scalefont setfont
(5) stringwidth pop add
2 div xratio div
dup 4 3 roll exch 0.000 cos mul sub 3 1 roll 0.000 sin mul sub 2 copy
/fntsize {/Helvetica-0 findfont exch scalefont setfont } def
0.000 323
(5) Stxtl
(5) stringwidth pop xratio div
dup 4 3 roll exch 0.000 cos mul add 3 1 roll 0.000 sin mul add 2 copy
pop pop pop pop
7641 17135 7641 17006 Sln
7641 16715 0
/Helvetica-0 findfont 323 yratio mul scalefont setfont
(10) stringwidth pop add
2 div xratio div
dup 4 3 roll exch 0.000 cos mul sub 3 1 roll 0.000 sin mul sub 2 copy
/fntsize {/Helvetica-0 findfont exch scalefont setfont } def
0.000 323
(10) Stxtl
(10) stringwidth pop xratio div
dup 4 3 roll exch 0.000 cos mul add 3 1 roll 0.000 sin mul add 2 copy
pop pop pop pop
10604 17135 10604 17006 Sln
10604 16715 0
/Helvetica-0 findfont 323 yratio mul scalefont setfont
(15) stringwidth pop add
2 div xratio div
dup 4 3 roll exch 0.000 cos mul sub 3 1 roll 0.000 sin mul sub 2 copy
/fntsize {/Helvetica-0 findfont exch scalefont setfont } def
0.000 323
(15) Stxtl
(15) stringwidth pop xratio div
dup 4 3 roll exch 0.000 cos mul add 3 1 roll 0.000 sin mul add 2 copy
pop pop pop pop
6159 16359 0
/Helvetica-0 findfont 323 yratio mul scalefont setfont
(step) stringwidth pop add
2 div xratio div
dup 4 3 roll exch 0.000 cos mul sub 3 1 roll 0.000 sin mul sub 2 copy
/fntsize {/Helvetica-0 findfont exch scalefont setfont } def
0.000 323
(step) Stxtl
(step) stringwidth pop xratio div
dup 4 3 roll exch 0.000 cos mul add 3 1 roll 0.000 sin mul add 2 copy
pop pop pop pop
/Ssrgb {1.000 1.000 1.000} def
2453 15484 9865 16086 1 Srect
/Ssrgb {0.753 0.753 0.753} def
/Slw 0.346 def
/Slrgb {0.753 0.753 0.753} def
2593 15623 3803 15946 1 Srect
/Slrgb {0.102 0.278 0.435} def
7569 15785 8779 15785 Sln
4288 15672 2 copy
/fntsize {/Helvetica-0 findfont exch scalefont setfont } def
0.000 323
(90% CI for oirf) Stxtl
(90% CI for oirf) stringwidth pop xratio div
dup 4 3 roll exch 0.000 cos mul add 3 1 roll 0.000 sin mul add 2 copy
pop pop pop pop
9264 15672 2 copy
/fntsize {/Helvetica-0 findfont exch scalefont setfont } def
0.000 323
(oirf) Stxtl
(oirf) stringwidth pop xratio div
dup 4 3 roll exch 0.000 cos mul add 3 1 roll 0.000 sin mul add 2 copy
pop pop pop pop
/Ssrgb {0.851 0.902 0.922} def
/Slw 0.230 def
/Slrgb {0.918 0.949 0.953} def
1510 22168 10809 22732 1 Srect
6159 22360 0
/Helvetica-0 findfont 453 yratio mul scalefont setfont
(IRF: z -> I) stringwidth pop add
2 div xratio div
dup 4 3 roll exch 0.000 cos mul sub 3 1 roll 0.000 sin mul sub 2 copy
/fntsize {/Helvetica-0 findfont exch scalefont setfont } def
0.000 453
(IRF: z -> I) Stxtl
(IRF: z -> I) stringwidth pop xratio div
dup 4 3 roll exch 0.000 cos mul add 3 1 roll 0.000 sin mul add 2 copy
pop pop pop pop
/Ssrgb {0.918 0.949 0.953} def
10837 15344 21162 22760 1 Srect
/Ssrgb {1.000 1.000 1.000} def
/Slrgb {1.000 1.000 1.000} def
11835 17135 21134 22168 1 Srect
/Slrgb {0.000 0.000 0.000} def
/Slw 0.346 def
/Slrgb {0.918 0.949 0.953} def
11835 17340 21134 17340 Sln
/Slw 0.230 def
/Slrgb {0.000 0.000 0.000} def
/Slw 0.346 def
/Slrgb {0.918 0.949 0.953} def
11835 18496 21134 18496 Sln
/Slw 0.230 def
/Slrgb {0.000 0.000 0.000} def
/Slw 0.346 def
/Slrgb {0.918 0.949 0.953} def
11835 19652 21134 19652 Sln
/Slw 0.230 def
/Slrgb {0.000 0.000 0.000} def
/Slw 0.346 def
/Slrgb {0.918 0.949 0.953} def
11835 20807 21134 20807 Sln
/Slw 0.230 def
/Slrgb {0.000 0.000 0.000} def
/Slw 0.346 def
/Slrgb {0.918 0.949 0.953} def
11835 21963 21134 21963 Sln
/Slw 0.230 def
/Slrgb {0.000 0.000 0.000} def
/Ssrgb {0.753 0.753 0.753} def
/Slw 0.346 def
/Slrgb {0.753 0.753 0.753} def
Sbp
12039 19219 Sm
12039 19219 SPl
12632 18565 SPl
13225 17956 SPl
13817 17822 SPl
14410 18030 SPl
15003 18266 SPl
15595 18461 SPl
16188 18589 SPl
16781 18663 SPl
17373 18703 SPl
17966 18726 SPl
18559 18745 SPl
19151 18767 SPl
19744 18796 SPl
20337 18830 SPl
20929 18869 SPl
20929 21857 SPl
20337 21865 SPl
19744 21869 SPl
19151 21870 SPl
18559 21870 SPl
17966 21868 SPl
17373 21861 SPl
16781 21840 SPl
16188 21789 SPl
15595 21687 SPl
15003 21504 SPl
14410 21255 SPl
13817 20928 SPl
13225 20692 SPl
12632 20615 SPl
12039 20492 SPl
12039 19219 SPl
1 Sep
/Slrgb {0.102 0.278 0.435} def
12039 19855 Sm
12632 19590 Sl
12632 19590 Sm
13224 19323 Sl
13224 19323 Sm
13817 19375 Sl
13817 19375 Sm
14410 19642 Sl
14410 19642 Sm
15002 19885 Sl
15002 19885 Sm
15595 20074 Sl
15595 20074 Sm
16187 20188 Sl
16187 20188 Sm
16780 20251 Sl
16780 20251 Sm
17373 20281 Sl
17373 20281 Sm
17965 20296 Sl
17965 20296 Sm
18558 20307 Sl
18558 20307 Sm
19151 20318 Sl
19151 20318 Sm
19743 20332 Sl
19743 20332 Sm
20336 20347 Sl
20336 20347 Sm
20929 20363 Sl
/Slw 0.230 def
/Slrgb {0.000 0.000 0.000} def
11835 17135 11835 22168 Sln
11835 17340 11705 17340 Sln
11641 17227 0
/Helvetica-0 findfont 323 yratio mul scalefont setfont
(-.02) stringwidth pop add
xratio div
dup 4 3 roll exch 0.000 cos mul sub 3 1 roll 0.000 sin mul sub 2 copy
/fntsize {/Helvetica-0 findfont exch scalefont setfont } def
0.000 323
(-.02) Stxtl
(-.02) stringwidth pop xratio div
dup 4 3 roll exch 0.000 cos mul add 3 1 roll 0.000 sin mul add 2 copy
pop pop pop pop
11835 18496 11705 18496 Sln
11641 18383 0
/Helvetica-0 findfont 323 yratio mul scalefont setfont
(-.01) stringwidth pop add
xratio div
dup 4 3 roll exch 0.000 cos mul sub 3 1 roll 0.000 sin mul sub 2 copy
/fntsize {/Helvetica-0 findfont exch scalefont setfont } def
0.000 323
(-.01) Stxtl
(-.01) stringwidth pop xratio div
dup 4 3 roll exch 0.000 cos mul add 3 1 roll 0.000 sin mul add 2 copy
pop pop pop pop
11835 19652 11705 19652 Sln
11641 19539 0
/Helvetica-0 findfont 323 yratio mul scalefont setfont
(0) stringwidth pop add
xratio div
dup 4 3 roll exch 0.000 cos mul sub 3 1 roll 0.000 sin mul sub 2 copy
/fntsize {/Helvetica-0 findfont exch scalefont setfont } def
0.000 323
(0) Stxtl
(0) stringwidth pop xratio div
dup 4 3 roll exch 0.000 cos mul add 3 1 roll 0.000 sin mul add 2 copy
pop pop pop pop
11835 20807 11705 20807 Sln
11641 20694 0
/Helvetica-0 findfont 323 yratio mul scalefont setfont
(.01) stringwidth pop add
xratio div
dup 4 3 roll exch 0.000 cos mul sub 3 1 roll 0.000 sin mul sub 2 copy
/fntsize {/Helvetica-0 findfont exch scalefont setfont } def
0.000 323
(.01) Stxtl
(.01) stringwidth pop xratio div
dup 4 3 roll exch 0.000 cos mul add 3 1 roll 0.000 sin mul add 2 copy
pop pop pop pop
11835 21963 11705 21963 Sln
11641 21850 0
/Helvetica-0 findfont 323 yratio mul scalefont setfont
(.02) stringwidth pop add
xratio div
dup 4 3 roll exch 0.000 cos mul sub 3 1 roll 0.000 sin mul sub 2 copy
/fntsize {/Helvetica-0 findfont exch scalefont setfont } def
0.000 323
(.02) Stxtl
(.02) stringwidth pop xratio div
dup 4 3 roll exch 0.000 cos mul add 3 1 roll 0.000 sin mul add 2 copy
pop pop pop pop
11835 17135 21134 17135 Sln
12039 17135 12039 17006 Sln
12039 16715 0
/Helvetica-0 findfont 323 yratio mul scalefont setfont
(0) stringwidth pop add
2 div xratio div
dup 4 3 roll exch 0.000 cos mul sub 3 1 roll 0.000 sin mul sub 2 copy
/fntsize {/Helvetica-0 findfont exch scalefont setfont } def
0.000 323
(0) Stxtl
(0) stringwidth pop xratio div
dup 4 3 roll exch 0.000 cos mul add 3 1 roll 0.000 sin mul add 2 copy
pop pop pop pop
15003 17135 15003 17006 Sln
15003 16715 0
/Helvetica-0 findfont 323 yratio mul scalefont setfont
(5) stringwidth pop add
2 div xratio div
dup 4 3 roll exch 0.000 cos mul sub 3 1 roll 0.000 sin mul sub 2 copy
/fntsize {/Helvetica-0 findfont exch scalefont setfont } def
0.000 323
(5) Stxtl
(5) stringwidth pop xratio div
dup 4 3 roll exch 0.000 cos mul add 3 1 roll 0.000 sin mul add 2 copy
pop pop pop pop
17966 17135 17966 17006 Sln
17966 16715 0
/Helvetica-0 findfont 323 yratio mul scalefont setfont
(10) stringwidth pop add
2 div xratio div
dup 4 3 roll exch 0.000 cos mul sub 3 1 roll 0.000 sin mul sub 2 copy
/fntsize {/Helvetica-0 findfont exch scalefont setfont } def
0.000 323
(10) Stxtl
(10) stringwidth pop xratio div
dup 4 3 roll exch 0.000 cos mul add 3 1 roll 0.000 sin mul add 2 copy
pop pop pop pop
20929 17135 20929 17006 Sln
20929 16715 0
/Helvetica-0 findfont 323 yratio mul scalefont setfont
(15) stringwidth pop add
2 div xratio div
dup 4 3 roll exch 0.000 cos mul sub 3 1 roll 0.000 sin mul sub 2 copy
/fntsize {/Helvetica-0 findfont exch scalefont setfont } def
0.000 323
(15) Stxtl
(15) stringwidth pop xratio div
dup 4 3 roll exch 0.000 cos mul add 3 1 roll 0.000 sin mul add 2 copy
pop pop pop pop
16484 16359 0
/Helvetica-0 findfont 323 yratio mul scalefont setfont
(step) stringwidth pop add
2 div xratio div
dup 4 3 roll exch 0.000 cos mul sub 3 1 roll 0.000 sin mul sub 2 copy
/fntsize {/Helvetica-0 findfont exch scalefont setfont } def
0.000 323
(step) Stxtl
(step) stringwidth pop xratio div
dup 4 3 roll exch 0.000 cos mul add 3 1 roll 0.000 sin mul add 2 copy
pop pop pop pop
/Ssrgb {1.000 1.000 1.000} def
12778 15484 20190 16086 1 Srect
/Ssrgb {0.753 0.753 0.753} def
/Slw 0.346 def
/Slrgb {0.753 0.753 0.753} def
12918 15623 14128 15946 1 Srect
/Slrgb {0.102 0.278 0.435} def
17894 15785 19104 15785 Sln
14613 15672 2 copy
/fntsize {/Helvetica-0 findfont exch scalefont setfont } def
0.000 323
(90% CI for oirf) Stxtl
(90% CI for oirf) stringwidth pop xratio div
dup 4 3 roll exch 0.000 cos mul add 3 1 roll 0.000 sin mul add 2 copy
pop pop pop pop
19589 15672 2 copy
/fntsize {/Helvetica-0 findfont exch scalefont setfont } def
0.000 323
(oirf) Stxtl
(oirf) stringwidth pop xratio div
dup 4 3 roll exch 0.000 cos mul add 3 1 roll 0.000 sin mul add 2 copy
pop pop pop pop
/Ssrgb {0.851 0.902 0.922} def
/Slw 0.230 def
/Slrgb {0.918 0.949 0.953} def
11835 22168 21134 22732 1 Srect
16484 22360 0
/Helvetica-0 findfont 453 yratio mul scalefont setfont
(IRF: z -> P) stringwidth pop add
2 div xratio div
dup 4 3 roll exch 0.000 cos mul sub 3 1 roll 0.000 sin mul sub 2 copy
/fntsize {/Helvetica-0 findfont exch scalefont setfont } def
0.000 453
(IRF: z -> P) Stxtl
(IRF: z -> P) stringwidth pop xratio div
dup 4 3 roll exch 0.000 cos mul add 3 1 roll 0.000 sin mul add 2 copy
pop pop pop pop
/Ssrgb {0.918 0.949 0.953} def
21162 15344 31487 22760 1 Srect
/Ssrgb {1.000 1.000 1.000} def
/Slrgb {1.000 1.000 1.000} def
22537 17135 31459 22168 1 Srect
/Slrgb {0.000 0.000 0.000} def
/Slw 0.346 def
/Slrgb {0.918 0.949 0.953} def
22537 17340 31459 17340 Sln
/Slw 0.230 def
/Slrgb {0.000 0.000 0.000} def
/Slw 0.346 def
/Slrgb {0.918 0.949 0.953} def
22537 18496 31459 18496 Sln
/Slw 0.230 def
/Slrgb {0.000 0.000 0.000} def
/Slw 0.346 def
/Slrgb {0.918 0.949 0.953} def
22537 19652 31459 19652 Sln
/Slw 0.230 def
/Slrgb {0.000 0.000 0.000} def
/Slw 0.346 def
/Slrgb {0.918 0.949 0.953} def
22537 20807 31459 20807 Sln
/Slw 0.230 def
/Slrgb {0.000 0.000 0.000} def
/Slw 0.346 def
/Slrgb {0.918 0.949 0.953} def
22537 21963 31459 21963 Sln
/Slw 0.230 def
/Slrgb {0.000 0.000 0.000} def
/Ssrgb {0.753 0.753 0.753} def
/Slw 0.346 def
/Slrgb {0.753 0.753 0.753} def
Sbp
22741 17597 Sm
22741 17597 SPl
23309 17987 SPl
23877 18029 SPl
24444 18299 SPl
25012 18431 SPl
25579 18378 SPl
26147 18323 SPl
26714 18288 SPl
27282 18306 SPl
27849 18366 SPl
28417 18458 SPl
28984 18569 SPl
29552 18689 SPl
30119 18809 SPl
30687 18923 SPl
31254 19028 SPl
31254 20079 SPl
30687 20044 SPl
30119 20010 SPl
29552 19980 SPl
28984 19958 SPl
28417 19951 SPl
27849 19975 SPl
27282 20048 SPl
26714 20190 SPl
26147 20417 SPl
25579 20720 SPl
25012 21093 SPl
24444 21363 SPl
23877 21356 SPl
23309 21289 SPl
22741 20247 SPl
22741 17597 SPl
1 Sep
/Slrgb {0.102 0.278 0.435} def
22741 18922 Sm
23308 19637 Sl
23308 19637 Sm
23876 19692 Sl
23876 19692 Sm
24444 19831 Sl
24444 19831 Sm
25011 19762 Sl
25011 19762 Sm
25579 19549 Sl
25579 19549 Sm
26146 19370 Sl
26146 19370 Sm
26714 19239 Sl
26714 19239 Sm
27281 19177 Sl
27281 19177 Sm
27849 19170 Sl
27849 19170 Sm
28416 19204 Sl
28416 19204 Sm
28984 19263 Sl
28984 19263 Sm
29551 19334 Sl
29551 19334 Sm
30119 19409 Sl
30119 19409 Sm
30686 19483 Sl
30686 19483 Sm
31254 19553 Sl
/Slw 0.230 def
/Slrgb {0.000 0.000 0.000} def
22537 17135 22537 22168 Sln
22537 17340 22407 17340 Sln
22343 17227 0
/Helvetica-0 findfont 323 yratio mul scalefont setfont
(-.0004) stringwidth pop add
xratio div
dup 4 3 roll exch 0.000 cos mul sub 3 1 roll 0.000 sin mul sub 2 copy
/fntsize {/Helvetica-0 findfont exch scalefont setfont } def
0.000 323
(-.0004) Stxtl
(-.0004) stringwidth pop xratio div
dup 4 3 roll exch 0.000 cos mul add 3 1 roll 0.000 sin mul add 2 copy
pop pop pop pop
22537 18496 22407 18496 Sln
22343 18383 0
/Helvetica-0 findfont 323 yratio mul scalefont setfont
(-.0002) stringwidth pop add
xratio div
dup 4 3 roll exch 0.000 cos mul sub 3 1 roll 0.000 sin mul sub 2 copy
/fntsize {/Helvetica-0 findfont exch scalefont setfont } def
0.000 323
(-.0002) Stxtl
(-.0002) stringwidth pop xratio div
dup 4 3 roll exch 0.000 cos mul add 3 1 roll 0.000 sin mul add 2 copy
pop pop pop pop
22537 19652 22407 19652 Sln
22343 19539 0
/Helvetica-0 findfont 323 yratio mul scalefont setfont
(0) stringwidth pop add
xratio div
dup 4 3 roll exch 0.000 cos mul sub 3 1 roll 0.000 sin mul sub 2 copy
/fntsize {/Helvetica-0 findfont exch scalefont setfont } def
0.000 323
(0) Stxtl
(0) stringwidth pop xratio div
dup 4 3 roll exch 0.000 cos mul add 3 1 roll 0.000 sin mul add 2 copy
pop pop pop pop
22537 20807 22407 20807 Sln
22343 20694 0
/Helvetica-0 findfont 323 yratio mul scalefont setfont
(.0002) stringwidth pop add
xratio div
dup 4 3 roll exch 0.000 cos mul sub 3 1 roll 0.000 sin mul sub 2 copy
/fntsize {/Helvetica-0 findfont exch scalefont setfont } def
0.000 323
(.0002) Stxtl
(.0002) stringwidth pop xratio div
dup 4 3 roll exch 0.000 cos mul add 3 1 roll 0.000 sin mul add 2 copy
pop pop pop pop
22537 21963 22407 21963 Sln
22343 21850 0
/Helvetica-0 findfont 323 yratio mul scalefont setfont
(.0004) stringwidth pop add
xratio div
dup 4 3 roll exch 0.000 cos mul sub 3 1 roll 0.000 sin mul sub 2 copy
/fntsize {/Helvetica-0 findfont exch scalefont setfont } def
0.000 323
(.0004) Stxtl
(.0004) stringwidth pop xratio div
dup 4 3 roll exch 0.000 cos mul add 3 1 roll 0.000 sin mul add 2 copy
pop pop pop pop
22537 17135 31459 17135 Sln
22741 17135 22741 17006 Sln
22741 16715 0
/Helvetica-0 findfont 323 yratio mul scalefont setfont
(0) stringwidth pop add
2 div xratio div
dup 4 3 roll exch 0.000 cos mul sub 3 1 roll 0.000 sin mul sub 2 copy
/fntsize {/Helvetica-0 findfont exch scalefont setfont } def
0.000 323
(0) Stxtl
(0) stringwidth pop xratio div
dup 4 3 roll exch 0.000 cos mul add 3 1 roll 0.000 sin mul add 2 copy
pop pop pop pop
25579 17135 25579 17006 Sln
25579 16715 0
/Helvetica-0 findfont 323 yratio mul scalefont setfont
(5) stringwidth pop add
2 div xratio div
dup 4 3 roll exch 0.000 cos mul sub 3 1 roll 0.000 sin mul sub 2 copy
/fntsize {/Helvetica-0 findfont exch scalefont setfont } def
0.000 323
(5) Stxtl
(5) stringwidth pop xratio div
dup 4 3 roll exch 0.000 cos mul add 3 1 roll 0.000 sin mul add 2 copy
pop pop pop pop
28417 17135 28417 17006 Sln
28417 16715 0
/Helvetica-0 findfont 323 yratio mul scalefont setfont
(10) stringwidth pop add
2 div xratio div
dup 4 3 roll exch 0.000 cos mul sub 3 1 roll 0.000 sin mul sub 2 copy
/fntsize {/Helvetica-0 findfont exch scalefont setfont } def
0.000 323
(10) Stxtl
(10) stringwidth pop xratio div
dup 4 3 roll exch 0.000 cos mul add 3 1 roll 0.000 sin mul add 2 copy
pop pop pop pop
31254 17135 31254 17006 Sln
31254 16715 0
/Helvetica-0 findfont 323 yratio mul scalefont setfont
(15) stringwidth pop add
2 div xratio div
dup 4 3 roll exch 0.000 cos mul sub 3 1 roll 0.000 sin mul sub 2 copy
/fntsize {/Helvetica-0 findfont exch scalefont setfont } def
0.000 323
(15) Stxtl
(15) stringwidth pop xratio div
dup 4 3 roll exch 0.000 cos mul add 3 1 roll 0.000 sin mul add 2 copy
pop pop pop pop
26998 16359 0
/Helvetica-0 findfont 323 yratio mul scalefont setfont
(step) stringwidth pop add
2 div xratio div
dup 4 3 roll exch 0.000 cos mul sub 3 1 roll 0.000 sin mul sub 2 copy
/fntsize {/Helvetica-0 findfont exch scalefont setfont } def
0.000 323
(step) Stxtl
(step) stringwidth pop xratio div
dup 4 3 roll exch 0.000 cos mul add 3 1 roll 0.000 sin mul add 2 copy
pop pop pop pop
/Ssrgb {1.000 1.000 1.000} def
23292 15484 30704 16086 1 Srect
/Ssrgb {0.753 0.753 0.753} def
/Slw 0.346 def
/Slrgb {0.753 0.753 0.753} def
23432 15623 24642 15946 1 Srect
/Slrgb {0.102 0.278 0.435} def
28407 15785 29617 15785 Sln
25127 15672 2 copy
/fntsize {/Helvetica-0 findfont exch scalefont setfont } def
0.000 323
(90% CI for oirf) Stxtl
(90% CI for oirf) stringwidth pop xratio div
dup 4 3 roll exch 0.000 cos mul add 3 1 roll 0.000 sin mul add 2 copy
pop pop pop pop
30102 15672 2 copy
/fntsize {/Helvetica-0 findfont exch scalefont setfont } def
0.000 323
(oirf) Stxtl
(oirf) stringwidth pop xratio div
dup 4 3 roll exch 0.000 cos mul add 3 1 roll 0.000 sin mul add 2 copy
pop pop pop pop
/Ssrgb {0.851 0.902 0.922} def
/Slw 0.230 def
/Slrgb {0.918 0.949 0.953} def
22537 22168 31459 22732 1 Srect
26998 22360 0
/Helvetica-0 findfont 453 yratio mul scalefont setfont
(IRF: z -> s) stringwidth pop add
2 div xratio div
dup 4 3 roll exch 0.000 cos mul sub 3 1 roll 0.000 sin mul sub 2 copy
/fntsize {/Helvetica-0 findfont exch scalefont setfont } def
0.000 453
(IRF: z -> s) Stxtl
(IRF: z -> s) stringwidth pop xratio div
dup 4 3 roll exch 0.000 cos mul add 3 1 roll 0.000 sin mul add 2 copy
pop pop pop pop
/Ssrgb {0.918 0.949 0.953} def
512 7928 10837 15344 1 Srect
/Ssrgb {1.000 1.000 1.000} def
/Slrgb {1.000 1.000 1.000} def
1698 9719 10809 14752 1 Srect
/Slrgb {0.000 0.000 0.000} def
/Slw 0.346 def
/Slrgb {0.918 0.949 0.953} def
1698 9960 10809 9960 Sln
/Slw 0.230 def
/Slrgb {0.000 0.000 0.000} def
/Slw 0.346 def
/Slrgb {0.918 0.949 0.953} def
1698 11107 10809 11107 Sln
/Slw 0.230 def
/Slrgb {0.000 0.000 0.000} def
/Slw 0.346 def
/Slrgb {0.918 0.949 0.953} def
1698 12254 10809 12254 Sln
/Slw 0.230 def
/Slrgb {0.000 0.000 0.000} def
/Slw 0.346 def
/Slrgb {0.918 0.949 0.953} def
1698 13400 10809 13400 Sln
/Slw 0.230 def
/Slrgb {0.000 0.000 0.000} def
/Slw 0.346 def
/Slrgb {0.918 0.949 0.953} def
1698 14547 10809 14547 Sln
/Slw 0.230 def
/Slrgb {0.000 0.000 0.000} def
/Ssrgb {0.753 0.753 0.753} def
/Slw 0.346 def
/Slrgb {0.753 0.753 0.753} def
Sbp
1903 14547 Sm
1903 14547 SPl
2483 13106 SPl
3063 12290 SPl
3643 11765 SPl
4223 11302 SPl
4803 10909 SPl
5383 10557 SPl
5964 10271 SPl
6544 10066 SPl
7124 9952 SPl
7704 9924 SPl
8284 9967 SPl
8864 10063 SPl
9444 10195 SPl
10024 10350 SPl
10604 10517 SPl
10604 13951 SPl
10024 13874 SPl
9444 13806 SPl
8864 13754 SPl
8284 13725 SPl
7704 13727 SPl
7124 13761 SPl
6544 13823 SPl
5964 13899 SPl
5383 13966 SPl
4803 13997 SPl
4223 13967 SPl
3643 13947 SPl
3063 13951 SPl
2483 14144 SPl
1903 14547 SPl
1903 14547 SPl
1 Sep
/Slrgb {0.102 0.278 0.435} def
1902 14547 Sm
2482 13625 Sl
2482 13625 Sm
3063 13120 Sl
3063 13120 Sm
3643 12855 Sl
3643 12855 Sm
4223 12634 Sl
4223 12634 Sm
4803 12453 Sl
4803 12453 Sm
5383 12261 Sl
5383 12261 Sm
5963 12085 Sl
5963 12085 Sm
6543 11944 Sl
6543 11944 Sm
7123 11856 Sl
7123 11856 Sm
7703 11825 Sl
7703 11825 Sm
8283 11845 Sl
8283 11845 Sm
8863 11908 Sl
8863 11908 Sm
9444 12000 Sl
9444 12000 Sm
10024 12112 Sl
10024 12112 Sm
10604 12233 Sl
/Slw 0.230 def
/Slrgb {0.000 0.000 0.000} def
1698 9719 1698 14752 Sln
1698 9960 1569 9960 Sln
1504 9847 0
/Helvetica-0 findfont 323 yratio mul scalefont setfont
(-.02) stringwidth pop add
xratio div
dup 4 3 roll exch 0.000 cos mul sub 3 1 roll 0.000 sin mul sub 2 copy
/fntsize {/Helvetica-0 findfont exch scalefont setfont } def
0.000 323
(-.02) Stxtl
(-.02) stringwidth pop xratio div
dup 4 3 roll exch 0.000 cos mul add 3 1 roll 0.000 sin mul add 2 copy
pop pop pop pop
1698 11107 1569 11107 Sln
1504 10994 0
/Helvetica-0 findfont 323 yratio mul scalefont setfont
(-.015) stringwidth pop add
xratio div
dup 4 3 roll exch 0.000 cos mul sub 3 1 roll 0.000 sin mul sub 2 copy
/fntsize {/Helvetica-0 findfont exch scalefont setfont } def
0.000 323
(-.015) Stxtl
(-.015) stringwidth pop xratio div
dup 4 3 roll exch 0.000 cos mul add 3 1 roll 0.000 sin mul add 2 copy
pop pop pop pop
1698 12254 1569 12254 Sln
1504 12141 0
/Helvetica-0 findfont 323 yratio mul scalefont setfont
(-.01) stringwidth pop add
xratio div
dup 4 3 roll exch 0.000 cos mul sub 3 1 roll 0.000 sin mul sub 2 copy
/fntsize {/Helvetica-0 findfont exch scalefont setfont } def
0.000 323
(-.01) Stxtl
(-.01) stringwidth pop xratio div
dup 4 3 roll exch 0.000 cos mul add 3 1 roll 0.000 sin mul add 2 copy
pop pop pop pop
1698 13400 1569 13400 Sln
1504 13287 0
/Helvetica-0 findfont 323 yratio mul scalefont setfont
(-.005) stringwidth pop add
xratio div
dup 4 3 roll exch 0.000 cos mul sub 3 1 roll 0.000 sin mul sub 2 copy
/fntsize {/Helvetica-0 findfont exch scalefont setfont } def
0.000 323
(-.005) Stxtl
(-.005) stringwidth pop xratio div
dup 4 3 roll exch 0.000 cos mul add 3 1 roll 0.000 sin mul add 2 copy
pop pop pop pop
1698 14547 1569 14547 Sln
1504 14434 0
/Helvetica-0 findfont 323 yratio mul scalefont setfont
(0) stringwidth pop add
xratio div
dup 4 3 roll exch 0.000 cos mul sub 3 1 roll 0.000 sin mul sub 2 copy
/fntsize {/Helvetica-0 findfont exch scalefont setfont } def
0.000 323
(0) Stxtl
(0) stringwidth pop xratio div
dup 4 3 roll exch 0.000 cos mul add 3 1 roll 0.000 sin mul add 2 copy
pop pop pop pop
1698 9719 10809 9719 Sln
1903 9719 1903 9590 Sln
1903 9299 0
/Helvetica-0 findfont 323 yratio mul scalefont setfont
(0) stringwidth pop add
2 div xratio div
dup 4 3 roll exch 0.000 cos mul sub 3 1 roll 0.000 sin mul sub 2 copy
/fntsize {/Helvetica-0 findfont exch scalefont setfont } def
0.000 323
(0) Stxtl
(0) stringwidth pop xratio div
dup 4 3 roll exch 0.000 cos mul add 3 1 roll 0.000 sin mul add 2 copy
pop pop pop pop
4803 9719 4803 9590 Sln
4803 9299 0
/Helvetica-0 findfont 323 yratio mul scalefont setfont
(5) stringwidth pop add
2 div xratio div
dup 4 3 roll exch 0.000 cos mul sub 3 1 roll 0.000 sin mul sub 2 copy
/fntsize {/Helvetica-0 findfont exch scalefont setfont } def
0.000 323
(5) Stxtl
(5) stringwidth pop xratio div
dup 4 3 roll exch 0.000 cos mul add 3 1 roll 0.000 sin mul add 2 copy
pop pop pop pop
7704 9719 7704 9590 Sln
7704 9299 0
/Helvetica-0 findfont 323 yratio mul scalefont setfont
(10) stringwidth pop add
2 div xratio div
dup 4 3 roll exch 0.000 cos mul sub 3 1 roll 0.000 sin mul sub 2 copy
/fntsize {/Helvetica-0 findfont exch scalefont setfont } def
0.000 323
(10) Stxtl
(10) stringwidth pop xratio div
dup 4 3 roll exch 0.000 cos mul add 3 1 roll 0.000 sin mul add 2 copy
pop pop pop pop
10604 9719 10604 9590 Sln
10604 9299 0
/Helvetica-0 findfont 323 yratio mul scalefont setfont
(15) stringwidth pop add
2 div xratio div
dup 4 3 roll exch 0.000 cos mul sub 3 1 roll 0.000 sin mul sub 2 copy
/fntsize {/Helvetica-0 findfont exch scalefont setfont } def
0.000 323
(15) Stxtl
(15) stringwidth pop xratio div
dup 4 3 roll exch 0.000 cos mul add 3 1 roll 0.000 sin mul add 2 copy
pop pop pop pop
6254 8943 0
/Helvetica-0 findfont 323 yratio mul scalefont setfont
(step) stringwidth pop add
2 div xratio div
dup 4 3 roll exch 0.000 cos mul sub 3 1 roll 0.000 sin mul sub 2 copy
/fntsize {/Helvetica-0 findfont exch scalefont setfont } def
0.000 323
(step) Stxtl
(step) stringwidth pop xratio div
dup 4 3 roll exch 0.000 cos mul add 3 1 roll 0.000 sin mul add 2 copy
pop pop pop pop
/Ssrgb {1.000 1.000 1.000} def
2548 8068 9959 8670 1 Srect
/Ssrgb {0.753 0.753 0.753} def
/Slw 0.346 def
/Slrgb {0.753 0.753 0.753} def
2687 8207 3897 8530 1 Srect
/Slrgb {0.102 0.278 0.435} def
7663 8369 8873 8369 Sln
4382 8256 2 copy
/fntsize {/Helvetica-0 findfont exch scalefont setfont } def
0.000 323
(90% CI for oirf) Stxtl
(90% CI for oirf) stringwidth pop xratio div
dup 4 3 roll exch 0.000 cos mul add 3 1 roll 0.000 sin mul add 2 copy
pop pop pop pop
9358 8256 2 copy
/fntsize {/Helvetica-0 findfont exch scalefont setfont } def
0.000 323
(oirf) Stxtl
(oirf) stringwidth pop xratio div
dup 4 3 roll exch 0.000 cos mul add 3 1 roll 0.000 sin mul add 2 copy
pop pop pop pop
/Ssrgb {0.851 0.902 0.922} def
/Slw 0.230 def
/Slrgb {0.918 0.949 0.953} def
1698 14752 10809 15316 1 Srect
6254 14944 0
/Helvetica-0 findfont 453 yratio mul scalefont setfont
(IRF: s -> I) stringwidth pop add
2 div xratio div
dup 4 3 roll exch 0.000 cos mul sub 3 1 roll 0.000 sin mul sub 2 copy
/fntsize {/Helvetica-0 findfont exch scalefont setfont } def
0.000 453
(IRF: s -> I) Stxtl
(IRF: s -> I) stringwidth pop xratio div
dup 4 3 roll exch 0.000 cos mul add 3 1 roll 0.000 sin mul add 2 copy
pop pop pop pop
/Ssrgb {0.918 0.949 0.953} def
10837 7928 21162 15344 1 Srect
/Ssrgb {1.000 1.000 1.000} def
/Slrgb {1.000 1.000 1.000} def
11835 9719 21134 14752 1 Srect
/Slrgb {0.000 0.000 0.000} def
/Slw 0.346 def
/Slrgb {0.918 0.949 0.953} def
11835 9924 21134 9924 Sln
/Slw 0.230 def
/Slrgb {0.000 0.000 0.000} def
/Slw 0.346 def
/Slrgb {0.918 0.949 0.953} def
11835 10986 21134 10986 Sln
/Slw 0.230 def
/Slrgb {0.000 0.000 0.000} def
/Slw 0.346 def
/Slrgb {0.918 0.949 0.953} def
11835 12048 21134 12048 Sln
/Slw 0.230 def
/Slrgb {0.000 0.000 0.000} def
/Slw 0.346 def
/Slrgb {0.918 0.949 0.953} def
11835 13110 21134 13110 Sln
/Slw 0.230 def
/Slrgb {0.000 0.000 0.000} def
/Slw 0.346 def
/Slrgb {0.918 0.949 0.953} def
11835 14172 21134 14172 Sln
/Slw 0.230 def
/Slrgb {0.000 0.000 0.000} def
/Ssrgb {0.753 0.753 0.753} def
/Slw 0.346 def
/Slrgb {0.753 0.753 0.753} def
Sbp
12039 12048 Sm
12039 12048 SPl
12632 11934 SPl
13225 12196 SPl
13817 12046 SPl
14410 11683 SPl
15003 11265 SPl
15595 10919 SPl
16188 10681 SPl
16781 10545 SPl
17373 10482 SPl
17966 10462 SPl
18559 10462 SPl
19151 10472 SPl
19744 10486 SPl
20337 10504 SPl
20929 10524 SPl
20929 13692 SPl
20337 13714 SPl
19744 13735 SPl
19151 13755 SPl
18559 13778 SPl
17966 13811 SPl
17373 13861 SPl
16781 13935 SPl
16188 14038 SPl
15595 14172 SPl
15003 14332 SPl
14410 14496 SPl
13817 14547 SPl
13225 14220 SPl
12632 13209 SPl
12039 12048 SPl
12039 12048 SPl
1 Sep
/Slrgb {0.102 0.278 0.435} def
12039 12047 Sm
12632 12571 Sl
12632 12571 Sm
13224 13207 Sl
13224 13207 Sm
13817 13296 Sl
13817 13296 Sm
14410 13089 Sl
14410 13089 Sm
15002 12798 Sl
15002 12798 Sm
15595 12545 Sl
15595 12545 Sm
16187 12359 Sl
16187 12359 Sm
16780 12239 Sl
16780 12239 Sm
17373 12171 Sl
17373 12171 Sm
17965 12136 Sl
17965 12136 Sm
18558 12120 Sl
18558 12120 Sm
19151 12113 Sl
19151 12113 Sm
19743 12110 Sl
19743 12110 Sm
20336 12108 Sl
20336 12108 Sm
20929 12107 Sl
/Slw 0.230 def
/Slrgb {0.000 0.000 0.000} def
11835 9719 11835 14752 Sln
11835 9924 11705 9924 Sln
11641 9811 0
/Helvetica-0 findfont 323 yratio mul scalefont setfont
(-.02) stringwidth pop add
xratio div
dup 4 3 roll exch 0.000 cos mul sub 3 1 roll 0.000 sin mul sub 2 copy
/fntsize {/Helvetica-0 findfont exch scalefont setfont } def
0.000 323
(-.02) Stxtl
(-.02) stringwidth pop xratio div
dup 4 3 roll exch 0.000 cos mul add 3 1 roll 0.000 sin mul add 2 copy
pop pop pop pop
11835 10986 11705 10986 Sln
11641 10873 0
/Helvetica-0 findfont 323 yratio mul scalefont setfont
(-.01) stringwidth pop add
xratio div
dup 4 3 roll exch 0.000 cos mul sub 3 1 roll 0.000 sin mul sub 2 copy
/fntsize {/Helvetica-0 findfont exch scalefont setfont } def
0.000 323
(-.01) Stxtl
(-.01) stringwidth pop xratio div
dup 4 3 roll exch 0.000 cos mul add 3 1 roll 0.000 sin mul add 2 copy
pop pop pop pop
11835 12048 11705 12048 Sln
11641 11935 0
/Helvetica-0 findfont 323 yratio mul scalefont setfont
(0) stringwidth pop add
xratio div
dup 4 3 roll exch 0.000 cos mul sub 3 1 roll 0.000 sin mul sub 2 copy
/fntsize {/Helvetica-0 findfont exch scalefont setfont } def
0.000 323
(0) Stxtl
(0) stringwidth pop xratio div
dup 4 3 roll exch 0.000 cos mul add 3 1 roll 0.000 sin mul add 2 copy
pop pop pop pop
11835 13110 11705 13110 Sln
11641 12997 0
/Helvetica-0 findfont 323 yratio mul scalefont setfont
(.01) stringwidth pop add
xratio div
dup 4 3 roll exch 0.000 cos mul sub 3 1 roll 0.000 sin mul sub 2 copy
/fntsize {/Helvetica-0 findfont exch scalefont setfont } def
0.000 323
(.01) Stxtl
(.01) stringwidth pop xratio div
dup 4 3 roll exch 0.000 cos mul add 3 1 roll 0.000 sin mul add 2 copy
pop pop pop pop
11835 14172 11705 14172 Sln
11641 14059 0
/Helvetica-0 findfont 323 yratio mul scalefont setfont
(.02) stringwidth pop add
xratio div
dup 4 3 roll exch 0.000 cos mul sub 3 1 roll 0.000 sin mul sub 2 copy
/fntsize {/Helvetica-0 findfont exch scalefont setfont } def
0.000 323
(.02) Stxtl
(.02) stringwidth pop xratio div
dup 4 3 roll exch 0.000 cos mul add 3 1 roll 0.000 sin mul add 2 copy
pop pop pop pop
11835 9719 21134 9719 Sln
12039 9719 12039 9590 Sln
12039 9299 0
/Helvetica-0 findfont 323 yratio mul scalefont setfont
(0) stringwidth pop add
2 div xratio div
dup 4 3 roll exch 0.000 cos mul sub 3 1 roll 0.000 sin mul sub 2 copy
/fntsize {/Helvetica-0 findfont exch scalefont setfont } def
0.000 323
(0) Stxtl
(0) stringwidth pop xratio div
dup 4 3 roll exch 0.000 cos mul add 3 1 roll 0.000 sin mul add 2 copy
pop pop pop pop
15003 9719 15003 9590 Sln
15003 9299 0
/Helvetica-0 findfont 323 yratio mul scalefont setfont
(5) stringwidth pop add
2 div xratio div
dup 4 3 roll exch 0.000 cos mul sub 3 1 roll 0.000 sin mul sub 2 copy
/fntsize {/Helvetica-0 findfont exch scalefont setfont } def
0.000 323
(5) Stxtl
(5) stringwidth pop xratio div
dup 4 3 roll exch 0.000 cos mul add 3 1 roll 0.000 sin mul add 2 copy
pop pop pop pop
17966 9719 17966 9590 Sln
17966 9299 0
/Helvetica-0 findfont 323 yratio mul scalefont setfont
(10) stringwidth pop add
2 div xratio div
dup 4 3 roll exch 0.000 cos mul sub 3 1 roll 0.000 sin mul sub 2 copy
/fntsize {/Helvetica-0 findfont exch scalefont setfont } def
0.000 323
(10) Stxtl
(10) stringwidth pop xratio div
dup 4 3 roll exch 0.000 cos mul add 3 1 roll 0.000 sin mul add 2 copy
pop pop pop pop
20929 9719 20929 9590 Sln
20929 9299 0
/Helvetica-0 findfont 323 yratio mul scalefont setfont
(15) stringwidth pop add
2 div xratio div
dup 4 3 roll exch 0.000 cos mul sub 3 1 roll 0.000 sin mul sub 2 copy
/fntsize {/Helvetica-0 findfont exch scalefont setfont } def
0.000 323
(15) Stxtl
(15) stringwidth pop xratio div
dup 4 3 roll exch 0.000 cos mul add 3 1 roll 0.000 sin mul add 2 copy
pop pop pop pop
16484 8943 0
/Helvetica-0 findfont 323 yratio mul scalefont setfont
(step) stringwidth pop add
2 div xratio div
dup 4 3 roll exch 0.000 cos mul sub 3 1 roll 0.000 sin mul sub 2 copy
/fntsize {/Helvetica-0 findfont exch scalefont setfont } def
0.000 323
(step) Stxtl
(step) stringwidth pop xratio div
dup 4 3 roll exch 0.000 cos mul add 3 1 roll 0.000 sin mul add 2 copy
pop pop pop pop
/Ssrgb {1.000 1.000 1.000} def
12778 8068 20190 8670 1 Srect
/Ssrgb {0.753 0.753 0.753} def
/Slw 0.346 def
/Slrgb {0.753 0.753 0.753} def
12918 8207 14128 8530 1 Srect
/Slrgb {0.102 0.278 0.435} def
17894 8369 19104 8369 Sln
14613 8256 2 copy
/fntsize {/Helvetica-0 findfont exch scalefont setfont } def
0.000 323
(90% CI for oirf) Stxtl
(90% CI for oirf) stringwidth pop xratio div
dup 4 3 roll exch 0.000 cos mul add 3 1 roll 0.000 sin mul add 2 copy
pop pop pop pop
19589 8256 2 copy
/fntsize {/Helvetica-0 findfont exch scalefont setfont } def
0.000 323
(oirf) Stxtl
(oirf) stringwidth pop xratio div
dup 4 3 roll exch 0.000 cos mul add 3 1 roll 0.000 sin mul add 2 copy
pop pop pop pop
/Ssrgb {0.851 0.902 0.922} def
/Slw 0.230 def
/Slrgb {0.918 0.949 0.953} def
11835 14752 21134 15316 1 Srect
16484 14944 0
/Helvetica-0 findfont 453 yratio mul scalefont setfont
(IRF: s -> P) stringwidth pop add
2 div xratio div
dup 4 3 roll exch 0.000 cos mul sub 3 1 roll 0.000 sin mul sub 2 copy
/fntsize {/Helvetica-0 findfont exch scalefont setfont } def
0.000 453
(IRF: s -> P) Stxtl
(IRF: s -> P) stringwidth pop xratio div
dup 4 3 roll exch 0.000 cos mul add 3 1 roll 0.000 sin mul add 2 copy
pop pop pop pop
/Ssrgb {0.918 0.949 0.953} def
21162 7928 31487 15344 1 Srect
/Ssrgb {1.000 1.000 1.000} def
/Slrgb {1.000 1.000 1.000} def
22348 9719 31459 14752 1 Srect
/Slrgb {0.000 0.000 0.000} def
/Slw 0.346 def
/Slrgb {0.918 0.949 0.953} def
22348 9924 31459 9924 Sln
/Slw 0.230 def
/Slrgb {0.000 0.000 0.000} def
/Slw 0.346 def
/Slrgb {0.918 0.949 0.953} def
22348 10977 31459 10977 Sln
/Slw 0.230 def
/Slrgb {0.000 0.000 0.000} def
/Slw 0.346 def
/Slrgb {0.918 0.949 0.953} def
22348 12031 31459 12031 Sln
/Slw 0.230 def
/Slrgb {0.000 0.000 0.000} def
/Slw 0.346 def
/Slrgb {0.918 0.949 0.953} def
22348 13085 31459 13085 Sln
/Slw 0.230 def
/Slrgb {0.000 0.000 0.000} def
/Slw 0.346 def
/Slrgb {0.918 0.949 0.953} def
22348 14138 31459 14138 Sln
/Slw 0.230 def
/Slrgb {0.000 0.000 0.000} def
/Ssrgb {0.753 0.753 0.753} def
/Slw 0.346 def
/Slrgb {0.753 0.753 0.753} def
Sbp
22553 13085 Sm
22553 13085 SPl
23133 11716 SPl
23713 11870 SPl
24293 11535 SPl
24873 11216 SPl
25453 10973 SPl
26033 10872 SPl
26614 10838 SPl
27194 10833 SPl
27774 10825 SPl
28354 10799 SPl
28934 10753 SPl
29514 10688 SPl
30094 10610 SPl
30674 10528 SPl
31254 10445 SPl
31254 14107 SPl
30674 14165 SPl
30094 14231 SPl
29514 14306 SPl
28934 14384 SPl
28354 14459 SPl
27774 14518 SPl
27194 14547 SPl
26614 14530 SPl
26033 14461 SPl
25453 14349 SPl
24873 14239 SPl
24293 14153 SPl
23713 14104 SPl
23133 13285 SPl
22553 13085 SPl
22553 13085 SPl
1 Sep
/Slrgb {0.102 0.278 0.435} def
22552 13084 Sm
23133 12500 Sl
23133 12500 Sm
23713 12986 Sl
23713 12986 Sm
24293 12843 Sl
24293 12843 Sm
24873 12727 Sl
24873 12727 Sm
25453 12661 Sl
25453 12661 Sm
26033 12666 Sl
26033 12666 Sm
26613 12684 Sl
26613 12684 Sm
27193 12690 Sl
27193 12690 Sm
27773 12671 Sl
27773 12671 Sm
28353 12629 Sl
28353 12629 Sm
28933 12568 Sl
28933 12568 Sm
29514 12496 Sl
29514 12496 Sm
30094 12420 Sl
30094 12420 Sm
30674 12346 Sl
30674 12346 Sm
31254 12276 Sl
/Slw 0.230 def
/Slrgb {0.000 0.000 0.000} def
22348 9719 22348 14752 Sln
22348 9924 22219 9924 Sln
22154 9811 0
/Helvetica-0 findfont 323 yratio mul scalefont setfont
(-.003) stringwidth pop add
xratio div
dup 4 3 roll exch 0.000 cos mul sub 3 1 roll 0.000 sin mul sub 2 copy
/fntsize {/Helvetica-0 findfont exch scalefont setfont } def
0.000 323
(-.003) Stxtl
(-.003) stringwidth pop xratio div
dup 4 3 roll exch 0.000 cos mul add 3 1 roll 0.000 sin mul add 2 copy
pop pop pop pop
22348 10977 22219 10977 Sln
22154 10864 0
/Helvetica-0 findfont 323 yratio mul scalefont setfont
(-.002) stringwidth pop add
xratio div
dup 4 3 roll exch 0.000 cos mul sub 3 1 roll 0.000 sin mul sub 2 copy
/fntsize {/Helvetica-0 findfont exch scalefont setfont } def
0.000 323
(-.002) Stxtl
(-.002) stringwidth pop xratio div
dup 4 3 roll exch 0.000 cos mul add 3 1 roll 0.000 sin mul add 2 copy
pop pop pop pop
22348 12031 22219 12031 Sln
22154 11918 0
/Helvetica-0 findfont 323 yratio mul scalefont setfont
(-.001) stringwidth pop add
xratio div
dup 4 3 roll exch 0.000 cos mul sub 3 1 roll 0.000 sin mul sub 2 copy
/fntsize {/Helvetica-0 findfont exch scalefont setfont } def
0.000 323
(-.001) Stxtl
(-.001) stringwidth pop xratio div
dup 4 3 roll exch 0.000 cos mul add 3 1 roll 0.000 sin mul add 2 copy
pop pop pop pop
22348 13085 22219 13085 Sln
22154 12972 0
/Helvetica-0 findfont 323 yratio mul scalefont setfont
(0) stringwidth pop add
xratio div
dup 4 3 roll exch 0.000 cos mul sub 3 1 roll 0.000 sin mul sub 2 copy
/fntsize {/Helvetica-0 findfont exch scalefont setfont } def
0.000 323
(0) Stxtl
(0) stringwidth pop xratio div
dup 4 3 roll exch 0.000 cos mul add 3 1 roll 0.000 sin mul add 2 copy
pop pop pop pop
22348 14138 22219 14138 Sln
22154 14025 0
/Helvetica-0 findfont 323 yratio mul scalefont setfont
(.001) stringwidth pop add
xratio div
dup 4 3 roll exch 0.000 cos mul sub 3 1 roll 0.000 sin mul sub 2 copy
/fntsize {/Helvetica-0 findfont exch scalefont setfont } def
0.000 323
(.001) Stxtl
(.001) stringwidth pop xratio div
dup 4 3 roll exch 0.000 cos mul add 3 1 roll 0.000 sin mul add 2 copy
pop pop pop pop
22348 9719 31459 9719 Sln
22553 9719 22553 9590 Sln
22553 9299 0
/Helvetica-0 findfont 323 yratio mul scalefont setfont
(0) stringwidth pop add
2 div xratio div
dup 4 3 roll exch 0.000 cos mul sub 3 1 roll 0.000 sin mul sub 2 copy
/fntsize {/Helvetica-0 findfont exch scalefont setfont } def
0.000 323
(0) Stxtl
(0) stringwidth pop xratio div
dup 4 3 roll exch 0.000 cos mul add 3 1 roll 0.000 sin mul add 2 copy
pop pop pop pop
25453 9719 25453 9590 Sln
25453 9299 0
/Helvetica-0 findfont 323 yratio mul scalefont setfont
(5) stringwidth pop add
2 div xratio div
dup 4 3 roll exch 0.000 cos mul sub 3 1 roll 0.000 sin mul sub 2 copy
/fntsize {/Helvetica-0 findfont exch scalefont setfont } def
0.000 323
(5) Stxtl
(5) stringwidth pop xratio div
dup 4 3 roll exch 0.000 cos mul add 3 1 roll 0.000 sin mul add 2 copy
pop pop pop pop
28354 9719 28354 9590 Sln
28354 9299 0
/Helvetica-0 findfont 323 yratio mul scalefont setfont
(10) stringwidth pop add
2 div xratio div
dup 4 3 roll exch 0.000 cos mul sub 3 1 roll 0.000 sin mul sub 2 copy
/fntsize {/Helvetica-0 findfont exch scalefont setfont } def
0.000 323
(10) Stxtl
(10) stringwidth pop xratio div
dup 4 3 roll exch 0.000 cos mul add 3 1 roll 0.000 sin mul add 2 copy
pop pop pop pop
31254 9719 31254 9590 Sln
31254 9299 0
/Helvetica-0 findfont 323 yratio mul scalefont setfont
(15) stringwidth pop add
2 div xratio div
dup 4 3 roll exch 0.000 cos mul sub 3 1 roll 0.000 sin mul sub 2 copy
/fntsize {/Helvetica-0 findfont exch scalefont setfont } def
0.000 323
(15) Stxtl
(15) stringwidth pop xratio div
dup 4 3 roll exch 0.000 cos mul add 3 1 roll 0.000 sin mul add 2 copy
pop pop pop pop
26904 8943 0
/Helvetica-0 findfont 323 yratio mul scalefont setfont
(step) stringwidth pop add
2 div xratio div
dup 4 3 roll exch 0.000 cos mul sub 3 1 roll 0.000 sin mul sub 2 copy
/fntsize {/Helvetica-0 findfont exch scalefont setfont } def
0.000 323
(step) Stxtl
(step) stringwidth pop xratio div
dup 4 3 roll exch 0.000 cos mul add 3 1 roll 0.000 sin mul add 2 copy
pop pop pop pop
/Ssrgb {1.000 1.000 1.000} def
23198 8068 30610 8670 1 Srect
/Ssrgb {0.753 0.753 0.753} def
/Slw 0.346 def
/Slrgb {0.753 0.753 0.753} def
23337 8207 24547 8530 1 Srect
/Slrgb {0.102 0.278 0.435} def
28313 8369 29523 8369 Sln
25032 8256 2 copy
/fntsize {/Helvetica-0 findfont exch scalefont setfont } def
0.000 323
(90% CI for oirf) Stxtl
(90% CI for oirf) stringwidth pop xratio div
dup 4 3 roll exch 0.000 cos mul add 3 1 roll 0.000 sin mul add 2 copy
pop pop pop pop
30008 8256 2 copy
/fntsize {/Helvetica-0 findfont exch scalefont setfont } def
0.000 323
(oirf) Stxtl
(oirf) stringwidth pop xratio div
dup 4 3 roll exch 0.000 cos mul add 3 1 roll 0.000 sin mul add 2 copy
pop pop pop pop
/Ssrgb {0.851 0.902 0.922} def
/Slw 0.230 def
/Slrgb {0.918 0.949 0.953} def
22348 14752 31459 15316 1 Srect
26904 14944 0
/Helvetica-0 findfont 453 yratio mul scalefont setfont
(IRF: s -> z) stringwidth pop add
2 div xratio div
dup 4 3 roll exch 0.000 cos mul sub 3 1 roll 0.000 sin mul sub 2 copy
/fntsize {/Helvetica-0 findfont exch scalefont setfont } def
0.000 453
(IRF: s -> z) Stxtl
(IRF: s -> z) stringwidth pop xratio div
dup 4 3 roll exch 0.000 cos mul add 3 1 roll 0.000 sin mul add 2 copy
pop pop pop pop
/Ssrgb {0.918 0.949 0.953} def
512 512 10837 7928 1 Srect
/Ssrgb {1.000 1.000 1.000} def
/Slrgb {1.000 1.000 1.000} def
1396 2303 10809 7336 1 Srect
/Slrgb {0.000 0.000 0.000} def
/Slw 0.346 def
/Slrgb {0.918 0.949 0.953} def
1396 2759 10809 2759 Sln
/Slw 0.230 def
/Slrgb {0.000 0.000 0.000} def
/Slw 0.346 def
/Slrgb {0.918 0.949 0.953} def
1396 4216 10809 4216 Sln
/Slw 0.230 def
/Slrgb {0.000 0.000 0.000} def
/Slw 0.346 def
/Slrgb {0.918 0.949 0.953} def
1396 5674 10809 5674 Sln
/Slw 0.230 def
/Slrgb {0.000 0.000 0.000} def
/Slw 0.346 def
/Slrgb {0.918 0.949 0.953} def
1396 7131 10809 7131 Sln
/Slw 0.230 def
/Slrgb {0.000 0.000 0.000} def
/Ssrgb {0.753 0.753 0.753} def
/Slw 0.346 def
/Slrgb {0.753 0.753 0.753} def
Sbp
1601 2759 Sm
1601 2759 SPl
2201 3101 SPl
2802 4025 SPl
3402 4593 SPl
4002 4908 SPl
4602 4923 SPl
5202 4747 SPl
5803 4471 SPl
6403 4157 SPl
7003 3843 SPl
7603 3550 SPl
8203 3284 SPl
8804 3049 SPl
9404 2843 SPl
10004 2663 SPl
10604 2508 SPl
10604 5072 SPl
10004 5216 SPl
9404 5379 SPl
8804 5560 SPl
8203 5763 SPl
7603 5990 SPl
7003 6238 SPl
6403 6500 SPl
5803 6748 SPl
5202 6930 SPl
4602 6962 SPl
4002 6742 SPl
3402 6145 SPl
2802 5175 SPl
2201 3741 SPl
1601 2759 SPl
1601 2759 SPl
1 Sep
/Slrgb {0.102 0.278 0.435} def
1601 2758 Sm
2201 3420 Sl
2201 3420 Sm
2801 4600 Sl
2801 4600 Sm
3401 5369 Sl
3401 5369 Sm
4002 5824 Sl
4002 5824 Sm
4602 5942 Sl
4602 5942 Sm
5202 5838 Sl
5202 5838 Sm
5802 5609 Sl
5802 5609 Sm
6402 5328 Sl
6402 5328 Sm
7003 5040 Sl
7003 5040 Sm
7603 4769 Sl
7603 4769 Sm
8203 4523 Sl
8203 4523 Sm
8803 4304 Sl
8803 4304 Sm
9403 4110 Sl
9403 4110 Sm
10004 3939 Sl
10004 3939 Sm
10604 3789 Sl
/Slw 0.230 def
/Slrgb {0.000 0.000 0.000} def
1396 2303 1396 7336 Sln
1396 2759 1267 2759 Sln
1203 2646 0
/Helvetica-0 findfont 323 yratio mul scalefont setfont
(0) stringwidth pop add
xratio div
dup 4 3 roll exch 0.000 cos mul sub 3 1 roll 0.000 sin mul sub 2 copy
/fntsize {/Helvetica-0 findfont exch scalefont setfont } def
0.000 323
(0) Stxtl
(0) stringwidth pop xratio div
dup 4 3 roll exch 0.000 cos mul add 3 1 roll 0.000 sin mul add 2 copy
pop pop pop pop
1396 4216 1267 4216 Sln
1203 4103 0
/Helvetica-0 findfont 323 yratio mul scalefont setfont
(.01) stringwidth pop add
xratio div
dup 4 3 roll exch 0.000 cos mul sub 3 1 roll 0.000 sin mul sub 2 copy
/fntsize {/Helvetica-0 findfont exch scalefont setfont } def
0.000 323
(.01) Stxtl
(.01) stringwidth pop xratio div
dup 4 3 roll exch 0.000 cos mul add 3 1 roll 0.000 sin mul add 2 copy
pop pop pop pop
1396 5674 1267 5674 Sln
1203 5561 0
/Helvetica-0 findfont 323 yratio mul scalefont setfont
(.02) stringwidth pop add
xratio div
dup 4 3 roll exch 0.000 cos mul sub 3 1 roll 0.000 sin mul sub 2 copy
/fntsize {/Helvetica-0 findfont exch scalefont setfont } def
0.000 323
(.02) Stxtl
(.02) stringwidth pop xratio div
dup 4 3 roll exch 0.000 cos mul add 3 1 roll 0.000 sin mul add 2 copy
pop pop pop pop
1396 7131 1267 7131 Sln
1203 7018 0
/Helvetica-0 findfont 323 yratio mul scalefont setfont
(.03) stringwidth pop add
xratio div
dup 4 3 roll exch 0.000 cos mul sub 3 1 roll 0.000 sin mul sub 2 copy
/fntsize {/Helvetica-0 findfont exch scalefont setfont } def
0.000 323
(.03) Stxtl
(.03) stringwidth pop xratio div
dup 4 3 roll exch 0.000 cos mul add 3 1 roll 0.000 sin mul add 2 copy
pop pop pop pop
1396 2303 10809 2303 Sln
1601 2303 1601 2174 Sln
1601 1883 0
/Helvetica-0 findfont 323 yratio mul scalefont setfont
(0) stringwidth pop add
2 div xratio div
dup 4 3 roll exch 0.000 cos mul sub 3 1 roll 0.000 sin mul sub 2 copy
/fntsize {/Helvetica-0 findfont exch scalefont setfont } def
0.000 323
(0) Stxtl
(0) stringwidth pop xratio div
dup 4 3 roll exch 0.000 cos mul add 3 1 roll 0.000 sin mul add 2 copy
pop pop pop pop
4602 2303 4602 2174 Sln
4602 1883 0
/Helvetica-0 findfont 323 yratio mul scalefont setfont
(5) stringwidth pop add
2 div xratio div
dup 4 3 roll exch 0.000 cos mul sub 3 1 roll 0.000 sin mul sub 2 copy
/fntsize {/Helvetica-0 findfont exch scalefont setfont } def
0.000 323
(5) Stxtl
(5) stringwidth pop xratio div
dup 4 3 roll exch 0.000 cos mul add 3 1 roll 0.000 sin mul add 2 copy
pop pop pop pop
7603 2303 7603 2174 Sln
7603 1883 0
/Helvetica-0 findfont 323 yratio mul scalefont setfont
(10) stringwidth pop add
2 div xratio div
dup 4 3 roll exch 0.000 cos mul sub 3 1 roll 0.000 sin mul sub 2 copy
/fntsize {/Helvetica-0 findfont exch scalefont setfont } def
0.000 323
(10) Stxtl
(10) stringwidth pop xratio div
dup 4 3 roll exch 0.000 cos mul add 3 1 roll 0.000 sin mul add 2 copy
pop pop pop pop
10604 2303 10604 2174 Sln
10604 1883 0
/Helvetica-0 findfont 323 yratio mul scalefont setfont
(15) stringwidth pop add
2 div xratio div
dup 4 3 roll exch 0.000 cos mul sub 3 1 roll 0.000 sin mul sub 2 copy
/fntsize {/Helvetica-0 findfont exch scalefont setfont } def
0.000 323
(15) Stxtl
(15) stringwidth pop xratio div
dup 4 3 roll exch 0.000 cos mul add 3 1 roll 0.000 sin mul add 2 copy
pop pop pop pop
6103 1527 0
/Helvetica-0 findfont 323 yratio mul scalefont setfont
(step) stringwidth pop add
2 div xratio div
dup 4 3 roll exch 0.000 cos mul sub 3 1 roll 0.000 sin mul sub 2 copy
/fntsize {/Helvetica-0 findfont exch scalefont setfont } def
0.000 323
(step) Stxtl
(step) stringwidth pop xratio div
dup 4 3 roll exch 0.000 cos mul add 3 1 roll 0.000 sin mul add 2 copy
pop pop pop pop
/Ssrgb {1.000 1.000 1.000} def
2397 652 9809 1254 1 Srect
/Ssrgb {0.753 0.753 0.753} def
/Slw 0.346 def
/Slrgb {0.753 0.753 0.753} def
2536 791 3747 1114 1 Srect
/Slrgb {0.102 0.278 0.435} def
7512 953 8722 953 Sln
4231 840 2 copy
/fntsize {/Helvetica-0 findfont exch scalefont setfont } def
0.000 323
(90% CI for oirf) Stxtl
(90% CI for oirf) stringwidth pop xratio div
dup 4 3 roll exch 0.000 cos mul add 3 1 roll 0.000 sin mul add 2 copy
pop pop pop pop
9207 840 2 copy
/fntsize {/Helvetica-0 findfont exch scalefont setfont } def
0.000 323
(oirf) Stxtl
(oirf) stringwidth pop xratio div
dup 4 3 roll exch 0.000 cos mul add 3 1 roll 0.000 sin mul add 2 copy
pop pop pop pop
/Ssrgb {0.851 0.902 0.922} def
/Slw 0.230 def
/Slrgb {0.918 0.949 0.953} def
1396 7336 10809 7900 1 Srect
6103 7528 0
/Helvetica-0 findfont 453 yratio mul scalefont setfont
(IRF: P -> I) stringwidth pop add
2 div xratio div
dup 4 3 roll exch 0.000 cos mul sub 3 1 roll 0.000 sin mul sub 2 copy
/fntsize {/Helvetica-0 findfont exch scalefont setfont } def
0.000 453
(IRF: P -> I) Stxtl
(IRF: P -> I) stringwidth pop xratio div
dup 4 3 roll exch 0.000 cos mul add 3 1 roll 0.000 sin mul add 2 copy
pop pop pop pop
/Ssrgb {0.918 0.949 0.953} def
10837 512 21162 7928 1 Srect
/Ssrgb {1.000 1.000 1.000} def
/Slrgb {1.000 1.000 1.000} def
12777 2303 21134 7336 1 Srect
/Slrgb {0.000 0.000 0.000} def
/Slw 0.346 def
/Slrgb {0.918 0.949 0.953} def
12777 2520 21134 2520 Sln
/Slw 0.230 def
/Slrgb {0.000 0.000 0.000} def
/Slw 0.346 def
/Slrgb {0.918 0.949 0.953} def
12777 3942 21134 3942 Sln
/Slw 0.230 def
/Slrgb {0.000 0.000 0.000} def
/Slw 0.346 def
/Slrgb {0.918 0.949 0.953} def
12777 5364 21134 5364 Sln
/Slw 0.230 def
/Slrgb {0.000 0.000 0.000} def
/Slw 0.346 def
/Slrgb {0.918 0.949 0.953} def
12777 6786 21134 6786 Sln
/Slw 0.230 def
/Slrgb {0.000 0.000 0.000} def
/Ssrgb {0.753 0.753 0.753} def
/Slw 0.346 def
/Slrgb {0.753 0.753 0.753} def
Sbp
12982 4344 Sm
12982 4344 SPl
13512 2508 SPl
14042 2564 SPl
14572 3020 SPl
15101 3637 SPl
15631 4234 SPl
16161 4715 SPl
16691 5083 SPl
17221 5351 SPl
17750 5541 SPl
18280 5676 SPl
18810 5771 SPl
19340 5840 SPl
19870 5888 SPl
20399 5920 SPl
20929 5940 SPl
20929 7047 SPl
20399 7084 SPl
19870 7114 SPl
19340 7131 SPl
18810 7126 SPl
18280 7084 SPl
17750 6987 SPl
17221 6816 SPl
16691 6556 SPl
16161 6204 SPl
15631 5785 SPl
15101 5340 SPl
14572 4941 SPl
14042 4684 SPl
13512 4753 SPl
12982 6350 SPl
12982 4344 SPl
1 Sep
/Slrgb {0.102 0.278 0.435} def
12982 5347 Sm
13511 3630 Sl
13511 3630 Sm
14041 3623 Sl
14041 3623 Sm
14571 3980 Sl
14571 3980 Sm
15101 4488 Sl
15101 4488 Sm
15631 5009 Sl
15631 5009 Sm
16160 5459 Sl
16160 5459 Sm
16690 5819 Sl
16690 5819 Sm
17220 6083 Sl
17220 6083 Sm
17750 6264 Sl
17750 6264 Sm
18280 6379 Sl
18280 6379 Sm
18810 6448 Sl
18810 6448 Sm
19339 6485 Sl
19339 6485 Sm
19869 6500 Sl
19869 6500 Sm
20399 6501 Sl
20399 6501 Sm
20929 6493 Sl
/Slw 0.230 def
/Slrgb {0.000 0.000 0.000} def
12777 2303 12777 7336 Sln
12777 2520 12648 2520 Sln
12583 2407 0
/Helvetica-0 findfont 323 yratio mul scalefont setfont
(-.0015) stringwidth pop add
xratio div
dup 4 3 roll exch 0.000 cos mul sub 3 1 roll 0.000 sin mul sub 2 copy
/fntsize {/Helvetica-0 findfont exch scalefont setfont } def
0.000 323
(-.0015) Stxtl
(-.0015) stringwidth pop xratio div
dup 4 3 roll exch 0.000 cos mul add 3 1 roll 0.000 sin mul add 2 copy
pop pop pop pop
12777 3942 12648 3942 Sln
12583 3829 0
/Helvetica-0 findfont 323 yratio mul scalefont setfont
(-.001) stringwidth pop add
xratio div
dup 4 3 roll exch 0.000 cos mul sub 3 1 roll 0.000 sin mul sub 2 copy
/fntsize {/Helvetica-0 findfont exch scalefont setfont } def
0.000 323
(-.001) Stxtl
(-.001) stringwidth pop xratio div
dup 4 3 roll exch 0.000 cos mul add 3 1 roll 0.000 sin mul add 2 copy
pop pop pop pop
12777 5364 12648 5364 Sln
12583 5251 0
/Helvetica-0 findfont 323 yratio mul scalefont setfont
(-.0005) stringwidth pop add
xratio div
dup 4 3 roll exch 0.000 cos mul sub 3 1 roll 0.000 sin mul sub 2 copy
/fntsize {/Helvetica-0 findfont exch scalefont setfont } def
0.000 323
(-.0005) Stxtl
(-.0005) stringwidth pop xratio div
dup 4 3 roll exch 0.000 cos mul add 3 1 roll 0.000 sin mul add 2 copy
pop pop pop pop
12777 6786 12648 6786 Sln
12583 6673 0
/Helvetica-0 findfont 323 yratio mul scalefont setfont
(0) stringwidth pop add
xratio div
dup 4 3 roll exch 0.000 cos mul sub 3 1 roll 0.000 sin mul sub 2 copy
/fntsize {/Helvetica-0 findfont exch scalefont setfont } def
0.000 323
(0) Stxtl
(0) stringwidth pop xratio div
dup 4 3 roll exch 0.000 cos mul add 3 1 roll 0.000 sin mul add 2 copy
pop pop pop pop
12777 2303 21134 2303 Sln
12982 2303 12982 2174 Sln
12982 1883 0
/Helvetica-0 findfont 323 yratio mul scalefont setfont
(0) stringwidth pop add
2 div xratio div
dup 4 3 roll exch 0.000 cos mul sub 3 1 roll 0.000 sin mul sub 2 copy
/fntsize {/Helvetica-0 findfont exch scalefont setfont } def
0.000 323
(0) Stxtl
(0) stringwidth pop xratio div
dup 4 3 roll exch 0.000 cos mul add 3 1 roll 0.000 sin mul add 2 copy
pop pop pop pop
15631 2303 15631 2174 Sln
15631 1883 0
/Helvetica-0 findfont 323 yratio mul scalefont setfont
(5) stringwidth pop add
2 div xratio div
dup 4 3 roll exch 0.000 cos mul sub 3 1 roll 0.000 sin mul sub 2 copy
/fntsize {/Helvetica-0 findfont exch scalefont setfont } def
0.000 323
(5) Stxtl
(5) stringwidth pop xratio div
dup 4 3 roll exch 0.000 cos mul add 3 1 roll 0.000 sin mul add 2 copy
pop pop pop pop
18280 2303 18280 2174 Sln
18280 1883 0
/Helvetica-0 findfont 323 yratio mul scalefont setfont
(10) stringwidth pop add
2 div xratio div
dup 4 3 roll exch 0.000 cos mul sub 3 1 roll 0.000 sin mul sub 2 copy
/fntsize {/Helvetica-0 findfont exch scalefont setfont } def
0.000 323
(10) Stxtl
(10) stringwidth pop xratio div
dup 4 3 roll exch 0.000 cos mul add 3 1 roll 0.000 sin mul add 2 copy
pop pop pop pop
20929 2303 20929 2174 Sln
20929 1883 0
/Helvetica-0 findfont 323 yratio mul scalefont setfont
(15) stringwidth pop add
2 div xratio div
dup 4 3 roll exch 0.000 cos mul sub 3 1 roll 0.000 sin mul sub 2 copy
/fntsize {/Helvetica-0 findfont exch scalefont setfont } def
0.000 323
(15) Stxtl
(15) stringwidth pop xratio div
dup 4 3 roll exch 0.000 cos mul add 3 1 roll 0.000 sin mul add 2 copy
pop pop pop pop
16956 1527 0
/Helvetica-0 findfont 323 yratio mul scalefont setfont
(step) stringwidth pop add
2 div xratio div
dup 4 3 roll exch 0.000 cos mul sub 3 1 roll 0.000 sin mul sub 2 copy
/fntsize {/Helvetica-0 findfont exch scalefont setfont } def
0.000 323
(step) Stxtl
(step) stringwidth pop xratio div
dup 4 3 roll exch 0.000 cos mul add 3 1 roll 0.000 sin mul add 2 copy
pop pop pop pop
/Ssrgb {1.000 1.000 1.000} def
13250 652 20662 1254 1 Srect
/Ssrgb {0.753 0.753 0.753} def
/Slw 0.346 def
/Slrgb {0.753 0.753 0.753} def
13389 791 14600 1114 1 Srect
/Slrgb {0.102 0.278 0.435} def
18365 953 19575 953 Sln
15084 840 2 copy
/fntsize {/Helvetica-0 findfont exch scalefont setfont } def
0.000 323
(90% CI for oirf) Stxtl
(90% CI for oirf) stringwidth pop xratio div
dup 4 3 roll exch 0.000 cos mul add 3 1 roll 0.000 sin mul add 2 copy
pop pop pop pop
20060 840 2 copy
/fntsize {/Helvetica-0 findfont exch scalefont setfont } def
0.000 323
(oirf) Stxtl
(oirf) stringwidth pop xratio div
dup 4 3 roll exch 0.000 cos mul add 3 1 roll 0.000 sin mul add 2 copy
pop pop pop pop
/Ssrgb {0.851 0.902 0.922} def
/Slw 0.230 def
/Slrgb {0.918 0.949 0.953} def
12777 7336 21134 7900 1 Srect
16956 7528 0
/Helvetica-0 findfont 453 yratio mul scalefont setfont
(IRF: P -> s) stringwidth pop add
2 div xratio div
dup 4 3 roll exch 0.000 cos mul sub 3 1 roll 0.000 sin mul sub 2 copy
/fntsize {/Helvetica-0 findfont exch scalefont setfont } def
0.000 453
(IRF: P -> s) Stxtl
(IRF: P -> s) stringwidth pop xratio div
dup 4 3 roll exch 0.000 cos mul add 3 1 roll 0.000 sin mul add 2 copy
pop pop pop pop
/Ssrgb {0.918 0.949 0.953} def
21162 512 31487 7928 1 Srect
/Ssrgb {1.000 1.000 1.000} def
/Slrgb {1.000 1.000 1.000} def
22348 2303 31459 7336 1 Srect
/Slrgb {0.000 0.000 0.000} def
/Slw 0.346 def
/Slrgb {0.918 0.949 0.953} def
22348 2508 31459 2508 Sln
/Slw 0.230 def
/Slrgb {0.000 0.000 0.000} def
/Slw 0.346 def
/Slrgb {0.918 0.949 0.953} def
22348 4815 31459 4815 Sln
/Slw 0.230 def
/Slrgb {0.000 0.000 0.000} def
/Slw 0.346 def
/Slrgb {0.918 0.949 0.953} def
22348 7121 31459 7121 Sln
/Slw 0.230 def
/Slrgb {0.000 0.000 0.000} def
/Ssrgb {0.753 0.753 0.753} def
/Slw 0.346 def
/Slrgb {0.753 0.753 0.753} def
Sbp
22553 4815 Sm
22553 4815 SPl
23133 4264 SPl
23713 3674 SPl
24293 3437 SPl
24873 3462 SPl
25453 3623 SPl
26033 3822 SPl
26614 4025 SPl
27194 4209 SPl
27774 4374 SPl
28354 4519 SPl
28934 4648 SPl
29514 4764 SPl
30094 4868 SPl
30674 4962 SPl
31254 5046 SPl
31254 7131 SPl
30674 7016 SPl
30094 6886 SPl
29514 6740 SPl
28934 6574 SPl
28354 6382 SPl
27774 6158 SPl
27194 5900 SPl
26614 5609 SPl
26033 5297 SPl
25453 4987 SPl
24873 4724 SPl
24293 4580 SPl
23713 4647 SPl
23133 4979 SPl
22553 4815 SPl
22553 4815 SPl
1 Sep
/Slrgb {0.102 0.278 0.435} def
22552 4814 Sm
23133 4621 Sl
23133 4621 Sm
23713 4160 Sl
23713 4160 Sm
24293 4008 Sl
24293 4008 Sm
24873 4092 Sl
24873 4092 Sm
25453 4304 Sl
25453 4304 Sm
26033 4559 Sl
26033 4559 Sm
26613 4816 Sl
26613 4816 Sm
27193 5054 Sl
27193 5054 Sm
27773 5266 Sl
27773 5266 Sm
28353 5450 Sl
28353 5450 Sm
28933 5611 Sl
28933 5611 Sm
29514 5752 Sl
29514 5752 Sm
30094 5877 Sl
30094 5877 Sm
30674 5988 Sl
30674 5988 Sm
31254 6088 Sl
/Slw 0.230 def
/Slrgb {0.000 0.000 0.000} def
22348 2303 22348 7336 Sln
22348 2508 22219 2508 Sln
22154 2395 0
/Helvetica-0 findfont 323 yratio mul scalefont setfont
(-.005) stringwidth pop add
xratio div
dup 4 3 roll exch 0.000 cos mul sub 3 1 roll 0.000 sin mul sub 2 copy
/fntsize {/Helvetica-0 findfont exch scalefont setfont } def
0.000 323
(-.005) Stxtl
(-.005) stringwidth pop xratio div
dup 4 3 roll exch 0.000 cos mul add 3 1 roll 0.000 sin mul add 2 copy
pop pop pop pop
22348 4815 22219 4815 Sln
22154 4702 0
/Helvetica-0 findfont 323 yratio mul scalefont setfont
(0) stringwidth pop add
xratio div
dup 4 3 roll exch 0.000 cos mul sub 3 1 roll 0.000 sin mul sub 2 copy
/fntsize {/Helvetica-0 findfont exch scalefont setfont } def
0.000 323
(0) Stxtl
(0) stringwidth pop xratio div
dup 4 3 roll exch 0.000 cos mul add 3 1 roll 0.000 sin mul add 2 copy
pop pop pop pop
22348 7121 22219 7121 Sln
22154 7008 0
/Helvetica-0 findfont 323 yratio mul scalefont setfont
(.005) stringwidth pop add
xratio div
dup 4 3 roll exch 0.000 cos mul sub 3 1 roll 0.000 sin mul sub 2 copy
/fntsize {/Helvetica-0 findfont exch scalefont setfont } def
0.000 323
(.005) Stxtl
(.005) stringwidth pop xratio div
dup 4 3 roll exch 0.000 cos mul add 3 1 roll 0.000 sin mul add 2 copy
pop pop pop pop
22348 2303 31459 2303 Sln
22553 2303 22553 2174 Sln
22553 1883 0
/Helvetica-0 findfont 323 yratio mul scalefont setfont
(0) stringwidth pop add
2 div xratio div
dup 4 3 roll exch 0.000 cos mul sub 3 1 roll 0.000 sin mul sub 2 copy
/fntsize {/Helvetica-0 findfont exch scalefont setfont } def
0.000 323
(0) Stxtl
(0) stringwidth pop xratio div
dup 4 3 roll exch 0.000 cos mul add 3 1 roll 0.000 sin mul add 2 copy
pop pop pop pop
25453 2303 25453 2174 Sln
25453 1883 0
/Helvetica-0 findfont 323 yratio mul scalefont setfont
(5) stringwidth pop add
2 div xratio div
dup 4 3 roll exch 0.000 cos mul sub 3 1 roll 0.000 sin mul sub 2 copy
/fntsize {/Helvetica-0 findfont exch scalefont setfont } def
0.000 323
(5) Stxtl
(5) stringwidth pop xratio div
dup 4 3 roll exch 0.000 cos mul add 3 1 roll 0.000 sin mul add 2 copy
pop pop pop pop
28354 2303 28354 2174 Sln
28354 1883 0
/Helvetica-0 findfont 323 yratio mul scalefont setfont
(10) stringwidth pop add
2 div xratio div
dup 4 3 roll exch 0.000 cos mul sub 3 1 roll 0.000 sin mul sub 2 copy
/fntsize {/Helvetica-0 findfont exch scalefont setfont } def
0.000 323
(10) Stxtl
(10) stringwidth pop xratio div
dup 4 3 roll exch 0.000 cos mul add 3 1 roll 0.000 sin mul add 2 copy
pop pop pop pop
31254 2303 31254 2174 Sln
31254 1883 0
/Helvetica-0 findfont 323 yratio mul scalefont setfont
(15) stringwidth pop add
2 div xratio div
dup 4 3 roll exch 0.000 cos mul sub 3 1 roll 0.000 sin mul sub 2 copy
/fntsize {/Helvetica-0 findfont exch scalefont setfont } def
0.000 323
(15) Stxtl
(15) stringwidth pop xratio div
dup 4 3 roll exch 0.000 cos mul add 3 1 roll 0.000 sin mul add 2 copy
pop pop pop pop
26904 1527 0
/Helvetica-0 findfont 323 yratio mul scalefont setfont
(step) stringwidth pop add
2 div xratio div
dup 4 3 roll exch 0.000 cos mul sub 3 1 roll 0.000 sin mul sub 2 copy
/fntsize {/Helvetica-0 findfont exch scalefont setfont } def
0.000 323
(step) Stxtl
(step) stringwidth pop xratio div
dup 4 3 roll exch 0.000 cos mul add 3 1 roll 0.000 sin mul add 2 copy
pop pop pop pop
/Ssrgb {1.000 1.000 1.000} def
23198 652 30610 1254 1 Srect
/Ssrgb {0.753 0.753 0.753} def
/Slw 0.346 def
/Slrgb {0.753 0.753 0.753} def
23337 791 24547 1114 1 Srect
/Slrgb {0.102 0.278 0.435} def
28313 953 29523 953 Sln
25032 840 2 copy
/fntsize {/Helvetica-0 findfont exch scalefont setfont } def
0.000 323
(90% CI for oirf) Stxtl
(90% CI for oirf) stringwidth pop xratio div
dup 4 3 roll exch 0.000 cos mul add 3 1 roll 0.000 sin mul add 2 copy
pop pop pop pop
30008 840 2 copy
/fntsize {/Helvetica-0 findfont exch scalefont setfont } def
0.000 323
(oirf) Stxtl
(oirf) stringwidth pop xratio div
dup 4 3 roll exch 0.000 cos mul add 3 1 roll 0.000 sin mul add 2 copy
pop pop pop pop
/Ssrgb {0.851 0.902 0.922} def
/Slw 0.230 def
/Slrgb {0.918 0.949 0.953} def
22348 7336 31459 7900 1 Srect
26904 7528 0
/Helvetica-0 findfont 453 yratio mul scalefont setfont
(IRF: P -> z) stringwidth pop add
2 div xratio div
dup 4 3 roll exch 0.000 cos mul sub 3 1 roll 0.000 sin mul sub 2 copy
/fntsize {/Helvetica-0 findfont exch scalefont setfont } def
0.000 453
(IRF: P -> z) Stxtl
(IRF: P -> z) stringwidth pop xratio div
dup 4 3 roll exch 0.000 cos mul add 3 1 roll 0.000 sin mul add 2 copy
pop pop pop pop
S showpage
%%EOF
