%!PS-Adobe-2.0 EPSF-2.0
%% This is a Stata generated postscript file
%%BoundingBox: 0 0 396 288
%%HiResBoundingBox: 0.000 0.000 396.000 288.000
%%DocumentNeededResources: font Helvetica
/xratio 0.012375 def
/yratio 0.012375 def
/Sbgfill {
	/y1 exch def
	/x1 exch def
	/y0 exch def
	/x0 exch def
	x0 y0 moveto
	x0 y1 lineto x1 y1 lineto x1 y0 lineto x0 y0 lineto
	fill
} def
/Spt {
	yratio mul
	/yp exch def
	xratio mul
	/xp exch def
	Slrgb setrgbcolor
	newpath
	xp yp moveto
	xp Slw add yp
	lineto
	currentlinecap
	1 setlinecap
	stroke
	setlinecap
} def
/Sln {
	yratio mul
	/y1p exch def
	xratio mul
	/x1p exch def
	yratio mul
	/y0p exch def
	xratio mul
	/x0p exch def
	Slw setlinewidth
	Slrgb setrgbcolor
	x0p y0p M x1p y1p lineto S
} def
/Scrv {
	yratio mul
	/y3p exch def
	xratio mul
	/x3p exch def
	yratio mul
	/y2p exch def
	xratio mul
	/x2p exch def
	yratio mul
	/y1p exch def
	xratio mul
	/x1p exch def
	Slw setlinewidth
	Slrgb setrgbcolor
	x1p y1p x2p y2p x3p y3p curveto
	stroke
} def
/Stxtl {
	/sp exch def
	yratio mul
	/sizep exch def
	dup
	/anglep exch def
	0 exch sub
	/angle2p exch def
	yratio mul
	/y0p exch def
	xratio mul
	/x0p exch def
	Strgb setrgbcolor
	x0p y0p M anglep rotate sizep fntsize sp show stroke angle2p rotate
} def
/Stxtc {
	/sp exch def
	yratio mul
	/sizep exch def
	dup
	/anglep exch def
	0 exch sub
	/angle2p exch def
	yratio mul
	/y0p exch def
	xratio mul
	/x0p exch def
	Strgb setrgbcolor
	x0p y0p M anglep rotate sizep fntsize sp stringwidth exch -2 div exch rm sp show stroke angle2p rotate
} def
/Stxtr {
	/sp exch def
	yratio mul
	/sizep exch def
	dup
	/anglep exch def
	0 exch sub
	/angle2p exch def
	yratio mul
	/y0p exch def
	xratio mul
	/x0p exch def
	Strgb setrgbcolor
	x0p y0p M anglep rotate sizep fntsize sp stringwidth 1 index -1 mul exch rm pop sp show stroke angle2p rotate
} def
/Srect {
	/sfill exch def
	yratio mul
	/y1 exch def
	xratio mul
	/x1 exch def
	yratio mul
	/y0 exch def
	xratio mul
	/x0 exch def
	sfill 1 eq {
		Ssrgb setrgbcolor
		x0 y0 moveto
		x0 y1 lineto x1 y1 lineto x1 y0 lineto x0 y0 lineto
		fill
	} if
	Slw setlinewidth
	Slrgb setrgbcolor
	x0 y0 moveto
	x0 y1 lineto x1 y1 lineto x1 y0 lineto x0 y0 lineto
	stroke
} def
/Sellipse {
	/sfill exch def
	yratio mul
	/yrad exch def
	xratio mul
	/xrad exch def
	yratio mul
	/y exch def
	xratio mul
	/x exch def
	sfill 1 eq {
		Ssrgb setrgbcolor
		/savematrix matrix currentmatrix def
		x y translate
		xrad yrad scale
		0 0 1 0 360 arc
		savematrix setmatrix
		fill
	} if
	Slw setlinewidth
	Slrgb setrgbcolor
		/savematrix matrix currentmatrix def
		x y translate
		xrad yrad scale
		0 0 1 0 360 arc
		savematrix setmatrix
	stroke
} def
/Stri {
	/sfill exch def
	xratio mul
	/r exch def
	yratio mul
	/y0 exch def
	xratio mul
	/x0 exch def
	/xcen x0 def
	y0 r add
	/ytop exch def
	r 2 div
	y0 exch sub
	/ybot exch def
	r 3 sqrt 2 div mul dup
	xcen exch sub
	/xleft exch def
	xcen add
	/xright exch def
	sfill 1 eq {
		Ssrgb setrgbcolor
		xcen ytop moveto xright ybot lineto xleft ybot lineto xcen ytop lineto fill
	} if
	Slw setlinewidth
	Slrgb setrgbcolor
	xcen ytop moveto xright ybot lineto xleft ybot lineto xcen ytop lineto stroke
} def
/Soldtri {
	/sfill exch def
	xratio mul
	/r exch def
	yratio mul
	/y0 exch def
	xratio mul
	/x0 exch def
	x0 r sub
	/x1 exch def
	y0 r sub
	/y1 exch def
	x0 r add
	/x2 exch def
	y0 r sub
	/y2 exch def
	/x3 x0 def
	y0 r add
	/y3 exch def
	sfill 1 eq {
		Ssrgb setrgbcolor
		x1 y1 moveto x2 y2 lineto x3 y3 lineto x1 y1 lineto fill
	} if
	Slw setlinewidth
	Slrgb setrgbcolor
	x1 y1 moveto x2 y2 lineto x3 y3 lineto x1 y1 lineto stroke
} def
/Sdia {
	/sfill exch def
	xratio mul
	/r exch def
	yratio mul
	/y exch def
	xratio mul
	/x exch def
	x r sub
	/x0 exch def
	/y0 y def
	/x1 x def
	y r sub
	/y1 exch def
	x r add
	/x2 exch def
	/y2 y def
	/x3 x def
	y r add
	/y3 exch def
	sfill 1 eq  {
		Ssrgb setrgbcolor
		x0 y0 moveto x1 y1 lineto x2 y2 lineto x3 y3 lineto x0 y0 lineto fill
	} if
	Slw setlinewidth
	Slrgb setrgbcolor
	x0 y0 moveto x1 y1 lineto x2 y2 lineto x3 y3 lineto x0 y0 lineto stroke
} def
/Scc {
	/sfill exch def
	xratio mul
	/r0 exch def
	yratio mul
	/y0 exch def
	xratio mul
	/x0 exch def
	sfill 1 eq {
		Ssrgb setrgbcolor
		x0 y0 r0 0 360 arc fill
	} if
	Slw setlinewidth
	Slrgb setrgbcolor
	x0 y0 r0 0 360 arc stroke
} def
/Spie {
	/sfill exch def
	/a1 exch def
	/a0 exch def
	xratio mul
	/r exch def
	yratio mul
	/y exch def
	xratio mul
	/x exch def
	sfill 1 eq {
		Ssrgb setrgbcolor
		newpath x y moveto x y r a0 a1 arc closepath
		fill
	} if
	Slw setlinewidth
	Slrgb setrgbcolor
	newpath x y moveto x y r a0 a1 arc closepath
	stroke
} def
/Splu {
	xratio mul
	/r exch def
	yratio mul
	/y exch def
	xratio mul
	/x exch def
	x r sub
	/x0 exch def
	x r add
	/x1 exch def
	x0 y M x1 y L
	y r sub
	/y0 exch def
	y r add
	/y1 exch def
	x y0 M x y1 L
} def
/Scro {
	xratio mul
	/r exch def
	yratio mul
	/y exch def
	xratio mul
	/x exch def
	x r sub
	/x0 exch def
	y r sub
	/y0 exch def
	x r add
	/x1 exch def
	y r add
	/y1 exch def
	x0 y0 M x1 y1 L
	x r add
	/x0 exch def
	y r sub
	/y0 exch def
	x r sub
	/x1 exch def
	y r add
	/y1 exch def
	x0 y0 M x1 y1 L
} def
/Sm {
	yratio mul
	/y exch def
	xratio mul
	/x exch def
	x y M
} def
/Sl {
	yratio mul
	/y exch def
	xratio mul
	/x exch def
	x y L
} def
/SPl {
	yratio mul
	/y exch def
	xratio mul
	/x exch def
	x y PL
} def
/Lcs {
	currentlinecap
	1 setlinecap
} def
/Lcr {
	setlinecap
} def
/Sbp {
	newpath
} def
/Sep {
	/sfill exch def
	closepath
	sfill 1 eq  {
		Ssrgb setrgbcolor
		gsave
		fill
		grestore
	} if
	Slw setlinewidth
	Slrgb setrgbcolor
	Lcs
	stroke
	Lcr
} def
/cp {currentpoint} def 
/M {moveto} def 
/rm {rmoveto} def 
/S {stroke} def 
/L {Slw setlinewidth Slrgb setrgbcolor lineto Lcs S Lcr} def 
/PL {Slw setlinewidth Slrgb setrgbcolor lineto} def 
/MF-Helvetica {
  /newfontname exch def
  /fontname exch def
  /fontdict fontname findfont def
  /newfont fontdict maxlength dict def
  fontdict {
  exch dup /FID eq {pop pop} {exch newfont 3 1 roll put} ifelse
  } forall
  newfont /FontName newfontname put
  newfont /Encoding ISOLatin1Encoding put
  newfontname newfont definefont pop
} def
/Helvetica /Helvetica-0 MF-Helvetica
/Slw 0.120 def
0.918 0.949 0.953 setrgbcolor
0 0 396.000 288.000 Sbgfill
/Slrgb {1.000 1.000 1.000} def
/Strgb {1.000 1.000 1.000} def
/Ssrgb {1.000 1.000 1.000} def
/Ssrgb {0.918 0.949 0.953} def
/Slw 0.576 def
/Slrgb {0.918 0.949 0.953} def
0 0 31999 23272 1 Srect
/Ssrgb {1.000 1.000 1.000} def
/Slw 0.259 def
/Slrgb {1.000 1.000 1.000} def
3209 17007 6974 21653 1 Srect
/Slrgb {0.000 0.000 0.000} def
/Strgb {0.000 0.000 0.000} def
/Slw 0.389 def
/Slrgb {0.918 0.949 0.953} def
3209 17237 6974 17237 Sln
/Slw 0.259 def
/Slrgb {0.000 0.000 0.000} def
/Slw 0.389 def
/Slrgb {0.918 0.949 0.953} def
3209 18283 6974 18283 Sln
/Slw 0.259 def
/Slrgb {0.000 0.000 0.000} def
/Slw 0.389 def
/Slrgb {0.918 0.949 0.953} def
3209 19330 6974 19330 Sln
/Slw 0.259 def
/Slrgb {0.000 0.000 0.000} def
/Slw 0.389 def
/Slrgb {0.918 0.949 0.953} def
3209 20376 6974 20376 Sln
/Slw 0.259 def
/Slrgb {0.000 0.000 0.000} def
/Slw 0.389 def
/Slrgb {0.918 0.949 0.953} def
3209 21422 6974 21422 Sln
/Slw 0.259 def
/Slrgb {0.000 0.000 0.000} def
/Slrgb {1.000 1.000 1.000} def
9733 17007 13498 21653 1 Srect
/Slrgb {0.000 0.000 0.000} def
/Slw 0.389 def
/Slrgb {0.918 0.949 0.953} def
9733 17237 13498 17237 Sln
/Slw 0.259 def
/Slrgb {0.000 0.000 0.000} def
/Slw 0.389 def
/Slrgb {0.918 0.949 0.953} def
9733 18632 13498 18632 Sln
/Slw 0.259 def
/Slrgb {0.000 0.000 0.000} def
/Slw 0.389 def
/Slrgb {0.918 0.949 0.953} def
9733 20027 13498 20027 Sln
/Slw 0.259 def
/Slrgb {0.000 0.000 0.000} def
/Slw 0.389 def
/Slrgb {0.918 0.949 0.953} def
9733 21422 13498 21422 Sln
/Slw 0.259 def
/Slrgb {0.000 0.000 0.000} def
/Slrgb {1.000 1.000 1.000} def
15111 17007 18876 21653 1 Srect
/Slrgb {0.000 0.000 0.000} def
/Slw 0.389 def
/Slrgb {0.918 0.949 0.953} def
15111 17237 18876 17237 Sln
/Slw 0.259 def
/Slrgb {0.000 0.000 0.000} def
/Slw 0.389 def
/Slrgb {0.918 0.949 0.953} def
15111 18283 18876 18283 Sln
/Slw 0.259 def
/Slrgb {0.000 0.000 0.000} def
/Slw 0.389 def
/Slrgb {0.918 0.949 0.953} def
15111 19330 18876 19330 Sln
/Slw 0.259 def
/Slrgb {0.000 0.000 0.000} def
/Slw 0.389 def
/Slrgb {0.918 0.949 0.953} def
15111 20376 18876 20376 Sln
/Slw 0.259 def
/Slrgb {0.000 0.000 0.000} def
/Slw 0.389 def
/Slrgb {0.918 0.949 0.953} def
15111 21422 18876 21422 Sln
/Slw 0.259 def
/Slrgb {0.000 0.000 0.000} def
/Slrgb {1.000 1.000 1.000} def
21550 17007 25315 21653 1 Srect
/Slrgb {0.000 0.000 0.000} def
/Slw 0.389 def
/Slrgb {0.918 0.949 0.953} def
21550 17366 25315 17366 Sln
/Slw 0.259 def
/Slrgb {0.000 0.000 0.000} def
/Slw 0.389 def
/Slrgb {0.918 0.949 0.953} def
21550 18624 25315 18624 Sln
/Slw 0.259 def
/Slrgb {0.000 0.000 0.000} def
/Slw 0.389 def
/Slrgb {0.918 0.949 0.953} def
21550 19882 25315 19882 Sln
/Slw 0.259 def
/Slrgb {0.000 0.000 0.000} def
/Slw 0.389 def
/Slrgb {0.918 0.949 0.953} def
21550 21139 25315 21139 Sln
/Slw 0.259 def
/Slrgb {0.000 0.000 0.000} def
/Slrgb {1.000 1.000 1.000} def
27140 17007 30905 21653 1 Srect
/Slrgb {0.000 0.000 0.000} def
/Slw 0.389 def
/Slrgb {0.918 0.949 0.953} def
27140 17237 30905 17237 Sln
/Slw 0.259 def
/Slrgb {0.000 0.000 0.000} def
/Slw 0.389 def
/Slrgb {0.918 0.949 0.953} def
27140 18475 30905 18475 Sln
/Slw 0.259 def
/Slrgb {0.000 0.000 0.000} def
/Slw 0.389 def
/Slrgb {0.918 0.949 0.953} def
27140 19713 30905 19713 Sln
/Slw 0.259 def
/Slrgb {0.000 0.000 0.000} def
/Slw 0.389 def
/Slrgb {0.918 0.949 0.953} def
27140 20951 30905 20951 Sln
/Slw 0.259 def
/Slrgb {0.000 0.000 0.000} def
/Slrgb {1.000 1.000 1.000} def
3209 11277 6974 15923 1 Srect
/Slrgb {0.000 0.000 0.000} def
/Slw 0.389 def
/Slrgb {0.918 0.949 0.953} def
3209 11507 6974 11507 Sln
/Slw 0.259 def
/Slrgb {0.000 0.000 0.000} def
/Slw 0.389 def
/Slrgb {0.918 0.949 0.953} def
3209 12553 6974 12553 Sln
/Slw 0.259 def
/Slrgb {0.000 0.000 0.000} def
/Slw 0.389 def
/Slrgb {0.918 0.949 0.953} def
3209 13600 6974 13600 Sln
/Slw 0.259 def
/Slrgb {0.000 0.000 0.000} def
/Slw 0.389 def
/Slrgb {0.918 0.949 0.953} def
3209 14646 6974 14646 Sln
/Slw 0.259 def
/Slrgb {0.000 0.000 0.000} def
/Slw 0.389 def
/Slrgb {0.918 0.949 0.953} def
3209 15692 6974 15692 Sln
/Slw 0.259 def
/Slrgb {0.000 0.000 0.000} def
/Slrgb {1.000 1.000 1.000} def
9733 11277 13498 15923 1 Srect
/Slrgb {0.000 0.000 0.000} def
/Slw 0.389 def
/Slrgb {0.918 0.949 0.953} def
9733 11507 13498 11507 Sln
/Slw 0.259 def
/Slrgb {0.000 0.000 0.000} def
/Slw 0.389 def
/Slrgb {0.918 0.949 0.953} def
9733 15414 13498 15414 Sln
/Slw 0.259 def
/Slrgb {0.000 0.000 0.000} def
/Slrgb {1.000 1.000 1.000} def
15111 11277 18876 15923 1 Srect
/Slrgb {0.000 0.000 0.000} def
/Slw 0.389 def
/Slrgb {0.918 0.949 0.953} def
15111 11507 18876 11507 Sln
/Slw 0.259 def
/Slrgb {0.000 0.000 0.000} def
/Slw 0.389 def
/Slrgb {0.918 0.949 0.953} def
15111 12553 18876 12553 Sln
/Slw 0.259 def
/Slrgb {0.000 0.000 0.000} def
/Slw 0.389 def
/Slrgb {0.918 0.949 0.953} def
15111 13600 18876 13600 Sln
/Slw 0.259 def
/Slrgb {0.000 0.000 0.000} def
/Slw 0.389 def
/Slrgb {0.918 0.949 0.953} def
15111 14646 18876 14646 Sln
/Slw 0.259 def
/Slrgb {0.000 0.000 0.000} def
/Slw 0.389 def
/Slrgb {0.918 0.949 0.953} def
15111 15692 18876 15692 Sln
/Slw 0.259 def
/Slrgb {0.000 0.000 0.000} def
/Slrgb {1.000 1.000 1.000} def
21550 11277 25315 15923 1 Srect
/Slrgb {0.000 0.000 0.000} def
/Slw 0.389 def
/Slrgb {0.918 0.949 0.953} def
21550 12902 25315 12902 Sln
/Slw 0.259 def
/Slrgb {0.000 0.000 0.000} def
/Slw 0.389 def
/Slrgb {0.918 0.949 0.953} def
21550 14297 25315 14297 Sln
/Slw 0.259 def
/Slrgb {0.000 0.000 0.000} def
/Slw 0.389 def
/Slrgb {0.918 0.949 0.953} def
21550 15692 25315 15692 Sln
/Slw 0.259 def
/Slrgb {0.000 0.000 0.000} def
/Slrgb {1.000 1.000 1.000} def
27140 11277 30905 15923 1 Srect
/Slrgb {0.000 0.000 0.000} def
/Slw 0.389 def
/Slrgb {0.918 0.949 0.953} def
27140 11507 30905 11507 Sln
/Slw 0.259 def
/Slrgb {0.000 0.000 0.000} def
/Slw 0.389 def
/Slrgb {0.918 0.949 0.953} def
27140 13558 30905 13558 Sln
/Slw 0.259 def
/Slrgb {0.000 0.000 0.000} def
/Slw 0.389 def
/Slrgb {0.918 0.949 0.953} def
27140 15609 30905 15609 Sln
/Slw 0.259 def
/Slrgb {0.000 0.000 0.000} def
/Slrgb {1.000 1.000 1.000} def
3209 5547 6974 10192 1 Srect
/Slrgb {0.000 0.000 0.000} def
/Slw 0.389 def
/Slrgb {0.918 0.949 0.953} def
3209 5777 6974 5777 Sln
/Slw 0.259 def
/Slrgb {0.000 0.000 0.000} def
/Slw 0.389 def
/Slrgb {0.918 0.949 0.953} def
3209 6793 6974 6793 Sln
/Slw 0.259 def
/Slrgb {0.000 0.000 0.000} def
/Slw 0.389 def
/Slrgb {0.918 0.949 0.953} def
3209 7810 6974 7810 Sln
/Slw 0.259 def
/Slrgb {0.000 0.000 0.000} def
/Slw 0.389 def
/Slrgb {0.918 0.949 0.953} def
3209 8826 6974 8826 Sln
/Slw 0.259 def
/Slrgb {0.000 0.000 0.000} def
/Slw 0.389 def
/Slrgb {0.918 0.949 0.953} def
3209 9842 6974 9842 Sln
/Slw 0.259 def
/Slrgb {0.000 0.000 0.000} def
/Slrgb {1.000 1.000 1.000} def
9733 5547 13498 10192 1 Srect
/Slrgb {0.000 0.000 0.000} def
/Slw 0.389 def
/Slrgb {0.918 0.949 0.953} def
9733 5777 13498 5777 Sln
/Slw 0.259 def
/Slrgb {0.000 0.000 0.000} def
/Slw 0.389 def
/Slrgb {0.918 0.949 0.953} def
9733 6757 13498 6757 Sln
/Slw 0.259 def
/Slrgb {0.000 0.000 0.000} def
/Slw 0.389 def
/Slrgb {0.918 0.949 0.953} def
9733 7738 13498 7738 Sln
/Slw 0.259 def
/Slrgb {0.000 0.000 0.000} def
/Slw 0.389 def
/Slrgb {0.918 0.949 0.953} def
9733 8718 13498 8718 Sln
/Slw 0.259 def
/Slrgb {0.000 0.000 0.000} def
/Slw 0.389 def
/Slrgb {0.918 0.949 0.953} def
9733 9699 13498 9699 Sln
/Slw 0.259 def
/Slrgb {0.000 0.000 0.000} def
/Slrgb {1.000 1.000 1.000} def
15111 5547 18876 10192 1 Srect
/Slrgb {0.000 0.000 0.000} def
/Slw 0.389 def
/Slrgb {0.918 0.949 0.953} def
15111 5911 18876 5911 Sln
/Slw 0.259 def
/Slrgb {0.000 0.000 0.000} def
/Slw 0.389 def
/Slrgb {0.918 0.949 0.953} def
15111 7261 18876 7261 Sln
/Slw 0.259 def
/Slrgb {0.000 0.000 0.000} def
/Slw 0.389 def
/Slrgb {0.918 0.949 0.953} def
15111 8612 18876 8612 Sln
/Slw 0.259 def
/Slrgb {0.000 0.000 0.000} def
/Slw 0.389 def
/Slrgb {0.918 0.949 0.953} def
15111 9962 18876 9962 Sln
/Slw 0.259 def
/Slrgb {0.000 0.000 0.000} def
/Slrgb {1.000 1.000 1.000} def
21550 5547 25315 10192 1 Srect
/Slrgb {0.000 0.000 0.000} def
/Slw 0.389 def
/Slrgb {0.918 0.949 0.953} def
21550 5777 25315 5777 Sln
/Slw 0.259 def
/Slrgb {0.000 0.000 0.000} def
/Slw 0.389 def
/Slrgb {0.918 0.949 0.953} def
21550 7006 25315 7006 Sln
/Slw 0.259 def
/Slrgb {0.000 0.000 0.000} def
/Slw 0.389 def
/Slrgb {0.918 0.949 0.953} def
21550 8234 25315 8234 Sln
/Slw 0.259 def
/Slrgb {0.000 0.000 0.000} def
/Slw 0.389 def
/Slrgb {0.918 0.949 0.953} def
21550 9463 25315 9463 Sln
/Slw 0.259 def
/Slrgb {0.000 0.000 0.000} def
/Slrgb {1.000 1.000 1.000} def
27140 5547 30905 10192 1 Srect
/Slrgb {0.000 0.000 0.000} def
/Slw 0.389 def
/Slrgb {0.918 0.949 0.953} def
27140 5777 30905 5777 Sln
/Slw 0.259 def
/Slrgb {0.000 0.000 0.000} def
/Slw 0.389 def
/Slrgb {0.918 0.949 0.953} def
27140 7172 30905 7172 Sln
/Slw 0.259 def
/Slrgb {0.000 0.000 0.000} def
/Slw 0.389 def
/Slrgb {0.918 0.949 0.953} def
27140 8567 30905 8567 Sln
/Slw 0.259 def
/Slrgb {0.000 0.000 0.000} def
/Slw 0.389 def
/Slrgb {0.918 0.949 0.953} def
27140 9962 30905 9962 Sln
/Slw 0.259 def
/Slrgb {0.000 0.000 0.000} def
/Ssrgb {0.753 0.753 0.753} def
/Slw 0.389 def
/Slrgb {0.753 0.753 0.753} def
Sbp
3439 17237 Sm
3439 17237 SPl
3660 17450 SPl
3880 17854 SPl
4100 18284 SPl
4320 18616 SPl
4541 18808 SPl
4761 18872 SPl
4981 18840 SPl
5202 18741 SPl
5422 18602 SPl
5642 18443 SPl
5863 18277 SPl
6083 18116 SPl
6303 17965 SPl
6523 17831 SPl
6744 17716 SPl
6744 20275 SPl
6523 20406 SPl
6303 20554 SPl
6083 20713 SPl
5863 20877 SPl
5642 21034 SPl
5422 21170 SPl
5202 21262 SPl
4981 21285 SPl
4761 21202 SPl
4541 20973 SPl
4320 20559 SPl
4100 19932 SPl
3880 19101 SPl
3660 18136 SPl
3439 17237 SPl
3439 17237 SPl
1 Sep
/Slrgb {0.102 0.278 0.435} def
3439 17237 Sm
3659 17793 Sl
3659 17793 Sm
3879 18477 Sl
3879 18477 Sm
4100 19108 Sl
4100 19108 Sm
4320 19587 Sl
4320 19587 Sm
4540 19890 Sl
4540 19890 Sm
4761 20036 Sl
4761 20036 Sm
4981 20062 Sl
4981 20062 Sm
5201 20001 Sl
5201 20001 Sm
5421 19885 Sl
5421 19885 Sm
5642 19738 Sl
5642 19738 Sm
5862 19577 Sl
5862 19577 Sm
6082 19414 Sl
6082 19414 Sm
6303 19259 Sl
6303 19259 Sm
6523 19118 Sl
6523 19118 Sm
6743 18995 Sl
/Slrgb {0.753 0.753 0.753} def
Sbp
9963 17237 Sm
9963 17237 SPl
10183 17716 SPl
10403 18312 SPl
10624 18686 SPl
10844 18837 SPl
11064 18835 SPl
11285 18739 SPl
11505 18591 SPl
11725 18417 SPl
11946 18233 SPl
12166 18050 SPl
12386 17878 SPl
12606 17720 SPl
12827 17580 SPl
13047 17459 SPl
13267 17358 SPl
13267 20017 SPl
13047 20107 SPl
12827 20206 SPl
12606 20312 SPl
12386 20421 SPl
12166 20530 SPl
11946 20633 SPl
11725 20726 SPl
11505 20796 SPl
11285 20829 SPl
11064 20792 SPl
10844 20629 SPl
10624 20246 SPl
10403 19525 SPl
10183 18424 SPl
9963 17237 SPl
9963 17237 SPl
1 Sep
/Slrgb {0.102 0.278 0.435} def
9962 17237 Sm
10183 18070 Sl
10183 18070 Sm
10403 18918 Sl
10403 18918 Sm
10623 19465 Sl
10623 19465 Sm
10844 19733 Sl
10844 19733 Sm
11064 19813 Sl
11064 19813 Sm
11284 19783 Sl
11284 19783 Sm
11504 19693 Sl
11504 19693 Sm
11725 19571 Sl
11725 19571 Sm
11945 19433 Sl
11945 19433 Sm
12165 19290 Sl
12165 19290 Sm
12386 19149 Sl
12386 19149 Sm
12606 19015 Sl
12606 19015 Sm
12826 18893 Sl
12826 18893 Sm
13047 18783 Sl
13047 18783 Sm
13267 18687 Sl
/Slrgb {0.753 0.753 0.753} def
Sbp
15341 18796 Sm
15341 18796 SPl
15561 19647 SPl
15782 19699 SPl
16002 19516 SPl
16222 19294 SPl
16443 19082 SPl
16663 18891 SPl
16883 18720 SPl
17104 18567 SPl
17324 18428 SPl
17544 18301 SPl
17764 18184 SPl
17985 18076 SPl
18205 17978 SPl
18425 17887 SPl
18646 17805 SPl
18646 20107 SPl
18425 20178 SPl
18205 20250 SPl
17985 20322 SPl
17764 20395 SPl
17544 20469 SPl
17324 20544 SPl
17104 20620 SPl
16883 20698 SPl
16663 20782 SPl
16443 20878 SPl
16222 20990 SPl
16002 21101 SPl
15782 21114 SPl
15561 20761 SPl
15341 19503 SPl
15341 18796 SPl
1 Sep
/Slrgb {0.102 0.278 0.435} def
15341 19149 Sm
15561 20203 Sl
15561 20203 Sm
15781 20406 Sl
15781 20406 Sm
16002 20308 Sl
16002 20308 Sm
16222 20142 Sl
16222 20142 Sm
16442 19980 Sl
16442 19980 Sm
16662 19836 Sl
16662 19836 Sm
16883 19709 Sl
16883 19709 Sm
17103 19593 Sl
17103 19593 Sm
17323 19486 Sl
17323 19486 Sm
17544 19385 Sl
17544 19385 Sm
17764 19289 Sl
17764 19289 Sm
17984 19199 Sl
17984 19199 Sm
18205 19113 Sl
18205 19113 Sm
18425 19032 Sl
18425 19032 Sm
18645 18955 Sl
/Slrgb {0.753 0.753 0.753} def
Sbp
21780 19033 Sm
21780 19033 SPl
22000 17571 SPl
22221 17237 SPl
22441 17559 SPl
22661 18081 SPl
22881 18581 SPl
23102 18996 SPl
23322 19331 SPl
23542 19601 SPl
23763 19819 SPl
23983 19993 SPl
24203 20129 SPl
24424 20231 SPl
24644 20305 SPl
24864 20356 SPl
25084 20389 SPl
25084 21409 SPl
24864 21421 SPl
24644 21422 SPl
24424 21407 SPl
24203 21369 SPl
23983 21301 SPl
23763 21190 SPl
23542 21024 SPl
23322 20789 SPl
23102 20474 SPl
22881 20082 SPl
22661 19641 SPl
22441 19225 SPl
22221 19001 SPl
22000 19340 SPl
21780 20711 SPl
21780 19033 SPl
1 Sep
/Slrgb {0.102 0.278 0.435} def
21779 19872 Sm
22000 18455 Sl
22000 18455 Sm
22220 18119 Sl
22220 18119 Sm
22440 18391 Sl
22440 18391 Sm
22661 18861 Sl
22661 18861 Sm
22881 19331 Sl
22881 19331 Sm
23101 19735 Sl
23101 19735 Sm
23322 20059 Sl
23322 20059 Sm
23542 20312 Sl
23542 20312 Sm
23762 20504 Sl
23762 20504 Sm
23982 20646 Sl
23982 20646 Sm
24203 20748 Sl
24203 20748 Sm
24423 20818 Sl
24423 20818 Sm
24643 20863 Sl
24643 20863 Sm
24864 20888 Sl
24864 20888 Sm
25084 20899 Sl
/Slrgb {0.753 0.753 0.753} def
Sbp
27370 18475 Sm
27370 18475 SPl
27591 17551 SPl
27811 17289 SPl
28031 17286 SPl
28252 17380 SPl
28472 17501 SPl
28692 17630 SPl
28912 17765 SPl
29133 17902 SPl
29353 18041 SPl
29573 18179 SPl
29794 18312 SPl
30014 18439 SPl
30234 18558 SPl
30455 18668 SPl
30675 18769 SPl
30675 21422 SPl
30455 21261 SPl
30234 21086 SPl
30014 20898 SPl
29794 20695 SPl
29573 20477 SPl
29353 20244 SPl
29133 19994 SPl
28912 19729 SPl
28692 19452 SPl
28472 19173 SPl
28252 18911 SPl
28031 18696 SPl
27811 18557 SPl
27591 18514 SPl
27370 18475 SPl
27370 18475 SPl
1 Sep
/Slrgb {0.102 0.278 0.435} def
27370 18475 Sm
27590 18032 Sl
27590 18032 Sm
27810 17922 Sl
27810 17922 Sm
28031 17990 Sl
28031 17990 Sm
28251 18145 Sl
28251 18145 Sm
28471 18336 Sl
28471 18336 Sm
28692 18541 Sl
28692 18541 Sm
28912 18746 Sl
28912 18746 Sm
29132 18948 Sl
29132 18948 Sm
29353 19142 Sl
29353 19142 Sm
29573 19328 Sl
29573 19328 Sm
29793 19503 Sl
29793 19503 Sm
30013 19668 Sl
30013 19668 Sm
30234 19822 Sl
30234 19822 Sm
30454 19964 Sl
30454 19964 Sm
30674 20095 Sl
/Slrgb {0.753 0.753 0.753} def
Sbp
3439 14646 Sm
3439 14646 SPl
3660 14351 SPl
3880 13804 SPl
4100 13189 SPl
4320 12666 SPl
4541 12297 SPl
4761 12085 SPl
4981 12008 SPl
5202 12040 SPl
5422 12152 SPl
5642 12321 SPl
5863 12524 SPl
6083 12745 SPl
6303 12968 SPl
6523 13185 SPl
6744 13389 SPl
6744 15391 SPl
6523 15263 SPl
6303 15127 SPl
6083 14984 SPl
5863 14840 SPl
5642 14699 SPl
5422 14568 SPl
5202 14454 SPl
4981 14369 SPl
4761 14328 SPl
4541 14348 SPl
4320 14448 SPl
4100 14641 SPl
3880 14898 SPl
3660 15047 SPl
3439 14646 SPl
3439 14646 SPl
1 Sep
/Slrgb {0.102 0.278 0.435} def
3439 14645 Sm
3659 14699 Sl
3659 14699 Sm
3879 14351 Sl
3879 14351 Sm
4100 13914 Sl
4100 13914 Sm
4320 13556 Sl
4320 13556 Sm
4540 13322 Sl
4540 13322 Sm
4761 13206 Sl
4761 13206 Sm
4981 13188 Sl
4981 13188 Sm
5201 13246 Sl
5201 13246 Sm
5421 13360 Sl
5421 13360 Sm
5642 13510 Sl
5642 13510 Sm
5862 13682 Sl
5862 13682 Sm
6082 13864 Sl
6082 13864 Sm
6303 14047 Sl
6303 14047 Sm
6523 14224 Sl
6523 14224 Sm
6743 14389 Sl
/Slrgb {0.753 0.753 0.753} def
Sbp
9963 15414 Sm
9963 15414 SPl
10183 14037 SPl
10403 13189 SPl
10624 12617 SPl
10844 12218 SPl
11064 11961 SPl
11285 11824 SPl
11505 11787 SPl
11725 11829 SPl
11946 11928 SPl
12166 12065 SPl
12386 12224 SPl
12606 12394 SPl
12827 12565 SPl
13047 12732 SPl
13267 12890 SPl
13267 15692 SPl
13047 15579 SPl
12827 15458 SPl
12606 15330 SPl
12386 15198 SPl
12166 15067 SPl
11946 14939 SPl
11725 14818 SPl
11505 14708 SPl
11285 14613 SPl
11064 14539 SPl
10844 14497 SPl
10624 14512 SPl
10403 14647 SPl
10183 14985 SPl
9963 15414 SPl
9963 15414 SPl
1 Sep
/Slrgb {0.102 0.278 0.435} def
9962 15414 Sm
10183 14511 Sl
10183 14511 Sm
10403 13917 Sl
10403 13917 Sm
10623 13564 Sl
10623 13564 Sm
10844 13357 Sl
10844 13357 Sm
11064 13250 Sl
11064 13250 Sm
11284 13218 Sl
11284 13218 Sm
11504 13247 Sl
11504 13247 Sm
11725 13323 Sl
11725 13323 Sm
11945 13433 Sl
11945 13433 Sm
12165 13565 Sl
12165 13565 Sm
12386 13711 Sl
12386 13711 Sm
12606 13861 Sl
12606 13861 Sm
12826 14011 Sl
12826 14011 Sm
13047 14155 Sl
13047 14155 Sm
13267 14290 Sl
/Slrgb {0.753 0.753 0.753} def
Sbp
15341 12553 Sm
15341 12553 SPl
15561 12480 SPl
15782 12524 SPl
16002 12470 SPl
16222 12338 SPl
16443 12200 SPl
16663 12091 SPl
16883 12015 SPl
17104 11966 SPl
17324 11936 SPl
17544 11920 SPl
17764 11913 SPl
17985 11916 SPl
18205 11925 SPl
18425 11941 SPl
18646 11962 SPl
18646 15086 SPl
18425 15135 SPl
18205 15179 SPl
17985 15215 SPl
17764 15243 SPl
17544 15263 SPl
17324 15271 SPl
17104 15266 SPl
16883 15241 SPl
16663 15189 SPl
16443 15096 SPl
16222 14946 SPl
16002 14716 SPl
15782 14357 SPl
15561 13705 SPl
15341 12553 SPl
15341 12553 SPl
1 Sep
/Slrgb {0.102 0.278 0.435} def
15341 12553 Sm
15561 13092 Sl
15561 13092 Sm
15781 13440 Sl
15781 13440 Sm
16002 13592 Sl
16002 13592 Sm
16222 13641 Sl
16222 13641 Sm
16442 13648 Sl
16442 13648 Sm
16662 13639 Sl
16662 13639 Sm
16883 13628 Sl
16883 13628 Sm
17103 13615 Sl
17103 13615 Sm
17323 13603 Sl
17323 13603 Sm
17544 13591 Sl
17544 13591 Sm
17764 13578 Sl
17764 13578 Sm
17984 13565 Sl
17984 13565 Sm
18205 13551 Sl
18205 13551 Sm
18425 13538 Sl
18425 13538 Sm
18645 13524 Sl
/Slrgb {0.753 0.753 0.753} def
Sbp
21780 14682 Sm
21780 14682 SPl
22000 14395 SPl
22221 13941 SPl
22441 13560 SPl
22661 13267 SPl
22881 13043 SPl
23102 12872 SPl
23322 12743 SPl
23542 12648 SPl
23763 12579 SPl
23983 12532 SPl
24203 12501 SPl
24424 12484 SPl
24644 12478 SPl
24864 12482 SPl
25084 12493 SPl
25084 12880 SPl
24864 12898 SPl
24644 12925 SPl
24424 12962 SPl
24203 13014 SPl
23983 13082 SPl
23763 13171 SPl
23542 13282 SPl
23322 13419 SPl
23102 13581 SPl
22881 13776 SPl
22661 14012 SPl
22441 14313 SPl
22221 14706 SPl
22000 15192 SPl
21780 15411 SPl
21780 14682 SPl
1 Sep
/Slrgb {0.102 0.278 0.435} def
21779 15046 Sm
22000 14793 Sl
22000 14793 Sm
22220 14323 Sl
22220 14323 Sm
22440 13936 Sl
22440 13936 Sm
22661 13639 Sl
22661 13639 Sm
22881 13409 Sl
22881 13409 Sm
23101 13226 Sl
23101 13226 Sm
23322 13080 Sl
23322 13080 Sm
23542 12965 Sl
23542 12965 Sm
23762 12875 Sl
23762 12875 Sm
23982 12806 Sl
23982 12806 Sm
24203 12757 Sl
24203 12757 Sm
24423 12723 Sl
24423 12723 Sm
24643 12701 Sl
24643 12701 Sm
24864 12690 Sl
24864 12690 Sm
25084 12686 Sl
/Slrgb {0.753 0.753 0.753} def
Sbp
27370 13558 Sm
27370 13558 SPl
27591 12676 SPl
27811 12594 SPl
28031 12491 SPl
28252 12391 SPl
28472 12306 SPl
28692 12233 SPl
28912 12167 SPl
29133 12107 SPl
29353 12050 SPl
29573 11997 SPl
29794 11947 SPl
30014 11901 SPl
30234 11860 SPl
30455 11824 SPl
30675 11792 SPl
30675 15631 SPl
30455 15650 SPl
30234 15669 SPl
30014 15684 SPl
29794 15692 SPl
29573 15690 SPl
29353 15672 SPl
29133 15632 SPl
28912 15562 SPl
28692 15452 SPl
28472 15293 SPl
28252 15076 SPl
28031 14797 SPl
27811 14480 SPl
27591 14211 SPl
27370 13558 SPl
27370 13558 SPl
1 Sep
/Slrgb {0.102 0.278 0.435} def
27370 13558 Sm
27590 13443 Sl
27590 13443 Sm
27810 13537 Sl
27810 13537 Sm
28031 13644 Sl
28031 13644 Sm
28251 13733 Sl
28251 13733 Sm
28471 13799 Sl
28471 13799 Sm
28692 13842 Sl
28692 13842 Sm
28912 13864 Sl
28912 13864 Sm
29132 13869 Sl
29132 13869 Sm
29353 13860 Sl
29353 13860 Sm
29573 13843 Sl
29573 13843 Sm
29793 13819 Sl
29793 13819 Sm
30013 13792 Sl
30013 13792 Sm
30234 13764 Sl
30234 13764 Sm
30454 13737 Sl
30454 13737 Sm
30674 13711 Sl
/Slrgb {0.753 0.753 0.753} def
Sbp
3439 6853 Sm
3439 6853 SPl
3660 6158 SPl
3880 6049 SPl
4100 6200 SPl
4320 6454 SPl
4541 6740 SPl
4761 7026 SPl
4981 7296 SPl
5202 7542 SPl
5422 7761 SPl
5642 7949 SPl
5863 8109 SPl
6083 8240 SPl
6303 8344 SPl
6523 8423 SPl
6744 8480 SPl
6744 9955 SPl
6523 9962 SPl
6303 9951 SPl
6083 9918 SPl
5863 9860 SPl
5642 9773 SPl
5422 9654 SPl
5202 9502 SPl
4981 9319 SPl
4761 9110 SPl
4541 8883 SPl
4320 8656 SPl
4100 8449 SPl
3880 8287 SPl
3660 8196 SPl
3439 8235 SPl
3439 6853 SPl
1 Sep
/Slrgb {0.102 0.278 0.435} def
3439 7544 Sm
3659 7177 Sl
3659 7177 Sm
3879 7167 Sl
3879 7167 Sm
4100 7324 Sl
4100 7324 Sm
4320 7554 Sl
4320 7554 Sm
4540 7811 Sl
4540 7811 Sm
4761 8067 Sl
4761 8067 Sm
4981 8307 Sl
4981 8307 Sm
5201 8522 Sl
5201 8522 Sm
5421 8707 Sl
5421 8707 Sm
5642 8860 Sl
5642 8860 Sm
5862 8984 Sl
5862 8984 Sm
6082 9078 Sl
6082 9078 Sm
6303 9147 Sl
6303 9147 Sm
6523 9192 Sl
6523 9192 Sm
6743 9217 Sl
/Slrgb {0.753 0.753 0.753} def
Sbp
9963 6299 Sm
9963 6299 SPl
10183 5959 SPl
10403 5835 SPl
10624 5899 SPl
10844 6060 SPl
11064 6255 SPl
11285 6451 SPl
11505 6635 SPl
11725 6803 SPl
11946 6955 SPl
12166 7091 SPl
12386 7212 SPl
12606 7318 SPl
12827 7409 SPl
13047 7484 SPl
13267 7545 SPl
13267 9962 SPl
13047 9942 SPl
12827 9903 SPl
12606 9840 SPl
12386 9750 SPl
12166 9627 SPl
11946 9468 SPl
11725 9271 SPl
11505 9037 SPl
11285 8769 SPl
11064 8476 SPl
10844 8172 SPl
10624 7876 SPl
10403 7619 SPl
10183 7437 SPl
9963 7310 SPl
9963 6299 SPl
1 Sep
/Slrgb {0.102 0.278 0.435} def
9962 6804 Sm
10183 6698 Sl
10183 6698 Sm
10403 6727 Sl
10403 6727 Sm
10623 6887 Sl
10623 6887 Sm
10844 7115 Sl
10844 7115 Sm
11064 7365 Sl
11064 7365 Sm
11284 7610 Sl
11284 7610 Sm
11504 7835 Sl
11504 7835 Sm
11725 8036 Sl
11725 8036 Sm
11945 8211 Sl
11945 8211 Sm
12165 8359 Sl
12165 8359 Sm
12386 8481 Sl
12386 8481 Sm
12606 8579 Sl
12606 8579 Sm
12826 8655 Sl
12826 8655 Sm
13047 8713 Sl
13047 8713 Sm
13267 8753 Sl
/Slrgb {0.753 0.753 0.753} def
Sbp
15341 6837 Sm
15341 6837 SPl
15561 6011 SPl
15782 5777 SPl
16002 5797 SPl
16222 5871 SPl
16443 5935 SPl
16663 5984 SPl
16883 6027 SPl
17104 6072 SPl
17324 6122 SPl
17544 6178 SPl
17764 6238 SPl
17985 6299 SPl
18205 6361 SPl
18425 6422 SPl
18646 6480 SPl
18646 9436 SPl
18425 9439 SPl
18205 9438 SPl
17985 9431 SPl
17764 9417 SPl
17544 9393 SPl
17324 9356 SPl
17104 9304 SPl
16883 9235 SPl
16663 9149 SPl
16443 9049 SPl
16222 8939 SPl
16002 8815 SPl
15782 8655 SPl
15561 8427 SPl
15341 8206 SPl
15341 6837 SPl
1 Sep
/Slrgb {0.102 0.278 0.435} def
15341 7521 Sm
15561 7218 Sl
15561 7218 Sm
15781 7215 Sl
15781 7215 Sm
16002 7305 Sl
16002 7305 Sm
16222 7404 Sl
16222 7404 Sm
16442 7492 Sl
16442 7492 Sm
16662 7566 Sl
16662 7566 Sm
16883 7631 Sl
16883 7631 Sm
17103 7688 Sl
17103 7688 Sm
17323 7739 Sl
17323 7739 Sm
17544 7785 Sl
17544 7785 Sm
17764 7827 Sl
17764 7827 Sm
17984 7865 Sl
17984 7865 Sm
18205 7899 Sl
18205 7899 Sm
18425 7930 Sl
18425 7930 Sm
18645 7958 Sl
/Slrgb {0.753 0.753 0.753} def
Sbp
21780 6118 Sm
21780 6118 SPl
22000 6578 SPl
22221 6754 SPl
22441 6727 SPl
22661 6657 SPl
22881 6602 SPl
23102 6594 SPl
23322 6641 SPl
23542 6738 SPl
23763 6872 SPl
23983 7026 SPl
24203 7186 SPl
24424 7341 SPl
24644 7483 SPl
24864 7611 SPl
25084 7724 SPl
25084 8924 SPl
24864 8867 SPl
24644 8812 SPl
24424 8763 SPl
24203 8725 SPl
23983 8703 SPl
23763 8698 SPl
23542 8715 SPl
23322 8759 SPl
23102 8844 SPl
22881 8992 SPl
22661 9233 SPl
22441 9570 SPl
22221 9912 SPl
22000 9962 SPl
21780 8844 SPl
21780 6118 SPl
1 Sep
/Slrgb {0.102 0.278 0.435} def
21779 7480 Sm
22000 8269 Sl
22000 8269 Sm
22220 8332 Sl
22220 8332 Sm
22440 8148 Sl
22440 8148 Sm
22661 7944 Sl
22661 7944 Sm
22881 7797 Sl
22881 7797 Sm
23101 7718 Sl
23101 7718 Sm
23322 7699 Sl
23322 7699 Sm
23542 7726 Sl
23542 7726 Sm
23762 7785 Sl
23762 7785 Sm
23982 7864 Sl
23982 7864 Sm
24203 7955 Sl
24203 7955 Sm
24423 8051 Sl
24423 8051 Sm
24643 8147 Sl
24643 8147 Sm
24864 8239 Sl
24864 8239 Sm
25084 8324 Sl
/Slrgb {0.753 0.753 0.753} def
Sbp
27370 8010 Sm
27370 8010 SPl
27591 7889 SPl
27811 7748 SPl
28031 7569 SPl
28252 7379 SPl
28472 7188 SPl
28692 7005 SPl
28912 6834 SPl
29133 6679 SPl
29353 6537 SPl
29573 6410 SPl
29794 6294 SPl
30014 6188 SPl
30234 6092 SPl
30455 6003 SPl
30675 5921 SPl
30675 7921 SPl
30455 7989 SPl
30234 8063 SPl
30014 8144 SPl
29794 8232 SPl
29573 8327 SPl
29353 8429 SPl
29133 8537 SPl
28912 8649 SPl
28692 8766 SPl
28472 8889 SPl
28252 9016 SPl
28031 9148 SPl
27811 9269 SPl
27591 9351 SPl
27370 8980 SPl
27370 8010 SPl
1 Sep
/Slrgb {0.102 0.278 0.435} def
27370 8495 Sm
27590 8619 Sl
27590 8619 Sm
27810 8508 Sl
27810 8508 Sm
28031 8358 Sl
28031 8358 Sm
28251 8197 Sl
28251 8197 Sm
28471 8038 Sl
28471 8038 Sm
28692 7885 Sl
28692 7885 Sm
28912 7741 Sl
28912 7741 Sm
29132 7607 Sl
29132 7607 Sm
29353 7483 Sl
29353 7483 Sm
29573 7368 Sl
29573 7368 Sm
29793 7263 Sl
29793 7263 Sm
30013 7166 Sl
30013 7166 Sm
30234 7077 Sl
30234 7077 Sm
30454 6995 Sl
30454 6995 Sm
30674 6920 Sl
/Slw 0.259 def
/Slrgb {0.000 0.000 0.000} def
3209 17007 3209 21653 Sln
3209 17237 3063 17237 Sln
2991 17110 0
/Helvetica-0 findfont 364 yratio mul scalefont setfont
(0) stringwidth pop add
xratio div
dup 4 3 roll exch 0.000 cos mul sub 3 1 roll 0.000 sin mul sub 2 copy
/fntsize {/Helvetica-0 findfont exch scalefont setfont } def
0.000 364
(0) Stxtl
(0) stringwidth pop xratio div
dup 4 3 roll exch 0.000 cos mul add 3 1 roll 0.000 sin mul add 2 copy
pop pop pop pop
3209 18283 3063 18283 Sln
2991 18156 0
/Helvetica-0 findfont 364 yratio mul scalefont setfont
(.005) stringwidth pop add
xratio div
dup 4 3 roll exch 0.000 cos mul sub 3 1 roll 0.000 sin mul sub 2 copy
/fntsize {/Helvetica-0 findfont exch scalefont setfont } def
0.000 364
(.005) Stxtl
(.005) stringwidth pop xratio div
dup 4 3 roll exch 0.000 cos mul add 3 1 roll 0.000 sin mul add 2 copy
pop pop pop pop
3209 19330 3063 19330 Sln
2991 19203 0
/Helvetica-0 findfont 364 yratio mul scalefont setfont
(.01) stringwidth pop add
xratio div
dup 4 3 roll exch 0.000 cos mul sub 3 1 roll 0.000 sin mul sub 2 copy
/fntsize {/Helvetica-0 findfont exch scalefont setfont } def
0.000 364
(.01) Stxtl
(.01) stringwidth pop xratio div
dup 4 3 roll exch 0.000 cos mul add 3 1 roll 0.000 sin mul add 2 copy
pop pop pop pop
3209 20376 3063 20376 Sln
2991 20249 0
/Helvetica-0 findfont 364 yratio mul scalefont setfont
(.015) stringwidth pop add
xratio div
dup 4 3 roll exch 0.000 cos mul sub 3 1 roll 0.000 sin mul sub 2 copy
/fntsize {/Helvetica-0 findfont exch scalefont setfont } def
0.000 364
(.015) Stxtl
(.015) stringwidth pop xratio div
dup 4 3 roll exch 0.000 cos mul add 3 1 roll 0.000 sin mul add 2 copy
pop pop pop pop
3209 21422 3063 21422 Sln
2991 21295 0
/Helvetica-0 findfont 364 yratio mul scalefont setfont
(.02) stringwidth pop add
xratio div
dup 4 3 roll exch 0.000 cos mul sub 3 1 roll 0.000 sin mul sub 2 copy
/fntsize {/Helvetica-0 findfont exch scalefont setfont } def
0.000 364
(.02) Stxtl
(.02) stringwidth pop xratio div
dup 4 3 roll exch 0.000 cos mul add 3 1 roll 0.000 sin mul add 2 copy
pop pop pop pop
9733 17007 9733 21653 Sln
9733 17237 9587 17237 Sln
9514 17110 0
/Helvetica-0 findfont 364 yratio mul scalefont setfont
(0) stringwidth pop add
xratio div
dup 4 3 roll exch 0.000 cos mul sub 3 1 roll 0.000 sin mul sub 2 copy
/fntsize {/Helvetica-0 findfont exch scalefont setfont } def
0.000 364
(0) Stxtl
(0) stringwidth pop xratio div
dup 4 3 roll exch 0.000 cos mul add 3 1 roll 0.000 sin mul add 2 copy
pop pop pop pop
9733 18632 9587 18632 Sln
9514 18505 0
/Helvetica-0 findfont 364 yratio mul scalefont setfont
(.01) stringwidth pop add
xratio div
dup 4 3 roll exch 0.000 cos mul sub 3 1 roll 0.000 sin mul sub 2 copy
/fntsize {/Helvetica-0 findfont exch scalefont setfont } def
0.000 364
(.01) Stxtl
(.01) stringwidth pop xratio div
dup 4 3 roll exch 0.000 cos mul add 3 1 roll 0.000 sin mul add 2 copy
pop pop pop pop
9733 20027 9587 20027 Sln
9514 19900 0
/Helvetica-0 findfont 364 yratio mul scalefont setfont
(.02) stringwidth pop add
xratio div
dup 4 3 roll exch 0.000 cos mul sub 3 1 roll 0.000 sin mul sub 2 copy
/fntsize {/Helvetica-0 findfont exch scalefont setfont } def
0.000 364
(.02) Stxtl
(.02) stringwidth pop xratio div
dup 4 3 roll exch 0.000 cos mul add 3 1 roll 0.000 sin mul add 2 copy
pop pop pop pop
9733 21422 9587 21422 Sln
9514 21295 0
/Helvetica-0 findfont 364 yratio mul scalefont setfont
(.03) stringwidth pop add
xratio div
dup 4 3 roll exch 0.000 cos mul sub 3 1 roll 0.000 sin mul sub 2 copy
/fntsize {/Helvetica-0 findfont exch scalefont setfont } def
0.000 364
(.03) Stxtl
(.03) stringwidth pop xratio div
dup 4 3 roll exch 0.000 cos mul add 3 1 roll 0.000 sin mul add 2 copy
pop pop pop pop
15111 17007 15111 21653 Sln
15111 17237 14965 17237 Sln
14893 17110 0
/Helvetica-0 findfont 364 yratio mul scalefont setfont
(.02) stringwidth pop add
xratio div
dup 4 3 roll exch 0.000 cos mul sub 3 1 roll 0.000 sin mul sub 2 copy
/fntsize {/Helvetica-0 findfont exch scalefont setfont } def
0.000 364
(.02) Stxtl
(.02) stringwidth pop xratio div
dup 4 3 roll exch 0.000 cos mul add 3 1 roll 0.000 sin mul add 2 copy
pop pop pop pop
15111 18283 14965 18283 Sln
14893 18156 0
/Helvetica-0 findfont 364 yratio mul scalefont setfont
(.04) stringwidth pop add
xratio div
dup 4 3 roll exch 0.000 cos mul sub 3 1 roll 0.000 sin mul sub 2 copy
/fntsize {/Helvetica-0 findfont exch scalefont setfont } def
0.000 364
(.04) Stxtl
(.04) stringwidth pop xratio div
dup 4 3 roll exch 0.000 cos mul add 3 1 roll 0.000 sin mul add 2 copy
pop pop pop pop
15111 19330 14965 19330 Sln
14893 19203 0
/Helvetica-0 findfont 364 yratio mul scalefont setfont
(.06) stringwidth pop add
xratio div
dup 4 3 roll exch 0.000 cos mul sub 3 1 roll 0.000 sin mul sub 2 copy
/fntsize {/Helvetica-0 findfont exch scalefont setfont } def
0.000 364
(.06) Stxtl
(.06) stringwidth pop xratio div
dup 4 3 roll exch 0.000 cos mul add 3 1 roll 0.000 sin mul add 2 copy
pop pop pop pop
15111 20376 14965 20376 Sln
14893 20249 0
/Helvetica-0 findfont 364 yratio mul scalefont setfont
(.08) stringwidth pop add
xratio div
dup 4 3 roll exch 0.000 cos mul sub 3 1 roll 0.000 sin mul sub 2 copy
/fntsize {/Helvetica-0 findfont exch scalefont setfont } def
0.000 364
(.08) Stxtl
(.08) stringwidth pop xratio div
dup 4 3 roll exch 0.000 cos mul add 3 1 roll 0.000 sin mul add 2 copy
pop pop pop pop
15111 21422 14965 21422 Sln
14893 21295 0
/Helvetica-0 findfont 364 yratio mul scalefont setfont
(.1) stringwidth pop add
xratio div
dup 4 3 roll exch 0.000 cos mul sub 3 1 roll 0.000 sin mul sub 2 copy
/fntsize {/Helvetica-0 findfont exch scalefont setfont } def
0.000 364
(.1) Stxtl
(.1) stringwidth pop xratio div
dup 4 3 roll exch 0.000 cos mul add 3 1 roll 0.000 sin mul add 2 copy
pop pop pop pop
21550 17007 21550 21653 Sln
21550 17366 21404 17366 Sln
21331 17239 0
/Helvetica-0 findfont 364 yratio mul scalefont setfont
(-.0015) stringwidth pop add
xratio div
dup 4 3 roll exch 0.000 cos mul sub 3 1 roll 0.000 sin mul sub 2 copy
/fntsize {/Helvetica-0 findfont exch scalefont setfont } def
0.000 364
(-.0015) Stxtl
(-.0015) stringwidth pop xratio div
dup 4 3 roll exch 0.000 cos mul add 3 1 roll 0.000 sin mul add 2 copy
pop pop pop pop
21550 18624 21404 18624 Sln
21331 18497 0
/Helvetica-0 findfont 364 yratio mul scalefont setfont
(-.001) stringwidth pop add
xratio div
dup 4 3 roll exch 0.000 cos mul sub 3 1 roll 0.000 sin mul sub 2 copy
/fntsize {/Helvetica-0 findfont exch scalefont setfont } def
0.000 364
(-.001) Stxtl
(-.001) stringwidth pop xratio div
dup 4 3 roll exch 0.000 cos mul add 3 1 roll 0.000 sin mul add 2 copy
pop pop pop pop
21550 19882 21404 19882 Sln
21331 19755 0
/Helvetica-0 findfont 364 yratio mul scalefont setfont
(-.0005) stringwidth pop add
xratio div
dup 4 3 roll exch 0.000 cos mul sub 3 1 roll 0.000 sin mul sub 2 copy
/fntsize {/Helvetica-0 findfont exch scalefont setfont } def
0.000 364
(-.0005) Stxtl
(-.0005) stringwidth pop xratio div
dup 4 3 roll exch 0.000 cos mul add 3 1 roll 0.000 sin mul add 2 copy
pop pop pop pop
21550 21139 21404 21139 Sln
21331 21012 0
/Helvetica-0 findfont 364 yratio mul scalefont setfont
(0) stringwidth pop add
xratio div
dup 4 3 roll exch 0.000 cos mul sub 3 1 roll 0.000 sin mul sub 2 copy
/fntsize {/Helvetica-0 findfont exch scalefont setfont } def
0.000 364
(0) Stxtl
(0) stringwidth pop xratio div
dup 4 3 roll exch 0.000 cos mul add 3 1 roll 0.000 sin mul add 2 copy
pop pop pop pop
27140 17007 27140 21653 Sln
27140 17237 26995 17237 Sln
26922 17110 0
/Helvetica-0 findfont 364 yratio mul scalefont setfont
(-.002) stringwidth pop add
xratio div
dup 4 3 roll exch 0.000 cos mul sub 3 1 roll 0.000 sin mul sub 2 copy
/fntsize {/Helvetica-0 findfont exch scalefont setfont } def
0.000 364
(-.002) Stxtl
(-.002) stringwidth pop xratio div
dup 4 3 roll exch 0.000 cos mul add 3 1 roll 0.000 sin mul add 2 copy
pop pop pop pop
27140 18475 26995 18475 Sln
26922 18348 0
/Helvetica-0 findfont 364 yratio mul scalefont setfont
(0) stringwidth pop add
xratio div
dup 4 3 roll exch 0.000 cos mul sub 3 1 roll 0.000 sin mul sub 2 copy
/fntsize {/Helvetica-0 findfont exch scalefont setfont } def
0.000 364
(0) Stxtl
(0) stringwidth pop xratio div
dup 4 3 roll exch 0.000 cos mul add 3 1 roll 0.000 sin mul add 2 copy
pop pop pop pop
27140 19713 26995 19713 Sln
26922 19586 0
/Helvetica-0 findfont 364 yratio mul scalefont setfont
(.002) stringwidth pop add
xratio div
dup 4 3 roll exch 0.000 cos mul sub 3 1 roll 0.000 sin mul sub 2 copy
/fntsize {/Helvetica-0 findfont exch scalefont setfont } def
0.000 364
(.002) Stxtl
(.002) stringwidth pop xratio div
dup 4 3 roll exch 0.000 cos mul add 3 1 roll 0.000 sin mul add 2 copy
pop pop pop pop
27140 20951 26995 20951 Sln
26922 20824 0
/Helvetica-0 findfont 364 yratio mul scalefont setfont
(.004) stringwidth pop add
xratio div
dup 4 3 roll exch 0.000 cos mul sub 3 1 roll 0.000 sin mul sub 2 copy
/fntsize {/Helvetica-0 findfont exch scalefont setfont } def
0.000 364
(.004) Stxtl
(.004) stringwidth pop xratio div
dup 4 3 roll exch 0.000 cos mul add 3 1 roll 0.000 sin mul add 2 copy
pop pop pop pop
3209 11277 3209 15923 Sln
3209 11507 3063 11507 Sln
2991 11380 0
/Helvetica-0 findfont 364 yratio mul scalefont setfont
(-.015) stringwidth pop add
xratio div
dup 4 3 roll exch 0.000 cos mul sub 3 1 roll 0.000 sin mul sub 2 copy
/fntsize {/Helvetica-0 findfont exch scalefont setfont } def
0.000 364
(-.015) Stxtl
(-.015) stringwidth pop xratio div
dup 4 3 roll exch 0.000 cos mul add 3 1 roll 0.000 sin mul add 2 copy
pop pop pop pop
3209 12553 3063 12553 Sln
2991 12426 0
/Helvetica-0 findfont 364 yratio mul scalefont setfont
(-.01) stringwidth pop add
xratio div
dup 4 3 roll exch 0.000 cos mul sub 3 1 roll 0.000 sin mul sub 2 copy
/fntsize {/Helvetica-0 findfont exch scalefont setfont } def
0.000 364
(-.01) Stxtl
(-.01) stringwidth pop xratio div
dup 4 3 roll exch 0.000 cos mul add 3 1 roll 0.000 sin mul add 2 copy
pop pop pop pop
3209 13600 3063 13600 Sln
2991 13473 0
/Helvetica-0 findfont 364 yratio mul scalefont setfont
(-.005) stringwidth pop add
xratio div
dup 4 3 roll exch 0.000 cos mul sub 3 1 roll 0.000 sin mul sub 2 copy
/fntsize {/Helvetica-0 findfont exch scalefont setfont } def
0.000 364
(-.005) Stxtl
(-.005) stringwidth pop xratio div
dup 4 3 roll exch 0.000 cos mul add 3 1 roll 0.000 sin mul add 2 copy
pop pop pop pop
3209 14646 3063 14646 Sln
2991 14519 0
/Helvetica-0 findfont 364 yratio mul scalefont setfont
(0) stringwidth pop add
xratio div
dup 4 3 roll exch 0.000 cos mul sub 3 1 roll 0.000 sin mul sub 2 copy
/fntsize {/Helvetica-0 findfont exch scalefont setfont } def
0.000 364
(0) Stxtl
(0) stringwidth pop xratio div
dup 4 3 roll exch 0.000 cos mul add 3 1 roll 0.000 sin mul add 2 copy
pop pop pop pop
3209 15692 3063 15692 Sln
2991 15565 0
/Helvetica-0 findfont 364 yratio mul scalefont setfont
(.005) stringwidth pop add
xratio div
dup 4 3 roll exch 0.000 cos mul sub 3 1 roll 0.000 sin mul sub 2 copy
/fntsize {/Helvetica-0 findfont exch scalefont setfont } def
0.000 364
(.005) Stxtl
(.005) stringwidth pop xratio div
dup 4 3 roll exch 0.000 cos mul add 3 1 roll 0.000 sin mul add 2 copy
pop pop pop pop
9733 11277 9733 15923 Sln
9733 11507 9587 11507 Sln
9514 11380 0
/Helvetica-0 findfont 364 yratio mul scalefont setfont
(-.02) stringwidth pop add
xratio div
dup 4 3 roll exch 0.000 cos mul sub 3 1 roll 0.000 sin mul sub 2 copy
/fntsize {/Helvetica-0 findfont exch scalefont setfont } def
0.000 364
(-.02) Stxtl
(-.02) stringwidth pop xratio div
dup 4 3 roll exch 0.000 cos mul add 3 1 roll 0.000 sin mul add 2 copy
pop pop pop pop
9733 15414 9587 15414 Sln
9514 15287 0
/Helvetica-0 findfont 364 yratio mul scalefont setfont
(0) stringwidth pop add
xratio div
dup 4 3 roll exch 0.000 cos mul sub 3 1 roll 0.000 sin mul sub 2 copy
/fntsize {/Helvetica-0 findfont exch scalefont setfont } def
0.000 364
(0) Stxtl
(0) stringwidth pop xratio div
dup 4 3 roll exch 0.000 cos mul add 3 1 roll 0.000 sin mul add 2 copy
pop pop pop pop
15111 11277 15111 15923 Sln
15111 11507 14965 11507 Sln
14893 11380 0
/Helvetica-0 findfont 364 yratio mul scalefont setfont
(-.01) stringwidth pop add
xratio div
dup 4 3 roll exch 0.000 cos mul sub 3 1 roll 0.000 sin mul sub 2 copy
/fntsize {/Helvetica-0 findfont exch scalefont setfont } def
0.000 364
(-.01) Stxtl
(-.01) stringwidth pop xratio div
dup 4 3 roll exch 0.000 cos mul add 3 1 roll 0.000 sin mul add 2 copy
pop pop pop pop
15111 12553 14965 12553 Sln
14893 12426 0
/Helvetica-0 findfont 364 yratio mul scalefont setfont
(0) stringwidth pop add
xratio div
dup 4 3 roll exch 0.000 cos mul sub 3 1 roll 0.000 sin mul sub 2 copy
/fntsize {/Helvetica-0 findfont exch scalefont setfont } def
0.000 364
(0) Stxtl
(0) stringwidth pop xratio div
dup 4 3 roll exch 0.000 cos mul add 3 1 roll 0.000 sin mul add 2 copy
pop pop pop pop
15111 13600 14965 13600 Sln
14893 13473 0
/Helvetica-0 findfont 364 yratio mul scalefont setfont
(.01) stringwidth pop add
xratio div
dup 4 3 roll exch 0.000 cos mul sub 3 1 roll 0.000 sin mul sub 2 copy
/fntsize {/Helvetica-0 findfont exch scalefont setfont } def
0.000 364
(.01) Stxtl
(.01) stringwidth pop xratio div
dup 4 3 roll exch 0.000 cos mul add 3 1 roll 0.000 sin mul add 2 copy
pop pop pop pop
15111 14646 14965 14646 Sln
14893 14519 0
/Helvetica-0 findfont 364 yratio mul scalefont setfont
(.02) stringwidth pop add
xratio div
dup 4 3 roll exch 0.000 cos mul sub 3 1 roll 0.000 sin mul sub 2 copy
/fntsize {/Helvetica-0 findfont exch scalefont setfont } def
0.000 364
(.02) Stxtl
(.02) stringwidth pop xratio div
dup 4 3 roll exch 0.000 cos mul add 3 1 roll 0.000 sin mul add 2 copy
pop pop pop pop
15111 15692 14965 15692 Sln
14893 15565 0
/Helvetica-0 findfont 364 yratio mul scalefont setfont
(.03) stringwidth pop add
xratio div
dup 4 3 roll exch 0.000 cos mul sub 3 1 roll 0.000 sin mul sub 2 copy
/fntsize {/Helvetica-0 findfont exch scalefont setfont } def
0.000 364
(.03) Stxtl
(.03) stringwidth pop xratio div
dup 4 3 roll exch 0.000 cos mul add 3 1 roll 0.000 sin mul add 2 copy
pop pop pop pop
21550 11277 21550 15923 Sln
21550 11507 21404 11507 Sln
21331 11380 0
/Helvetica-0 findfont 364 yratio mul scalefont setfont
(-.001) stringwidth pop add
xratio div
dup 4 3 roll exch 0.000 cos mul sub 3 1 roll 0.000 sin mul sub 2 copy
/fntsize {/Helvetica-0 findfont exch scalefont setfont } def
0.000 364
(-.001) Stxtl
(-.001) stringwidth pop xratio div
dup 4 3 roll exch 0.000 cos mul add 3 1 roll 0.000 sin mul add 2 copy
pop pop pop pop
21550 12902 21404 12902 Sln
21331 12775 0
/Helvetica-0 findfont 364 yratio mul scalefont setfont
(0) stringwidth pop add
xratio div
dup 4 3 roll exch 0.000 cos mul sub 3 1 roll 0.000 sin mul sub 2 copy
/fntsize {/Helvetica-0 findfont exch scalefont setfont } def
0.000 364
(0) Stxtl
(0) stringwidth pop xratio div
dup 4 3 roll exch 0.000 cos mul add 3 1 roll 0.000 sin mul add 2 copy
pop pop pop pop
21550 14297 21404 14297 Sln
21331 14170 0
/Helvetica-0 findfont 364 yratio mul scalefont setfont
(.001) stringwidth pop add
xratio div
dup 4 3 roll exch 0.000 cos mul sub 3 1 roll 0.000 sin mul sub 2 copy
/fntsize {/Helvetica-0 findfont exch scalefont setfont } def
0.000 364
(.001) Stxtl
(.001) stringwidth pop xratio div
dup 4 3 roll exch 0.000 cos mul add 3 1 roll 0.000 sin mul add 2 copy
pop pop pop pop
21550 15692 21404 15692 Sln
21331 15565 0
/Helvetica-0 findfont 364 yratio mul scalefont setfont
(.002) stringwidth pop add
xratio div
dup 4 3 roll exch 0.000 cos mul sub 3 1 roll 0.000 sin mul sub 2 copy
/fntsize {/Helvetica-0 findfont exch scalefont setfont } def
0.000 364
(.002) Stxtl
(.002) stringwidth pop xratio div
dup 4 3 roll exch 0.000 cos mul add 3 1 roll 0.000 sin mul add 2 copy
pop pop pop pop
27140 11277 27140 15923 Sln
27140 11507 26995 11507 Sln
26922 11380 0
/Helvetica-0 findfont 364 yratio mul scalefont setfont
(-.002) stringwidth pop add
xratio div
dup 4 3 roll exch 0.000 cos mul sub 3 1 roll 0.000 sin mul sub 2 copy
/fntsize {/Helvetica-0 findfont exch scalefont setfont } def
0.000 364
(-.002) Stxtl
(-.002) stringwidth pop xratio div
dup 4 3 roll exch 0.000 cos mul add 3 1 roll 0.000 sin mul add 2 copy
pop pop pop pop
27140 13558 26995 13558 Sln
26922 13431 0
/Helvetica-0 findfont 364 yratio mul scalefont setfont
(0) stringwidth pop add
xratio div
dup 4 3 roll exch 0.000 cos mul sub 3 1 roll 0.000 sin mul sub 2 copy
/fntsize {/Helvetica-0 findfont exch scalefont setfont } def
0.000 364
(0) Stxtl
(0) stringwidth pop xratio div
dup 4 3 roll exch 0.000 cos mul add 3 1 roll 0.000 sin mul add 2 copy
pop pop pop pop
27140 15609 26995 15609 Sln
26922 15482 0
/Helvetica-0 findfont 364 yratio mul scalefont setfont
(.002) stringwidth pop add
xratio div
dup 4 3 roll exch 0.000 cos mul sub 3 1 roll 0.000 sin mul sub 2 copy
/fntsize {/Helvetica-0 findfont exch scalefont setfont } def
0.000 364
(.002) Stxtl
(.002) stringwidth pop xratio div
dup 4 3 roll exch 0.000 cos mul add 3 1 roll 0.000 sin mul add 2 copy
pop pop pop pop
3209 5547 3209 10192 Sln
3209 5777 3063 5777 Sln
2991 5650 0
/Helvetica-0 findfont 364 yratio mul scalefont setfont
(-.01) stringwidth pop add
xratio div
dup 4 3 roll exch 0.000 cos mul sub 3 1 roll 0.000 sin mul sub 2 copy
/fntsize {/Helvetica-0 findfont exch scalefont setfont } def
0.000 364
(-.01) Stxtl
(-.01) stringwidth pop xratio div
dup 4 3 roll exch 0.000 cos mul add 3 1 roll 0.000 sin mul add 2 copy
pop pop pop pop
3209 6793 3063 6793 Sln
2991 6666 0
/Helvetica-0 findfont 364 yratio mul scalefont setfont
(-.005) stringwidth pop add
xratio div
dup 4 3 roll exch 0.000 cos mul sub 3 1 roll 0.000 sin mul sub 2 copy
/fntsize {/Helvetica-0 findfont exch scalefont setfont } def
0.000 364
(-.005) Stxtl
(-.005) stringwidth pop xratio div
dup 4 3 roll exch 0.000 cos mul add 3 1 roll 0.000 sin mul add 2 copy
pop pop pop pop
3209 7810 3063 7810 Sln
2991 7683 0
/Helvetica-0 findfont 364 yratio mul scalefont setfont
(0) stringwidth pop add
xratio div
dup 4 3 roll exch 0.000 cos mul sub 3 1 roll 0.000 sin mul sub 2 copy
/fntsize {/Helvetica-0 findfont exch scalefont setfont } def
0.000 364
(0) Stxtl
(0) stringwidth pop xratio div
dup 4 3 roll exch 0.000 cos mul add 3 1 roll 0.000 sin mul add 2 copy
pop pop pop pop
3209 8826 3063 8826 Sln
2991 8699 0
/Helvetica-0 findfont 364 yratio mul scalefont setfont
(.005) stringwidth pop add
xratio div
dup 4 3 roll exch 0.000 cos mul sub 3 1 roll 0.000 sin mul sub 2 copy
/fntsize {/Helvetica-0 findfont exch scalefont setfont } def
0.000 364
(.005) Stxtl
(.005) stringwidth pop xratio div
dup 4 3 roll exch 0.000 cos mul add 3 1 roll 0.000 sin mul add 2 copy
pop pop pop pop
3209 9842 3063 9842 Sln
2991 9715 0
/Helvetica-0 findfont 364 yratio mul scalefont setfont
(.01) stringwidth pop add
xratio div
dup 4 3 roll exch 0.000 cos mul sub 3 1 roll 0.000 sin mul sub 2 copy
/fntsize {/Helvetica-0 findfont exch scalefont setfont } def
0.000 364
(.01) Stxtl
(.01) stringwidth pop xratio div
dup 4 3 roll exch 0.000 cos mul add 3 1 roll 0.000 sin mul add 2 copy
pop pop pop pop
9733 5547 9733 10192 Sln
9733 5777 9587 5777 Sln
9514 5650 0
/Helvetica-0 findfont 364 yratio mul scalefont setfont
(0) stringwidth pop add
xratio div
dup 4 3 roll exch 0.000 cos mul sub 3 1 roll 0.000 sin mul sub 2 copy
/fntsize {/Helvetica-0 findfont exch scalefont setfont } def
0.000 364
(0) Stxtl
(0) stringwidth pop xratio div
dup 4 3 roll exch 0.000 cos mul add 3 1 roll 0.000 sin mul add 2 copy
pop pop pop pop
9733 6757 9587 6757 Sln
9514 6630 0
/Helvetica-0 findfont 364 yratio mul scalefont setfont
(.005) stringwidth pop add
xratio div
dup 4 3 roll exch 0.000 cos mul sub 3 1 roll 0.000 sin mul sub 2 copy
/fntsize {/Helvetica-0 findfont exch scalefont setfont } def
0.000 364
(.005) Stxtl
(.005) stringwidth pop xratio div
dup 4 3 roll exch 0.000 cos mul add 3 1 roll 0.000 sin mul add 2 copy
pop pop pop pop
9733 7738 9587 7738 Sln
9514 7611 0
/Helvetica-0 findfont 364 yratio mul scalefont setfont
(.01) stringwidth pop add
xratio div
dup 4 3 roll exch 0.000 cos mul sub 3 1 roll 0.000 sin mul sub 2 copy
/fntsize {/Helvetica-0 findfont exch scalefont setfont } def
0.000 364
(.01) Stxtl
(.01) stringwidth pop xratio div
dup 4 3 roll exch 0.000 cos mul add 3 1 roll 0.000 sin mul add 2 copy
pop pop pop pop
9733 8718 9587 8718 Sln
9514 8591 0
/Helvetica-0 findfont 364 yratio mul scalefont setfont
(.015) stringwidth pop add
xratio div
dup 4 3 roll exch 0.000 cos mul sub 3 1 roll 0.000 sin mul sub 2 copy
/fntsize {/Helvetica-0 findfont exch scalefont setfont } def
0.000 364
(.015) Stxtl
(.015) stringwidth pop xratio div
dup 4 3 roll exch 0.000 cos mul add 3 1 roll 0.000 sin mul add 2 copy
pop pop pop pop
9733 9699 9587 9699 Sln
9514 9572 0
/Helvetica-0 findfont 364 yratio mul scalefont setfont
(.02) stringwidth pop add
xratio div
dup 4 3 roll exch 0.000 cos mul sub 3 1 roll 0.000 sin mul sub 2 copy
/fntsize {/Helvetica-0 findfont exch scalefont setfont } def
0.000 364
(.02) Stxtl
(.02) stringwidth pop xratio div
dup 4 3 roll exch 0.000 cos mul add 3 1 roll 0.000 sin mul add 2 copy
pop pop pop pop
15111 5547 15111 10192 Sln
15111 5911 14965 5911 Sln
14893 5784 0
/Helvetica-0 findfont 364 yratio mul scalefont setfont
(-.01) stringwidth pop add
xratio div
dup 4 3 roll exch 0.000 cos mul sub 3 1 roll 0.000 sin mul sub 2 copy
/fntsize {/Helvetica-0 findfont exch scalefont setfont } def
0.000 364
(-.01) Stxtl
(-.01) stringwidth pop xratio div
dup 4 3 roll exch 0.000 cos mul add 3 1 roll 0.000 sin mul add 2 copy
pop pop pop pop
15111 7261 14965 7261 Sln
14893 7134 0
/Helvetica-0 findfont 364 yratio mul scalefont setfont
(0) stringwidth pop add
xratio div
dup 4 3 roll exch 0.000 cos mul sub 3 1 roll 0.000 sin mul sub 2 copy
/fntsize {/Helvetica-0 findfont exch scalefont setfont } def
0.000 364
(0) Stxtl
(0) stringwidth pop xratio div
dup 4 3 roll exch 0.000 cos mul add 3 1 roll 0.000 sin mul add 2 copy
pop pop pop pop
15111 8612 14965 8612 Sln
14893 8485 0
/Helvetica-0 findfont 364 yratio mul scalefont setfont
(.01) stringwidth pop add
xratio div
dup 4 3 roll exch 0.000 cos mul sub 3 1 roll 0.000 sin mul sub 2 copy
/fntsize {/Helvetica-0 findfont exch scalefont setfont } def
0.000 364
(.01) Stxtl
(.01) stringwidth pop xratio div
dup 4 3 roll exch 0.000 cos mul add 3 1 roll 0.000 sin mul add 2 copy
pop pop pop pop
15111 9962 14965 9962 Sln
14893 9835 0
/Helvetica-0 findfont 364 yratio mul scalefont setfont
(.02) stringwidth pop add
xratio div
dup 4 3 roll exch 0.000 cos mul sub 3 1 roll 0.000 sin mul sub 2 copy
/fntsize {/Helvetica-0 findfont exch scalefont setfont } def
0.000 364
(.02) Stxtl
(.02) stringwidth pop xratio div
dup 4 3 roll exch 0.000 cos mul add 3 1 roll 0.000 sin mul add 2 copy
pop pop pop pop
21550 5547 21550 10192 Sln
21550 5777 21404 5777 Sln
21331 5650 0
/Helvetica-0 findfont 364 yratio mul scalefont setfont
(-.0004) stringwidth pop add
xratio div
dup 4 3 roll exch 0.000 cos mul sub 3 1 roll 0.000 sin mul sub 2 copy
/fntsize {/Helvetica-0 findfont exch scalefont setfont } def
0.000 364
(-.0004) Stxtl
(-.0004) stringwidth pop xratio div
dup 4 3 roll exch 0.000 cos mul add 3 1 roll 0.000 sin mul add 2 copy
pop pop pop pop
21550 7006 21404 7006 Sln
21331 6879 0
/Helvetica-0 findfont 364 yratio mul scalefont setfont
(-.0002) stringwidth pop add
xratio div
dup 4 3 roll exch 0.000 cos mul sub 3 1 roll 0.000 sin mul sub 2 copy
/fntsize {/Helvetica-0 findfont exch scalefont setfont } def
0.000 364
(-.0002) Stxtl
(-.0002) stringwidth pop xratio div
dup 4 3 roll exch 0.000 cos mul add 3 1 roll 0.000 sin mul add 2 copy
pop pop pop pop
21550 8234 21404 8234 Sln
21331 8107 0
/Helvetica-0 findfont 364 yratio mul scalefont setfont
(0) stringwidth pop add
xratio div
dup 4 3 roll exch 0.000 cos mul sub 3 1 roll 0.000 sin mul sub 2 copy
/fntsize {/Helvetica-0 findfont exch scalefont setfont } def
0.000 364
(0) Stxtl
(0) stringwidth pop xratio div
dup 4 3 roll exch 0.000 cos mul add 3 1 roll 0.000 sin mul add 2 copy
pop pop pop pop
21550 9463 21404 9463 Sln
21331 9336 0
/Helvetica-0 findfont 364 yratio mul scalefont setfont
(.0002) stringwidth pop add
xratio div
dup 4 3 roll exch 0.000 cos mul sub 3 1 roll 0.000 sin mul sub 2 copy
/fntsize {/Helvetica-0 findfont exch scalefont setfont } def
0.000 364
(.0002) Stxtl
(.0002) stringwidth pop xratio div
dup 4 3 roll exch 0.000 cos mul add 3 1 roll 0.000 sin mul add 2 copy
pop pop pop pop
27140 5547 27140 10192 Sln
27140 5777 26995 5777 Sln
26922 5650 0
/Helvetica-0 findfont 364 yratio mul scalefont setfont
(.004) stringwidth pop add
xratio div
dup 4 3 roll exch 0.000 cos mul sub 3 1 roll 0.000 sin mul sub 2 copy
/fntsize {/Helvetica-0 findfont exch scalefont setfont } def
0.000 364
(.004) Stxtl
(.004) stringwidth pop xratio div
dup 4 3 roll exch 0.000 cos mul add 3 1 roll 0.000 sin mul add 2 copy
pop pop pop pop
27140 7172 26995 7172 Sln
26922 7045 0
/Helvetica-0 findfont 364 yratio mul scalefont setfont
(.006) stringwidth pop add
xratio div
dup 4 3 roll exch 0.000 cos mul sub 3 1 roll 0.000 sin mul sub 2 copy
/fntsize {/Helvetica-0 findfont exch scalefont setfont } def
0.000 364
(.006) Stxtl
(.006) stringwidth pop xratio div
dup 4 3 roll exch 0.000 cos mul add 3 1 roll 0.000 sin mul add 2 copy
pop pop pop pop
27140 8567 26995 8567 Sln
26922 8440 0
/Helvetica-0 findfont 364 yratio mul scalefont setfont
(.008) stringwidth pop add
xratio div
dup 4 3 roll exch 0.000 cos mul sub 3 1 roll 0.000 sin mul sub 2 copy
/fntsize {/Helvetica-0 findfont exch scalefont setfont } def
0.000 364
(.008) Stxtl
(.008) stringwidth pop xratio div
dup 4 3 roll exch 0.000 cos mul add 3 1 roll 0.000 sin mul add 2 copy
pop pop pop pop
27140 9962 26995 9962 Sln
26922 9835 0
/Helvetica-0 findfont 364 yratio mul scalefont setfont
(.01) stringwidth pop add
xratio div
dup 4 3 roll exch 0.000 cos mul sub 3 1 roll 0.000 sin mul sub 2 copy
/fntsize {/Helvetica-0 findfont exch scalefont setfont } def
0.000 364
(.01) Stxtl
(.01) stringwidth pop xratio div
dup 4 3 roll exch 0.000 cos mul add 3 1 roll 0.000 sin mul add 2 copy
pop pop pop pop
3209 5547 6974 5547 Sln
3439 5547 3439 5401 Sln
3439 5073 0
/Helvetica-0 findfont 364 yratio mul scalefont setfont
(0) stringwidth pop add
2 div xratio div
dup 4 3 roll exch 0.000 cos mul sub 3 1 roll 0.000 sin mul sub 2 copy
/fntsize {/Helvetica-0 findfont exch scalefont setfont } def
0.000 364
(0) Stxtl
(0) stringwidth pop xratio div
dup 4 3 roll exch 0.000 cos mul add 3 1 roll 0.000 sin mul add 2 copy
pop pop pop pop
4541 5547 4541 5401 Sln
4541 5073 0
/Helvetica-0 findfont 364 yratio mul scalefont setfont
(5) stringwidth pop add
2 div xratio div
dup 4 3 roll exch 0.000 cos mul sub 3 1 roll 0.000 sin mul sub 2 copy
/fntsize {/Helvetica-0 findfont exch scalefont setfont } def
0.000 364
(5) Stxtl
(5) stringwidth pop xratio div
dup 4 3 roll exch 0.000 cos mul add 3 1 roll 0.000 sin mul add 2 copy
pop pop pop pop
5642 5547 5642 5401 Sln
5642 5073 0
/Helvetica-0 findfont 364 yratio mul scalefont setfont
(10) stringwidth pop add
2 div xratio div
dup 4 3 roll exch 0.000 cos mul sub 3 1 roll 0.000 sin mul sub 2 copy
/fntsize {/Helvetica-0 findfont exch scalefont setfont } def
0.000 364
(10) Stxtl
(10) stringwidth pop xratio div
dup 4 3 roll exch 0.000 cos mul add 3 1 roll 0.000 sin mul add 2 copy
pop pop pop pop
6744 5547 6744 5401 Sln
6744 5073 0
/Helvetica-0 findfont 364 yratio mul scalefont setfont
(15) stringwidth pop add
2 div xratio div
dup 4 3 roll exch 0.000 cos mul sub 3 1 roll 0.000 sin mul sub 2 copy
/fntsize {/Helvetica-0 findfont exch scalefont setfont } def
0.000 364
(15) Stxtl
(15) stringwidth pop xratio div
dup 4 3 roll exch 0.000 cos mul add 3 1 roll 0.000 sin mul add 2 copy
pop pop pop pop
9733 5547 13498 5547 Sln
9963 5547 9963 5401 Sln
9963 5073 0
/Helvetica-0 findfont 364 yratio mul scalefont setfont
(0) stringwidth pop add
2 div xratio div
dup 4 3 roll exch 0.000 cos mul sub 3 1 roll 0.000 sin mul sub 2 copy
/fntsize {/Helvetica-0 findfont exch scalefont setfont } def
0.000 364
(0) Stxtl
(0) stringwidth pop xratio div
dup 4 3 roll exch 0.000 cos mul add 3 1 roll 0.000 sin mul add 2 copy
pop pop pop pop
11064 5547 11064 5401 Sln
11064 5073 0
/Helvetica-0 findfont 364 yratio mul scalefont setfont
(5) stringwidth pop add
2 div xratio div
dup 4 3 roll exch 0.000 cos mul sub 3 1 roll 0.000 sin mul sub 2 copy
/fntsize {/Helvetica-0 findfont exch scalefont setfont } def
0.000 364
(5) Stxtl
(5) stringwidth pop xratio div
dup 4 3 roll exch 0.000 cos mul add 3 1 roll 0.000 sin mul add 2 copy
pop pop pop pop
12166 5547 12166 5401 Sln
12166 5073 0
/Helvetica-0 findfont 364 yratio mul scalefont setfont
(10) stringwidth pop add
2 div xratio div
dup 4 3 roll exch 0.000 cos mul sub 3 1 roll 0.000 sin mul sub 2 copy
/fntsize {/Helvetica-0 findfont exch scalefont setfont } def
0.000 364
(10) Stxtl
(10) stringwidth pop xratio div
dup 4 3 roll exch 0.000 cos mul add 3 1 roll 0.000 sin mul add 2 copy
pop pop pop pop
13267 5547 13267 5401 Sln
13267 5073 0
/Helvetica-0 findfont 364 yratio mul scalefont setfont
(15) stringwidth pop add
2 div xratio div
dup 4 3 roll exch 0.000 cos mul sub 3 1 roll 0.000 sin mul sub 2 copy
/fntsize {/Helvetica-0 findfont exch scalefont setfont } def
0.000 364
(15) Stxtl
(15) stringwidth pop xratio div
dup 4 3 roll exch 0.000 cos mul add 3 1 roll 0.000 sin mul add 2 copy
pop pop pop pop
15111 5547 18876 5547 Sln
15341 5547 15341 5401 Sln
15341 5073 0
/Helvetica-0 findfont 364 yratio mul scalefont setfont
(0) stringwidth pop add
2 div xratio div
dup 4 3 roll exch 0.000 cos mul sub 3 1 roll 0.000 sin mul sub 2 copy
/fntsize {/Helvetica-0 findfont exch scalefont setfont } def
0.000 364
(0) Stxtl
(0) stringwidth pop xratio div
dup 4 3 roll exch 0.000 cos mul add 3 1 roll 0.000 sin mul add 2 copy
pop pop pop pop
16443 5547 16443 5401 Sln
16443 5073 0
/Helvetica-0 findfont 364 yratio mul scalefont setfont
(5) stringwidth pop add
2 div xratio div
dup 4 3 roll exch 0.000 cos mul sub 3 1 roll 0.000 sin mul sub 2 copy
/fntsize {/Helvetica-0 findfont exch scalefont setfont } def
0.000 364
(5) Stxtl
(5) stringwidth pop xratio div
dup 4 3 roll exch 0.000 cos mul add 3 1 roll 0.000 sin mul add 2 copy
pop pop pop pop
17544 5547 17544 5401 Sln
17544 5073 0
/Helvetica-0 findfont 364 yratio mul scalefont setfont
(10) stringwidth pop add
2 div xratio div
dup 4 3 roll exch 0.000 cos mul sub 3 1 roll 0.000 sin mul sub 2 copy
/fntsize {/Helvetica-0 findfont exch scalefont setfont } def
0.000 364
(10) Stxtl
(10) stringwidth pop xratio div
dup 4 3 roll exch 0.000 cos mul add 3 1 roll 0.000 sin mul add 2 copy
pop pop pop pop
18646 5547 18646 5401 Sln
18646 5073 0
/Helvetica-0 findfont 364 yratio mul scalefont setfont
(15) stringwidth pop add
2 div xratio div
dup 4 3 roll exch 0.000 cos mul sub 3 1 roll 0.000 sin mul sub 2 copy
/fntsize {/Helvetica-0 findfont exch scalefont setfont } def
0.000 364
(15) Stxtl
(15) stringwidth pop xratio div
dup 4 3 roll exch 0.000 cos mul add 3 1 roll 0.000 sin mul add 2 copy
pop pop pop pop
21550 5547 25315 5547 Sln
21780 5547 21780 5401 Sln
21780 5073 0
/Helvetica-0 findfont 364 yratio mul scalefont setfont
(0) stringwidth pop add
2 div xratio div
dup 4 3 roll exch 0.000 cos mul sub 3 1 roll 0.000 sin mul sub 2 copy
/fntsize {/Helvetica-0 findfont exch scalefont setfont } def
0.000 364
(0) Stxtl
(0) stringwidth pop xratio div
dup 4 3 roll exch 0.000 cos mul add 3 1 roll 0.000 sin mul add 2 copy
pop pop pop pop
22881 5547 22881 5401 Sln
22881 5073 0
/Helvetica-0 findfont 364 yratio mul scalefont setfont
(5) stringwidth pop add
2 div xratio div
dup 4 3 roll exch 0.000 cos mul sub 3 1 roll 0.000 sin mul sub 2 copy
/fntsize {/Helvetica-0 findfont exch scalefont setfont } def
0.000 364
(5) Stxtl
(5) stringwidth pop xratio div
dup 4 3 roll exch 0.000 cos mul add 3 1 roll 0.000 sin mul add 2 copy
pop pop pop pop
23983 5547 23983 5401 Sln
23983 5073 0
/Helvetica-0 findfont 364 yratio mul scalefont setfont
(10) stringwidth pop add
2 div xratio div
dup 4 3 roll exch 0.000 cos mul sub 3 1 roll 0.000 sin mul sub 2 copy
/fntsize {/Helvetica-0 findfont exch scalefont setfont } def
0.000 364
(10) Stxtl
(10) stringwidth pop xratio div
dup 4 3 roll exch 0.000 cos mul add 3 1 roll 0.000 sin mul add 2 copy
pop pop pop pop
25084 5547 25084 5401 Sln
25084 5073 0
/Helvetica-0 findfont 364 yratio mul scalefont setfont
(15) stringwidth pop add
2 div xratio div
dup 4 3 roll exch 0.000 cos mul sub 3 1 roll 0.000 sin mul sub 2 copy
/fntsize {/Helvetica-0 findfont exch scalefont setfont } def
0.000 364
(15) Stxtl
(15) stringwidth pop xratio div
dup 4 3 roll exch 0.000 cos mul add 3 1 roll 0.000 sin mul add 2 copy
pop pop pop pop
27140 5547 30905 5547 Sln
27370 5547 27370 5401 Sln
27370 5073 0
/Helvetica-0 findfont 364 yratio mul scalefont setfont
(0) stringwidth pop add
2 div xratio div
dup 4 3 roll exch 0.000 cos mul sub 3 1 roll 0.000 sin mul sub 2 copy
/fntsize {/Helvetica-0 findfont exch scalefont setfont } def
0.000 364
(0) Stxtl
(0) stringwidth pop xratio div
dup 4 3 roll exch 0.000 cos mul add 3 1 roll 0.000 sin mul add 2 copy
pop pop pop pop
28472 5547 28472 5401 Sln
28472 5073 0
/Helvetica-0 findfont 364 yratio mul scalefont setfont
(5) stringwidth pop add
2 div xratio div
dup 4 3 roll exch 0.000 cos mul sub 3 1 roll 0.000 sin mul sub 2 copy
/fntsize {/Helvetica-0 findfont exch scalefont setfont } def
0.000 364
(5) Stxtl
(5) stringwidth pop xratio div
dup 4 3 roll exch 0.000 cos mul add 3 1 roll 0.000 sin mul add 2 copy
pop pop pop pop
29573 5547 29573 5401 Sln
29573 5073 0
/Helvetica-0 findfont 364 yratio mul scalefont setfont
(10) stringwidth pop add
2 div xratio div
dup 4 3 roll exch 0.000 cos mul sub 3 1 roll 0.000 sin mul sub 2 copy
/fntsize {/Helvetica-0 findfont exch scalefont setfont } def
0.000 364
(10) Stxtl
(10) stringwidth pop xratio div
dup 4 3 roll exch 0.000 cos mul add 3 1 roll 0.000 sin mul add 2 copy
pop pop pop pop
30675 5547 30675 5401 Sln
30675 5073 0
/Helvetica-0 findfont 364 yratio mul scalefont setfont
(15) stringwidth pop add
2 div xratio div
dup 4 3 roll exch 0.000 cos mul sub 3 1 roll 0.000 sin mul sub 2 copy
/fntsize {/Helvetica-0 findfont exch scalefont setfont } def
0.000 364
(15) Stxtl
(15) stringwidth pop xratio div
dup 4 3 roll exch 0.000 cos mul add 3 1 roll 0.000 sin mul add 2 copy
pop pop pop pop
/Ssrgb {0.851 0.902 0.922} def
/Slrgb {0.851 0.902 0.922} def
3209 21653 6974 22178 1 Srect
5091 21835 0
/Helvetica-0 findfont 400 yratio mul scalefont setfont
(IRF, P, D) stringwidth pop add
2 div xratio div
dup 4 3 roll exch 0.000 cos mul sub 3 1 roll 0.000 sin mul sub 2 copy
/fntsize {/Helvetica-0 findfont exch scalefont setfont } def
0.000 400
(IRF, P, D) Stxtl
(IRF, P, D) stringwidth pop xratio div
dup 4 3 roll exch 0.000 cos mul add 3 1 roll 0.000 sin mul add 2 copy
pop pop pop pop
9733 21653 13498 22178 1 Srect
11615 21835 0
/Helvetica-0 findfont 400 yratio mul scalefont setfont
(IRF, P, I) stringwidth pop add
2 div xratio div
dup 4 3 roll exch 0.000 cos mul sub 3 1 roll 0.000 sin mul sub 2 copy
/fntsize {/Helvetica-0 findfont exch scalefont setfont } def
0.000 400
(IRF, P, I) Stxtl
(IRF, P, I) stringwidth pop xratio div
dup 4 3 roll exch 0.000 cos mul add 3 1 roll 0.000 sin mul add 2 copy
pop pop pop pop
15111 21653 18876 22178 1 Srect
16993 21835 0
/Helvetica-0 findfont 400 yratio mul scalefont setfont
(IRF, P, P) stringwidth pop add
2 div xratio div
dup 4 3 roll exch 0.000 cos mul sub 3 1 roll 0.000 sin mul sub 2 copy
/fntsize {/Helvetica-0 findfont exch scalefont setfont } def
0.000 400
(IRF, P, P) Stxtl
(IRF, P, P) stringwidth pop xratio div
dup 4 3 roll exch 0.000 cos mul add 3 1 roll 0.000 sin mul add 2 copy
pop pop pop pop
21550 21653 25315 22178 1 Srect
23432 21835 0
/Helvetica-0 findfont 400 yratio mul scalefont setfont
(IRF, P, s) stringwidth pop add
2 div xratio div
dup 4 3 roll exch 0.000 cos mul sub 3 1 roll 0.000 sin mul sub 2 copy
/fntsize {/Helvetica-0 findfont exch scalefont setfont } def
0.000 400
(IRF, P, s) Stxtl
(IRF, P, s) stringwidth pop xratio div
dup 4 3 roll exch 0.000 cos mul add 3 1 roll 0.000 sin mul add 2 copy
pop pop pop pop
27140 21653 30905 22178 1 Srect
29023 21835 0
/Helvetica-0 findfont 400 yratio mul scalefont setfont
(IRF, P, z) stringwidth pop add
2 div xratio div
dup 4 3 roll exch 0.000 cos mul sub 3 1 roll 0.000 sin mul sub 2 copy
/fntsize {/Helvetica-0 findfont exch scalefont setfont } def
0.000 400
(IRF, P, z) Stxtl
(IRF, P, z) stringwidth pop xratio div
dup 4 3 roll exch 0.000 cos mul add 3 1 roll 0.000 sin mul add 2 copy
pop pop pop pop
3209 15923 6974 16448 1 Srect
5091 16105 0
/Helvetica-0 findfont 400 yratio mul scalefont setfont
(IRF, s, D) stringwidth pop add
2 div xratio div
dup 4 3 roll exch 0.000 cos mul sub 3 1 roll 0.000 sin mul sub 2 copy
/fntsize {/Helvetica-0 findfont exch scalefont setfont } def
0.000 400
(IRF, s, D) Stxtl
(IRF, s, D) stringwidth pop xratio div
dup 4 3 roll exch 0.000 cos mul add 3 1 roll 0.000 sin mul add 2 copy
pop pop pop pop
9733 15923 13498 16448 1 Srect
11615 16105 0
/Helvetica-0 findfont 400 yratio mul scalefont setfont
(IRF, s, I) stringwidth pop add
2 div xratio div
dup 4 3 roll exch 0.000 cos mul sub 3 1 roll 0.000 sin mul sub 2 copy
/fntsize {/Helvetica-0 findfont exch scalefont setfont } def
0.000 400
(IRF, s, I) Stxtl
(IRF, s, I) stringwidth pop xratio div
dup 4 3 roll exch 0.000 cos mul add 3 1 roll 0.000 sin mul add 2 copy
pop pop pop pop
15111 15923 18876 16448 1 Srect
16993 16105 0
/Helvetica-0 findfont 400 yratio mul scalefont setfont
(IRF, s, P) stringwidth pop add
2 div xratio div
dup 4 3 roll exch 0.000 cos mul sub 3 1 roll 0.000 sin mul sub 2 copy
/fntsize {/Helvetica-0 findfont exch scalefont setfont } def
0.000 400
(IRF, s, P) Stxtl
(IRF, s, P) stringwidth pop xratio div
dup 4 3 roll exch 0.000 cos mul add 3 1 roll 0.000 sin mul add 2 copy
pop pop pop pop
21550 15923 25315 16448 1 Srect
23432 16105 0
/Helvetica-0 findfont 400 yratio mul scalefont setfont
(IRF, s, s) stringwidth pop add
2 div xratio div
dup 4 3 roll exch 0.000 cos mul sub 3 1 roll 0.000 sin mul sub 2 copy
/fntsize {/Helvetica-0 findfont exch scalefont setfont } def
0.000 400
(IRF, s, s) Stxtl
(IRF, s, s) stringwidth pop xratio div
dup 4 3 roll exch 0.000 cos mul add 3 1 roll 0.000 sin mul add 2 copy
pop pop pop pop
27140 15923 30905 16448 1 Srect
29023 16105 0
/Helvetica-0 findfont 400 yratio mul scalefont setfont
(IRF, s, z) stringwidth pop add
2 div xratio div
dup 4 3 roll exch 0.000 cos mul sub 3 1 roll 0.000 sin mul sub 2 copy
/fntsize {/Helvetica-0 findfont exch scalefont setfont } def
0.000 400
(IRF, s, z) Stxtl
(IRF, s, z) stringwidth pop xratio div
dup 4 3 roll exch 0.000 cos mul add 3 1 roll 0.000 sin mul add 2 copy
pop pop pop pop
3209 10192 6974 10718 1 Srect
5091 10375 0
/Helvetica-0 findfont 400 yratio mul scalefont setfont
(IRF, z, D) stringwidth pop add
2 div xratio div
dup 4 3 roll exch 0.000 cos mul sub 3 1 roll 0.000 sin mul sub 2 copy
/fntsize {/Helvetica-0 findfont exch scalefont setfont } def
0.000 400
(IRF, z, D) Stxtl
(IRF, z, D) stringwidth pop xratio div
dup 4 3 roll exch 0.000 cos mul add 3 1 roll 0.000 sin mul add 2 copy
pop pop pop pop
9733 10192 13498 10718 1 Srect
11615 10375 0
/Helvetica-0 findfont 400 yratio mul scalefont setfont
(IRF, z, I) stringwidth pop add
2 div xratio div
dup 4 3 roll exch 0.000 cos mul sub 3 1 roll 0.000 sin mul sub 2 copy
/fntsize {/Helvetica-0 findfont exch scalefont setfont } def
0.000 400
(IRF, z, I) Stxtl
(IRF, z, I) stringwidth pop xratio div
dup 4 3 roll exch 0.000 cos mul add 3 1 roll 0.000 sin mul add 2 copy
pop pop pop pop
15111 10192 18876 10718 1 Srect
16993 10375 0
/Helvetica-0 findfont 400 yratio mul scalefont setfont
(IRF, z, P) stringwidth pop add
2 div xratio div
dup 4 3 roll exch 0.000 cos mul sub 3 1 roll 0.000 sin mul sub 2 copy
/fntsize {/Helvetica-0 findfont exch scalefont setfont } def
0.000 400
(IRF, z, P) Stxtl
(IRF, z, P) stringwidth pop xratio div
dup 4 3 roll exch 0.000 cos mul add 3 1 roll 0.000 sin mul add 2 copy
pop pop pop pop
21550 10192 25315 10718 1 Srect
23432 10375 0
/Helvetica-0 findfont 400 yratio mul scalefont setfont
(IRF, z, s) stringwidth pop add
2 div xratio div
dup 4 3 roll exch 0.000 cos mul sub 3 1 roll 0.000 sin mul sub 2 copy
/fntsize {/Helvetica-0 findfont exch scalefont setfont } def
0.000 400
(IRF, z, s) Stxtl
(IRF, z, s) stringwidth pop xratio div
dup 4 3 roll exch 0.000 cos mul add 3 1 roll 0.000 sin mul add 2 copy
pop pop pop pop
27140 10192 30905 10718 1 Srect
29023 10375 0
/Helvetica-0 findfont 400 yratio mul scalefont setfont
(IRF, z, z) stringwidth pop add
2 div xratio div
dup 4 3 roll exch 0.000 cos mul sub 3 1 roll 0.000 sin mul sub 2 copy
/fntsize {/Helvetica-0 findfont exch scalefont setfont } def
0.000 400
(IRF, z, z) Stxtl
(IRF, z, z) stringwidth pop xratio div
dup 4 3 roll exch 0.000 cos mul add 3 1 roll 0.000 sin mul add 2 copy
pop pop pop pop
/Ssrgb {1.000 1.000 1.000} def
/Slw 0.576 def
/Slrgb {0.000 0.000 0.000} def
7014 2019 24985 3526 1 Srect
/Ssrgb {0.753 0.753 0.753} def
/Slw 0.864 def
/Slrgb {0.753 0.753 0.753} def
7363 2368 10389 3176 1 Srect
/Slrgb {0.102 0.278 0.435} def
14762 2772 17788 2772 Sln
10873 2489 2 copy
/fntsize {/Helvetica-0 findfont exch scalefont setfont } def
0.000 808
(90% CI) Stxtl
(90% CI) stringwidth pop xratio div
dup 4 3 roll exch 0.000 cos mul add 3 1 roll 0.000 sin mul add 2 copy
pop pop pop pop
18272 2489 2 copy
/fntsize {/Helvetica-0 findfont exch scalefont setfont } def
0.000 808
(orthogonalized irf) Stxtl
(orthogonalized irf) stringwidth pop xratio div
dup 4 3 roll exch 0.000 cos mul add 3 1 roll 0.000 sin mul add 2 copy
pop pop pop pop
16000 4047 0
/Helvetica-0 findfont 808 yratio mul scalefont setfont
(step) stringwidth pop add
2 div xratio div
dup 4 3 roll exch 0.000 cos mul sub 3 1 roll 0.000 sin mul sub 2 copy
/fntsize {/Helvetica-0 findfont exch scalefont setfont } def
0.000 808
(step) Stxtl
(step) stringwidth pop xratio div
dup 4 3 roll exch 0.000 cos mul add 3 1 roll 0.000 sin mul add 2 copy
pop pop pop pop
954 1148 2 copy
/fntsize {/Helvetica-0 findfont exch scalefont setfont } def
0.000 646
(Graphs by irfname, impulse variable, and response variable) Stxtl
(Graphs by irfname, impulse variable, and response variable) stringwidth pop xratio div
dup 4 3 roll exch 0.000 cos mul add 3 1 roll 0.000 sin mul add 2 copy
pop pop pop pop
S showpage
%%EOF
