%!PS-Adobe-2.0 EPSF-2.0
%% This is a Stata generated postscript file
%%BoundingBox: 0 0 396 288
%%HiResBoundingBox: 0.000 0.000 396.000 288.000
%%DocumentNeededResources: font Helvetica
/xratio 0.012375 def
/yratio 0.012375 def
/Sbgfill {
	/y1 exch def
	/x1 exch def
	/y0 exch def
	/x0 exch def
	x0 y0 moveto
	x0 y1 lineto x1 y1 lineto x1 y0 lineto x0 y0 lineto
	fill
} def
/Spt {
	yratio mul
	/yp exch def
	xratio mul
	/xp exch def
	Slrgb setrgbcolor
	newpath
	xp yp moveto
	xp Slw add yp
	lineto
	currentlinecap
	1 setlinecap
	stroke
	setlinecap
} def
/Sln {
	yratio mul
	/y1p exch def
	xratio mul
	/x1p exch def
	yratio mul
	/y0p exch def
	xratio mul
	/x0p exch def
	Slw setlinewidth
	Slrgb setrgbcolor
	x0p y0p M x1p y1p lineto S
} def
/Scrv {
	yratio mul
	/y3p exch def
	xratio mul
	/x3p exch def
	yratio mul
	/y2p exch def
	xratio mul
	/x2p exch def
	yratio mul
	/y1p exch def
	xratio mul
	/x1p exch def
	Slw setlinewidth
	Slrgb setrgbcolor
	x1p y1p x2p y2p x3p y3p curveto
	stroke
} def
/Stxtl {
	/sp exch def
	yratio mul
	/sizep exch def
	dup
	/anglep exch def
	0 exch sub
	/angle2p exch def
	yratio mul
	/y0p exch def
	xratio mul
	/x0p exch def
	Strgb setrgbcolor
	x0p y0p M anglep rotate sizep fntsize sp show stroke angle2p rotate
} def
/Stxtc {
	/sp exch def
	yratio mul
	/sizep exch def
	dup
	/anglep exch def
	0 exch sub
	/angle2p exch def
	yratio mul
	/y0p exch def
	xratio mul
	/x0p exch def
	Strgb setrgbcolor
	x0p y0p M anglep rotate sizep fntsize sp stringwidth exch -2 div exch rm sp show stroke angle2p rotate
} def
/Stxtr {
	/sp exch def
	yratio mul
	/sizep exch def
	dup
	/anglep exch def
	0 exch sub
	/angle2p exch def
	yratio mul
	/y0p exch def
	xratio mul
	/x0p exch def
	Strgb setrgbcolor
	x0p y0p M anglep rotate sizep fntsize sp stringwidth 1 index -1 mul exch rm pop sp show stroke angle2p rotate
} def
/Srect {
	/sfill exch def
	yratio mul
	/y1 exch def
	xratio mul
	/x1 exch def
	yratio mul
	/y0 exch def
	xratio mul
	/x0 exch def
	sfill 1 eq {
		Ssrgb setrgbcolor
		x0 y0 moveto
		x0 y1 lineto x1 y1 lineto x1 y0 lineto x0 y0 lineto
		fill
	} if
	Slw setlinewidth
	Slrgb setrgbcolor
	x0 y0 moveto
	x0 y1 lineto x1 y1 lineto x1 y0 lineto x0 y0 lineto
	stroke
} def
/Sellipse {
	/sfill exch def
	yratio mul
	/yrad exch def
	xratio mul
	/xrad exch def
	yratio mul
	/y exch def
	xratio mul
	/x exch def
	sfill 1 eq {
		Ssrgb setrgbcolor
		/savematrix matrix currentmatrix def
		x y translate
		xrad yrad scale
		0 0 1 0 360 arc
		savematrix setmatrix
		fill
	} if
	Slw setlinewidth
	Slrgb setrgbcolor
		/savematrix matrix currentmatrix def
		x y translate
		xrad yrad scale
		0 0 1 0 360 arc
		savematrix setmatrix
	stroke
} def
/Stri {
	/sfill exch def
	xratio mul
	/r exch def
	yratio mul
	/y0 exch def
	xratio mul
	/x0 exch def
	/xcen x0 def
	y0 r add
	/ytop exch def
	r 2 div
	y0 exch sub
	/ybot exch def
	r 3 sqrt 2 div mul dup
	xcen exch sub
	/xleft exch def
	xcen add
	/xright exch def
	sfill 1 eq {
		Ssrgb setrgbcolor
		xcen ytop moveto xright ybot lineto xleft ybot lineto xcen ytop lineto fill
	} if
	Slw setlinewidth
	Slrgb setrgbcolor
	xcen ytop moveto xright ybot lineto xleft ybot lineto xcen ytop lineto stroke
} def
/Soldtri {
	/sfill exch def
	xratio mul
	/r exch def
	yratio mul
	/y0 exch def
	xratio mul
	/x0 exch def
	x0 r sub
	/x1 exch def
	y0 r sub
	/y1 exch def
	x0 r add
	/x2 exch def
	y0 r sub
	/y2 exch def
	/x3 x0 def
	y0 r add
	/y3 exch def
	sfill 1 eq {
		Ssrgb setrgbcolor
		x1 y1 moveto x2 y2 lineto x3 y3 lineto x1 y1 lineto fill
	} if
	Slw setlinewidth
	Slrgb setrgbcolor
	x1 y1 moveto x2 y2 lineto x3 y3 lineto x1 y1 lineto stroke
} def
/Sdia {
	/sfill exch def
	xratio mul
	/r exch def
	yratio mul
	/y exch def
	xratio mul
	/x exch def
	x r sub
	/x0 exch def
	/y0 y def
	/x1 x def
	y r sub
	/y1 exch def
	x r add
	/x2 exch def
	/y2 y def
	/x3 x def
	y r add
	/y3 exch def
	sfill 1 eq  {
		Ssrgb setrgbcolor
		x0 y0 moveto x1 y1 lineto x2 y2 lineto x3 y3 lineto x0 y0 lineto fill
	} if
	Slw setlinewidth
	Slrgb setrgbcolor
	x0 y0 moveto x1 y1 lineto x2 y2 lineto x3 y3 lineto x0 y0 lineto stroke
} def
/Scc {
	/sfill exch def
	xratio mul
	/r0 exch def
	yratio mul
	/y0 exch def
	xratio mul
	/x0 exch def
	sfill 1 eq {
		Ssrgb setrgbcolor
		x0 y0 r0 0 360 arc fill
	} if
	Slw setlinewidth
	Slrgb setrgbcolor
	x0 y0 r0 0 360 arc stroke
} def
/Spie {
	/sfill exch def
	/a1 exch def
	/a0 exch def
	xratio mul
	/r exch def
	yratio mul
	/y exch def
	xratio mul
	/x exch def
	sfill 1 eq {
		Ssrgb setrgbcolor
		newpath x y moveto x y r a0 a1 arc closepath
		fill
	} if
	Slw setlinewidth
	Slrgb setrgbcolor
	newpath x y moveto x y r a0 a1 arc closepath
	stroke
} def
/Splu {
	xratio mul
	/r exch def
	yratio mul
	/y exch def
	xratio mul
	/x exch def
	x r sub
	/x0 exch def
	x r add
	/x1 exch def
	x0 y M x1 y L
	y r sub
	/y0 exch def
	y r add
	/y1 exch def
	x y0 M x y1 L
} def
/Scro {
	xratio mul
	/r exch def
	yratio mul
	/y exch def
	xratio mul
	/x exch def
	x r sub
	/x0 exch def
	y r sub
	/y0 exch def
	x r add
	/x1 exch def
	y r add
	/y1 exch def
	x0 y0 M x1 y1 L
	x r add
	/x0 exch def
	y r sub
	/y0 exch def
	x r sub
	/x1 exch def
	y r add
	/y1 exch def
	x0 y0 M x1 y1 L
} def
/Sm {
	yratio mul
	/y exch def
	xratio mul
	/x exch def
	x y M
} def
/Sl {
	yratio mul
	/y exch def
	xratio mul
	/x exch def
	x y L
} def
/SPl {
	yratio mul
	/y exch def
	xratio mul
	/x exch def
	x y PL
} def
/Lcs {
	currentlinecap
	1 setlinecap
} def
/Lcr {
	setlinecap
} def
/Sbp {
	newpath
} def
/Sep {
	/sfill exch def
	closepath
	sfill 1 eq  {
		Ssrgb setrgbcolor
		gsave
		fill
		grestore
	} if
	Slw setlinewidth
	Slrgb setrgbcolor
	Lcs
	stroke
	Lcr
} def
/cp {currentpoint} def 
/M {moveto} def 
/rm {rmoveto} def 
/S {stroke} def 
/L {Slw setlinewidth Slrgb setrgbcolor lineto Lcs S Lcr} def 
/PL {Slw setlinewidth Slrgb setrgbcolor lineto} def 
/MF-Helvetica {
  /newfontname exch def
  /fontname exch def
  /fontdict fontname findfont def
  /newfont fontdict maxlength dict def
  fontdict {
  exch dup /FID eq {pop pop} {exch newfont 3 1 roll put} ifelse
  } forall
  newfont /FontName newfontname put
  newfont /Encoding ISOLatin1Encoding put
  newfontname newfont definefont pop
} def
/Helvetica /Helvetica-0 MF-Helvetica
/Slw 0.120 def
0.918 0.949 0.953 setrgbcolor
0 0 396.000 288.000 Sbgfill
/Slrgb {1.000 1.000 1.000} def
/Strgb {1.000 1.000 1.000} def
/Ssrgb {1.000 1.000 1.000} def
/Ssrgb {0.918 0.949 0.953} def
/Slw 0.576 def
/Slrgb {0.918 0.949 0.953} def
0 0 31999 23272 1 Srect
/Ssrgb {1.000 1.000 1.000} def
/Slw 0.259 def
/Slrgb {1.000 1.000 1.000} def
2360 17007 6499 21653 1 Srect
/Slrgb {0.000 0.000 0.000} def
/Strgb {0.000 0.000 0.000} def
/Slw 0.389 def
/Slrgb {0.918 0.949 0.953} def
2360 17237 6499 17237 Sln
/Slw 0.259 def
/Slrgb {0.000 0.000 0.000} def
/Slw 0.389 def
/Slrgb {0.918 0.949 0.953} def
2360 18632 6499 18632 Sln
/Slw 0.259 def
/Slrgb {0.000 0.000 0.000} def
/Slw 0.389 def
/Slrgb {0.918 0.949 0.953} def
2360 20027 6499 20027 Sln
/Slw 0.259 def
/Slrgb {0.000 0.000 0.000} def
/Slw 0.389 def
/Slrgb {0.918 0.949 0.953} def
2360 21422 6499 21422 Sln
/Slw 0.259 def
/Slrgb {0.000 0.000 0.000} def
/Slrgb {1.000 1.000 1.000} def
8112 17007 12251 21653 1 Srect
/Slrgb {0.000 0.000 0.000} def
/Slw 0.389 def
/Slrgb {0.918 0.949 0.953} def
8112 17237 12251 17237 Sln
/Slw 0.259 def
/Slrgb {0.000 0.000 0.000} def
/Slw 0.389 def
/Slrgb {0.918 0.949 0.953} def
8112 18518 12251 18518 Sln
/Slw 0.259 def
/Slrgb {0.000 0.000 0.000} def
/Slw 0.389 def
/Slrgb {0.918 0.949 0.953} def
8112 19800 12251 19800 Sln
/Slw 0.259 def
/Slrgb {0.000 0.000 0.000} def
/Slw 0.389 def
/Slrgb {0.918 0.949 0.953} def
8112 21081 12251 21081 Sln
/Slw 0.259 def
/Slrgb {0.000 0.000 0.000} def
/Slrgb {1.000 1.000 1.000} def
13864 17007 18002 21653 1 Srect
/Slrgb {0.000 0.000 0.000} def
/Slw 0.389 def
/Slrgb {0.918 0.949 0.953} def
13864 17237 18002 17237 Sln
/Slw 0.259 def
/Slrgb {0.000 0.000 0.000} def
/Slw 0.389 def
/Slrgb {0.918 0.949 0.953} def
13864 18283 18002 18283 Sln
/Slw 0.259 def
/Slrgb {0.000 0.000 0.000} def
/Slw 0.389 def
/Slrgb {0.918 0.949 0.953} def
13864 19330 18002 19330 Sln
/Slw 0.259 def
/Slrgb {0.000 0.000 0.000} def
/Slw 0.389 def
/Slrgb {0.918 0.949 0.953} def
13864 20376 18002 20376 Sln
/Slw 0.259 def
/Slrgb {0.000 0.000 0.000} def
/Slw 0.389 def
/Slrgb {0.918 0.949 0.953} def
13864 21422 18002 21422 Sln
/Slw 0.259 def
/Slrgb {0.000 0.000 0.000} def
/Slrgb {1.000 1.000 1.000} def
20803 17007 24942 21653 1 Srect
/Slrgb {0.000 0.000 0.000} def
/Slw 0.389 def
/Slrgb {0.918 0.949 0.953} def
20803 17557 24942 17557 Sln
/Slw 0.259 def
/Slrgb {0.000 0.000 0.000} def
/Slw 0.389 def
/Slrgb {0.918 0.949 0.953} def
20803 18523 24942 18523 Sln
/Slw 0.259 def
/Slrgb {0.000 0.000 0.000} def
/Slw 0.389 def
/Slrgb {0.918 0.949 0.953} def
20803 19489 24942 19489 Sln
/Slw 0.259 def
/Slrgb {0.000 0.000 0.000} def
/Slw 0.389 def
/Slrgb {0.918 0.949 0.953} def
20803 20456 24942 20456 Sln
/Slw 0.259 def
/Slrgb {0.000 0.000 0.000} def
/Slw 0.389 def
/Slrgb {0.918 0.949 0.953} def
20803 21422 24942 21422 Sln
/Slw 0.259 def
/Slrgb {0.000 0.000 0.000} def
/Slrgb {1.000 1.000 1.000} def
26767 17007 30905 21653 1 Srect
/Slrgb {0.000 0.000 0.000} def
/Slw 0.389 def
/Slrgb {0.918 0.949 0.953} def
26767 17237 30905 17237 Sln
/Slw 0.259 def
/Slrgb {0.000 0.000 0.000} def
/Slw 0.389 def
/Slrgb {0.918 0.949 0.953} def
26767 18283 30905 18283 Sln
/Slw 0.259 def
/Slrgb {0.000 0.000 0.000} def
/Slw 0.389 def
/Slrgb {0.918 0.949 0.953} def
26767 19330 30905 19330 Sln
/Slw 0.259 def
/Slrgb {0.000 0.000 0.000} def
/Slw 0.389 def
/Slrgb {0.918 0.949 0.953} def
26767 20376 30905 20376 Sln
/Slw 0.259 def
/Slrgb {0.000 0.000 0.000} def
/Slw 0.389 def
/Slrgb {0.918 0.949 0.953} def
26767 21422 30905 21422 Sln
/Slw 0.259 def
/Slrgb {0.000 0.000 0.000} def
/Slrgb {1.000 1.000 1.000} def
2360 11277 6499 15923 1 Srect
/Slrgb {0.000 0.000 0.000} def
/Slw 0.389 def
/Slrgb {0.918 0.949 0.953} def
2360 11507 6499 11507 Sln
/Slw 0.259 def
/Slrgb {0.000 0.000 0.000} def
/Slw 0.389 def
/Slrgb {0.918 0.949 0.953} def
2360 12849 6499 12849 Sln
/Slw 0.259 def
/Slrgb {0.000 0.000 0.000} def
/Slw 0.389 def
/Slrgb {0.918 0.949 0.953} def
2360 14191 6499 14191 Sln
/Slw 0.259 def
/Slrgb {0.000 0.000 0.000} def
/Slw 0.389 def
/Slrgb {0.918 0.949 0.953} def
2360 15532 6499 15532 Sln
/Slw 0.259 def
/Slrgb {0.000 0.000 0.000} def
/Slrgb {1.000 1.000 1.000} def
8112 11277 12251 15923 1 Srect
/Slrgb {0.000 0.000 0.000} def
/Slw 0.389 def
/Slrgb {0.918 0.949 0.953} def
8112 11507 12251 11507 Sln
/Slw 0.259 def
/Slrgb {0.000 0.000 0.000} def
/Slw 0.389 def
/Slrgb {0.918 0.949 0.953} def
8112 12902 12251 12902 Sln
/Slw 0.259 def
/Slrgb {0.000 0.000 0.000} def
/Slw 0.389 def
/Slrgb {0.918 0.949 0.953} def
8112 14297 12251 14297 Sln
/Slw 0.259 def
/Slrgb {0.000 0.000 0.000} def
/Slw 0.389 def
/Slrgb {0.918 0.949 0.953} def
8112 15692 12251 15692 Sln
/Slw 0.259 def
/Slrgb {0.000 0.000 0.000} def
/Slrgb {1.000 1.000 1.000} def
13864 11277 18002 15923 1 Srect
/Slrgb {0.000 0.000 0.000} def
/Slw 0.389 def
/Slrgb {0.918 0.949 0.953} def
13864 11838 18002 11838 Sln
/Slw 0.259 def
/Slrgb {0.000 0.000 0.000} def
/Slw 0.389 def
/Slrgb {0.918 0.949 0.953} def
13864 13123 18002 13123 Sln
/Slw 0.259 def
/Slrgb {0.000 0.000 0.000} def
/Slw 0.389 def
/Slrgb {0.918 0.949 0.953} def
13864 14407 18002 14407 Sln
/Slw 0.259 def
/Slrgb {0.000 0.000 0.000} def
/Slw 0.389 def
/Slrgb {0.918 0.949 0.953} def
13864 15692 18002 15692 Sln
/Slw 0.259 def
/Slrgb {0.000 0.000 0.000} def
/Slrgb {1.000 1.000 1.000} def
20803 11277 24942 15923 1 Srect
/Slrgb {0.000 0.000 0.000} def
/Slw 0.389 def
/Slrgb {0.918 0.949 0.953} def
20803 11910 24942 11910 Sln
/Slw 0.259 def
/Slrgb {0.000 0.000 0.000} def
/Slw 0.389 def
/Slrgb {0.918 0.949 0.953} def
20803 13171 24942 13171 Sln
/Slw 0.259 def
/Slrgb {0.000 0.000 0.000} def
/Slw 0.389 def
/Slrgb {0.918 0.949 0.953} def
20803 14432 24942 14432 Sln
/Slw 0.259 def
/Slrgb {0.000 0.000 0.000} def
/Slrgb {1.000 1.000 1.000} def
26767 11277 30905 15923 1 Srect
/Slrgb {0.000 0.000 0.000} def
/Slw 0.389 def
/Slrgb {0.918 0.949 0.953} def
26767 11507 30905 11507 Sln
/Slw 0.259 def
/Slrgb {0.000 0.000 0.000} def
/Slw 0.389 def
/Slrgb {0.918 0.949 0.953} def
26767 12497 30905 12497 Sln
/Slw 0.259 def
/Slrgb {0.000 0.000 0.000} def
/Slw 0.389 def
/Slrgb {0.918 0.949 0.953} def
26767 13486 30905 13486 Sln
/Slw 0.259 def
/Slrgb {0.000 0.000 0.000} def
/Slw 0.389 def
/Slrgb {0.918 0.949 0.953} def
26767 14476 30905 14476 Sln
/Slw 0.259 def
/Slrgb {0.000 0.000 0.000} def
/Slw 0.389 def
/Slrgb {0.918 0.949 0.953} def
26767 15465 30905 15465 Sln
/Slw 0.259 def
/Slrgb {0.000 0.000 0.000} def
/Slrgb {1.000 1.000 1.000} def
2360 5547 6499 10192 1 Srect
/Slrgb {0.000 0.000 0.000} def
/Slw 0.389 def
/Slrgb {0.918 0.949 0.953} def
2360 5777 6499 5777 Sln
/Slw 0.259 def
/Slrgb {0.000 0.000 0.000} def
/Slw 0.389 def
/Slrgb {0.918 0.949 0.953} def
2360 6823 6499 6823 Sln
/Slw 0.259 def
/Slrgb {0.000 0.000 0.000} def
/Slw 0.389 def
/Slrgb {0.918 0.949 0.953} def
2360 7870 6499 7870 Sln
/Slw 0.259 def
/Slrgb {0.000 0.000 0.000} def
/Slw 0.389 def
/Slrgb {0.918 0.949 0.953} def
2360 8916 6499 8916 Sln
/Slw 0.259 def
/Slrgb {0.000 0.000 0.000} def
/Slw 0.389 def
/Slrgb {0.918 0.949 0.953} def
2360 9962 6499 9962 Sln
/Slw 0.259 def
/Slrgb {0.000 0.000 0.000} def
/Slrgb {1.000 1.000 1.000} def
8112 5547 12251 10192 1 Srect
/Slrgb {0.000 0.000 0.000} def
/Slw 0.389 def
/Slrgb {0.918 0.949 0.953} def
8112 5777 12251 5777 Sln
/Slw 0.259 def
/Slrgb {0.000 0.000 0.000} def
/Slw 0.389 def
/Slrgb {0.918 0.949 0.953} def
8112 7172 12251 7172 Sln
/Slw 0.259 def
/Slrgb {0.000 0.000 0.000} def
/Slw 0.389 def
/Slrgb {0.918 0.949 0.953} def
8112 8567 12251 8567 Sln
/Slw 0.259 def
/Slrgb {0.000 0.000 0.000} def
/Slrgb {1.000 1.000 1.000} def
13864 5547 18002 10192 1 Srect
/Slrgb {0.000 0.000 0.000} def
/Slw 0.389 def
/Slrgb {0.918 0.949 0.953} def
13864 5777 18002 5777 Sln
/Slw 0.259 def
/Slrgb {0.000 0.000 0.000} def
/Slw 0.389 def
/Slrgb {0.918 0.949 0.953} def
13864 7172 18002 7172 Sln
/Slw 0.259 def
/Slrgb {0.000 0.000 0.000} def
/Slw 0.389 def
/Slrgb {0.918 0.949 0.953} def
13864 8567 18002 8567 Sln
/Slw 0.259 def
/Slrgb {0.000 0.000 0.000} def
/Slw 0.389 def
/Slrgb {0.918 0.949 0.953} def
13864 9962 18002 9962 Sln
/Slw 0.259 def
/Slrgb {0.000 0.000 0.000} def
/Slrgb {1.000 1.000 1.000} def
20803 5547 24942 10192 1 Srect
/Slrgb {0.000 0.000 0.000} def
/Slw 0.389 def
/Slrgb {0.918 0.949 0.953} def
20803 6179 24942 6179 Sln
/Slw 0.259 def
/Slrgb {0.000 0.000 0.000} def
/Slw 0.389 def
/Slrgb {0.918 0.949 0.953} def
20803 7440 24942 7440 Sln
/Slw 0.259 def
/Slrgb {0.000 0.000 0.000} def
/Slw 0.389 def
/Slrgb {0.918 0.949 0.953} def
20803 8701 24942 8701 Sln
/Slw 0.259 def
/Slrgb {0.000 0.000 0.000} def
/Slw 0.389 def
/Slrgb {0.918 0.949 0.953} def
20803 9962 24942 9962 Sln
/Slw 0.259 def
/Slrgb {0.000 0.000 0.000} def
/Slrgb {1.000 1.000 1.000} def
26767 5547 30905 10192 1 Srect
/Slrgb {0.000 0.000 0.000} def
/Slw 0.389 def
/Slrgb {0.918 0.949 0.953} def
26767 5777 30905 5777 Sln
/Slw 0.259 def
/Slrgb {0.000 0.000 0.000} def
/Slw 0.389 def
/Slrgb {0.918 0.949 0.953} def
26767 6823 30905 6823 Sln
/Slw 0.259 def
/Slrgb {0.000 0.000 0.000} def
/Slw 0.389 def
/Slrgb {0.918 0.949 0.953} def
26767 7870 30905 7870 Sln
/Slw 0.259 def
/Slrgb {0.000 0.000 0.000} def
/Slw 0.389 def
/Slrgb {0.918 0.949 0.953} def
26767 8916 30905 8916 Sln
/Slw 0.259 def
/Slrgb {0.000 0.000 0.000} def
/Slw 0.389 def
/Slrgb {0.918 0.949 0.953} def
26767 9962 30905 9962 Sln
/Slw 0.259 def
/Slrgb {0.000 0.000 0.000} def
/Ssrgb {0.753 0.753 0.753} def
/Slw 0.389 def
/Slrgb {0.753 0.753 0.753} def
Sbp
2591 17237 Sm
2591 17237 SPl
2836 17255 SPl
3081 17319 SPl
3326 17417 SPl
3572 17524 SPl
3817 17628 SPl
4062 17725 SPl
4307 17814 SPl
4552 17892 SPl
4797 17957 SPl
5043 18010 SPl
5288 18050 SPl
5533 18078 SPl
5778 18094 SPl
6023 18098 SPl
6269 18092 SPl
6269 20947 SPl
6023 20872 SPl
5778 20771 SPl
5533 20644 SPl
5288 20491 SPl
5043 20312 SPl
4797 20108 SPl
4552 19881 SPl
4307 19629 SPl
4062 19355 SPl
3817 19057 SPl
3572 18737 SPl
3326 18396 SPl
3081 18029 SPl
2836 17630 SPl
2591 17237 SPl
2591 17237 SPl
1 Sep
/Slrgb {0.102 0.278 0.435} def
2590 17237 Sm
2835 17442 Sl
2835 17442 Sm
3081 17673 Sl
3081 17673 Sm
3326 17906 Sl
3326 17906 Sm
3571 18130 Sl
3571 18130 Sm
3816 18342 Sl
3816 18342 Sm
4061 18540 Sl
4061 18540 Sm
4307 18721 Sl
4307 18721 Sm
4552 18886 Sl
4552 18886 Sm
4797 19032 Sl
4797 19032 Sm
5042 19161 Sl
5042 19161 Sm
5287 19270 Sl
5287 19270 Sm
5533 19360 Sl
5533 19360 Sm
5778 19432 Sl
5778 19432 Sm
6023 19485 Sl
6023 19485 Sm
6268 19519 Sl
/Slrgb {0.753 0.753 0.753} def
Sbp
8342 17237 Sm
8342 17237 SPl
8588 17685 SPl
8833 18236 SPl
9078 18605 SPl
9323 18804 SPl
9568 18889 SPl
9813 18904 SPl
10059 18872 SPl
10304 18810 SPl
10549 18728 SPl
10794 18631 SPl
11039 18522 SPl
11285 18405 SPl
11530 18280 SPl
11775 18149 SPl
12020 18013 SPl
12020 20923 SPl
11775 21054 SPl
11530 21171 SPl
11285 21271 SPl
11039 21349 SPl
10794 21401 SPl
10549 21422 SPl
10304 21405 SPl
10059 21342 SPl
9813 21218 SPl
9568 21011 SPl
9323 20679 SPl
9078 20158 SPl
8833 19365 SPl
8588 18273 SPl
8342 17237 SPl
8342 17237 SPl
1 Sep
/Slrgb {0.102 0.278 0.435} def
8342 17237 Sm
8587 17978 Sl
8587 17978 Sm
8832 18800 Sl
8832 18800 Sm
9077 19381 Sl
9077 19381 Sm
9323 19741 Sl
9323 19741 Sm
9568 19950 Sl
9568 19950 Sm
9813 20060 Sl
9813 20060 Sm
10058 20107 Sl
10058 20107 Sm
10303 20107 Sl
10303 20107 Sm
10549 20075 Sl
10549 20075 Sm
10794 20016 Sl
10794 20016 Sm
11039 19935 Sl
11039 19935 Sm
11284 19837 Sl
11284 19837 Sm
11529 19725 Sl
11529 19725 Sm
11774 19601 Sl
11774 19601 Sm
12020 19468 Sl
/Slrgb {0.753 0.753 0.753} def
Sbp
14094 18639 Sm
14094 18639 SPl
14339 19455 SPl
14584 19446 SPl
14829 19319 SPl
15075 19173 SPl
15320 19014 SPl
15565 18853 SPl
15810 18693 SPl
16055 18537 SPl
16301 18386 SPl
16546 18238 SPl
16791 18095 SPl
17036 17956 SPl
17281 17819 SPl
17527 17686 SPl
17772 17556 SPl
17772 20691 SPl
17527 20811 SPl
17281 20920 SPl
17036 21018 SPl
16791 21103 SPl
16546 21175 SPl
16301 21231 SPl
16055 21272 SPl
15810 21298 SPl
15565 21313 SPl
15320 21323 SPl
15075 21337 SPl
14829 21355 SPl
14584 21307 SPl
14339 20902 SPl
14094 19446 SPl
14094 18639 SPl
1 Sep
/Slrgb {0.102 0.278 0.435} def
14093 19042 Sm
14339 20178 Sl
14339 20178 Sm
14584 20376 Sl
14584 20376 Sm
14829 20336 Sl
14829 20336 Sm
15074 20254 Sl
15074 20254 Sm
15319 20168 Sl
15319 20168 Sm
15565 20082 Sl
15565 20082 Sm
15810 19995 Sl
15810 19995 Sm
16055 19904 Sl
16055 19904 Sm
16300 19808 Sl
16300 19808 Sm
16545 19706 Sl
16545 19706 Sm
16790 19599 Sl
16790 19599 Sm
17036 19486 Sl
17036 19486 Sm
17281 19369 Sl
17281 19369 Sm
17526 19248 Sl
17526 19248 Sm
17771 19123 Sl
/Slrgb {0.753 0.753 0.753} def
Sbp
21033 21422 Sm
21033 21422 SPl
21279 19184 SPl
21524 18094 SPl
21769 17569 SPl
22014 17333 SPl
22259 17244 SPl
22504 17237 SPl
22750 17286 SPl
22995 17379 SPl
23240 17510 SPl
23485 17671 SPl
23730 17858 SPl
23976 18064 SPl
24221 18284 SPl
24466 18511 SPl
24711 18740 SPl
24711 21394 SPl
24466 21201 SPl
24221 21004 SPl
23976 20802 SPl
23730 20597 SPl
23485 20388 SPl
23240 20179 SPl
22995 19973 SPl
22750 19779 SPl
22504 19608 SPl
22259 19482 SPl
22014 19427 SPl
21769 19481 SPl
21524 19711 SPl
21279 20317 SPl
21033 21422 SPl
21033 21422 SPl
1 Sep
/Slrgb {0.102 0.278 0.435} def
21033 21422 Sm
21278 19750 Sl
21278 19750 Sm
21523 18902 Sl
21523 18902 Sm
21768 18525 Sl
21768 18525 Sm
22014 18380 Sl
22014 18380 Sm
22259 18362 Sl
22259 18362 Sm
22504 18422 Sl
22504 18422 Sm
22749 18532 Sl
22749 18532 Sm
22994 18676 Sl
22994 18676 Sm
23240 18844 Sl
23240 18844 Sm
23485 19029 Sl
23485 19029 Sm
23730 19227 Sl
23730 19227 Sm
23975 19433 Sl
23975 19433 Sm
24220 19643 Sl
24220 19643 Sm
24465 19855 Sl
24465 19855 Sm
24711 20067 Sl
/Slrgb {0.753 0.753 0.753} def
Sbp
26997 18283 Sm
26997 18283 SPl
27242 17786 SPl
27487 17782 SPl
27733 17888 SPl
27978 18006 SPl
28223 18125 SPl
28468 18240 SPl
28713 18344 SPl
28959 18434 SPl
29204 18510 SPl
29449 18572 SPl
29694 18622 SPl
29939 18660 SPl
30184 18686 SPl
30430 18703 SPl
30675 18710 SPl
30675 20957 SPl
30430 20895 SPl
30184 20815 SPl
29939 20714 SPl
29694 20593 SPl
29449 20451 SPl
29204 20289 SPl
28959 20107 SPl
28713 19909 SPl
28468 19696 SPl
28223 19473 SPl
27978 19247 SPl
27733 19038 SPl
27487 18873 SPl
27242 18714 SPl
26997 18283 SPl
26997 18283 SPl
1 Sep
/Slrgb {0.102 0.278 0.435} def
26997 18283 Sm
27242 18249 Sl
27242 18249 Sm
27487 18327 Sl
27487 18327 Sm
27732 18462 Sl
27732 18462 Sm
27977 18626 Sl
27977 18626 Sm
28222 18799 Sl
28222 18799 Sm
28468 18967 Sl
28468 18967 Sm
28713 19126 Sl
28713 19126 Sm
28958 19270 Sl
28958 19270 Sm
29203 19399 Sl
29203 19399 Sm
29448 19511 Sl
29448 19511 Sm
29694 19607 Sl
29694 19607 Sm
29939 19686 Sl
29939 19686 Sm
30184 19750 Sl
30184 19750 Sm
30429 19799 Sl
30429 19799 Sm
30674 19833 Sl
/Slrgb {0.753 0.753 0.753} def
Sbp
2591 15532 Sm
2591 15532 SPl
2836 15289 SPl
3081 15014 SPl
3326 14693 SPl
3572 14351 SPl
3817 14012 SPl
4062 13690 SPl
4307 13392 SPl
4552 13126 SPl
4797 12891 SPl
5043 12690 SPl
5288 12523 SPl
5533 12388 SPl
5778 12284 SPl
6023 12212 SPl
6269 12168 SPl
6269 14779 SPl
6023 14784 SPl
5778 14803 SPl
5533 14835 SPl
5288 14883 SPl
5043 14944 SPl
4797 15019 SPl
4552 15106 SPl
4307 15203 SPl
4062 15307 SPl
3817 15414 SPl
3572 15518 SPl
3326 15613 SPl
3081 15684 SPl
2836 15692 SPl
2591 15532 SPl
2591 15532 SPl
1 Sep
/Slrgb {0.102 0.278 0.435} def
2590 15532 Sm
2835 15490 Sl
2835 15490 Sm
3081 15349 Sl
3081 15349 Sm
3326 15153 Sl
3326 15153 Sm
3571 14934 Sl
3571 14934 Sm
3816 14712 Sl
3816 14712 Sm
4061 14498 Sl
4061 14498 Sm
4307 14297 Sl
4307 14297 Sm
4552 14115 Sl
4552 14115 Sm
4797 13955 Sl
4797 13955 Sm
5042 13817 Sl
5042 13817 Sm
5287 13702 Sl
5287 13702 Sm
5533 13611 Sl
5533 13611 Sm
5778 13543 Sl
5778 13543 Sm
6023 13497 Sl
6023 13497 Sm
6268 13473 Sl
/Slrgb {0.753 0.753 0.753} def
Sbp
8342 14297 Sm
8342 14297 SPl
8588 13480 SPl
8833 13063 SPl
9078 12765 SPl
9323 12518 SPl
9568 12317 SPl
9813 12167 SPl
10059 12067 SPl
10304 12014 SPl
10549 12002 SPl
10794 12026 SPl
11039 12078 SPl
11285 12156 SPl
11530 12254 SPl
11775 12370 SPl
12020 12499 SPl
12020 15317 SPl
11775 15182 SPl
11530 15051 SPl
11285 14926 SPl
11039 14812 SPl
10794 14714 SPl
10549 14633 SPl
10304 14572 SPl
10059 14531 SPl
9813 14507 SPl
9568 14493 SPl
9323 14477 SPl
9078 14440 SPl
8833 14361 SPl
8588 14263 SPl
8342 14297 SPl
8342 14297 SPl
1 Sep
/Slrgb {0.102 0.278 0.435} def
8342 14297 Sm
8587 13871 Sl
8587 13871 Sm
8832 13712 Sl
8832 13712 Sm
9077 13602 Sl
9077 13602 Sm
9323 13497 Sl
9323 13497 Sm
9568 13404 Sl
9568 13404 Sm
9813 13336 Sl
9813 13336 Sm
10058 13299 Sl
10058 13299 Sm
10303 13293 Sl
10303 13293 Sm
10549 13317 Sl
10549 13317 Sm
10794 13369 Sl
10794 13369 Sm
11039 13445 Sl
11039 13445 Sm
11284 13540 Sl
11284 13540 Sm
11529 13652 Sl
11529 13652 Sm
11774 13775 Sl
11774 13775 Sm
12020 13907 Sl
/Slrgb {0.753 0.753 0.753} def
Sbp
14094 12759 Sm
14094 12759 SPl
14339 12884 SPl
14584 12817 SPl
14829 12642 SPl
15075 12445 SPl
15320 12260 SPl
15565 12096 SPl
15810 11952 SPl
16055 11828 SPl
16301 11724 SPl
16546 11640 SPl
16791 11576 SPl
17036 11534 SPl
17281 11511 SPl
17527 11507 SPl
17772 11521 SPl
17772 15055 SPl
17527 15042 SPl
17281 15030 SPl
17036 15017 SPl
16791 15006 SPl
16546 14998 SPl
16301 14994 SPl
16055 14997 SPl
15810 15010 SPl
15565 15036 SPl
15320 15078 SPl
15075 15139 SPl
14829 15225 SPl
14584 15323 SPl
14339 15280 SPl
14094 14577 SPl
14094 12759 SPl
1 Sep
/Slrgb {0.102 0.278 0.435} def
14093 13668 Sm
14339 14082 Sl
14339 14082 Sm
14584 14069 Sl
14584 14069 Sm
14829 13933 Sl
14829 13933 Sm
15074 13791 Sl
15074 13791 Sm
15319 13669 Sl
15319 13669 Sm
15565 13566 Sl
15565 13566 Sm
15810 13481 Sl
15810 13481 Sm
16055 13412 Sl
16055 13412 Sm
16300 13358 Sl
16300 13358 Sm
16545 13318 Sl
16545 13318 Sm
16790 13291 Sl
16790 13291 Sm
17036 13275 Sl
17036 13275 Sm
17281 13270 Sl
17281 13270 Sm
17526 13274 Sl
17526 13274 Sm
17771 13287 Sl
/Slrgb {0.753 0.753 0.753} def
Sbp
21033 13719 Sm
21033 13719 SPl
21279 13294 SPl
21524 13056 SPl
21769 12932 SPl
22014 12835 SPl
22259 12741 SPl
22504 12643 SPl
22750 12536 SPl
22995 12420 SPl
23240 12296 SPl
23485 12166 SPl
23730 12031 SPl
23976 11896 SPl
24221 11762 SPl
24466 11632 SPl
24711 11507 SPl
24711 13067 SPl
24466 13223 SPl
24221 13382 SPl
23976 13541 SPl
23730 13699 SPl
23485 13851 SPl
23240 13996 SPl
22995 14129 SPl
22750 14247 SPl
22504 14346 SPl
22259 14424 SPl
22014 14482 SPl
21769 14531 SPl
21524 14595 SPl
21279 14718 SPl
21033 14757 SPl
21033 13719 SPl
1 Sep
/Slrgb {0.102 0.278 0.435} def
21033 14237 Sm
21278 14006 Sl
21278 14006 Sm
21523 13825 Sl
21523 13825 Sm
21768 13731 Sl
21768 13731 Sm
22014 13658 Sl
22014 13658 Sm
22259 13582 Sl
22259 13582 Sm
22504 13494 Sl
22504 13494 Sm
22749 13391 Sl
22749 13391 Sm
22994 13274 Sl
22994 13274 Sm
23240 13145 Sl
23240 13145 Sm
23485 13008 Sl
23485 13008 Sm
23730 12865 Sl
23730 12865 Sm
23975 12718 Sl
23975 12718 Sm
24220 12572 Sl
24220 12572 Sm
24465 12427 Sl
24465 12427 Sm
24711 12286 Sl
/Slrgb {0.753 0.753 0.753} def
Sbp
26997 14476 Sm
26997 14476 SPl
27242 13460 SPl
27487 13300 SPl
27733 13016 SPl
27978 12765 SPl
28223 12561 SPl
28468 12397 SPl
28713 12270 SPl
28959 12173 SPl
29204 12105 SPl
29449 12062 SPl
29694 12042 SPl
29939 12043 SPl
30184 12063 SPl
30430 12101 SPl
30675 12153 SPl
30675 15692 SPl
30430 15624 SPl
30184 15564 SPl
29939 15512 SPl
29694 15466 SPl
29449 15425 SPl
29204 15388 SPl
28959 15350 SPl
28713 15308 SPl
28468 15258 SPl
28223 15195 SPl
27978 15116 SPl
27733 15022 SPl
27487 14938 SPl
27242 15040 SPl
26997 14476 SPl
26997 14476 SPl
1 Sep
/Slrgb {0.102 0.278 0.435} def
26997 14475 Sm
27242 14250 Sl
27242 14250 Sm
27487 14119 Sl
27487 14119 Sm
27732 14018 Sl
27732 14018 Sm
27977 13940 Sl
27977 13940 Sm
28222 13878 Sl
28222 13878 Sm
28468 13827 Sl
28468 13827 Sm
28713 13789 Sl
28713 13789 Sm
28958 13761 Sl
28958 13761 Sm
29203 13746 Sl
29203 13746 Sm
29448 13743 Sl
29448 13743 Sm
29694 13753 Sl
29694 13753 Sm
29939 13777 Sl
29939 13777 Sm
30184 13813 Sl
30184 13813 Sm
30429 13862 Sl
30429 13862 Sm
30674 13922 Sl
/Slrgb {0.753 0.753 0.753} def
Sbp
2591 7870 Sm
2591 7870 SPl
2836 7432 SPl
3081 7156 SPl
3326 6934 SPl
3572 6754 SPl
3817 6609 SPl
4062 6498 SPl
4307 6419 SPl
4552 6368 SPl
4797 6342 SPl
5043 6334 SPl
5288 6340 SPl
5533 6356 SPl
5778 6377 SPl
6023 6401 SPl
6269 6426 SPl
6269 9541 SPl
6023 9484 SPl
5778 9414 SPl
5533 9330 SPl
5288 9234 SPl
5043 9125 SPl
4797 9006 SPl
4552 8878 SPl
4307 8743 SPl
4062 8605 SPl
3817 8471 SPl
3572 8349 SPl
3326 8243 SPl
3081 8148 SPl
2836 8039 SPl
2591 7870 SPl
2591 7870 SPl
1 Sep
/Slrgb {0.102 0.278 0.435} def
2590 7869 Sm
2835 7735 Sl
2835 7735 Sm
3081 7651 Sl
3081 7651 Sm
3326 7588 Sl
3326 7588 Sm
3571 7551 Sl
3571 7551 Sm
3816 7540 Sl
3816 7540 Sm
4061 7551 Sl
4061 7551 Sm
4307 7580 Sl
4307 7580 Sm
4552 7622 Sl
4552 7622 Sm
4797 7673 Sl
4797 7673 Sm
5042 7729 Sl
5042 7729 Sm
5287 7786 Sl
5287 7786 Sm
5533 7842 Sl
5533 7842 Sm
5778 7895 Sl
5778 7895 Sm
6023 7942 Sl
6023 7942 Sm
6268 7983 Sl
/Slrgb {0.753 0.753 0.753} def
Sbp
8342 7172 Sm
8342 7172 SPl
8588 6541 SPl
8833 6204 SPl
9078 6088 SPl
9323 6077 SPl
9568 6111 SPl
9813 6165 SPl
10059 6226 SPl
10304 6286 SPl
10549 6342 SPl
10794 6390 SPl
11039 6430 SPl
11285 6460 SPl
11530 6480 SPl
11775 6490 SPl
12020 6490 SPl
12020 8930 SPl
11775 8970 SPl
11530 8993 SPl
11285 8994 SPl
11039 8970 SPl
10794 8917 SPl
10549 8829 SPl
10304 8703 SPl
10059 8534 SPl
9813 8319 SPl
9568 8060 SPl
9323 7767 SPl
9078 7459 SPl
8833 7193 SPl
8588 7115 SPl
8342 7172 SPl
8342 7172 SPl
1 Sep
/Slrgb {0.102 0.278 0.435} def
8342 7172 Sm
8587 6828 Sl
8587 6828 Sm
8832 6698 Sl
8832 6698 Sm
9077 6773 Sl
9077 6773 Sm
9323 6921 Sl
9323 6921 Sm
9568 7085 Sl
9568 7085 Sm
9813 7242 Sl
9813 7242 Sm
10058 7379 Sl
10058 7379 Sm
10303 7494 Sl
10303 7494 Sm
10549 7585 Sl
10549 7585 Sm
10794 7653 Sl
10794 7653 Sm
11039 7700 Sl
11039 7700 Sm
11284 7726 Sl
11284 7726 Sm
11529 7736 Sl
11529 7736 Sm
11774 7729 Sl
11774 7729 Sm
12020 7710 Sl
/Slrgb {0.753 0.753 0.753} def
Sbp
14094 8144 Sm
14094 8144 SPl
14339 7383 SPl
14584 7187 SPl
14829 7007 SPl
15075 6830 SPl
15320 6668 SPl
15565 6533 SPl
15810 6427 SPl
16055 6346 SPl
16301 6288 SPl
16546 6247 SPl
16791 6220 SPl
17036 6202 SPl
17281 6192 SPl
17527 6187 SPl
17772 6185 SPl
17772 9357 SPl
17527 9397 SPl
17281 9437 SPl
17036 9475 SPl
16791 9511 SPl
16546 9544 SPl
16301 9571 SPl
16055 9592 SPl
15810 9604 SPl
15565 9606 SPl
15320 9596 SPl
15075 9577 SPl
14829 9546 SPl
14584 9471 SPl
14339 9201 SPl
14094 9079 SPl
14094 8144 SPl
1 Sep
/Slrgb {0.102 0.278 0.435} def
14093 8611 Sm
14339 8292 Sl
14339 8292 Sm
14584 8329 Sl
14584 8329 Sm
14829 8276 Sl
14829 8276 Sm
15074 8203 Sl
15074 8203 Sm
15319 8132 Sl
15319 8132 Sm
15565 8069 Sl
15565 8069 Sm
15810 8015 Sl
15810 8015 Sm
16055 7969 Sl
16055 7969 Sm
16300 7929 Sl
16300 7929 Sm
16545 7895 Sl
16545 7895 Sm
16790 7865 Sl
16790 7865 Sm
17036 7838 Sl
17036 7838 Sm
17281 7814 Sl
17281 7814 Sm
17526 7792 Sl
17526 7792 Sm
17771 7771 Sl
/Slrgb {0.753 0.753 0.753} def
Sbp
21033 7049 Sm
21033 7049 SPl
21279 8041 SPl
21524 7690 SPl
21769 7244 SPl
22014 6838 SPl
22259 6494 SPl
22504 6222 SPl
22750 6021 SPl
22995 5886 SPl
23240 5808 SPl
23485 5777 SPl
23730 5786 SPl
23976 5826 SPl
24221 5890 SPl
24466 5973 SPl
24711 6068 SPl
24711 8500 SPl
24466 8493 SPl
24221 8500 SPl
23976 8523 SPl
23730 8564 SPl
23485 8624 SPl
23240 8703 SPl
22995 8800 SPl
22750 8914 SPl
22504 9043 SPl
22259 9182 SPl
22014 9329 SPl
21769 9475 SPl
21524 9616 SPl
21279 9770 SPl
21033 8593 SPl
21033 7049 SPl
1 Sep
/Slrgb {0.102 0.278 0.435} def
21033 7820 Sm
21278 8905 Sl
21278 8905 Sm
21523 8652 Sl
21523 8652 Sm
21768 8359 Sl
21768 8359 Sm
22014 8083 Sl
22014 8083 Sm
22259 7838 Sl
22259 7838 Sm
22504 7632 Sl
22504 7632 Sm
22749 7467 Sl
22749 7467 Sm
22994 7342 Sl
22994 7342 Sm
23240 7255 Sl
23240 7255 Sm
23485 7200 Sl
23485 7200 Sm
23730 7175 Sl
23730 7175 Sm
23975 7174 Sl
23975 7174 Sm
24220 7195 Sl
24220 7195 Sm
24465 7232 Sl
24465 7232 Sm
24711 7284 Sl
/Slrgb {0.753 0.753 0.753} def
Sbp
26997 8811 Sm
26997 8811 SPl
27242 8356 SPl
27487 8168 SPl
27733 7937 SPl
27978 7709 SPl
28223 7499 SPl
28468 7311 SPl
28713 7145 SPl
28959 6997 SPl
29204 6864 SPl
29449 6742 SPl
29694 6630 SPl
29939 6525 SPl
30184 6427 SPl
30430 6334 SPl
30675 6246 SPl
30675 7977 SPl
30430 8048 SPl
30184 8121 SPl
29939 8196 SPl
29694 8274 SPl
29449 8357 SPl
29204 8445 SPl
28959 8539 SPl
28713 8638 SPl
28468 8744 SPl
28223 8855 SPl
27978 8971 SPl
27733 9096 SPl
27487 9234 SPl
27242 9411 SPl
26997 9460 SPl
26997 8811 SPl
1 Sep
/Slrgb {0.102 0.278 0.435} def
26997 9135 Sm
27242 8883 Sl
27242 8883 Sm
27487 8700 Sl
27487 8700 Sm
27732 8516 Sl
27732 8516 Sm
27977 8340 Sl
27977 8340 Sm
28222 8176 Sl
28222 8176 Sm
28468 8027 Sl
28468 8027 Sm
28713 7891 Sl
28713 7891 Sm
28958 7767 Sl
28958 7767 Sm
29203 7654 Sl
29203 7654 Sm
29448 7549 Sl
29448 7549 Sm
29694 7452 Sl
29694 7452 Sm
29939 7360 Sl
29939 7360 Sm
30184 7273 Sl
30184 7273 Sm
30429 7191 Sl
30429 7191 Sm
30674 7111 Sl
/Slw 0.259 def
/Slrgb {0.000 0.000 0.000} def
2360 17007 2360 21653 Sln
2360 17237 2215 17237 Sln
2142 17110 0
/Helvetica-0 findfont 364 yratio mul scalefont setfont
(0) stringwidth pop add
xratio div
dup 4 3 roll exch 0.000 cos mul sub 3 1 roll 0.000 sin mul sub 2 copy
/fntsize {/Helvetica-0 findfont exch scalefont setfont } def
0.000 364
(0) Stxtl
(0) stringwidth pop xratio div
dup 4 3 roll exch 0.000 cos mul add 3 1 roll 0.000 sin mul add 2 copy
pop pop pop pop
2360 18632 2215 18632 Sln
2142 18505 0
/Helvetica-0 findfont 364 yratio mul scalefont setfont
(.01) stringwidth pop add
xratio div
dup 4 3 roll exch 0.000 cos mul sub 3 1 roll 0.000 sin mul sub 2 copy
/fntsize {/Helvetica-0 findfont exch scalefont setfont } def
0.000 364
(.01) Stxtl
(.01) stringwidth pop xratio div
dup 4 3 roll exch 0.000 cos mul add 3 1 roll 0.000 sin mul add 2 copy
pop pop pop pop
2360 20027 2215 20027 Sln
2142 19900 0
/Helvetica-0 findfont 364 yratio mul scalefont setfont
(.02) stringwidth pop add
xratio div
dup 4 3 roll exch 0.000 cos mul sub 3 1 roll 0.000 sin mul sub 2 copy
/fntsize {/Helvetica-0 findfont exch scalefont setfont } def
0.000 364
(.02) Stxtl
(.02) stringwidth pop xratio div
dup 4 3 roll exch 0.000 cos mul add 3 1 roll 0.000 sin mul add 2 copy
pop pop pop pop
2360 21422 2215 21422 Sln
2142 21295 0
/Helvetica-0 findfont 364 yratio mul scalefont setfont
(.03) stringwidth pop add
xratio div
dup 4 3 roll exch 0.000 cos mul sub 3 1 roll 0.000 sin mul sub 2 copy
/fntsize {/Helvetica-0 findfont exch scalefont setfont } def
0.000 364
(.03) Stxtl
(.03) stringwidth pop xratio div
dup 4 3 roll exch 0.000 cos mul add 3 1 roll 0.000 sin mul add 2 copy
pop pop pop pop
8112 17007 8112 21653 Sln
8112 17237 7967 17237 Sln
7894 17110 0
/Helvetica-0 findfont 364 yratio mul scalefont setfont
(0) stringwidth pop add
xratio div
dup 4 3 roll exch 0.000 cos mul sub 3 1 roll 0.000 sin mul sub 2 copy
/fntsize {/Helvetica-0 findfont exch scalefont setfont } def
0.000 364
(0) Stxtl
(0) stringwidth pop xratio div
dup 4 3 roll exch 0.000 cos mul add 3 1 roll 0.000 sin mul add 2 copy
pop pop pop pop
8112 18518 7967 18518 Sln
7894 18391 0
/Helvetica-0 findfont 364 yratio mul scalefont setfont
(.01) stringwidth pop add
xratio div
dup 4 3 roll exch 0.000 cos mul sub 3 1 roll 0.000 sin mul sub 2 copy
/fntsize {/Helvetica-0 findfont exch scalefont setfont } def
0.000 364
(.01) Stxtl
(.01) stringwidth pop xratio div
dup 4 3 roll exch 0.000 cos mul add 3 1 roll 0.000 sin mul add 2 copy
pop pop pop pop
8112 19800 7967 19800 Sln
7894 19673 0
/Helvetica-0 findfont 364 yratio mul scalefont setfont
(.02) stringwidth pop add
xratio div
dup 4 3 roll exch 0.000 cos mul sub 3 1 roll 0.000 sin mul sub 2 copy
/fntsize {/Helvetica-0 findfont exch scalefont setfont } def
0.000 364
(.02) Stxtl
(.02) stringwidth pop xratio div
dup 4 3 roll exch 0.000 cos mul add 3 1 roll 0.000 sin mul add 2 copy
pop pop pop pop
8112 21081 7967 21081 Sln
7894 20954 0
/Helvetica-0 findfont 364 yratio mul scalefont setfont
(.03) stringwidth pop add
xratio div
dup 4 3 roll exch 0.000 cos mul sub 3 1 roll 0.000 sin mul sub 2 copy
/fntsize {/Helvetica-0 findfont exch scalefont setfont } def
0.000 364
(.03) Stxtl
(.03) stringwidth pop xratio div
dup 4 3 roll exch 0.000 cos mul add 3 1 roll 0.000 sin mul add 2 copy
pop pop pop pop
13864 17007 13864 21653 Sln
13864 17237 13718 17237 Sln
13645 17110 0
/Helvetica-0 findfont 364 yratio mul scalefont setfont
(.02) stringwidth pop add
xratio div
dup 4 3 roll exch 0.000 cos mul sub 3 1 roll 0.000 sin mul sub 2 copy
/fntsize {/Helvetica-0 findfont exch scalefont setfont } def
0.000 364
(.02) Stxtl
(.02) stringwidth pop xratio div
dup 4 3 roll exch 0.000 cos mul add 3 1 roll 0.000 sin mul add 2 copy
pop pop pop pop
13864 18283 13718 18283 Sln
13645 18156 0
/Helvetica-0 findfont 364 yratio mul scalefont setfont
(.04) stringwidth pop add
xratio div
dup 4 3 roll exch 0.000 cos mul sub 3 1 roll 0.000 sin mul sub 2 copy
/fntsize {/Helvetica-0 findfont exch scalefont setfont } def
0.000 364
(.04) Stxtl
(.04) stringwidth pop xratio div
dup 4 3 roll exch 0.000 cos mul add 3 1 roll 0.000 sin mul add 2 copy
pop pop pop pop
13864 19330 13718 19330 Sln
13645 19203 0
/Helvetica-0 findfont 364 yratio mul scalefont setfont
(.06) stringwidth pop add
xratio div
dup 4 3 roll exch 0.000 cos mul sub 3 1 roll 0.000 sin mul sub 2 copy
/fntsize {/Helvetica-0 findfont exch scalefont setfont } def
0.000 364
(.06) Stxtl
(.06) stringwidth pop xratio div
dup 4 3 roll exch 0.000 cos mul add 3 1 roll 0.000 sin mul add 2 copy
pop pop pop pop
13864 20376 13718 20376 Sln
13645 20249 0
/Helvetica-0 findfont 364 yratio mul scalefont setfont
(.08) stringwidth pop add
xratio div
dup 4 3 roll exch 0.000 cos mul sub 3 1 roll 0.000 sin mul sub 2 copy
/fntsize {/Helvetica-0 findfont exch scalefont setfont } def
0.000 364
(.08) Stxtl
(.08) stringwidth pop xratio div
dup 4 3 roll exch 0.000 cos mul add 3 1 roll 0.000 sin mul add 2 copy
pop pop pop pop
13864 21422 13718 21422 Sln
13645 21295 0
/Helvetica-0 findfont 364 yratio mul scalefont setfont
(.1) stringwidth pop add
xratio div
dup 4 3 roll exch 0.000 cos mul sub 3 1 roll 0.000 sin mul sub 2 copy
/fntsize {/Helvetica-0 findfont exch scalefont setfont } def
0.000 364
(.1) Stxtl
(.1) stringwidth pop xratio div
dup 4 3 roll exch 0.000 cos mul add 3 1 roll 0.000 sin mul add 2 copy
pop pop pop pop
20803 17007 20803 21653 Sln
20803 17557 20658 17557 Sln
20585 17430 0
/Helvetica-0 findfont 364 yratio mul scalefont setfont
(-.0004) stringwidth pop add
xratio div
dup 4 3 roll exch 0.000 cos mul sub 3 1 roll 0.000 sin mul sub 2 copy
/fntsize {/Helvetica-0 findfont exch scalefont setfont } def
0.000 364
(-.0004) Stxtl
(-.0004) stringwidth pop xratio div
dup 4 3 roll exch 0.000 cos mul add 3 1 roll 0.000 sin mul add 2 copy
pop pop pop pop
20803 18523 20658 18523 Sln
20585 18396 0
/Helvetica-0 findfont 364 yratio mul scalefont setfont
(-.0003) stringwidth pop add
xratio div
dup 4 3 roll exch 0.000 cos mul sub 3 1 roll 0.000 sin mul sub 2 copy
/fntsize {/Helvetica-0 findfont exch scalefont setfont } def
0.000 364
(-.0003) Stxtl
(-.0003) stringwidth pop xratio div
dup 4 3 roll exch 0.000 cos mul add 3 1 roll 0.000 sin mul add 2 copy
pop pop pop pop
20803 19489 20658 19489 Sln
20585 19362 0
/Helvetica-0 findfont 364 yratio mul scalefont setfont
(-.0002) stringwidth pop add
xratio div
dup 4 3 roll exch 0.000 cos mul sub 3 1 roll 0.000 sin mul sub 2 copy
/fntsize {/Helvetica-0 findfont exch scalefont setfont } def
0.000 364
(-.0002) Stxtl
(-.0002) stringwidth pop xratio div
dup 4 3 roll exch 0.000 cos mul add 3 1 roll 0.000 sin mul add 2 copy
pop pop pop pop
20803 20456 20658 20456 Sln
20585 20329 0
/Helvetica-0 findfont 364 yratio mul scalefont setfont
(-.0001) stringwidth pop add
xratio div
dup 4 3 roll exch 0.000 cos mul sub 3 1 roll 0.000 sin mul sub 2 copy
/fntsize {/Helvetica-0 findfont exch scalefont setfont } def
0.000 364
(-.0001) Stxtl
(-.0001) stringwidth pop xratio div
dup 4 3 roll exch 0.000 cos mul add 3 1 roll 0.000 sin mul add 2 copy
pop pop pop pop
20803 21422 20658 21422 Sln
20585 21295 0
/Helvetica-0 findfont 364 yratio mul scalefont setfont
(0) stringwidth pop add
xratio div
dup 4 3 roll exch 0.000 cos mul sub 3 1 roll 0.000 sin mul sub 2 copy
/fntsize {/Helvetica-0 findfont exch scalefont setfont } def
0.000 364
(0) Stxtl
(0) stringwidth pop xratio div
dup 4 3 roll exch 0.000 cos mul add 3 1 roll 0.000 sin mul add 2 copy
pop pop pop pop
26767 17007 26767 21653 Sln
26767 17237 26621 17237 Sln
26548 17110 0
/Helvetica-0 findfont 364 yratio mul scalefont setfont
(-.002) stringwidth pop add
xratio div
dup 4 3 roll exch 0.000 cos mul sub 3 1 roll 0.000 sin mul sub 2 copy
/fntsize {/Helvetica-0 findfont exch scalefont setfont } def
0.000 364
(-.002) Stxtl
(-.002) stringwidth pop xratio div
dup 4 3 roll exch 0.000 cos mul add 3 1 roll 0.000 sin mul add 2 copy
pop pop pop pop
26767 18283 26621 18283 Sln
26548 18156 0
/Helvetica-0 findfont 364 yratio mul scalefont setfont
(0) stringwidth pop add
xratio div
dup 4 3 roll exch 0.000 cos mul sub 3 1 roll 0.000 sin mul sub 2 copy
/fntsize {/Helvetica-0 findfont exch scalefont setfont } def
0.000 364
(0) Stxtl
(0) stringwidth pop xratio div
dup 4 3 roll exch 0.000 cos mul add 3 1 roll 0.000 sin mul add 2 copy
pop pop pop pop
26767 19330 26621 19330 Sln
26548 19203 0
/Helvetica-0 findfont 364 yratio mul scalefont setfont
(.002) stringwidth pop add
xratio div
dup 4 3 roll exch 0.000 cos mul sub 3 1 roll 0.000 sin mul sub 2 copy
/fntsize {/Helvetica-0 findfont exch scalefont setfont } def
0.000 364
(.002) Stxtl
(.002) stringwidth pop xratio div
dup 4 3 roll exch 0.000 cos mul add 3 1 roll 0.000 sin mul add 2 copy
pop pop pop pop
26767 20376 26621 20376 Sln
26548 20249 0
/Helvetica-0 findfont 364 yratio mul scalefont setfont
(.004) stringwidth pop add
xratio div
dup 4 3 roll exch 0.000 cos mul sub 3 1 roll 0.000 sin mul sub 2 copy
/fntsize {/Helvetica-0 findfont exch scalefont setfont } def
0.000 364
(.004) Stxtl
(.004) stringwidth pop xratio div
dup 4 3 roll exch 0.000 cos mul add 3 1 roll 0.000 sin mul add 2 copy
pop pop pop pop
26767 21422 26621 21422 Sln
26548 21295 0
/Helvetica-0 findfont 364 yratio mul scalefont setfont
(.006) stringwidth pop add
xratio div
dup 4 3 roll exch 0.000 cos mul sub 3 1 roll 0.000 sin mul sub 2 copy
/fntsize {/Helvetica-0 findfont exch scalefont setfont } def
0.000 364
(.006) Stxtl
(.006) stringwidth pop xratio div
dup 4 3 roll exch 0.000 cos mul add 3 1 roll 0.000 sin mul add 2 copy
pop pop pop pop
2360 11277 2360 15923 Sln
2360 11507 2215 11507 Sln
2142 11380 0
/Helvetica-0 findfont 364 yratio mul scalefont setfont
(-.03) stringwidth pop add
xratio div
dup 4 3 roll exch 0.000 cos mul sub 3 1 roll 0.000 sin mul sub 2 copy
/fntsize {/Helvetica-0 findfont exch scalefont setfont } def
0.000 364
(-.03) Stxtl
(-.03) stringwidth pop xratio div
dup 4 3 roll exch 0.000 cos mul add 3 1 roll 0.000 sin mul add 2 copy
pop pop pop pop
2360 12849 2215 12849 Sln
2142 12722 0
/Helvetica-0 findfont 364 yratio mul scalefont setfont
(-.02) stringwidth pop add
xratio div
dup 4 3 roll exch 0.000 cos mul sub 3 1 roll 0.000 sin mul sub 2 copy
/fntsize {/Helvetica-0 findfont exch scalefont setfont } def
0.000 364
(-.02) Stxtl
(-.02) stringwidth pop xratio div
dup 4 3 roll exch 0.000 cos mul add 3 1 roll 0.000 sin mul add 2 copy
pop pop pop pop
2360 14191 2215 14191 Sln
2142 14064 0
/Helvetica-0 findfont 364 yratio mul scalefont setfont
(-.01) stringwidth pop add
xratio div
dup 4 3 roll exch 0.000 cos mul sub 3 1 roll 0.000 sin mul sub 2 copy
/fntsize {/Helvetica-0 findfont exch scalefont setfont } def
0.000 364
(-.01) Stxtl
(-.01) stringwidth pop xratio div
dup 4 3 roll exch 0.000 cos mul add 3 1 roll 0.000 sin mul add 2 copy
pop pop pop pop
2360 15532 2215 15532 Sln
2142 15405 0
/Helvetica-0 findfont 364 yratio mul scalefont setfont
(0) stringwidth pop add
xratio div
dup 4 3 roll exch 0.000 cos mul sub 3 1 roll 0.000 sin mul sub 2 copy
/fntsize {/Helvetica-0 findfont exch scalefont setfont } def
0.000 364
(0) Stxtl
(0) stringwidth pop xratio div
dup 4 3 roll exch 0.000 cos mul add 3 1 roll 0.000 sin mul add 2 copy
pop pop pop pop
8112 11277 8112 15923 Sln
8112 11507 7967 11507 Sln
7894 11380 0
/Helvetica-0 findfont 364 yratio mul scalefont setfont
(-.02) stringwidth pop add
xratio div
dup 4 3 roll exch 0.000 cos mul sub 3 1 roll 0.000 sin mul sub 2 copy
/fntsize {/Helvetica-0 findfont exch scalefont setfont } def
0.000 364
(-.02) Stxtl
(-.02) stringwidth pop xratio div
dup 4 3 roll exch 0.000 cos mul add 3 1 roll 0.000 sin mul add 2 copy
pop pop pop pop
8112 12902 7967 12902 Sln
7894 12775 0
/Helvetica-0 findfont 364 yratio mul scalefont setfont
(-.01) stringwidth pop add
xratio div
dup 4 3 roll exch 0.000 cos mul sub 3 1 roll 0.000 sin mul sub 2 copy
/fntsize {/Helvetica-0 findfont exch scalefont setfont } def
0.000 364
(-.01) Stxtl
(-.01) stringwidth pop xratio div
dup 4 3 roll exch 0.000 cos mul add 3 1 roll 0.000 sin mul add 2 copy
pop pop pop pop
8112 14297 7967 14297 Sln
7894 14170 0
/Helvetica-0 findfont 364 yratio mul scalefont setfont
(0) stringwidth pop add
xratio div
dup 4 3 roll exch 0.000 cos mul sub 3 1 roll 0.000 sin mul sub 2 copy
/fntsize {/Helvetica-0 findfont exch scalefont setfont } def
0.000 364
(0) Stxtl
(0) stringwidth pop xratio div
dup 4 3 roll exch 0.000 cos mul add 3 1 roll 0.000 sin mul add 2 copy
pop pop pop pop
8112 15692 7967 15692 Sln
7894 15565 0
/Helvetica-0 findfont 364 yratio mul scalefont setfont
(.01) stringwidth pop add
xratio div
dup 4 3 roll exch 0.000 cos mul sub 3 1 roll 0.000 sin mul sub 2 copy
/fntsize {/Helvetica-0 findfont exch scalefont setfont } def
0.000 364
(.01) Stxtl
(.01) stringwidth pop xratio div
dup 4 3 roll exch 0.000 cos mul add 3 1 roll 0.000 sin mul add 2 copy
pop pop pop pop
13864 11277 13864 15923 Sln
13864 11838 13718 11838 Sln
13645 11711 0
/Helvetica-0 findfont 364 yratio mul scalefont setfont
(-.04) stringwidth pop add
xratio div
dup 4 3 roll exch 0.000 cos mul sub 3 1 roll 0.000 sin mul sub 2 copy
/fntsize {/Helvetica-0 findfont exch scalefont setfont } def
0.000 364
(-.04) Stxtl
(-.04) stringwidth pop xratio div
dup 4 3 roll exch 0.000 cos mul add 3 1 roll 0.000 sin mul add 2 copy
pop pop pop pop
13864 13123 13718 13123 Sln
13645 12996 0
/Helvetica-0 findfont 364 yratio mul scalefont setfont
(-.02) stringwidth pop add
xratio div
dup 4 3 roll exch 0.000 cos mul sub 3 1 roll 0.000 sin mul sub 2 copy
/fntsize {/Helvetica-0 findfont exch scalefont setfont } def
0.000 364
(-.02) Stxtl
(-.02) stringwidth pop xratio div
dup 4 3 roll exch 0.000 cos mul add 3 1 roll 0.000 sin mul add 2 copy
pop pop pop pop
13864 14407 13718 14407 Sln
13645 14280 0
/Helvetica-0 findfont 364 yratio mul scalefont setfont
(0) stringwidth pop add
xratio div
dup 4 3 roll exch 0.000 cos mul sub 3 1 roll 0.000 sin mul sub 2 copy
/fntsize {/Helvetica-0 findfont exch scalefont setfont } def
0.000 364
(0) Stxtl
(0) stringwidth pop xratio div
dup 4 3 roll exch 0.000 cos mul add 3 1 roll 0.000 sin mul add 2 copy
pop pop pop pop
13864 15692 13718 15692 Sln
13645 15565 0
/Helvetica-0 findfont 364 yratio mul scalefont setfont
(.02) stringwidth pop add
xratio div
dup 4 3 roll exch 0.000 cos mul sub 3 1 roll 0.000 sin mul sub 2 copy
/fntsize {/Helvetica-0 findfont exch scalefont setfont } def
0.000 364
(.02) Stxtl
(.02) stringwidth pop xratio div
dup 4 3 roll exch 0.000 cos mul add 3 1 roll 0.000 sin mul add 2 copy
pop pop pop pop
20803 11277 20803 15923 Sln
20803 11910 20658 11910 Sln
20585 11783 0
/Helvetica-0 findfont 364 yratio mul scalefont setfont
(0) stringwidth pop add
xratio div
dup 4 3 roll exch 0.000 cos mul sub 3 1 roll 0.000 sin mul sub 2 copy
/fntsize {/Helvetica-0 findfont exch scalefont setfont } def
0.000 364
(0) Stxtl
(0) stringwidth pop xratio div
dup 4 3 roll exch 0.000 cos mul add 3 1 roll 0.000 sin mul add 2 copy
pop pop pop pop
20803 13171 20658 13171 Sln
20585 13044 0
/Helvetica-0 findfont 364 yratio mul scalefont setfont
(.0002) stringwidth pop add
xratio div
dup 4 3 roll exch 0.000 cos mul sub 3 1 roll 0.000 sin mul sub 2 copy
/fntsize {/Helvetica-0 findfont exch scalefont setfont } def
0.000 364
(.0002) Stxtl
(.0002) stringwidth pop xratio div
dup 4 3 roll exch 0.000 cos mul add 3 1 roll 0.000 sin mul add 2 copy
pop pop pop pop
20803 14432 20658 14432 Sln
20585 14305 0
/Helvetica-0 findfont 364 yratio mul scalefont setfont
(.0004) stringwidth pop add
xratio div
dup 4 3 roll exch 0.000 cos mul sub 3 1 roll 0.000 sin mul sub 2 copy
/fntsize {/Helvetica-0 findfont exch scalefont setfont } def
0.000 364
(.0004) Stxtl
(.0004) stringwidth pop xratio div
dup 4 3 roll exch 0.000 cos mul add 3 1 roll 0.000 sin mul add 2 copy
pop pop pop pop
20803 15692 20658 15692 Sln
20585 15565 0
/Helvetica-0 findfont 364 yratio mul scalefont setfont
(.0006) stringwidth pop add
xratio div
dup 4 3 roll exch 0.000 cos mul sub 3 1 roll 0.000 sin mul sub 2 copy
/fntsize {/Helvetica-0 findfont exch scalefont setfont } def
0.000 364
(.0006) Stxtl
(.0006) stringwidth pop xratio div
dup 4 3 roll exch 0.000 cos mul add 3 1 roll 0.000 sin mul add 2 copy
pop pop pop pop
26767 11277 26767 15923 Sln
26767 11507 26621 11507 Sln
26548 11380 0
/Helvetica-0 findfont 364 yratio mul scalefont setfont
(-.003) stringwidth pop add
xratio div
dup 4 3 roll exch 0.000 cos mul sub 3 1 roll 0.000 sin mul sub 2 copy
/fntsize {/Helvetica-0 findfont exch scalefont setfont } def
0.000 364
(-.003) Stxtl
(-.003) stringwidth pop xratio div
dup 4 3 roll exch 0.000 cos mul add 3 1 roll 0.000 sin mul add 2 copy
pop pop pop pop
26767 12497 26621 12497 Sln
26548 12370 0
/Helvetica-0 findfont 364 yratio mul scalefont setfont
(-.002) stringwidth pop add
xratio div
dup 4 3 roll exch 0.000 cos mul sub 3 1 roll 0.000 sin mul sub 2 copy
/fntsize {/Helvetica-0 findfont exch scalefont setfont } def
0.000 364
(-.002) Stxtl
(-.002) stringwidth pop xratio div
dup 4 3 roll exch 0.000 cos mul add 3 1 roll 0.000 sin mul add 2 copy
pop pop pop pop
26767 13486 26621 13486 Sln
26548 13359 0
/Helvetica-0 findfont 364 yratio mul scalefont setfont
(-.001) stringwidth pop add
xratio div
dup 4 3 roll exch 0.000 cos mul sub 3 1 roll 0.000 sin mul sub 2 copy
/fntsize {/Helvetica-0 findfont exch scalefont setfont } def
0.000 364
(-.001) Stxtl
(-.001) stringwidth pop xratio div
dup 4 3 roll exch 0.000 cos mul add 3 1 roll 0.000 sin mul add 2 copy
pop pop pop pop
26767 14476 26621 14476 Sln
26548 14349 0
/Helvetica-0 findfont 364 yratio mul scalefont setfont
(0) stringwidth pop add
xratio div
dup 4 3 roll exch 0.000 cos mul sub 3 1 roll 0.000 sin mul sub 2 copy
/fntsize {/Helvetica-0 findfont exch scalefont setfont } def
0.000 364
(0) Stxtl
(0) stringwidth pop xratio div
dup 4 3 roll exch 0.000 cos mul add 3 1 roll 0.000 sin mul add 2 copy
pop pop pop pop
26767 15465 26621 15465 Sln
26548 15338 0
/Helvetica-0 findfont 364 yratio mul scalefont setfont
(.001) stringwidth pop add
xratio div
dup 4 3 roll exch 0.000 cos mul sub 3 1 roll 0.000 sin mul sub 2 copy
/fntsize {/Helvetica-0 findfont exch scalefont setfont } def
0.000 364
(.001) Stxtl
(.001) stringwidth pop xratio div
dup 4 3 roll exch 0.000 cos mul add 3 1 roll 0.000 sin mul add 2 copy
pop pop pop pop
2360 5547 2360 10192 Sln
2360 5777 2215 5777 Sln
2142 5650 0
/Helvetica-0 findfont 364 yratio mul scalefont setfont
(-.01) stringwidth pop add
xratio div
dup 4 3 roll exch 0.000 cos mul sub 3 1 roll 0.000 sin mul sub 2 copy
/fntsize {/Helvetica-0 findfont exch scalefont setfont } def
0.000 364
(-.01) Stxtl
(-.01) stringwidth pop xratio div
dup 4 3 roll exch 0.000 cos mul add 3 1 roll 0.000 sin mul add 2 copy
pop pop pop pop
2360 6823 2215 6823 Sln
2142 6696 0
/Helvetica-0 findfont 364 yratio mul scalefont setfont
(-.005) stringwidth pop add
xratio div
dup 4 3 roll exch 0.000 cos mul sub 3 1 roll 0.000 sin mul sub 2 copy
/fntsize {/Helvetica-0 findfont exch scalefont setfont } def
0.000 364
(-.005) Stxtl
(-.005) stringwidth pop xratio div
dup 4 3 roll exch 0.000 cos mul add 3 1 roll 0.000 sin mul add 2 copy
pop pop pop pop
2360 7870 2215 7870 Sln
2142 7743 0
/Helvetica-0 findfont 364 yratio mul scalefont setfont
(0) stringwidth pop add
xratio div
dup 4 3 roll exch 0.000 cos mul sub 3 1 roll 0.000 sin mul sub 2 copy
/fntsize {/Helvetica-0 findfont exch scalefont setfont } def
0.000 364
(0) Stxtl
(0) stringwidth pop xratio div
dup 4 3 roll exch 0.000 cos mul add 3 1 roll 0.000 sin mul add 2 copy
pop pop pop pop
2360 8916 2215 8916 Sln
2142 8789 0
/Helvetica-0 findfont 364 yratio mul scalefont setfont
(.005) stringwidth pop add
xratio div
dup 4 3 roll exch 0.000 cos mul sub 3 1 roll 0.000 sin mul sub 2 copy
/fntsize {/Helvetica-0 findfont exch scalefont setfont } def
0.000 364
(.005) Stxtl
(.005) stringwidth pop xratio div
dup 4 3 roll exch 0.000 cos mul add 3 1 roll 0.000 sin mul add 2 copy
pop pop pop pop
2360 9962 2215 9962 Sln
2142 9835 0
/Helvetica-0 findfont 364 yratio mul scalefont setfont
(.01) stringwidth pop add
xratio div
dup 4 3 roll exch 0.000 cos mul sub 3 1 roll 0.000 sin mul sub 2 copy
/fntsize {/Helvetica-0 findfont exch scalefont setfont } def
0.000 364
(.01) Stxtl
(.01) stringwidth pop xratio div
dup 4 3 roll exch 0.000 cos mul add 3 1 roll 0.000 sin mul add 2 copy
pop pop pop pop
8112 5547 8112 10192 Sln
8112 5777 7967 5777 Sln
7894 5650 0
/Helvetica-0 findfont 364 yratio mul scalefont setfont
(-.01) stringwidth pop add
xratio div
dup 4 3 roll exch 0.000 cos mul sub 3 1 roll 0.000 sin mul sub 2 copy
/fntsize {/Helvetica-0 findfont exch scalefont setfont } def
0.000 364
(-.01) Stxtl
(-.01) stringwidth pop xratio div
dup 4 3 roll exch 0.000 cos mul add 3 1 roll 0.000 sin mul add 2 copy
pop pop pop pop
8112 7172 7967 7172 Sln
7894 7045 0
/Helvetica-0 findfont 364 yratio mul scalefont setfont
(0) stringwidth pop add
xratio div
dup 4 3 roll exch 0.000 cos mul sub 3 1 roll 0.000 sin mul sub 2 copy
/fntsize {/Helvetica-0 findfont exch scalefont setfont } def
0.000 364
(0) Stxtl
(0) stringwidth pop xratio div
dup 4 3 roll exch 0.000 cos mul add 3 1 roll 0.000 sin mul add 2 copy
pop pop pop pop
8112 8567 7967 8567 Sln
7894 8440 0
/Helvetica-0 findfont 364 yratio mul scalefont setfont
(.01) stringwidth pop add
xratio div
dup 4 3 roll exch 0.000 cos mul sub 3 1 roll 0.000 sin mul sub 2 copy
/fntsize {/Helvetica-0 findfont exch scalefont setfont } def
0.000 364
(.01) Stxtl
(.01) stringwidth pop xratio div
dup 4 3 roll exch 0.000 cos mul add 3 1 roll 0.000 sin mul add 2 copy
pop pop pop pop
8112 9962 7967 9962 Sln
7894 9835 0
/Helvetica-0 findfont 364 yratio mul scalefont setfont
(.02) stringwidth pop add
xratio div
dup 4 3 roll exch 0.000 cos mul sub 3 1 roll 0.000 sin mul sub 2 copy
/fntsize {/Helvetica-0 findfont exch scalefont setfont } def
0.000 364
(.02) Stxtl
(.02) stringwidth pop xratio div
dup 4 3 roll exch 0.000 cos mul add 3 1 roll 0.000 sin mul add 2 copy
pop pop pop pop
13864 5547 13864 10192 Sln
13864 5777 13718 5777 Sln
13645 5650 0
/Helvetica-0 findfont 364 yratio mul scalefont setfont
(-.04) stringwidth pop add
xratio div
dup 4 3 roll exch 0.000 cos mul sub 3 1 roll 0.000 sin mul sub 2 copy
/fntsize {/Helvetica-0 findfont exch scalefont setfont } def
0.000 364
(-.04) Stxtl
(-.04) stringwidth pop xratio div
dup 4 3 roll exch 0.000 cos mul add 3 1 roll 0.000 sin mul add 2 copy
pop pop pop pop
13864 7172 13718 7172 Sln
13645 7045 0
/Helvetica-0 findfont 364 yratio mul scalefont setfont
(-.02) stringwidth pop add
xratio div
dup 4 3 roll exch 0.000 cos mul sub 3 1 roll 0.000 sin mul sub 2 copy
/fntsize {/Helvetica-0 findfont exch scalefont setfont } def
0.000 364
(-.02) Stxtl
(-.02) stringwidth pop xratio div
dup 4 3 roll exch 0.000 cos mul add 3 1 roll 0.000 sin mul add 2 copy
pop pop pop pop
13864 8567 13718 8567 Sln
13645 8440 0
/Helvetica-0 findfont 364 yratio mul scalefont setfont
(0) stringwidth pop add
xratio div
dup 4 3 roll exch 0.000 cos mul sub 3 1 roll 0.000 sin mul sub 2 copy
/fntsize {/Helvetica-0 findfont exch scalefont setfont } def
0.000 364
(0) Stxtl
(0) stringwidth pop xratio div
dup 4 3 roll exch 0.000 cos mul add 3 1 roll 0.000 sin mul add 2 copy
pop pop pop pop
13864 9962 13718 9962 Sln
13645 9835 0
/Helvetica-0 findfont 364 yratio mul scalefont setfont
(.02) stringwidth pop add
xratio div
dup 4 3 roll exch 0.000 cos mul sub 3 1 roll 0.000 sin mul sub 2 copy
/fntsize {/Helvetica-0 findfont exch scalefont setfont } def
0.000 364
(.02) Stxtl
(.02) stringwidth pop xratio div
dup 4 3 roll exch 0.000 cos mul add 3 1 roll 0.000 sin mul add 2 copy
pop pop pop pop
20803 5547 20803 10192 Sln
20803 6179 20658 6179 Sln
20585 6052 0
/Helvetica-0 findfont 364 yratio mul scalefont setfont
(-.0001) stringwidth pop add
xratio div
dup 4 3 roll exch 0.000 cos mul sub 3 1 roll 0.000 sin mul sub 2 copy
/fntsize {/Helvetica-0 findfont exch scalefont setfont } def
0.000 364
(-.0001) Stxtl
(-.0001) stringwidth pop xratio div
dup 4 3 roll exch 0.000 cos mul add 3 1 roll 0.000 sin mul add 2 copy
pop pop pop pop
20803 7440 20658 7440 Sln
20585 7313 0
/Helvetica-0 findfont 364 yratio mul scalefont setfont
(0) stringwidth pop add
xratio div
dup 4 3 roll exch 0.000 cos mul sub 3 1 roll 0.000 sin mul sub 2 copy
/fntsize {/Helvetica-0 findfont exch scalefont setfont } def
0.000 364
(0) Stxtl
(0) stringwidth pop xratio div
dup 4 3 roll exch 0.000 cos mul add 3 1 roll 0.000 sin mul add 2 copy
pop pop pop pop
20803 8701 20658 8701 Sln
20585 8574 0
/Helvetica-0 findfont 364 yratio mul scalefont setfont
(.0001) stringwidth pop add
xratio div
dup 4 3 roll exch 0.000 cos mul sub 3 1 roll 0.000 sin mul sub 2 copy
/fntsize {/Helvetica-0 findfont exch scalefont setfont } def
0.000 364
(.0001) Stxtl
(.0001) stringwidth pop xratio div
dup 4 3 roll exch 0.000 cos mul add 3 1 roll 0.000 sin mul add 2 copy
pop pop pop pop
20803 9962 20658 9962 Sln
20585 9835 0
/Helvetica-0 findfont 364 yratio mul scalefont setfont
(.0002) stringwidth pop add
xratio div
dup 4 3 roll exch 0.000 cos mul sub 3 1 roll 0.000 sin mul sub 2 copy
/fntsize {/Helvetica-0 findfont exch scalefont setfont } def
0.000 364
(.0002) Stxtl
(.0002) stringwidth pop xratio div
dup 4 3 roll exch 0.000 cos mul add 3 1 roll 0.000 sin mul add 2 copy
pop pop pop pop
26767 5547 26767 10192 Sln
26767 5777 26621 5777 Sln
26548 5650 0
/Helvetica-0 findfont 364 yratio mul scalefont setfont
(0) stringwidth pop add
xratio div
dup 4 3 roll exch 0.000 cos mul sub 3 1 roll 0.000 sin mul sub 2 copy
/fntsize {/Helvetica-0 findfont exch scalefont setfont } def
0.000 364
(0) Stxtl
(0) stringwidth pop xratio div
dup 4 3 roll exch 0.000 cos mul add 3 1 roll 0.000 sin mul add 2 copy
pop pop pop pop
26767 6823 26621 6823 Sln
26548 6696 0
/Helvetica-0 findfont 364 yratio mul scalefont setfont
(.002) stringwidth pop add
xratio div
dup 4 3 roll exch 0.000 cos mul sub 3 1 roll 0.000 sin mul sub 2 copy
/fntsize {/Helvetica-0 findfont exch scalefont setfont } def
0.000 364
(.002) Stxtl
(.002) stringwidth pop xratio div
dup 4 3 roll exch 0.000 cos mul add 3 1 roll 0.000 sin mul add 2 copy
pop pop pop pop
26767 7870 26621 7870 Sln
26548 7743 0
/Helvetica-0 findfont 364 yratio mul scalefont setfont
(.004) stringwidth pop add
xratio div
dup 4 3 roll exch 0.000 cos mul sub 3 1 roll 0.000 sin mul sub 2 copy
/fntsize {/Helvetica-0 findfont exch scalefont setfont } def
0.000 364
(.004) Stxtl
(.004) stringwidth pop xratio div
dup 4 3 roll exch 0.000 cos mul add 3 1 roll 0.000 sin mul add 2 copy
pop pop pop pop
26767 8916 26621 8916 Sln
26548 8789 0
/Helvetica-0 findfont 364 yratio mul scalefont setfont
(.006) stringwidth pop add
xratio div
dup 4 3 roll exch 0.000 cos mul sub 3 1 roll 0.000 sin mul sub 2 copy
/fntsize {/Helvetica-0 findfont exch scalefont setfont } def
0.000 364
(.006) Stxtl
(.006) stringwidth pop xratio div
dup 4 3 roll exch 0.000 cos mul add 3 1 roll 0.000 sin mul add 2 copy
pop pop pop pop
26767 9962 26621 9962 Sln
26548 9835 0
/Helvetica-0 findfont 364 yratio mul scalefont setfont
(.008) stringwidth pop add
xratio div
dup 4 3 roll exch 0.000 cos mul sub 3 1 roll 0.000 sin mul sub 2 copy
/fntsize {/Helvetica-0 findfont exch scalefont setfont } def
0.000 364
(.008) Stxtl
(.008) stringwidth pop xratio div
dup 4 3 roll exch 0.000 cos mul add 3 1 roll 0.000 sin mul add 2 copy
pop pop pop pop
2360 5547 6499 5547 Sln
2591 5547 2591 5401 Sln
2591 5073 0
/Helvetica-0 findfont 364 yratio mul scalefont setfont
(0) stringwidth pop add
2 div xratio div
dup 4 3 roll exch 0.000 cos mul sub 3 1 roll 0.000 sin mul sub 2 copy
/fntsize {/Helvetica-0 findfont exch scalefont setfont } def
0.000 364
(0) Stxtl
(0) stringwidth pop xratio div
dup 4 3 roll exch 0.000 cos mul add 3 1 roll 0.000 sin mul add 2 copy
pop pop pop pop
3817 5547 3817 5401 Sln
3817 5073 0
/Helvetica-0 findfont 364 yratio mul scalefont setfont
(5) stringwidth pop add
2 div xratio div
dup 4 3 roll exch 0.000 cos mul sub 3 1 roll 0.000 sin mul sub 2 copy
/fntsize {/Helvetica-0 findfont exch scalefont setfont } def
0.000 364
(5) Stxtl
(5) stringwidth pop xratio div
dup 4 3 roll exch 0.000 cos mul add 3 1 roll 0.000 sin mul add 2 copy
pop pop pop pop
5043 5547 5043 5401 Sln
5043 5073 0
/Helvetica-0 findfont 364 yratio mul scalefont setfont
(10) stringwidth pop add
2 div xratio div
dup 4 3 roll exch 0.000 cos mul sub 3 1 roll 0.000 sin mul sub 2 copy
/fntsize {/Helvetica-0 findfont exch scalefont setfont } def
0.000 364
(10) Stxtl
(10) stringwidth pop xratio div
dup 4 3 roll exch 0.000 cos mul add 3 1 roll 0.000 sin mul add 2 copy
pop pop pop pop
6269 5547 6269 5401 Sln
6269 5073 0
/Helvetica-0 findfont 364 yratio mul scalefont setfont
(15) stringwidth pop add
2 div xratio div
dup 4 3 roll exch 0.000 cos mul sub 3 1 roll 0.000 sin mul sub 2 copy
/fntsize {/Helvetica-0 findfont exch scalefont setfont } def
0.000 364
(15) Stxtl
(15) stringwidth pop xratio div
dup 4 3 roll exch 0.000 cos mul add 3 1 roll 0.000 sin mul add 2 copy
pop pop pop pop
8112 5547 12251 5547 Sln
8342 5547 8342 5401 Sln
8342 5073 0
/Helvetica-0 findfont 364 yratio mul scalefont setfont
(0) stringwidth pop add
2 div xratio div
dup 4 3 roll exch 0.000 cos mul sub 3 1 roll 0.000 sin mul sub 2 copy
/fntsize {/Helvetica-0 findfont exch scalefont setfont } def
0.000 364
(0) Stxtl
(0) stringwidth pop xratio div
dup 4 3 roll exch 0.000 cos mul add 3 1 roll 0.000 sin mul add 2 copy
pop pop pop pop
9568 5547 9568 5401 Sln
9568 5073 0
/Helvetica-0 findfont 364 yratio mul scalefont setfont
(5) stringwidth pop add
2 div xratio div
dup 4 3 roll exch 0.000 cos mul sub 3 1 roll 0.000 sin mul sub 2 copy
/fntsize {/Helvetica-0 findfont exch scalefont setfont } def
0.000 364
(5) Stxtl
(5) stringwidth pop xratio div
dup 4 3 roll exch 0.000 cos mul add 3 1 roll 0.000 sin mul add 2 copy
pop pop pop pop
10794 5547 10794 5401 Sln
10794 5073 0
/Helvetica-0 findfont 364 yratio mul scalefont setfont
(10) stringwidth pop add
2 div xratio div
dup 4 3 roll exch 0.000 cos mul sub 3 1 roll 0.000 sin mul sub 2 copy
/fntsize {/Helvetica-0 findfont exch scalefont setfont } def
0.000 364
(10) Stxtl
(10) stringwidth pop xratio div
dup 4 3 roll exch 0.000 cos mul add 3 1 roll 0.000 sin mul add 2 copy
pop pop pop pop
12020 5547 12020 5401 Sln
12020 5073 0
/Helvetica-0 findfont 364 yratio mul scalefont setfont
(15) stringwidth pop add
2 div xratio div
dup 4 3 roll exch 0.000 cos mul sub 3 1 roll 0.000 sin mul sub 2 copy
/fntsize {/Helvetica-0 findfont exch scalefont setfont } def
0.000 364
(15) Stxtl
(15) stringwidth pop xratio div
dup 4 3 roll exch 0.000 cos mul add 3 1 roll 0.000 sin mul add 2 copy
pop pop pop pop
13864 5547 18002 5547 Sln
14094 5547 14094 5401 Sln
14094 5073 0
/Helvetica-0 findfont 364 yratio mul scalefont setfont
(0) stringwidth pop add
2 div xratio div
dup 4 3 roll exch 0.000 cos mul sub 3 1 roll 0.000 sin mul sub 2 copy
/fntsize {/Helvetica-0 findfont exch scalefont setfont } def
0.000 364
(0) Stxtl
(0) stringwidth pop xratio div
dup 4 3 roll exch 0.000 cos mul add 3 1 roll 0.000 sin mul add 2 copy
pop pop pop pop
15320 5547 15320 5401 Sln
15320 5073 0
/Helvetica-0 findfont 364 yratio mul scalefont setfont
(5) stringwidth pop add
2 div xratio div
dup 4 3 roll exch 0.000 cos mul sub 3 1 roll 0.000 sin mul sub 2 copy
/fntsize {/Helvetica-0 findfont exch scalefont setfont } def
0.000 364
(5) Stxtl
(5) stringwidth pop xratio div
dup 4 3 roll exch 0.000 cos mul add 3 1 roll 0.000 sin mul add 2 copy
pop pop pop pop
16546 5547 16546 5401 Sln
16546 5073 0
/Helvetica-0 findfont 364 yratio mul scalefont setfont
(10) stringwidth pop add
2 div xratio div
dup 4 3 roll exch 0.000 cos mul sub 3 1 roll 0.000 sin mul sub 2 copy
/fntsize {/Helvetica-0 findfont exch scalefont setfont } def
0.000 364
(10) Stxtl
(10) stringwidth pop xratio div
dup 4 3 roll exch 0.000 cos mul add 3 1 roll 0.000 sin mul add 2 copy
pop pop pop pop
17772 5547 17772 5401 Sln
17772 5073 0
/Helvetica-0 findfont 364 yratio mul scalefont setfont
(15) stringwidth pop add
2 div xratio div
dup 4 3 roll exch 0.000 cos mul sub 3 1 roll 0.000 sin mul sub 2 copy
/fntsize {/Helvetica-0 findfont exch scalefont setfont } def
0.000 364
(15) Stxtl
(15) stringwidth pop xratio div
dup 4 3 roll exch 0.000 cos mul add 3 1 roll 0.000 sin mul add 2 copy
pop pop pop pop
20803 5547 24942 5547 Sln
21033 5547 21033 5401 Sln
21033 5073 0
/Helvetica-0 findfont 364 yratio mul scalefont setfont
(0) stringwidth pop add
2 div xratio div
dup 4 3 roll exch 0.000 cos mul sub 3 1 roll 0.000 sin mul sub 2 copy
/fntsize {/Helvetica-0 findfont exch scalefont setfont } def
0.000 364
(0) Stxtl
(0) stringwidth pop xratio div
dup 4 3 roll exch 0.000 cos mul add 3 1 roll 0.000 sin mul add 2 copy
pop pop pop pop
22259 5547 22259 5401 Sln
22259 5073 0
/Helvetica-0 findfont 364 yratio mul scalefont setfont
(5) stringwidth pop add
2 div xratio div
dup 4 3 roll exch 0.000 cos mul sub 3 1 roll 0.000 sin mul sub 2 copy
/fntsize {/Helvetica-0 findfont exch scalefont setfont } def
0.000 364
(5) Stxtl
(5) stringwidth pop xratio div
dup 4 3 roll exch 0.000 cos mul add 3 1 roll 0.000 sin mul add 2 copy
pop pop pop pop
23485 5547 23485 5401 Sln
23485 5073 0
/Helvetica-0 findfont 364 yratio mul scalefont setfont
(10) stringwidth pop add
2 div xratio div
dup 4 3 roll exch 0.000 cos mul sub 3 1 roll 0.000 sin mul sub 2 copy
/fntsize {/Helvetica-0 findfont exch scalefont setfont } def
0.000 364
(10) Stxtl
(10) stringwidth pop xratio div
dup 4 3 roll exch 0.000 cos mul add 3 1 roll 0.000 sin mul add 2 copy
pop pop pop pop
24711 5547 24711 5401 Sln
24711 5073 0
/Helvetica-0 findfont 364 yratio mul scalefont setfont
(15) stringwidth pop add
2 div xratio div
dup 4 3 roll exch 0.000 cos mul sub 3 1 roll 0.000 sin mul sub 2 copy
/fntsize {/Helvetica-0 findfont exch scalefont setfont } def
0.000 364
(15) Stxtl
(15) stringwidth pop xratio div
dup 4 3 roll exch 0.000 cos mul add 3 1 roll 0.000 sin mul add 2 copy
pop pop pop pop
26767 5547 30905 5547 Sln
26997 5547 26997 5401 Sln
26997 5073 0
/Helvetica-0 findfont 364 yratio mul scalefont setfont
(0) stringwidth pop add
2 div xratio div
dup 4 3 roll exch 0.000 cos mul sub 3 1 roll 0.000 sin mul sub 2 copy
/fntsize {/Helvetica-0 findfont exch scalefont setfont } def
0.000 364
(0) Stxtl
(0) stringwidth pop xratio div
dup 4 3 roll exch 0.000 cos mul add 3 1 roll 0.000 sin mul add 2 copy
pop pop pop pop
28223 5547 28223 5401 Sln
28223 5073 0
/Helvetica-0 findfont 364 yratio mul scalefont setfont
(5) stringwidth pop add
2 div xratio div
dup 4 3 roll exch 0.000 cos mul sub 3 1 roll 0.000 sin mul sub 2 copy
/fntsize {/Helvetica-0 findfont exch scalefont setfont } def
0.000 364
(5) Stxtl
(5) stringwidth pop xratio div
dup 4 3 roll exch 0.000 cos mul add 3 1 roll 0.000 sin mul add 2 copy
pop pop pop pop
29449 5547 29449 5401 Sln
29449 5073 0
/Helvetica-0 findfont 364 yratio mul scalefont setfont
(10) stringwidth pop add
2 div xratio div
dup 4 3 roll exch 0.000 cos mul sub 3 1 roll 0.000 sin mul sub 2 copy
/fntsize {/Helvetica-0 findfont exch scalefont setfont } def
0.000 364
(10) Stxtl
(10) stringwidth pop xratio div
dup 4 3 roll exch 0.000 cos mul add 3 1 roll 0.000 sin mul add 2 copy
pop pop pop pop
30675 5547 30675 5401 Sln
30675 5073 0
/Helvetica-0 findfont 364 yratio mul scalefont setfont
(15) stringwidth pop add
2 div xratio div
dup 4 3 roll exch 0.000 cos mul sub 3 1 roll 0.000 sin mul sub 2 copy
/fntsize {/Helvetica-0 findfont exch scalefont setfont } def
0.000 364
(15) Stxtl
(15) stringwidth pop xratio div
dup 4 3 roll exch 0.000 cos mul add 3 1 roll 0.000 sin mul add 2 copy
pop pop pop pop
/Ssrgb {0.851 0.902 0.922} def
/Slrgb {0.851 0.902 0.922} def
2360 21653 6499 22178 1 Srect
4430 21835 0
/Helvetica-0 findfont 400 yratio mul scalefont setfont
(IRF, P, D) stringwidth pop add
2 div xratio div
dup 4 3 roll exch 0.000 cos mul sub 3 1 roll 0.000 sin mul sub 2 copy
/fntsize {/Helvetica-0 findfont exch scalefont setfont } def
0.000 400
(IRF, P, D) Stxtl
(IRF, P, D) stringwidth pop xratio div
dup 4 3 roll exch 0.000 cos mul add 3 1 roll 0.000 sin mul add 2 copy
pop pop pop pop
8112 21653 12251 22178 1 Srect
10181 21835 0
/Helvetica-0 findfont 400 yratio mul scalefont setfont
(IRF, P, I) stringwidth pop add
2 div xratio div
dup 4 3 roll exch 0.000 cos mul sub 3 1 roll 0.000 sin mul sub 2 copy
/fntsize {/Helvetica-0 findfont exch scalefont setfont } def
0.000 400
(IRF, P, I) Stxtl
(IRF, P, I) stringwidth pop xratio div
dup 4 3 roll exch 0.000 cos mul add 3 1 roll 0.000 sin mul add 2 copy
pop pop pop pop
13864 21653 18002 22178 1 Srect
15933 21835 0
/Helvetica-0 findfont 400 yratio mul scalefont setfont
(IRF, P, P) stringwidth pop add
2 div xratio div
dup 4 3 roll exch 0.000 cos mul sub 3 1 roll 0.000 sin mul sub 2 copy
/fntsize {/Helvetica-0 findfont exch scalefont setfont } def
0.000 400
(IRF, P, P) Stxtl
(IRF, P, P) stringwidth pop xratio div
dup 4 3 roll exch 0.000 cos mul add 3 1 roll 0.000 sin mul add 2 copy
pop pop pop pop
20803 21653 24942 22178 1 Srect
22872 21835 0
/Helvetica-0 findfont 400 yratio mul scalefont setfont
(IRF, P, s) stringwidth pop add
2 div xratio div
dup 4 3 roll exch 0.000 cos mul sub 3 1 roll 0.000 sin mul sub 2 copy
/fntsize {/Helvetica-0 findfont exch scalefont setfont } def
0.000 400
(IRF, P, s) Stxtl
(IRF, P, s) stringwidth pop xratio div
dup 4 3 roll exch 0.000 cos mul add 3 1 roll 0.000 sin mul add 2 copy
pop pop pop pop
26767 21653 30905 22178 1 Srect
28836 21835 0
/Helvetica-0 findfont 400 yratio mul scalefont setfont
(IRF, P, z) stringwidth pop add
2 div xratio div
dup 4 3 roll exch 0.000 cos mul sub 3 1 roll 0.000 sin mul sub 2 copy
/fntsize {/Helvetica-0 findfont exch scalefont setfont } def
0.000 400
(IRF, P, z) Stxtl
(IRF, P, z) stringwidth pop xratio div
dup 4 3 roll exch 0.000 cos mul add 3 1 roll 0.000 sin mul add 2 copy
pop pop pop pop
2360 15923 6499 16448 1 Srect
4430 16105 0
/Helvetica-0 findfont 400 yratio mul scalefont setfont
(IRF, s, D) stringwidth pop add
2 div xratio div
dup 4 3 roll exch 0.000 cos mul sub 3 1 roll 0.000 sin mul sub 2 copy
/fntsize {/Helvetica-0 findfont exch scalefont setfont } def
0.000 400
(IRF, s, D) Stxtl
(IRF, s, D) stringwidth pop xratio div
dup 4 3 roll exch 0.000 cos mul add 3 1 roll 0.000 sin mul add 2 copy
pop pop pop pop
8112 15923 12251 16448 1 Srect
10181 16105 0
/Helvetica-0 findfont 400 yratio mul scalefont setfont
(IRF, s, I) stringwidth pop add
2 div xratio div
dup 4 3 roll exch 0.000 cos mul sub 3 1 roll 0.000 sin mul sub 2 copy
/fntsize {/Helvetica-0 findfont exch scalefont setfont } def
0.000 400
(IRF, s, I) Stxtl
(IRF, s, I) stringwidth pop xratio div
dup 4 3 roll exch 0.000 cos mul add 3 1 roll 0.000 sin mul add 2 copy
pop pop pop pop
13864 15923 18002 16448 1 Srect
15933 16105 0
/Helvetica-0 findfont 400 yratio mul scalefont setfont
(IRF, s, P) stringwidth pop add
2 div xratio div
dup 4 3 roll exch 0.000 cos mul sub 3 1 roll 0.000 sin mul sub 2 copy
/fntsize {/Helvetica-0 findfont exch scalefont setfont } def
0.000 400
(IRF, s, P) Stxtl
(IRF, s, P) stringwidth pop xratio div
dup 4 3 roll exch 0.000 cos mul add 3 1 roll 0.000 sin mul add 2 copy
pop pop pop pop
20803 15923 24942 16448 1 Srect
22872 16105 0
/Helvetica-0 findfont 400 yratio mul scalefont setfont
(IRF, s, s) stringwidth pop add
2 div xratio div
dup 4 3 roll exch 0.000 cos mul sub 3 1 roll 0.000 sin mul sub 2 copy
/fntsize {/Helvetica-0 findfont exch scalefont setfont } def
0.000 400
(IRF, s, s) Stxtl
(IRF, s, s) stringwidth pop xratio div
dup 4 3 roll exch 0.000 cos mul add 3 1 roll 0.000 sin mul add 2 copy
pop pop pop pop
26767 15923 30905 16448 1 Srect
28836 16105 0
/Helvetica-0 findfont 400 yratio mul scalefont setfont
(IRF, s, z) stringwidth pop add
2 div xratio div
dup 4 3 roll exch 0.000 cos mul sub 3 1 roll 0.000 sin mul sub 2 copy
/fntsize {/Helvetica-0 findfont exch scalefont setfont } def
0.000 400
(IRF, s, z) Stxtl
(IRF, s, z) stringwidth pop xratio div
dup 4 3 roll exch 0.000 cos mul add 3 1 roll 0.000 sin mul add 2 copy
pop pop pop pop
2360 10192 6499 10718 1 Srect
4430 10375 0
/Helvetica-0 findfont 400 yratio mul scalefont setfont
(IRF, z, D) stringwidth pop add
2 div xratio div
dup 4 3 roll exch 0.000 cos mul sub 3 1 roll 0.000 sin mul sub 2 copy
/fntsize {/Helvetica-0 findfont exch scalefont setfont } def
0.000 400
(IRF, z, D) Stxtl
(IRF, z, D) stringwidth pop xratio div
dup 4 3 roll exch 0.000 cos mul add 3 1 roll 0.000 sin mul add 2 copy
pop pop pop pop
8112 10192 12251 10718 1 Srect
10181 10375 0
/Helvetica-0 findfont 400 yratio mul scalefont setfont
(IRF, z, I) stringwidth pop add
2 div xratio div
dup 4 3 roll exch 0.000 cos mul sub 3 1 roll 0.000 sin mul sub 2 copy
/fntsize {/Helvetica-0 findfont exch scalefont setfont } def
0.000 400
(IRF, z, I) Stxtl
(IRF, z, I) stringwidth pop xratio div
dup 4 3 roll exch 0.000 cos mul add 3 1 roll 0.000 sin mul add 2 copy
pop pop pop pop
13864 10192 18002 10718 1 Srect
15933 10375 0
/Helvetica-0 findfont 400 yratio mul scalefont setfont
(IRF, z, P) stringwidth pop add
2 div xratio div
dup 4 3 roll exch 0.000 cos mul sub 3 1 roll 0.000 sin mul sub 2 copy
/fntsize {/Helvetica-0 findfont exch scalefont setfont } def
0.000 400
(IRF, z, P) Stxtl
(IRF, z, P) stringwidth pop xratio div
dup 4 3 roll exch 0.000 cos mul add 3 1 roll 0.000 sin mul add 2 copy
pop pop pop pop
20803 10192 24942 10718 1 Srect
22872 10375 0
/Helvetica-0 findfont 400 yratio mul scalefont setfont
(IRF, z, s) stringwidth pop add
2 div xratio div
dup 4 3 roll exch 0.000 cos mul sub 3 1 roll 0.000 sin mul sub 2 copy
/fntsize {/Helvetica-0 findfont exch scalefont setfont } def
0.000 400
(IRF, z, s) Stxtl
(IRF, z, s) stringwidth pop xratio div
dup 4 3 roll exch 0.000 cos mul add 3 1 roll 0.000 sin mul add 2 copy
pop pop pop pop
26767 10192 30905 10718 1 Srect
28836 10375 0
/Helvetica-0 findfont 400 yratio mul scalefont setfont
(IRF, z, z) stringwidth pop add
2 div xratio div
dup 4 3 roll exch 0.000 cos mul sub 3 1 roll 0.000 sin mul sub 2 copy
/fntsize {/Helvetica-0 findfont exch scalefont setfont } def
0.000 400
(IRF, z, z) Stxtl
(IRF, z, z) stringwidth pop xratio div
dup 4 3 roll exch 0.000 cos mul add 3 1 roll 0.000 sin mul add 2 copy
pop pop pop pop
/Ssrgb {1.000 1.000 1.000} def
/Slw 0.576 def
/Slrgb {0.000 0.000 0.000} def
7014 2019 24985 3526 1 Srect
/Ssrgb {0.753 0.753 0.753} def
/Slw 0.864 def
/Slrgb {0.753 0.753 0.753} def
7363 2368 10389 3176 1 Srect
/Slrgb {0.102 0.278 0.435} def
14762 2772 17788 2772 Sln
10873 2489 2 copy
/fntsize {/Helvetica-0 findfont exch scalefont setfont } def
0.000 808
(95% CI) Stxtl
(95% CI) stringwidth pop xratio div
dup 4 3 roll exch 0.000 cos mul add 3 1 roll 0.000 sin mul add 2 copy
pop pop pop pop
18272 2489 2 copy
/fntsize {/Helvetica-0 findfont exch scalefont setfont } def
0.000 808
(orthogonalized irf) Stxtl
(orthogonalized irf) stringwidth pop xratio div
dup 4 3 roll exch 0.000 cos mul add 3 1 roll 0.000 sin mul add 2 copy
pop pop pop pop
16000 4047 0
/Helvetica-0 findfont 808 yratio mul scalefont setfont
(step) stringwidth pop add
2 div xratio div
dup 4 3 roll exch 0.000 cos mul sub 3 1 roll 0.000 sin mul sub 2 copy
/fntsize {/Helvetica-0 findfont exch scalefont setfont } def
0.000 808
(step) Stxtl
(step) stringwidth pop xratio div
dup 4 3 roll exch 0.000 cos mul add 3 1 roll 0.000 sin mul add 2 copy
pop pop pop pop
954 1148 2 copy
/fntsize {/Helvetica-0 findfont exch scalefont setfont } def
0.000 646
(Graphs by irfname, impulse variable, and response variable) Stxtl
(Graphs by irfname, impulse variable, and response variable) stringwidth pop xratio div
dup 4 3 roll exch 0.000 cos mul add 3 1 roll 0.000 sin mul add 2 copy
pop pop pop pop
S showpage
%%EOF
