%!PS-Adobe-2.0 EPSF-2.0
%% This is a Stata generated postscript file
%%BoundingBox: 0 0 396 288
%%HiResBoundingBox: 0.000 0.000 396.000 288.000
%%DocumentNeededResources: font Helvetica
/xratio 0.012375 def
/yratio 0.012375 def
/Sbgfill {
	/y1 exch def
	/x1 exch def
	/y0 exch def
	/x0 exch def
	x0 y0 moveto
	x0 y1 lineto x1 y1 lineto x1 y0 lineto x0 y0 lineto
	fill
} def
/Spt {
	yratio mul
	/yp exch def
	xratio mul
	/xp exch def
	Slrgb setrgbcolor
	newpath
	xp yp moveto
	xp Slw add yp
	lineto
	currentlinecap
	1 setlinecap
	stroke
	setlinecap
} def
/Sln {
	yratio mul
	/y1p exch def
	xratio mul
	/x1p exch def
	yratio mul
	/y0p exch def
	xratio mul
	/x0p exch def
	Slw setlinewidth
	Slrgb setrgbcolor
	x0p y0p M x1p y1p lineto S
} def
/Scrv {
	yratio mul
	/y3p exch def
	xratio mul
	/x3p exch def
	yratio mul
	/y2p exch def
	xratio mul
	/x2p exch def
	yratio mul
	/y1p exch def
	xratio mul
	/x1p exch def
	Slw setlinewidth
	Slrgb setrgbcolor
	x1p y1p x2p y2p x3p y3p curveto
	stroke
} def
/Stxtl {
	/sp exch def
	yratio mul
	/sizep exch def
	dup
	/anglep exch def
	0 exch sub
	/angle2p exch def
	yratio mul
	/y0p exch def
	xratio mul
	/x0p exch def
	Strgb setrgbcolor
	x0p y0p M anglep rotate sizep fntsize sp show stroke angle2p rotate
} def
/Stxtc {
	/sp exch def
	yratio mul
	/sizep exch def
	dup
	/anglep exch def
	0 exch sub
	/angle2p exch def
	yratio mul
	/y0p exch def
	xratio mul
	/x0p exch def
	Strgb setrgbcolor
	x0p y0p M anglep rotate sizep fntsize sp stringwidth exch -2 div exch rm sp show stroke angle2p rotate
} def
/Stxtr {
	/sp exch def
	yratio mul
	/sizep exch def
	dup
	/anglep exch def
	0 exch sub
	/angle2p exch def
	yratio mul
	/y0p exch def
	xratio mul
	/x0p exch def
	Strgb setrgbcolor
	x0p y0p M anglep rotate sizep fntsize sp stringwidth 1 index -1 mul exch rm pop sp show stroke angle2p rotate
} def
/Srect {
	/sfill exch def
	yratio mul
	/y1 exch def
	xratio mul
	/x1 exch def
	yratio mul
	/y0 exch def
	xratio mul
	/x0 exch def
	sfill 1 eq {
		Ssrgb setrgbcolor
		x0 y0 moveto
		x0 y1 lineto x1 y1 lineto x1 y0 lineto x0 y0 lineto
		fill
	} if
	Slw setlinewidth
	Slrgb setrgbcolor
	x0 y0 moveto
	x0 y1 lineto x1 y1 lineto x1 y0 lineto x0 y0 lineto
	stroke
} def
/Sellipse {
	/sfill exch def
	yratio mul
	/yrad exch def
	xratio mul
	/xrad exch def
	yratio mul
	/y exch def
	xratio mul
	/x exch def
	sfill 1 eq {
		Ssrgb setrgbcolor
		/savematrix matrix currentmatrix def
		x y translate
		xrad yrad scale
		0 0 1 0 360 arc
		savematrix setmatrix
		fill
	} if
	Slw setlinewidth
	Slrgb setrgbcolor
		/savematrix matrix currentmatrix def
		x y translate
		xrad yrad scale
		0 0 1 0 360 arc
		savematrix setmatrix
	stroke
} def
/Stri {
	/sfill exch def
	xratio mul
	/r exch def
	yratio mul
	/y0 exch def
	xratio mul
	/x0 exch def
	/xcen x0 def
	y0 r add
	/ytop exch def
	r 2 div
	y0 exch sub
	/ybot exch def
	r 3 sqrt 2 div mul dup
	xcen exch sub
	/xleft exch def
	xcen add
	/xright exch def
	sfill 1 eq {
		Ssrgb setrgbcolor
		xcen ytop moveto xright ybot lineto xleft ybot lineto xcen ytop lineto fill
	} if
	Slw setlinewidth
	Slrgb setrgbcolor
	xcen ytop moveto xright ybot lineto xleft ybot lineto xcen ytop lineto stroke
} def
/Soldtri {
	/sfill exch def
	xratio mul
	/r exch def
	yratio mul
	/y0 exch def
	xratio mul
	/x0 exch def
	x0 r sub
	/x1 exch def
	y0 r sub
	/y1 exch def
	x0 r add
	/x2 exch def
	y0 r sub
	/y2 exch def
	/x3 x0 def
	y0 r add
	/y3 exch def
	sfill 1 eq {
		Ssrgb setrgbcolor
		x1 y1 moveto x2 y2 lineto x3 y3 lineto x1 y1 lineto fill
	} if
	Slw setlinewidth
	Slrgb setrgbcolor
	x1 y1 moveto x2 y2 lineto x3 y3 lineto x1 y1 lineto stroke
} def
/Sdia {
	/sfill exch def
	xratio mul
	/r exch def
	yratio mul
	/y exch def
	xratio mul
	/x exch def
	x r sub
	/x0 exch def
	/y0 y def
	/x1 x def
	y r sub
	/y1 exch def
	x r add
	/x2 exch def
	/y2 y def
	/x3 x def
	y r add
	/y3 exch def
	sfill 1 eq  {
		Ssrgb setrgbcolor
		x0 y0 moveto x1 y1 lineto x2 y2 lineto x3 y3 lineto x0 y0 lineto fill
	} if
	Slw setlinewidth
	Slrgb setrgbcolor
	x0 y0 moveto x1 y1 lineto x2 y2 lineto x3 y3 lineto x0 y0 lineto stroke
} def
/Scc {
	/sfill exch def
	xratio mul
	/r0 exch def
	yratio mul
	/y0 exch def
	xratio mul
	/x0 exch def
	sfill 1 eq {
		Ssrgb setrgbcolor
		x0 y0 r0 0 360 arc fill
	} if
	Slw setlinewidth
	Slrgb setrgbcolor
	x0 y0 r0 0 360 arc stroke
} def
/Spie {
	/sfill exch def
	/a1 exch def
	/a0 exch def
	xratio mul
	/r exch def
	yratio mul
	/y exch def
	xratio mul
	/x exch def
	sfill 1 eq {
		Ssrgb setrgbcolor
		newpath x y moveto x y r a0 a1 arc closepath
		fill
	} if
	Slw setlinewidth
	Slrgb setrgbcolor
	newpath x y moveto x y r a0 a1 arc closepath
	stroke
} def
/Splu {
	xratio mul
	/r exch def
	yratio mul
	/y exch def
	xratio mul
	/x exch def
	x r sub
	/x0 exch def
	x r add
	/x1 exch def
	x0 y M x1 y L
	y r sub
	/y0 exch def
	y r add
	/y1 exch def
	x y0 M x y1 L
} def
/Scro {
	xratio mul
	/r exch def
	yratio mul
	/y exch def
	xratio mul
	/x exch def
	x r sub
	/x0 exch def
	y r sub
	/y0 exch def
	x r add
	/x1 exch def
	y r add
	/y1 exch def
	x0 y0 M x1 y1 L
	x r add
	/x0 exch def
	y r sub
	/y0 exch def
	x r sub
	/x1 exch def
	y r add
	/y1 exch def
	x0 y0 M x1 y1 L
} def
/Sm {
	yratio mul
	/y exch def
	xratio mul
	/x exch def
	x y M
} def
/Sl {
	yratio mul
	/y exch def
	xratio mul
	/x exch def
	x y L
} def
/SPl {
	yratio mul
	/y exch def
	xratio mul
	/x exch def
	x y PL
} def
/Lcs {
	currentlinecap
	1 setlinecap
} def
/Lcr {
	setlinecap
} def
/Sbp {
	newpath
} def
/Sep {
	/sfill exch def
	closepath
	sfill 1 eq  {
		Ssrgb setrgbcolor
		gsave
		fill
		grestore
	} if
	Slw setlinewidth
	Slrgb setrgbcolor
	Lcs
	stroke
	Lcr
} def
/cp {currentpoint} def 
/M {moveto} def 
/rm {rmoveto} def 
/S {stroke} def 
/L {Slw setlinewidth Slrgb setrgbcolor lineto Lcs S Lcr} def 
/PL {Slw setlinewidth Slrgb setrgbcolor lineto} def 
/MF-Helvetica {
  /newfontname exch def
  /fontname exch def
  /fontdict fontname findfont def
  /newfont fontdict maxlength dict def
  fontdict {
  exch dup /FID eq {pop pop} {exch newfont 3 1 roll put} ifelse
  } forall
  newfont /FontName newfontname put
  newfont /Encoding ISOLatin1Encoding put
  newfontname newfont definefont pop
} def
/Helvetica /Helvetica-0 MF-Helvetica
/Slw 0.120 def
1.000 1.000 1.000 setrgbcolor
0 0 396.000 288.000 Sbgfill
/Slrgb {1.000 1.000 1.000} def
/Strgb {1.000 1.000 1.000} def
/Ssrgb {1.000 1.000 1.000} def
/Slw 0.576 def
0 0 31999 23272 1 Srect
/Slw 0.461 def
2257 13079 10659 21050 1 Srect
/Slrgb {0.000 0.000 0.000} def
/Strgb {0.000 0.000 0.000} def
/Slw 0.691 def
/Slrgb {0.918 0.949 0.953} def
2257 13730 10659 13730 Sln
/Slw 0.461 def
/Slrgb {0.000 0.000 0.000} def
/Slw 0.691 def
/Slrgb {0.918 0.949 0.953} def
2257 15335 10659 15335 Sln
/Slw 0.461 def
/Slrgb {0.000 0.000 0.000} def
/Slw 0.691 def
/Slrgb {0.918 0.949 0.953} def
2257 16940 10659 16940 Sln
/Slw 0.461 def
/Slrgb {0.000 0.000 0.000} def
/Slw 0.691 def
/Slrgb {0.918 0.949 0.953} def
2257 18545 10659 18545 Sln
/Slw 0.461 def
/Slrgb {0.000 0.000 0.000} def
/Slw 0.691 def
/Slrgb {0.918 0.949 0.953} def
2257 20150 10659 20150 Sln
/Slw 0.461 def
/Slrgb {0.000 0.000 0.000} def
/Slrgb {1.000 1.000 1.000} def
12381 13079 20782 21050 1 Srect
/Slrgb {0.000 0.000 0.000} def
/Slw 0.691 def
/Slrgb {0.918 0.949 0.953} def
12381 13954 20782 13954 Sln
/Slw 0.461 def
/Slrgb {0.000 0.000 0.000} def
/Slw 0.691 def
/Slrgb {0.918 0.949 0.953} def
12381 16183 20782 16183 Sln
/Slw 0.461 def
/Slrgb {0.000 0.000 0.000} def
/Slw 0.691 def
/Slrgb {0.918 0.949 0.953} def
12381 18412 20782 18412 Sln
/Slw 0.461 def
/Slrgb {0.000 0.000 0.000} def
/Slw 0.691 def
/Slrgb {0.918 0.949 0.953} def
12381 20640 20782 20640 Sln
/Slw 0.461 def
/Slrgb {0.000 0.000 0.000} def
/Slrgb {1.000 1.000 1.000} def
22504 13079 30905 21050 1 Srect
/Slrgb {0.000 0.000 0.000} def
/Slw 0.691 def
/Slrgb {0.918 0.949 0.953} def
22504 13488 30905 13488 Sln
/Slw 0.461 def
/Slrgb {0.000 0.000 0.000} def
/Slw 0.691 def
/Slrgb {0.918 0.949 0.953} def
22504 15872 30905 15872 Sln
/Slw 0.461 def
/Slrgb {0.000 0.000 0.000} def
/Slw 0.691 def
/Slrgb {0.918 0.949 0.953} def
22504 18256 30905 18256 Sln
/Slw 0.461 def
/Slrgb {0.000 0.000 0.000} def
/Slw 0.691 def
/Slrgb {0.918 0.949 0.953} def
22504 20640 30905 20640 Sln
/Slw 0.461 def
/Slrgb {0.000 0.000 0.000} def
/Slrgb {1.000 1.000 1.000} def
2257 2257 10659 10228 1 Srect
/Slrgb {0.000 0.000 0.000} def
/Slw 0.691 def
/Slrgb {0.918 0.949 0.953} def
2257 3376 10659 3376 Sln
/Slw 0.461 def
/Slrgb {0.000 0.000 0.000} def
/Slw 0.691 def
/Slrgb {0.918 0.949 0.953} def
2257 5284 10659 5284 Sln
/Slw 0.461 def
/Slrgb {0.000 0.000 0.000} def
/Slw 0.691 def
/Slrgb {0.918 0.949 0.953} def
2257 7193 10659 7193 Sln
/Slw 0.461 def
/Slrgb {0.000 0.000 0.000} def
/Slw 0.691 def
/Slrgb {0.918 0.949 0.953} def
2257 9101 10659 9101 Sln
/Slw 0.461 def
/Slrgb {0.000 0.000 0.000} def
/Slrgb {1.000 1.000 1.000} def
12381 2257 20782 10228 1 Srect
/Slrgb {0.000 0.000 0.000} def
/Slw 0.691 def
/Slrgb {0.918 0.949 0.953} def
12381 2667 20782 2667 Sln
/Slw 0.461 def
/Slrgb {0.000 0.000 0.000} def
/Slw 0.691 def
/Slrgb {0.918 0.949 0.953} def
12381 4331 20782 4331 Sln
/Slw 0.461 def
/Slrgb {0.000 0.000 0.000} def
/Slw 0.691 def
/Slrgb {0.918 0.949 0.953} def
12381 5995 20782 5995 Sln
/Slw 0.461 def
/Slrgb {0.000 0.000 0.000} def
/Slw 0.691 def
/Slrgb {0.918 0.949 0.953} def
12381 7659 20782 7659 Sln
/Slw 0.461 def
/Slrgb {0.000 0.000 0.000} def
/Slw 0.691 def
/Slrgb {0.918 0.949 0.953} def
12381 9323 20782 9323 Sln
/Slw 0.461 def
/Slrgb {0.000 0.000 0.000} def
/Slrgb {1.000 1.000 1.000} def
22504 2257 30905 10228 1 Srect
/Slrgb {0.000 0.000 0.000} def
/Slw 0.691 def
/Slrgb {0.918 0.949 0.953} def
22504 2667 30905 2667 Sln
/Slw 0.461 def
/Slrgb {0.000 0.000 0.000} def
/Slw 0.691 def
/Slrgb {0.918 0.949 0.953} def
22504 5031 30905 5031 Sln
/Slw 0.461 def
/Slrgb {0.000 0.000 0.000} def
/Slw 0.691 def
/Slrgb {0.918 0.949 0.953} def
22504 7394 30905 7394 Sln
/Slw 0.461 def
/Slrgb {0.000 0.000 0.000} def
/Slw 0.691 def
/Slrgb {0.918 0.949 0.953} def
22504 9758 30905 9758 Sln
/Slw 0.461 def
/Slrgb {0.000 0.000 0.000} def
/Slw 1.037 def
2666 20047 Sm
2982 20079 Sl
2982 20079 Sm
3298 19513 Sl
3298 19513 Sm
3614 18844 Sl
3614 18844 Sm
3930 18266 Sl
3930 18266 Sm
4246 17828 Sl
4246 17828 Sm
4562 17517 Sl
4562 17517 Sm
4878 17307 Sl
4878 17307 Sm
5194 17167 Sl
5194 17167 Sm
5510 17074 Sl
5510 17074 Sm
5826 17009 Sl
5826 17009 Sm
6142 16958 Sl
6142 16958 Sm
6457 16913 Sl
6457 16913 Sm
6773 16867 Sl
6773 16867 Sm
7089 16817 Sl
7089 16817 Sm
7405 16762 Sl
7405 16762 Sm
7721 16701 Sl
7721 16701 Sm
8037 16634 Sl
8037 16634 Sm
8353 16562 Sl
8353 16562 Sm
8669 16487 Sl
8669 16487 Sm
8985 16408 Sl
8985 16408 Sm
9301 16329 Sl
9301 16329 Sm
9617 16249 Sl
9617 16249 Sm
9933 16170 Sl
9933 16170 Sm
10248 16093 Sl
/Slrgb {0.612 0.533 0.278} def
2666 19031 2884 18621 Sln
2990 18414 3140 17974 Sln
3216 17753 3298 17513 Sln
3298 17513 3363 17312 Sln
3435 17090 3578 16648 Sln
3652 16427 3807 15988 Sln
3885 15769 3930 15640 Sln
3930 15640 4052 15334 Sln
4138 15118 4246 14849 Sln
4246 14849 4343 14703 Sln
4472 14509 4562 14374 Sln
4562 14374 4825 14224 Sln
5042 14143 5194 14096 Sln
5194 14096 5488 14010 Sln
5718 13974 5826 13959 Sln
5826 13959 6142 13932 Sln
6142 13932 6181 13929 Sln
6414 13913 6457 13910 Sln
6457 13910 6773 13892 Sln
6773 13892 6879 13888 Sln
7111 13877 7405 13861 Sln
7405 13861 7576 13850 Sln
7808 13836 8037 13823 Sln
8037 13823 8267 13771 Sln
8494 13721 8669 13681 Sln
8669 13681 8954 13656 Sln
9185 13631 9301 13618 Sln
9301 13618 9617 13586 Sln
9617 13586 9648 13583 Sln
9880 13560 9933 13554 Sln
9933 13554 10248 13488 Sln
2666 20362 2982 20640 Sln
2982 20640 3003 20601 Sln
3115 20397 3298 20062 Sln
3298 20062 3334 19987 Sln
3436 19777 3614 19411 Sln
3614 19411 3643 19361 Sln
3759 19159 3930 18862 Sln
3930 18862 4022 18781 Sln
4196 18626 4246 18582 Sln
4246 18582 4562 18383 Sln
4562 18383 4584 18372 Sln
4796 18275 4878 18237 Sln
4878 18237 5194 18100 Sln
5194 18100 5219 18083 Sln
5415 17956 5510 17895 Sln
5510 17895 5826 17801 Sln
5826 17801 5848 17796 Sln
6075 17747 6142 17732 Sln
6142 17732 6457 17664 Sln
6457 17664 6529 17648 Sln
6757 17598 6773 17594 Sln
6773 17594 7089 17505 Sln
7089 17505 7201 17460 Sln
7417 17374 7721 17248 Sln
7721 17248 7842 17187 Sln
8050 17082 8353 16923 Sln
8353 16923 8469 16883 Sln
8690 16809 8985 16723 Sln
8985 16723 9137 16683 Sln
9362 16624 9617 16561 Sln
9617 16561 9815 16516 Sln
10042 16465 10248 16420 Sln
/Slw 0.691 def
/Slrgb {1.000 0.000 0.000} def
2666 13729 Sm
2982 13729 Sl
2982 13729 Sm
3298 13729 Sl
3298 13729 Sm
3614 13729 Sl
3614 13729 Sm
3930 13729 Sl
3930 13729 Sm
4246 13729 Sl
4246 13729 Sm
4562 13729 Sl
4562 13729 Sm
4878 13729 Sl
4878 13729 Sm
5194 13729 Sl
5194 13729 Sm
5510 13729 Sl
5510 13729 Sm
5826 13729 Sl
5826 13729 Sm
6142 13729 Sl
6142 13729 Sm
6457 13729 Sl
6457 13729 Sm
6773 13729 Sl
6773 13729 Sm
7089 13729 Sl
7089 13729 Sm
7405 13729 Sl
7405 13729 Sm
7721 13729 Sl
7721 13729 Sm
8037 13729 Sl
8037 13729 Sm
8353 13729 Sl
8353 13729 Sm
8669 13729 Sl
8669 13729 Sm
8985 13729 Sl
8985 13729 Sm
9301 13729 Sl
9301 13729 Sm
9617 13729 Sl
9617 13729 Sm
9933 13729 Sl
9933 13729 Sm
10248 13729 Sl
/Slw 1.037 def
/Slrgb {0.000 0.000 0.000} def
12790 18411 Sm
13106 15115 Sl
13106 15115 Sm
13422 14807 Sl
13422 14807 Sm
13738 15300 Sl
13738 15300 Sm
14053 15932 Sl
14053 15932 Sm
14369 16483 Sl
14369 16483 Sm
14685 16895 Sl
14685 16895 Sm
15001 17180 Sl
15001 17180 Sm
15317 17369 Sl
15317 17369 Sm
15633 17491 Sl
15633 17491 Sm
15949 17567 Sl
15949 17567 Sm
16265 17610 Sl
16265 17610 Sm
16581 17631 Sl
16581 17631 Sm
16897 17635 Sl
16897 17635 Sm
17213 17628 Sl
17213 17628 Sm
17529 17613 Sl
17529 17613 Sm
17844 17594 Sl
17844 17594 Sm
18160 17575 Sl
18160 17575 Sm
18476 17557 Sl
18476 17557 Sm
18792 17543 Sl
18792 17543 Sm
19108 17535 Sl
19108 17535 Sm
19424 17533 Sl
19424 17533 Sm
19740 17537 Sl
19740 17537 Sm
20056 17548 Sl
20056 17548 Sm
20372 17565 Sl
/Slrgb {0.612 0.533 0.278} def
12790 18411 12825 17947 Sln
12842 17715 12876 17251 Sln
12894 17019 12928 16555 Sln
12945 16322 12979 15859 Sln
12996 15626 13030 15162 Sln
13048 14930 13082 14465 Sln
13099 14233 13106 14136 Sln
13106 14136 13268 13805 Sln
13370 13596 13422 13488 Sln
13422 13488 13618 13773 Sln
13746 13967 13919 14399 Sln
14005 14615 14053 14734 Sln
14053 14734 14193 15040 Sln
14290 15252 14369 15424 Sln
14369 15424 14587 15592 Sln
14780 15722 15001 15850 Sln
15001 15850 15191 15939 Sln
15402 16037 15633 16145 Sln
15633 16145 15824 16233 Sln
16036 16328 16265 16430 Sln
16265 16430 16463 16513 Sln
16684 16581 16897 16617 Sln
16897 16617 17146 16638 Sln
17377 16653 17529 16662 Sln
17529 16662 17842 16674 Sln
18068 16731 18160 16754 Sln
18160 16754 18476 16822 Sln
18476 16822 18522 16832 Sln
18750 16881 18792 16890 Sln
18792 16890 19108 16938 Sln
19108 16938 19208 16957 Sln
19437 16999 19740 17062 Sln
19740 17062 19896 17071 Sln
20128 17084 20372 17091 Sln
12790 18411 12867 17952 Sln
12906 17723 12984 17264 Sln
13022 17034 13099 16576 Sln
13229 16683 13422 16913 Sln
13422 16913 13486 17065 Sln
13577 17279 13738 17656 Sln
13738 17656 13760 17707 Sln
13853 17921 14038 18348 Sln
14152 18551 14369 18916 Sln
14369 18916 14391 18950 Sln
14515 19147 14685 19416 Sln
14685 19416 14790 19518 Sln
14957 19680 15001 19723 Sln
15001 19723 15317 19844 Sln
15317 19844 15383 19844 Sln
15616 19844 15633 19844 Sln
15633 19844 15949 19684 Sln
15949 19684 16030 19638 Sln
16233 19523 16265 19505 Sln
16265 19505 16581 19328 Sln
16581 19328 16640 19298 Sln
16846 19191 16897 19165 Sln
16897 19165 17213 19013 Sln
17213 19013 17271 19012 Sln
17504 19008 17529 19008 Sln
17529 19008 17844 19094 Sln
17844 19094 17954 19069 Sln
18181 19014 18476 18912 Sln
18476 18912 18620 18861 Sln
18842 18792 19108 18748 Sln
19108 18748 19303 18737 Sln
19536 18725 19740 18717 Sln
19740 18717 20001 18711 Sln
20231 18746 20372 18774 Sln
/Slw 0.691 def
/Slrgb {1.000 0.000 0.000} def
12790 18411 Sm
13106 18411 Sl
13106 18411 Sm
13422 18411 Sl
13422 18411 Sm
13738 18411 Sl
13738 18411 Sm
14053 18411 Sl
14053 18411 Sm
14369 18411 Sl
14369 18411 Sm
14685 18411 Sl
14685 18411 Sm
15001 18411 Sl
15001 18411 Sm
15317 18411 Sl
15317 18411 Sm
15633 18411 Sl
15633 18411 Sm
15949 18411 Sl
15949 18411 Sm
16265 18411 Sl
16265 18411 Sm
16581 18411 Sl
16581 18411 Sm
16897 18411 Sl
16897 18411 Sm
17213 18411 Sl
17213 18411 Sm
17529 18411 Sl
17529 18411 Sm
17844 18411 Sl
17844 18411 Sm
18160 18411 Sl
18160 18411 Sm
18476 18411 Sl
18476 18411 Sm
18792 18411 Sl
18792 18411 Sm
19108 18411 Sl
19108 18411 Sm
19424 18411 Sl
19424 18411 Sm
19740 18411 Sl
19740 18411 Sm
20056 18411 Sl
20056 18411 Sm
20372 18411 Sl
/Slw 1.037 def
/Slrgb {0.000 0.000 0.000} def
22913 15872 Sm
23229 16331 Sl
23229 16331 Sm
23545 16757 Sl
23545 16757 Sm
23861 17249 Sl
23861 17249 Sm
24177 17700 Sl
24177 17700 Sm
24493 18036 Sl
24493 18036 Sm
24809 18233 Sl
24809 18233 Sm
25125 18303 Sl
25125 18303 Sm
25440 18271 Sl
25440 18271 Sm
25756 18167 Sl
25756 18167 Sm
26072 18019 Sl
26072 18019 Sm
26388 17850 Sl
26388 17850 Sm
26704 17678 Sl
26704 17678 Sm
27020 17514 Sl
27020 17514 Sm
27336 17366 Sl
27336 17366 Sm
27652 17240 Sl
27652 17240 Sm
27968 17138 Sl
27968 17138 Sm
28284 17058 Sl
28284 17058 Sm
28600 17001 Sl
28600 17001 Sm
28916 16965 Sl
28916 16965 Sm
29231 16946 Sl
29231 16946 Sm
29547 16942 Sl
29547 16942 Sm
29863 16949 Sl
29863 16949 Sm
30179 16967 Sl
30179 16967 Sm
30495 16991 Sl
/Slrgb {0.612 0.533 0.278} def
22913 15872 23229 15925 Sln
23229 15925 23364 15976 Sln
23582 16060 23861 16177 Sln
23861 16177 24023 16194 Sln
24249 16183 24493 16089 Sln
24493 16089 24665 15979 Sln
24858 15848 25125 15635 Sln
25125 15635 25218 15555 Sln
25395 15403 25440 15365 Sln
25440 15365 25753 15106 Sln
25940 14967 26072 14869 Sln
26072 14869 26328 14712 Sln
26530 14597 26704 14502 Sln
26704 14502 26945 14388 Sln
27165 14312 27336 14264 Sln
27336 14264 27619 14215 Sln
27851 14201 27968 14195 Sln
27968 14195 28284 14130 Sln
28284 14130 28310 14126 Sln
28539 14085 28600 14074 Sln
28600 14074 28916 14049 Sln
28916 14049 29000 14031 Sln
29228 13981 29231 13980 Sln
29231 13980 29547 13993 Sln
29547 13993 29691 14013 Sln
29921 14048 30179 14093 Sln
30179 14093 30379 14131 Sln
22913 15872 23096 16300 Sln
23187 16514 23229 16612 Sln
23229 16612 23387 16934 Sln
23489 17144 23545 17258 Sln
23545 17258 23680 17568 Sln
23772 17782 23861 17989 Sln
23861 17989 23974 18201 Sln
24084 18406 24177 18579 Sln
24177 18579 24346 18788 Sln
24492 18969 24493 18970 Sln
24493 18970 24809 19153 Sln
24809 19153 24902 19186 Sln
25121 19263 25125 19264 Sln
25125 19264 25440 19242 Sln
25440 19242 25581 19207 Sln
25808 19158 26072 19127 Sln
26072 19127 26235 19011 Sln
26426 18879 26704 18702 Sln
26704 18702 26835 18666 Sln
27058 18601 27336 18497 Sln
27336 18497 27504 18490 Sln
27737 18480 27968 18469 Sln
27968 18469 28201 18458 Sln
28434 18447 28600 18439 Sln
28600 18439 28899 18427 Sln
29131 18417 29231 18413 Sln
29231 18413 29547 18402 Sln
29547 18402 29597 18403 Sln
29829 18412 29863 18413 Sln
29863 18413 30179 18427 Sln
30179 18427 30294 18432 Sln
/Slw 0.691 def
/Slrgb {1.000 0.000 0.000} def
22913 15872 Sm
23229 15872 Sl
23229 15872 Sm
23545 15872 Sl
23545 15872 Sm
23861 15872 Sl
23861 15872 Sm
24177 15872 Sl
24177 15872 Sm
24493 15872 Sl
24493 15872 Sm
24809 15872 Sl
24809 15872 Sm
25125 15872 Sl
25125 15872 Sm
25440 15872 Sl
25440 15872 Sm
25756 15872 Sl
25756 15872 Sm
26072 15872 Sl
26072 15872 Sm
26388 15872 Sl
26388 15872 Sm
26704 15872 Sl
26704 15872 Sm
27020 15872 Sl
27020 15872 Sm
27336 15872 Sl
27336 15872 Sm
27652 15872 Sl
27652 15872 Sm
27968 15872 Sl
27968 15872 Sm
28284 15872 Sl
28284 15872 Sm
28600 15872 Sl
28600 15872 Sm
28916 15872 Sl
28916 15872 Sm
29231 15872 Sl
29231 15872 Sm
29547 15872 Sl
29547 15872 Sm
29863 15872 Sl
29863 15872 Sm
30179 15872 Sl
30179 15872 Sm
30495 15872 Sl
/Slw 1.037 def
/Slrgb {0.000 0.000 0.000} def
2666 5284 Sm
2982 4959 Sl
2982 4959 Sm
3298 4446 Sl
3298 4446 Sm
3614 4013 Sl
3614 4013 Sm
3930 3804 Sl
3930 3804 Sm
4246 3791 Sl
4246 3791 Sm
4562 3920 Sl
4562 3920 Sm
4878 4135 Sl
4878 4135 Sm
5194 4395 Sl
5194 4395 Sm
5510 4670 Sl
5510 4670 Sm
5826 4943 Sl
5826 4943 Sm
6142 5203 Sl
6142 5203 Sm
6457 5445 Sl
6457 5445 Sm
6773 5669 Sl
6773 5669 Sm
7089 5875 Sl
7089 5875 Sm
7405 6066 Sl
7405 6066 Sm
7721 6243 Sl
7721 6243 Sm
8037 6409 Sl
8037 6409 Sm
8353 6565 Sl
8353 6565 Sm
8669 6714 Sl
8669 6714 Sm
8985 6857 Sl
8985 6857 Sm
9301 6995 Sl
9301 6995 Sm
9617 7128 Sl
9617 7128 Sm
9933 7257 Sl
9933 7257 Sm
10248 7383 Sl
/Slrgb {0.612 0.533 0.278} def
2666 5284 2775 4832 Sln
2830 4605 2939 4153 Sln
3012 3936 3298 3585 Sln
3298 3585 3305 3574 Sln
3427 3376 3614 3074 Sln
3614 3074 3696 3001 Sln
3870 2846 3930 2793 Sln
3930 2793 4246 2666 Sln
4246 2666 4290 2666 Sln
4523 2669 4562 2670 Sln
4562 2670 4878 2761 Sln
4878 2761 4971 2790 Sln
5193 2860 5194 2860 Sln
5194 2860 5510 3006 Sln
5510 3006 5611 3064 Sln
5813 3181 5826 3188 Sln
5826 3188 6142 3380 Sln
6142 3380 6218 3406 Sln
6438 3482 6457 3488 Sln
6457 3488 6773 3580 Sln
6773 3580 6884 3613 Sln
7107 3679 7405 3764 Sln
7405 3764 7556 3803 Sln
7782 3858 8037 3914 Sln
8037 3914 8238 3951 Sln
8467 3990 8669 4020 Sln
8669 4020 8928 4050 Sln
9160 4071 9301 4083 Sln
9301 4083 9617 4096 Sln
9617 4096 9625 4096 Sln
9857 4094 9933 4093 Sln
9933 4093 10248 4087 Sln
2666 5284 2927 5669 Sln
3073 5648 3298 5400 Sln
3298 5400 3410 5334 Sln
3611 5215 3614 5213 Sln
3614 5213 3930 5298 Sln
3930 5298 4056 5344 Sln
4274 5425 4562 5553 Sln
4562 5553 4676 5651 Sln
4854 5802 4878 5822 Sln
4878 5822 5158 6152 Sln
5310 6330 5510 6566 Sln
5510 6566 5611 6684 Sln
5763 6860 5826 6933 Sln
5826 6933 6091 7190 Sln
6264 7345 6457 7511 Sln
6457 7511 6624 7639 Sln
6811 7777 7089 7968 Sln
7089 7968 7198 8035 Sln
7396 8159 7405 8164 Sln
7405 8164 7721 8342 Sln
7721 8342 7803 8384 Sln
8010 8491 8037 8505 Sln
8037 8505 8353 8655 Sln
8353 8655 8431 8690 Sln
8643 8785 8669 8797 Sln
8669 8797 8985 8969 Sln
8985 8969 9055 9002 Sln
9265 9102 9301 9119 Sln
9301 9119 9617 9353 Sln
9617 9353 9641 9373 Sln
9819 9524 9933 9621 Sln
9933 9621 10200 9789 Sln
/Slw 0.691 def
/Slrgb {1.000 0.000 0.000} def
2666 5284 Sm
2982 5284 Sl
2982 5284 Sm
3298 5284 Sl
3298 5284 Sm
3614 5284 Sl
3614 5284 Sm
3930 5284 Sl
3930 5284 Sm
4246 5284 Sl
4246 5284 Sm
4562 5284 Sl
4562 5284 Sm
4878 5284 Sl
4878 5284 Sm
5194 5284 Sl
5194 5284 Sm
5510 5284 Sl
5510 5284 Sm
5826 5284 Sl
5826 5284 Sm
6142 5284 Sl
6142 5284 Sm
6457 5284 Sl
6457 5284 Sm
6773 5284 Sl
6773 5284 Sm
7089 5284 Sl
7089 5284 Sm
7405 5284 Sl
7405 5284 Sm
7721 5284 Sl
7721 5284 Sm
8037 5284 Sl
8037 5284 Sm
8353 5284 Sl
8353 5284 Sm
8669 5284 Sl
8669 5284 Sm
8985 5284 Sl
8985 5284 Sm
9301 5284 Sl
9301 5284 Sm
9617 5284 Sl
9617 5284 Sm
9933 5284 Sl
9933 5284 Sm
10248 5284 Sl
/Slw 1.037 def
/Slrgb {0.000 0.000 0.000} def
12790 4330 Sm
13106 6035 Sl
13106 6035 Sm
13422 7537 Sl
13422 7537 Sm
13738 8339 Sl
13738 8339 Sm
14053 8679 Sl
14053 8679 Sm
14369 8761 Sl
14369 8761 Sm
14685 8709 Sl
14685 8709 Sm
15001 8588 Sl
15001 8588 Sm
15317 8434 Sl
15317 8434 Sm
15633 8272 Sl
15633 8272 Sm
15949 8117 Sl
15949 8117 Sm
16265 7980 Sl
16265 7980 Sm
16581 7870 Sl
16581 7870 Sm
16897 7791 Sl
16897 7791 Sm
17213 7744 Sl
17213 7744 Sm
17529 7729 Sl
17529 7729 Sm
17844 7741 Sl
17844 7741 Sm
18160 7777 Sl
18160 7777 Sm
18476 7832 Sl
18476 7832 Sm
18792 7900 Sl
18792 7900 Sm
19108 7977 Sl
19108 7977 Sm
19424 8059 Sl
19424 8059 Sm
19740 8141 Sl
19740 8141 Sm
20056 8222 Sl
20056 8222 Sm
20372 8298 Sl
/Slrgb {0.612 0.533 0.278} def
12790 4330 12967 4760 Sln
13055 4975 13106 5100 Sln
13106 5100 13208 5414 Sln
13280 5635 13422 6076 Sln
13422 6076 13423 6077 Sln
13627 6190 13738 6252 Sln
13738 6252 13984 6019 Sln
14145 5852 14369 5606 Sln
14369 5606 14465 5514 Sln
14634 5354 14685 5306 Sln
14685 5306 14921 4989 Sln
15065 4806 15317 4505 Sln
15317 4505 15368 4453 Sln
15533 4288 15633 4187 Sln
15633 4187 15894 3997 Sln
16096 3881 16265 3795 Sln
16265 3795 16493 3641 Sln
16683 3506 16897 3348 Sln
16897 3348 17046 3216 Sln
17221 3063 17529 2851 Sln
17529 2851 17616 2821 Sln
17836 2746 17844 2743 Sln
17844 2743 18160 2819 Sln
18160 2819 18288 2851 Sln
18515 2900 18792 2908 Sln
18792 2908 18979 2927 Sln
19211 2955 19424 2987 Sln
19424 2987 19670 3029 Sln
19900 3069 20056 3096 Sln
20056 3096 20358 3146 Sln
12790 4330 12856 4790 Sln
12889 5021 12954 5481 Sln
12987 5712 13053 6173 Sln
13086 6403 13106 6548 Sln
13106 6548 13160 6862 Sln
13200 7092 13279 7551 Sln
13318 7780 13397 8238 Sln
13449 8465 13597 8906 Sln
13671 9126 13738 9327 Sln
13738 9327 13898 9524 Sln
14044 9705 14053 9716 Sln
14053 9716 14369 9716 Sln
14369 9716 14504 9705 Sln
14735 9702 15001 9763 Sln
15001 9763 15191 9733 Sln
15420 9690 15633 9640 Sln
15633 9640 15877 9609 Sln
16108 9581 16265 9563 Sln
16265 9563 16571 9532 Sln
16803 9514 16897 9507 Sln
16897 9507 17213 9492 Sln
17213 9492 17264 9513 Sln
17479 9601 17529 9622 Sln
17529 9622 17844 9818 Sln
17844 9818 17884 9811 Sln
18112 9767 18160 9758 Sln
18160 9758 18476 9759 Sln
18476 9759 18577 9763 Sln
18810 9771 19108 9768 Sln
19108 9768 19275 9761 Sln
19508 9751 19740 9735 Sln
19740 9735 19972 9717 Sln
20204 9696 20372 9681 Sln
/Slw 0.691 def
/Slrgb {1.000 0.000 0.000} def
12790 4330 Sm
13106 4330 Sl
13106 4330 Sm
13422 4330 Sl
13422 4330 Sm
13738 4330 Sl
13738 4330 Sm
14053 4330 Sl
14053 4330 Sm
14369 4330 Sl
14369 4330 Sm
14685 4330 Sl
14685 4330 Sm
15001 4330 Sl
15001 4330 Sm
15317 4330 Sl
15317 4330 Sm
15633 4330 Sl
15633 4330 Sm
15949 4330 Sl
15949 4330 Sm
16265 4330 Sl
16265 4330 Sm
16581 4330 Sl
16581 4330 Sm
16897 4330 Sl
16897 4330 Sm
17213 4330 Sl
17213 4330 Sm
17529 4330 Sl
17529 4330 Sm
17844 4330 Sl
17844 4330 Sm
18160 4330 Sl
18160 4330 Sm
18476 4330 Sl
18476 4330 Sm
18792 4330 Sl
18792 4330 Sm
19108 4330 Sl
19108 4330 Sm
19424 4330 Sl
19424 4330 Sm
19740 4330 Sl
19740 4330 Sm
20056 4330 Sl
20056 4330 Sm
20372 4330 Sl
/Slw 1.037 def
/Slrgb {0.000 0.000 0.000} def
22913 7394 Sm
23229 7560 Sl
23229 7560 Sm
23545 8160 Sl
23545 8160 Sm
23861 8193 Sl
23861 8193 Sm
24177 7911 Sl
24177 7911 Sm
24493 7561 Sl
24493 7561 Sm
24809 7259 Sl
24809 7259 Sm
25125 7025 Sl
25125 7025 Sm
25440 6844 Sl
25440 6844 Sm
25756 6691 Sl
25756 6691 Sm
26072 6549 Sl
26072 6549 Sm
26388 6412 Sl
26388 6412 Sm
26704 6279 Sl
26704 6279 Sm
27020 6154 Sl
27020 6154 Sm
27336 6041 Sl
27336 6041 Sm
27652 5946 Sl
27652 5946 Sm
27968 5871 Sl
27968 5871 Sm
28284 5817 Sl
28284 5817 Sm
28600 5784 Sl
28600 5784 Sm
28916 5770 Sl
28916 5770 Sm
29231 5774 Sl
29231 5774 Sm
29547 5792 Sl
29547 5792 Sm
29863 5823 Sl
29863 5823 Sm
30179 5862 Sl
30179 5862 Sm
30495 5908 Sl
/Slrgb {0.612 0.533 0.278} def
22913 7394 23022 6942 Sln
23076 6715 23185 6263 Sln
23267 6107 23545 6296 Sln
23545 6296 23610 6185 Sln
23728 5984 23861 5759 Sln
23861 5759 23955 5578 Sln
24062 5372 24177 5148 Sln
24177 5148 24297 4971 Sln
24428 4779 24493 4683 Sln
24493 4683 24798 4513 Sln
25025 4547 25125 4565 Sln
25125 4565 25440 4566 Sln
25440 4566 25488 4577 Sln
25714 4631 25756 4641 Sln
25756 4641 26072 4550 Sln
26072 4550 26165 4535 Sln
26394 4497 26704 4370 Sln
26704 4370 26828 4328 Sln
27050 4260 27336 4240 Sln
27336 4240 27507 4187 Sln
27731 4125 27968 4075 Sln
27968 4075 28191 4081 Sln
28420 4113 28600 4153 Sln
28600 4153 28870 4231 Sln
29092 4302 29231 4347 Sln
29231 4347 29542 4420 Sln
29767 4479 29863 4504 Sln
29863 4504 30179 4586 Sln
30179 4586 30218 4593 Sln
30448 4633 30495 4641 Sln
22913 7394 23013 7848 Sln
23063 8076 23163 8530 Sln
23212 8758 23229 8834 Sln
23229 8834 23347 9202 Sln
23419 9424 23545 9818 Sln
23545 9818 23595 9807 Sln
23822 9756 23861 9747 Sln
23861 9747 24125 9413 Sln
24304 9270 24493 9153 Sln
24493 9153 24733 9196 Sln
24963 9191 25125 9171 Sln
25125 9171 25421 9110 Sln
25627 9209 25756 9279 Sln
25756 9279 26072 9277 Sln
26072 9277 26074 9276 Sln
26279 9166 26388 9108 Sln
26388 9108 26672 8918 Sln
26863 8784 27020 8672 Sln
27020 8672 27251 8527 Sln
27464 8439 27652 8388 Sln
27652 8388 27919 8428 Sln
28147 8474 28284 8503 Sln
28284 8503 28600 8563 Sln
28600 8563 28604 8563 Sln
28837 8564 28916 8564 Sln
28916 8564 29231 8700 Sln
29231 8700 29272 8714 Sln
29491 8792 29547 8812 Sln
29547 8812 29863 8932 Sln
29863 8932 29927 8954 Sln
30147 9030 30179 9041 Sln
30179 9041 30495 9133 Sln
/Slw 0.691 def
/Slrgb {1.000 0.000 0.000} def
22913 7394 Sm
23229 7394 Sl
23229 7394 Sm
23545 7394 Sl
23545 7394 Sm
23861 7394 Sl
23861 7394 Sm
24177 7394 Sl
24177 7394 Sm
24493 7394 Sl
24493 7394 Sm
24809 7394 Sl
24809 7394 Sm
25125 7394 Sl
25125 7394 Sm
25440 7394 Sl
25440 7394 Sm
25756 7394 Sl
25756 7394 Sm
26072 7394 Sl
26072 7394 Sm
26388 7394 Sl
26388 7394 Sm
26704 7394 Sl
26704 7394 Sm
27020 7394 Sl
27020 7394 Sm
27336 7394 Sl
27336 7394 Sm
27652 7394 Sl
27652 7394 Sm
27968 7394 Sl
27968 7394 Sm
28284 7394 Sl
28284 7394 Sm
28600 7394 Sl
28600 7394 Sm
28916 7394 Sl
28916 7394 Sm
29231 7394 Sl
29231 7394 Sm
29547 7394 Sl
29547 7394 Sm
29863 7394 Sl
29863 7394 Sm
30179 7394 Sl
30179 7394 Sm
30495 7394 Sl
/Slw 0.461 def
/Slrgb {0.000 0.000 0.000} def
2257 13079 2257 21050 Sln
2257 13730 1999 13730 Sln
1676 13730 0
/Helvetica-0 findfont 646 yratio mul scalefont setfont
(0) stringwidth pop add
2 div xratio div
dup 4 3 roll exch 90.000 cos mul sub 3 1 roll 90.000 sin mul sub 2 copy
/fntsize {/Helvetica-0 findfont exch scalefont setfont } def
90.000 646
(0) Stxtl
(0) stringwidth pop xratio div
dup 4 3 roll exch 90.000 cos mul add 3 1 roll 90.000 sin mul add 2 copy
pop pop pop pop
2257 15335 1999 15335 Sln
1676 15335 0
/Helvetica-0 findfont 646 yratio mul scalefont setfont
(2) stringwidth pop add
2 div xratio div
dup 4 3 roll exch 90.000 cos mul sub 3 1 roll 90.000 sin mul sub 2 copy
/fntsize {/Helvetica-0 findfont exch scalefont setfont } def
90.000 646
(2) Stxtl
(2) stringwidth pop xratio div
dup 4 3 roll exch 90.000 cos mul add 3 1 roll 90.000 sin mul add 2 copy
pop pop pop pop
2257 16940 1999 16940 Sln
1676 16940 0
/Helvetica-0 findfont 646 yratio mul scalefont setfont
(4) stringwidth pop add
2 div xratio div
dup 4 3 roll exch 90.000 cos mul sub 3 1 roll 90.000 sin mul sub 2 copy
/fntsize {/Helvetica-0 findfont exch scalefont setfont } def
90.000 646
(4) Stxtl
(4) stringwidth pop xratio div
dup 4 3 roll exch 90.000 cos mul add 3 1 roll 90.000 sin mul add 2 copy
pop pop pop pop
2257 18545 1999 18545 Sln
1676 18545 0
/Helvetica-0 findfont 646 yratio mul scalefont setfont
(6) stringwidth pop add
2 div xratio div
dup 4 3 roll exch 90.000 cos mul sub 3 1 roll 90.000 sin mul sub 2 copy
/fntsize {/Helvetica-0 findfont exch scalefont setfont } def
90.000 646
(6) Stxtl
(6) stringwidth pop xratio div
dup 4 3 roll exch 90.000 cos mul add 3 1 roll 90.000 sin mul add 2 copy
pop pop pop pop
2257 20150 1999 20150 Sln
1676 20150 0
/Helvetica-0 findfont 646 yratio mul scalefont setfont
(8) stringwidth pop add
2 div xratio div
dup 4 3 roll exch 90.000 cos mul sub 3 1 roll 90.000 sin mul sub 2 copy
/fntsize {/Helvetica-0 findfont exch scalefont setfont } def
90.000 646
(8) Stxtl
(8) stringwidth pop xratio div
dup 4 3 roll exch 90.000 cos mul add 3 1 roll 90.000 sin mul add 2 copy
pop pop pop pop
12381 13079 12381 21050 Sln
12381 13954 12122 13954 Sln
11799 13954 0
/Helvetica-0 findfont 646 yratio mul scalefont setfont
(-10) stringwidth pop add
2 div xratio div
dup 4 3 roll exch 90.000 cos mul sub 3 1 roll 90.000 sin mul sub 2 copy
/fntsize {/Helvetica-0 findfont exch scalefont setfont } def
90.000 646
(-10) Stxtl
(-10) stringwidth pop xratio div
dup 4 3 roll exch 90.000 cos mul add 3 1 roll 90.000 sin mul add 2 copy
pop pop pop pop
12381 16183 12122 16183 Sln
11799 16183 0
/Helvetica-0 findfont 646 yratio mul scalefont setfont
(-5) stringwidth pop add
2 div xratio div
dup 4 3 roll exch 90.000 cos mul sub 3 1 roll 90.000 sin mul sub 2 copy
/fntsize {/Helvetica-0 findfont exch scalefont setfont } def
90.000 646
(-5) Stxtl
(-5) stringwidth pop xratio div
dup 4 3 roll exch 90.000 cos mul add 3 1 roll 90.000 sin mul add 2 copy
pop pop pop pop
12381 18412 12122 18412 Sln
11799 18412 0
/Helvetica-0 findfont 646 yratio mul scalefont setfont
(0) stringwidth pop add
2 div xratio div
dup 4 3 roll exch 90.000 cos mul sub 3 1 roll 90.000 sin mul sub 2 copy
/fntsize {/Helvetica-0 findfont exch scalefont setfont } def
90.000 646
(0) Stxtl
(0) stringwidth pop xratio div
dup 4 3 roll exch 90.000 cos mul add 3 1 roll 90.000 sin mul add 2 copy
pop pop pop pop
12381 20640 12122 20640 Sln
11799 20640 0
/Helvetica-0 findfont 646 yratio mul scalefont setfont
(5) stringwidth pop add
2 div xratio div
dup 4 3 roll exch 90.000 cos mul sub 3 1 roll 90.000 sin mul sub 2 copy
/fntsize {/Helvetica-0 findfont exch scalefont setfont } def
90.000 646
(5) Stxtl
(5) stringwidth pop xratio div
dup 4 3 roll exch 90.000 cos mul add 3 1 roll 90.000 sin mul add 2 copy
pop pop pop pop
22504 13079 22504 21050 Sln
22504 13488 22245 13488 Sln
21922 13488 0
/Helvetica-0 findfont 646 yratio mul scalefont setfont
(-1) stringwidth pop add
2 div xratio div
dup 4 3 roll exch 90.000 cos mul sub 3 1 roll 90.000 sin mul sub 2 copy
/fntsize {/Helvetica-0 findfont exch scalefont setfont } def
90.000 646
(-1) Stxtl
(-1) stringwidth pop xratio div
dup 4 3 roll exch 90.000 cos mul add 3 1 roll 90.000 sin mul add 2 copy
pop pop pop pop
22504 15872 22245 15872 Sln
21922 15872 0
/Helvetica-0 findfont 646 yratio mul scalefont setfont
(0) stringwidth pop add
2 div xratio div
dup 4 3 roll exch 90.000 cos mul sub 3 1 roll 90.000 sin mul sub 2 copy
/fntsize {/Helvetica-0 findfont exch scalefont setfont } def
90.000 646
(0) Stxtl
(0) stringwidth pop xratio div
dup 4 3 roll exch 90.000 cos mul add 3 1 roll 90.000 sin mul add 2 copy
pop pop pop pop
22504 18256 22245 18256 Sln
21922 18256 0
/Helvetica-0 findfont 646 yratio mul scalefont setfont
(1) stringwidth pop add
2 div xratio div
dup 4 3 roll exch 90.000 cos mul sub 3 1 roll 90.000 sin mul sub 2 copy
/fntsize {/Helvetica-0 findfont exch scalefont setfont } def
90.000 646
(1) Stxtl
(1) stringwidth pop xratio div
dup 4 3 roll exch 90.000 cos mul add 3 1 roll 90.000 sin mul add 2 copy
pop pop pop pop
22504 20640 22245 20640 Sln
21922 20640 0
/Helvetica-0 findfont 646 yratio mul scalefont setfont
(2) stringwidth pop add
2 div xratio div
dup 4 3 roll exch 90.000 cos mul sub 3 1 roll 90.000 sin mul sub 2 copy
/fntsize {/Helvetica-0 findfont exch scalefont setfont } def
90.000 646
(2) Stxtl
(2) stringwidth pop xratio div
dup 4 3 roll exch 90.000 cos mul add 3 1 roll 90.000 sin mul add 2 copy
pop pop pop pop
2257 2257 2257 10228 Sln
2257 3376 1999 3376 Sln
1676 3376 0
/Helvetica-0 findfont 646 yratio mul scalefont setfont
(-.2) stringwidth pop add
2 div xratio div
dup 4 3 roll exch 90.000 cos mul sub 3 1 roll 90.000 sin mul sub 2 copy
/fntsize {/Helvetica-0 findfont exch scalefont setfont } def
90.000 646
(-.2) Stxtl
(-.2) stringwidth pop xratio div
dup 4 3 roll exch 90.000 cos mul add 3 1 roll 90.000 sin mul add 2 copy
pop pop pop pop
2257 5284 1999 5284 Sln
1676 5284 0
/Helvetica-0 findfont 646 yratio mul scalefont setfont
(0) stringwidth pop add
2 div xratio div
dup 4 3 roll exch 90.000 cos mul sub 3 1 roll 90.000 sin mul sub 2 copy
/fntsize {/Helvetica-0 findfont exch scalefont setfont } def
90.000 646
(0) Stxtl
(0) stringwidth pop xratio div
dup 4 3 roll exch 90.000 cos mul add 3 1 roll 90.000 sin mul add 2 copy
pop pop pop pop
2257 7193 1999 7193 Sln
1676 7193 0
/Helvetica-0 findfont 646 yratio mul scalefont setfont
(.2) stringwidth pop add
2 div xratio div
dup 4 3 roll exch 90.000 cos mul sub 3 1 roll 90.000 sin mul sub 2 copy
/fntsize {/Helvetica-0 findfont exch scalefont setfont } def
90.000 646
(.2) Stxtl
(.2) stringwidth pop xratio div
dup 4 3 roll exch 90.000 cos mul add 3 1 roll 90.000 sin mul add 2 copy
pop pop pop pop
2257 9101 1999 9101 Sln
1676 9101 0
/Helvetica-0 findfont 646 yratio mul scalefont setfont
(.4) stringwidth pop add
2 div xratio div
dup 4 3 roll exch 90.000 cos mul sub 3 1 roll 90.000 sin mul sub 2 copy
/fntsize {/Helvetica-0 findfont exch scalefont setfont } def
90.000 646
(.4) Stxtl
(.4) stringwidth pop xratio div
dup 4 3 roll exch 90.000 cos mul add 3 1 roll 90.000 sin mul add 2 copy
pop pop pop pop
12381 2257 12381 10228 Sln
12381 2667 12122 2667 Sln
11799 2667 0
/Helvetica-0 findfont 646 yratio mul scalefont setfont
(-.5) stringwidth pop add
2 div xratio div
dup 4 3 roll exch 90.000 cos mul sub 3 1 roll 90.000 sin mul sub 2 copy
/fntsize {/Helvetica-0 findfont exch scalefont setfont } def
90.000 646
(-.5) Stxtl
(-.5) stringwidth pop xratio div
dup 4 3 roll exch 90.000 cos mul add 3 1 roll 90.000 sin mul add 2 copy
pop pop pop pop
12381 4331 12122 4331 Sln
11799 4331 0
/Helvetica-0 findfont 646 yratio mul scalefont setfont
(0) stringwidth pop add
2 div xratio div
dup 4 3 roll exch 90.000 cos mul sub 3 1 roll 90.000 sin mul sub 2 copy
/fntsize {/Helvetica-0 findfont exch scalefont setfont } def
90.000 646
(0) Stxtl
(0) stringwidth pop xratio div
dup 4 3 roll exch 90.000 cos mul add 3 1 roll 90.000 sin mul add 2 copy
pop pop pop pop
12381 5995 12122 5995 Sln
11799 5995 0
/Helvetica-0 findfont 646 yratio mul scalefont setfont
(.5) stringwidth pop add
2 div xratio div
dup 4 3 roll exch 90.000 cos mul sub 3 1 roll 90.000 sin mul sub 2 copy
/fntsize {/Helvetica-0 findfont exch scalefont setfont } def
90.000 646
(.5) Stxtl
(.5) stringwidth pop xratio div
dup 4 3 roll exch 90.000 cos mul add 3 1 roll 90.000 sin mul add 2 copy
pop pop pop pop
12381 7659 12122 7659 Sln
11799 7659 0
/Helvetica-0 findfont 646 yratio mul scalefont setfont
(1) stringwidth pop add
2 div xratio div
dup 4 3 roll exch 90.000 cos mul sub 3 1 roll 90.000 sin mul sub 2 copy
/fntsize {/Helvetica-0 findfont exch scalefont setfont } def
90.000 646
(1) Stxtl
(1) stringwidth pop xratio div
dup 4 3 roll exch 90.000 cos mul add 3 1 roll 90.000 sin mul add 2 copy
pop pop pop pop
12381 9323 12122 9323 Sln
11799 9323 0
/Helvetica-0 findfont 646 yratio mul scalefont setfont
(1.5) stringwidth pop add
2 div xratio div
dup 4 3 roll exch 90.000 cos mul sub 3 1 roll 90.000 sin mul sub 2 copy
/fntsize {/Helvetica-0 findfont exch scalefont setfont } def
90.000 646
(1.5) Stxtl
(1.5) stringwidth pop xratio div
dup 4 3 roll exch 90.000 cos mul add 3 1 roll 90.000 sin mul add 2 copy
pop pop pop pop
22504 2257 22504 10228 Sln
22504 2667 22245 2667 Sln
21922 2667 0
/Helvetica-0 findfont 646 yratio mul scalefont setfont
(-.4) stringwidth pop add
2 div xratio div
dup 4 3 roll exch 90.000 cos mul sub 3 1 roll 90.000 sin mul sub 2 copy
/fntsize {/Helvetica-0 findfont exch scalefont setfont } def
90.000 646
(-.4) Stxtl
(-.4) stringwidth pop xratio div
dup 4 3 roll exch 90.000 cos mul add 3 1 roll 90.000 sin mul add 2 copy
pop pop pop pop
22504 5031 22245 5031 Sln
21922 5031 0
/Helvetica-0 findfont 646 yratio mul scalefont setfont
(-.2) stringwidth pop add
2 div xratio div
dup 4 3 roll exch 90.000 cos mul sub 3 1 roll 90.000 sin mul sub 2 copy
/fntsize {/Helvetica-0 findfont exch scalefont setfont } def
90.000 646
(-.2) Stxtl
(-.2) stringwidth pop xratio div
dup 4 3 roll exch 90.000 cos mul add 3 1 roll 90.000 sin mul add 2 copy
pop pop pop pop
22504 7394 22245 7394 Sln
21922 7394 0
/Helvetica-0 findfont 646 yratio mul scalefont setfont
(0) stringwidth pop add
2 div xratio div
dup 4 3 roll exch 90.000 cos mul sub 3 1 roll 90.000 sin mul sub 2 copy
/fntsize {/Helvetica-0 findfont exch scalefont setfont } def
90.000 646
(0) Stxtl
(0) stringwidth pop xratio div
dup 4 3 roll exch 90.000 cos mul add 3 1 roll 90.000 sin mul add 2 copy
pop pop pop pop
22504 9758 22245 9758 Sln
21922 9758 0
/Helvetica-0 findfont 646 yratio mul scalefont setfont
(.2) stringwidth pop add
2 div xratio div
dup 4 3 roll exch 90.000 cos mul sub 3 1 roll 90.000 sin mul sub 2 copy
/fntsize {/Helvetica-0 findfont exch scalefont setfont } def
90.000 646
(.2) Stxtl
(.2) stringwidth pop xratio div
dup 4 3 roll exch 90.000 cos mul add 3 1 roll 90.000 sin mul add 2 copy
pop pop pop pop
2257 13079 10659 13079 Sln
2667 13079 2667 12820 Sln
2667 12239 0
/Helvetica-0 findfont 646 yratio mul scalefont setfont
(0) stringwidth pop add
2 div xratio div
dup 4 3 roll exch 0.000 cos mul sub 3 1 roll 0.000 sin mul sub 2 copy
/fntsize {/Helvetica-0 findfont exch scalefont setfont } def
0.000 646
(0) Stxtl
(0) stringwidth pop xratio div
dup 4 3 roll exch 0.000 cos mul add 3 1 roll 0.000 sin mul add 2 copy
pop pop pop pop
3931 13079 3931 12820 Sln
3931 12239 0
/Helvetica-0 findfont 646 yratio mul scalefont setfont
(4) stringwidth pop add
2 div xratio div
dup 4 3 roll exch 0.000 cos mul sub 3 1 roll 0.000 sin mul sub 2 copy
/fntsize {/Helvetica-0 findfont exch scalefont setfont } def
0.000 646
(4) Stxtl
(4) stringwidth pop xratio div
dup 4 3 roll exch 0.000 cos mul add 3 1 roll 0.000 sin mul add 2 copy
pop pop pop pop
5194 13079 5194 12820 Sln
5194 12239 0
/Helvetica-0 findfont 646 yratio mul scalefont setfont
(8) stringwidth pop add
2 div xratio div
dup 4 3 roll exch 0.000 cos mul sub 3 1 roll 0.000 sin mul sub 2 copy
/fntsize {/Helvetica-0 findfont exch scalefont setfont } def
0.000 646
(8) Stxtl
(8) stringwidth pop xratio div
dup 4 3 roll exch 0.000 cos mul add 3 1 roll 0.000 sin mul add 2 copy
pop pop pop pop
6458 13079 6458 12820 Sln
6458 12239 0
/Helvetica-0 findfont 646 yratio mul scalefont setfont
(12) stringwidth pop add
2 div xratio div
dup 4 3 roll exch 0.000 cos mul sub 3 1 roll 0.000 sin mul sub 2 copy
/fntsize {/Helvetica-0 findfont exch scalefont setfont } def
0.000 646
(12) Stxtl
(12) stringwidth pop xratio div
dup 4 3 roll exch 0.000 cos mul add 3 1 roll 0.000 sin mul add 2 copy
pop pop pop pop
7722 13079 7722 12820 Sln
7722 12239 0
/Helvetica-0 findfont 646 yratio mul scalefont setfont
(16) stringwidth pop add
2 div xratio div
dup 4 3 roll exch 0.000 cos mul sub 3 1 roll 0.000 sin mul sub 2 copy
/fntsize {/Helvetica-0 findfont exch scalefont setfont } def
0.000 646
(16) Stxtl
(16) stringwidth pop xratio div
dup 4 3 roll exch 0.000 cos mul add 3 1 roll 0.000 sin mul add 2 copy
pop pop pop pop
8985 13079 8985 12820 Sln
8985 12239 0
/Helvetica-0 findfont 646 yratio mul scalefont setfont
(20) stringwidth pop add
2 div xratio div
dup 4 3 roll exch 0.000 cos mul sub 3 1 roll 0.000 sin mul sub 2 copy
/fntsize {/Helvetica-0 findfont exch scalefont setfont } def
0.000 646
(20) Stxtl
(20) stringwidth pop xratio div
dup 4 3 roll exch 0.000 cos mul add 3 1 roll 0.000 sin mul add 2 copy
pop pop pop pop
10249 13079 10249 12820 Sln
10249 12239 0
/Helvetica-0 findfont 646 yratio mul scalefont setfont
(24) stringwidth pop add
2 div xratio div
dup 4 3 roll exch 0.000 cos mul sub 3 1 roll 0.000 sin mul sub 2 copy
/fntsize {/Helvetica-0 findfont exch scalefont setfont } def
0.000 646
(24) Stxtl
(24) stringwidth pop xratio div
dup 4 3 roll exch 0.000 cos mul add 3 1 roll 0.000 sin mul add 2 copy
pop pop pop pop
2667 13079 2667 12820 Sln
3931 13079 3931 12820 Sln
5194 13079 5194 12820 Sln
6458 13079 6458 12820 Sln
7722 13079 7722 12820 Sln
8985 13079 8985 12820 Sln
10249 13079 10249 12820 Sln
12381 13079 20782 13079 Sln
12790 13079 12790 12820 Sln
12790 12239 0
/Helvetica-0 findfont 646 yratio mul scalefont setfont
(0) stringwidth pop add
2 div xratio div
dup 4 3 roll exch 0.000 cos mul sub 3 1 roll 0.000 sin mul sub 2 copy
/fntsize {/Helvetica-0 findfont exch scalefont setfont } def
0.000 646
(0) Stxtl
(0) stringwidth pop xratio div
dup 4 3 roll exch 0.000 cos mul add 3 1 roll 0.000 sin mul add 2 copy
pop pop pop pop
14054 13079 14054 12820 Sln
14054 12239 0
/Helvetica-0 findfont 646 yratio mul scalefont setfont
(4) stringwidth pop add
2 div xratio div
dup 4 3 roll exch 0.000 cos mul sub 3 1 roll 0.000 sin mul sub 2 copy
/fntsize {/Helvetica-0 findfont exch scalefont setfont } def
0.000 646
(4) Stxtl
(4) stringwidth pop xratio div
dup 4 3 roll exch 0.000 cos mul add 3 1 roll 0.000 sin mul add 2 copy
pop pop pop pop
15318 13079 15318 12820 Sln
15318 12239 0
/Helvetica-0 findfont 646 yratio mul scalefont setfont
(8) stringwidth pop add
2 div xratio div
dup 4 3 roll exch 0.000 cos mul sub 3 1 roll 0.000 sin mul sub 2 copy
/fntsize {/Helvetica-0 findfont exch scalefont setfont } def
0.000 646
(8) Stxtl
(8) stringwidth pop xratio div
dup 4 3 roll exch 0.000 cos mul add 3 1 roll 0.000 sin mul add 2 copy
pop pop pop pop
16581 13079 16581 12820 Sln
16581 12239 0
/Helvetica-0 findfont 646 yratio mul scalefont setfont
(12) stringwidth pop add
2 div xratio div
dup 4 3 roll exch 0.000 cos mul sub 3 1 roll 0.000 sin mul sub 2 copy
/fntsize {/Helvetica-0 findfont exch scalefont setfont } def
0.000 646
(12) Stxtl
(12) stringwidth pop xratio div
dup 4 3 roll exch 0.000 cos mul add 3 1 roll 0.000 sin mul add 2 copy
pop pop pop pop
17845 13079 17845 12820 Sln
17845 12239 0
/Helvetica-0 findfont 646 yratio mul scalefont setfont
(16) stringwidth pop add
2 div xratio div
dup 4 3 roll exch 0.000 cos mul sub 3 1 roll 0.000 sin mul sub 2 copy
/fntsize {/Helvetica-0 findfont exch scalefont setfont } def
0.000 646
(16) Stxtl
(16) stringwidth pop xratio div
dup 4 3 roll exch 0.000 cos mul add 3 1 roll 0.000 sin mul add 2 copy
pop pop pop pop
19109 13079 19109 12820 Sln
19109 12239 0
/Helvetica-0 findfont 646 yratio mul scalefont setfont
(20) stringwidth pop add
2 div xratio div
dup 4 3 roll exch 0.000 cos mul sub 3 1 roll 0.000 sin mul sub 2 copy
/fntsize {/Helvetica-0 findfont exch scalefont setfont } def
0.000 646
(20) Stxtl
(20) stringwidth pop xratio div
dup 4 3 roll exch 0.000 cos mul add 3 1 roll 0.000 sin mul add 2 copy
pop pop pop pop
20372 13079 20372 12820 Sln
20372 12239 0
/Helvetica-0 findfont 646 yratio mul scalefont setfont
(24) stringwidth pop add
2 div xratio div
dup 4 3 roll exch 0.000 cos mul sub 3 1 roll 0.000 sin mul sub 2 copy
/fntsize {/Helvetica-0 findfont exch scalefont setfont } def
0.000 646
(24) Stxtl
(24) stringwidth pop xratio div
dup 4 3 roll exch 0.000 cos mul add 3 1 roll 0.000 sin mul add 2 copy
pop pop pop pop
12790 13079 12790 12820 Sln
14054 13079 14054 12820 Sln
15318 13079 15318 12820 Sln
16581 13079 16581 12820 Sln
17845 13079 17845 12820 Sln
19109 13079 19109 12820 Sln
20372 13079 20372 12820 Sln
22504 13079 30905 13079 Sln
22914 13079 22914 12820 Sln
22914 12239 0
/Helvetica-0 findfont 646 yratio mul scalefont setfont
(0) stringwidth pop add
2 div xratio div
dup 4 3 roll exch 0.000 cos mul sub 3 1 roll 0.000 sin mul sub 2 copy
/fntsize {/Helvetica-0 findfont exch scalefont setfont } def
0.000 646
(0) Stxtl
(0) stringwidth pop xratio div
dup 4 3 roll exch 0.000 cos mul add 3 1 roll 0.000 sin mul add 2 copy
pop pop pop pop
24177 13079 24177 12820 Sln
24177 12239 0
/Helvetica-0 findfont 646 yratio mul scalefont setfont
(4) stringwidth pop add
2 div xratio div
dup 4 3 roll exch 0.000 cos mul sub 3 1 roll 0.000 sin mul sub 2 copy
/fntsize {/Helvetica-0 findfont exch scalefont setfont } def
0.000 646
(4) Stxtl
(4) stringwidth pop xratio div
dup 4 3 roll exch 0.000 cos mul add 3 1 roll 0.000 sin mul add 2 copy
pop pop pop pop
25441 13079 25441 12820 Sln
25441 12239 0
/Helvetica-0 findfont 646 yratio mul scalefont setfont
(8) stringwidth pop add
2 div xratio div
dup 4 3 roll exch 0.000 cos mul sub 3 1 roll 0.000 sin mul sub 2 copy
/fntsize {/Helvetica-0 findfont exch scalefont setfont } def
0.000 646
(8) Stxtl
(8) stringwidth pop xratio div
dup 4 3 roll exch 0.000 cos mul add 3 1 roll 0.000 sin mul add 2 copy
pop pop pop pop
26705 13079 26705 12820 Sln
26705 12239 0
/Helvetica-0 findfont 646 yratio mul scalefont setfont
(12) stringwidth pop add
2 div xratio div
dup 4 3 roll exch 0.000 cos mul sub 3 1 roll 0.000 sin mul sub 2 copy
/fntsize {/Helvetica-0 findfont exch scalefont setfont } def
0.000 646
(12) Stxtl
(12) stringwidth pop xratio div
dup 4 3 roll exch 0.000 cos mul add 3 1 roll 0.000 sin mul add 2 copy
pop pop pop pop
27968 13079 27968 12820 Sln
27968 12239 0
/Helvetica-0 findfont 646 yratio mul scalefont setfont
(16) stringwidth pop add
2 div xratio div
dup 4 3 roll exch 0.000 cos mul sub 3 1 roll 0.000 sin mul sub 2 copy
/fntsize {/Helvetica-0 findfont exch scalefont setfont } def
0.000 646
(16) Stxtl
(16) stringwidth pop xratio div
dup 4 3 roll exch 0.000 cos mul add 3 1 roll 0.000 sin mul add 2 copy
pop pop pop pop
29232 13079 29232 12820 Sln
29232 12239 0
/Helvetica-0 findfont 646 yratio mul scalefont setfont
(20) stringwidth pop add
2 div xratio div
dup 4 3 roll exch 0.000 cos mul sub 3 1 roll 0.000 sin mul sub 2 copy
/fntsize {/Helvetica-0 findfont exch scalefont setfont } def
0.000 646
(20) Stxtl
(20) stringwidth pop xratio div
dup 4 3 roll exch 0.000 cos mul add 3 1 roll 0.000 sin mul add 2 copy
pop pop pop pop
30496 13079 30496 12820 Sln
30496 12239 0
/Helvetica-0 findfont 646 yratio mul scalefont setfont
(24) stringwidth pop add
2 div xratio div
dup 4 3 roll exch 0.000 cos mul sub 3 1 roll 0.000 sin mul sub 2 copy
/fntsize {/Helvetica-0 findfont exch scalefont setfont } def
0.000 646
(24) Stxtl
(24) stringwidth pop xratio div
dup 4 3 roll exch 0.000 cos mul add 3 1 roll 0.000 sin mul add 2 copy
pop pop pop pop
22914 13079 22914 12820 Sln
24177 13079 24177 12820 Sln
25441 13079 25441 12820 Sln
26705 13079 26705 12820 Sln
27968 13079 27968 12820 Sln
29232 13079 29232 12820 Sln
30496 13079 30496 12820 Sln
2257 2257 10659 2257 Sln
2667 2257 2667 1999 Sln
2667 1418 0
/Helvetica-0 findfont 646 yratio mul scalefont setfont
(0) stringwidth pop add
2 div xratio div
dup 4 3 roll exch 0.000 cos mul sub 3 1 roll 0.000 sin mul sub 2 copy
/fntsize {/Helvetica-0 findfont exch scalefont setfont } def
0.000 646
(0) Stxtl
(0) stringwidth pop xratio div
dup 4 3 roll exch 0.000 cos mul add 3 1 roll 0.000 sin mul add 2 copy
pop pop pop pop
3931 2257 3931 1999 Sln
3931 1418 0
/Helvetica-0 findfont 646 yratio mul scalefont setfont
(4) stringwidth pop add
2 div xratio div
dup 4 3 roll exch 0.000 cos mul sub 3 1 roll 0.000 sin mul sub 2 copy
/fntsize {/Helvetica-0 findfont exch scalefont setfont } def
0.000 646
(4) Stxtl
(4) stringwidth pop xratio div
dup 4 3 roll exch 0.000 cos mul add 3 1 roll 0.000 sin mul add 2 copy
pop pop pop pop
5194 2257 5194 1999 Sln
5194 1418 0
/Helvetica-0 findfont 646 yratio mul scalefont setfont
(8) stringwidth pop add
2 div xratio div
dup 4 3 roll exch 0.000 cos mul sub 3 1 roll 0.000 sin mul sub 2 copy
/fntsize {/Helvetica-0 findfont exch scalefont setfont } def
0.000 646
(8) Stxtl
(8) stringwidth pop xratio div
dup 4 3 roll exch 0.000 cos mul add 3 1 roll 0.000 sin mul add 2 copy
pop pop pop pop
6458 2257 6458 1999 Sln
6458 1418 0
/Helvetica-0 findfont 646 yratio mul scalefont setfont
(12) stringwidth pop add
2 div xratio div
dup 4 3 roll exch 0.000 cos mul sub 3 1 roll 0.000 sin mul sub 2 copy
/fntsize {/Helvetica-0 findfont exch scalefont setfont } def
0.000 646
(12) Stxtl
(12) stringwidth pop xratio div
dup 4 3 roll exch 0.000 cos mul add 3 1 roll 0.000 sin mul add 2 copy
pop pop pop pop
7722 2257 7722 1999 Sln
7722 1418 0
/Helvetica-0 findfont 646 yratio mul scalefont setfont
(16) stringwidth pop add
2 div xratio div
dup 4 3 roll exch 0.000 cos mul sub 3 1 roll 0.000 sin mul sub 2 copy
/fntsize {/Helvetica-0 findfont exch scalefont setfont } def
0.000 646
(16) Stxtl
(16) stringwidth pop xratio div
dup 4 3 roll exch 0.000 cos mul add 3 1 roll 0.000 sin mul add 2 copy
pop pop pop pop
8985 2257 8985 1999 Sln
8985 1418 0
/Helvetica-0 findfont 646 yratio mul scalefont setfont
(20) stringwidth pop add
2 div xratio div
dup 4 3 roll exch 0.000 cos mul sub 3 1 roll 0.000 sin mul sub 2 copy
/fntsize {/Helvetica-0 findfont exch scalefont setfont } def
0.000 646
(20) Stxtl
(20) stringwidth pop xratio div
dup 4 3 roll exch 0.000 cos mul add 3 1 roll 0.000 sin mul add 2 copy
pop pop pop pop
10249 2257 10249 1999 Sln
10249 1418 0
/Helvetica-0 findfont 646 yratio mul scalefont setfont
(24) stringwidth pop add
2 div xratio div
dup 4 3 roll exch 0.000 cos mul sub 3 1 roll 0.000 sin mul sub 2 copy
/fntsize {/Helvetica-0 findfont exch scalefont setfont } def
0.000 646
(24) Stxtl
(24) stringwidth pop xratio div
dup 4 3 roll exch 0.000 cos mul add 3 1 roll 0.000 sin mul add 2 copy
pop pop pop pop
2667 2257 2667 1999 Sln
3931 2257 3931 1999 Sln
5194 2257 5194 1999 Sln
6458 2257 6458 1999 Sln
7722 2257 7722 1999 Sln
8985 2257 8985 1999 Sln
10249 2257 10249 1999 Sln
12381 2257 20782 2257 Sln
12790 2257 12790 1999 Sln
12790 1418 0
/Helvetica-0 findfont 646 yratio mul scalefont setfont
(0) stringwidth pop add
2 div xratio div
dup 4 3 roll exch 0.000 cos mul sub 3 1 roll 0.000 sin mul sub 2 copy
/fntsize {/Helvetica-0 findfont exch scalefont setfont } def
0.000 646
(0) Stxtl
(0) stringwidth pop xratio div
dup 4 3 roll exch 0.000 cos mul add 3 1 roll 0.000 sin mul add 2 copy
pop pop pop pop
14054 2257 14054 1999 Sln
14054 1418 0
/Helvetica-0 findfont 646 yratio mul scalefont setfont
(4) stringwidth pop add
2 div xratio div
dup 4 3 roll exch 0.000 cos mul sub 3 1 roll 0.000 sin mul sub 2 copy
/fntsize {/Helvetica-0 findfont exch scalefont setfont } def
0.000 646
(4) Stxtl
(4) stringwidth pop xratio div
dup 4 3 roll exch 0.000 cos mul add 3 1 roll 0.000 sin mul add 2 copy
pop pop pop pop
15318 2257 15318 1999 Sln
15318 1418 0
/Helvetica-0 findfont 646 yratio mul scalefont setfont
(8) stringwidth pop add
2 div xratio div
dup 4 3 roll exch 0.000 cos mul sub 3 1 roll 0.000 sin mul sub 2 copy
/fntsize {/Helvetica-0 findfont exch scalefont setfont } def
0.000 646
(8) Stxtl
(8) stringwidth pop xratio div
dup 4 3 roll exch 0.000 cos mul add 3 1 roll 0.000 sin mul add 2 copy
pop pop pop pop
16581 2257 16581 1999 Sln
16581 1418 0
/Helvetica-0 findfont 646 yratio mul scalefont setfont
(12) stringwidth pop add
2 div xratio div
dup 4 3 roll exch 0.000 cos mul sub 3 1 roll 0.000 sin mul sub 2 copy
/fntsize {/Helvetica-0 findfont exch scalefont setfont } def
0.000 646
(12) Stxtl
(12) stringwidth pop xratio div
dup 4 3 roll exch 0.000 cos mul add 3 1 roll 0.000 sin mul add 2 copy
pop pop pop pop
17845 2257 17845 1999 Sln
17845 1418 0
/Helvetica-0 findfont 646 yratio mul scalefont setfont
(16) stringwidth pop add
2 div xratio div
dup 4 3 roll exch 0.000 cos mul sub 3 1 roll 0.000 sin mul sub 2 copy
/fntsize {/Helvetica-0 findfont exch scalefont setfont } def
0.000 646
(16) Stxtl
(16) stringwidth pop xratio div
dup 4 3 roll exch 0.000 cos mul add 3 1 roll 0.000 sin mul add 2 copy
pop pop pop pop
19109 2257 19109 1999 Sln
19109 1418 0
/Helvetica-0 findfont 646 yratio mul scalefont setfont
(20) stringwidth pop add
2 div xratio div
dup 4 3 roll exch 0.000 cos mul sub 3 1 roll 0.000 sin mul sub 2 copy
/fntsize {/Helvetica-0 findfont exch scalefont setfont } def
0.000 646
(20) Stxtl
(20) stringwidth pop xratio div
dup 4 3 roll exch 0.000 cos mul add 3 1 roll 0.000 sin mul add 2 copy
pop pop pop pop
20372 2257 20372 1999 Sln
20372 1418 0
/Helvetica-0 findfont 646 yratio mul scalefont setfont
(24) stringwidth pop add
2 div xratio div
dup 4 3 roll exch 0.000 cos mul sub 3 1 roll 0.000 sin mul sub 2 copy
/fntsize {/Helvetica-0 findfont exch scalefont setfont } def
0.000 646
(24) Stxtl
(24) stringwidth pop xratio div
dup 4 3 roll exch 0.000 cos mul add 3 1 roll 0.000 sin mul add 2 copy
pop pop pop pop
12790 2257 12790 1999 Sln
14054 2257 14054 1999 Sln
15318 2257 15318 1999 Sln
16581 2257 16581 1999 Sln
17845 2257 17845 1999 Sln
19109 2257 19109 1999 Sln
20372 2257 20372 1999 Sln
22504 2257 30905 2257 Sln
22914 2257 22914 1999 Sln
22914 1418 0
/Helvetica-0 findfont 646 yratio mul scalefont setfont
(0) stringwidth pop add
2 div xratio div
dup 4 3 roll exch 0.000 cos mul sub 3 1 roll 0.000 sin mul sub 2 copy
/fntsize {/Helvetica-0 findfont exch scalefont setfont } def
0.000 646
(0) Stxtl
(0) stringwidth pop xratio div
dup 4 3 roll exch 0.000 cos mul add 3 1 roll 0.000 sin mul add 2 copy
pop pop pop pop
24177 2257 24177 1999 Sln
24177 1418 0
/Helvetica-0 findfont 646 yratio mul scalefont setfont
(4) stringwidth pop add
2 div xratio div
dup 4 3 roll exch 0.000 cos mul sub 3 1 roll 0.000 sin mul sub 2 copy
/fntsize {/Helvetica-0 findfont exch scalefont setfont } def
0.000 646
(4) Stxtl
(4) stringwidth pop xratio div
dup 4 3 roll exch 0.000 cos mul add 3 1 roll 0.000 sin mul add 2 copy
pop pop pop pop
25441 2257 25441 1999 Sln
25441 1418 0
/Helvetica-0 findfont 646 yratio mul scalefont setfont
(8) stringwidth pop add
2 div xratio div
dup 4 3 roll exch 0.000 cos mul sub 3 1 roll 0.000 sin mul sub 2 copy
/fntsize {/Helvetica-0 findfont exch scalefont setfont } def
0.000 646
(8) Stxtl
(8) stringwidth pop xratio div
dup 4 3 roll exch 0.000 cos mul add 3 1 roll 0.000 sin mul add 2 copy
pop pop pop pop
26705 2257 26705 1999 Sln
26705 1418 0
/Helvetica-0 findfont 646 yratio mul scalefont setfont
(12) stringwidth pop add
2 div xratio div
dup 4 3 roll exch 0.000 cos mul sub 3 1 roll 0.000 sin mul sub 2 copy
/fntsize {/Helvetica-0 findfont exch scalefont setfont } def
0.000 646
(12) Stxtl
(12) stringwidth pop xratio div
dup 4 3 roll exch 0.000 cos mul add 3 1 roll 0.000 sin mul add 2 copy
pop pop pop pop
27968 2257 27968 1999 Sln
27968 1418 0
/Helvetica-0 findfont 646 yratio mul scalefont setfont
(16) stringwidth pop add
2 div xratio div
dup 4 3 roll exch 0.000 cos mul sub 3 1 roll 0.000 sin mul sub 2 copy
/fntsize {/Helvetica-0 findfont exch scalefont setfont } def
0.000 646
(16) Stxtl
(16) stringwidth pop xratio div
dup 4 3 roll exch 0.000 cos mul add 3 1 roll 0.000 sin mul add 2 copy
pop pop pop pop
29232 2257 29232 1999 Sln
29232 1418 0
/Helvetica-0 findfont 646 yratio mul scalefont setfont
(20) stringwidth pop add
2 div xratio div
dup 4 3 roll exch 0.000 cos mul sub 3 1 roll 0.000 sin mul sub 2 copy
/fntsize {/Helvetica-0 findfont exch scalefont setfont } def
0.000 646
(20) Stxtl
(20) stringwidth pop xratio div
dup 4 3 roll exch 0.000 cos mul add 3 1 roll 0.000 sin mul add 2 copy
pop pop pop pop
30496 2257 30496 1999 Sln
30496 1418 0
/Helvetica-0 findfont 646 yratio mul scalefont setfont
(24) stringwidth pop add
2 div xratio div
dup 4 3 roll exch 0.000 cos mul sub 3 1 roll 0.000 sin mul sub 2 copy
/fntsize {/Helvetica-0 findfont exch scalefont setfont } def
0.000 646
(24) Stxtl
(24) stringwidth pop xratio div
dup 4 3 roll exch 0.000 cos mul add 3 1 roll 0.000 sin mul add 2 copy
pop pop pop pop
22914 2257 22914 1999 Sln
24177 2257 24177 1999 Sln
25441 2257 25441 1999 Sln
26705 2257 26705 1999 Sln
27968 2257 27968 1999 Sln
29232 2257 29232 1999 Sln
30496 2257 30496 1999 Sln
/Strgb {0.118 0.176 0.325} def
6458 21433 0
/Helvetica-0 findfont 905 yratio mul scalefont setfont
(P/D ratio) stringwidth pop add
2 div xratio div
dup 4 3 roll exch 0.000 cos mul sub 3 1 roll 0.000 sin mul sub 2 copy
/fntsize {/Helvetica-0 findfont exch scalefont setfont } def
0.000 905
(P/D ratio) Stxtl
(P/D ratio) stringwidth pop xratio div
dup 4 3 roll exch 0.000 cos mul add 3 1 roll 0.000 sin mul add 2 copy
pop pop pop pop
16581 21433 0
/Helvetica-0 findfont 905 yratio mul scalefont setfont
(Spread) stringwidth pop add
2 div xratio div
dup 4 3 roll exch 0.000 cos mul sub 3 1 roll 0.000 sin mul sub 2 copy
/fntsize {/Helvetica-0 findfont exch scalefont setfont } def
0.000 905
(Spread) Stxtl
(Spread) stringwidth pop xratio div
dup 4 3 roll exch 0.000 cos mul add 3 1 roll 0.000 sin mul add 2 copy
pop pop pop pop
26705 21433 0
/Helvetica-0 findfont 905 yratio mul scalefont setfont
(Dividends) stringwidth pop add
2 div xratio div
dup 4 3 roll exch 0.000 cos mul sub 3 1 roll 0.000 sin mul sub 2 copy
/fntsize {/Helvetica-0 findfont exch scalefont setfont } def
0.000 905
(Dividends) Stxtl
(Dividends) stringwidth pop xratio div
dup 4 3 roll exch 0.000 cos mul add 3 1 roll 0.000 sin mul add 2 copy
pop pop pop pop
6458 10612 0
/Helvetica-0 findfont 905 yratio mul scalefont setfont
(TFP) stringwidth pop add
2 div xratio div
dup 4 3 roll exch 0.000 cos mul sub 3 1 roll 0.000 sin mul sub 2 copy
/fntsize {/Helvetica-0 findfont exch scalefont setfont } def
0.000 905
(TFP) Stxtl
(TFP) stringwidth pop xratio div
dup 4 3 roll exch 0.000 cos mul add 3 1 roll 0.000 sin mul add 2 copy
pop pop pop pop
16581 10612 0
/Helvetica-0 findfont 905 yratio mul scalefont setfont
(Investment) stringwidth pop add
2 div xratio div
dup 4 3 roll exch 0.000 cos mul sub 3 1 roll 0.000 sin mul sub 2 copy
/fntsize {/Helvetica-0 findfont exch scalefont setfont } def
0.000 905
(Investment) Stxtl
(Investment) stringwidth pop xratio div
dup 4 3 roll exch 0.000 cos mul add 3 1 roll 0.000 sin mul add 2 copy
pop pop pop pop
26705 10612 0
/Helvetica-0 findfont 905 yratio mul scalefont setfont
(Fed Funds Rate) stringwidth pop add
2 div xratio div
dup 4 3 roll exch 0.000 cos mul sub 3 1 roll 0.000 sin mul sub 2 copy
/fntsize {/Helvetica-0 findfont exch scalefont setfont } def
0.000 905
(Fed Funds Rate) Stxtl
(Fed Funds Rate) stringwidth pop xratio div
dup 4 3 roll exch 0.000 cos mul add 3 1 roll 0.000 sin mul add 2 copy
pop pop pop pop
S showpage
%%EOF
