%!PS-Adobe-2.0 EPSF-2.0
%% This is a Stata generated postscript file
%%BoundingBox: 0 0 396 288
%%HiResBoundingBox: 0.000 0.000 396.000 288.000
%%DocumentNeededResources: font Helvetica
/xratio 0.012375 def
/yratio 0.012375 def
/Sbgfill {
	/y1 exch def
	/x1 exch def
	/y0 exch def
	/x0 exch def
	x0 y0 moveto
	x0 y1 lineto x1 y1 lineto x1 y0 lineto x0 y0 lineto
	fill
} def
/Spt {
	yratio mul
	/yp exch def
	xratio mul
	/xp exch def
	Slrgb setrgbcolor
	newpath
	xp yp moveto
	xp Slw add yp
	lineto
	currentlinecap
	1 setlinecap
	stroke
	setlinecap
} def
/Sln {
	yratio mul
	/y1p exch def
	xratio mul
	/x1p exch def
	yratio mul
	/y0p exch def
	xratio mul
	/x0p exch def
	Slw setlinewidth
	Slrgb setrgbcolor
	x0p y0p M x1p y1p lineto S
} def
/Scrv {
	yratio mul
	/y3p exch def
	xratio mul
	/x3p exch def
	yratio mul
	/y2p exch def
	xratio mul
	/x2p exch def
	yratio mul
	/y1p exch def
	xratio mul
	/x1p exch def
	Slw setlinewidth
	Slrgb setrgbcolor
	x1p y1p x2p y2p x3p y3p curveto
	stroke
} def
/Stxtl {
	/sp exch def
	yratio mul
	/sizep exch def
	dup
	/anglep exch def
	0 exch sub
	/angle2p exch def
	yratio mul
	/y0p exch def
	xratio mul
	/x0p exch def
	Strgb setrgbcolor
	x0p y0p M anglep rotate sizep fntsize sp show stroke angle2p rotate
} def
/Stxtc {
	/sp exch def
	yratio mul
	/sizep exch def
	dup
	/anglep exch def
	0 exch sub
	/angle2p exch def
	yratio mul
	/y0p exch def
	xratio mul
	/x0p exch def
	Strgb setrgbcolor
	x0p y0p M anglep rotate sizep fntsize sp stringwidth exch -2 div exch rm sp show stroke angle2p rotate
} def
/Stxtr {
	/sp exch def
	yratio mul
	/sizep exch def
	dup
	/anglep exch def
	0 exch sub
	/angle2p exch def
	yratio mul
	/y0p exch def
	xratio mul
	/x0p exch def
	Strgb setrgbcolor
	x0p y0p M anglep rotate sizep fntsize sp stringwidth 1 index -1 mul exch rm pop sp show stroke angle2p rotate
} def
/Srect {
	/sfill exch def
	yratio mul
	/y1 exch def
	xratio mul
	/x1 exch def
	yratio mul
	/y0 exch def
	xratio mul
	/x0 exch def
	sfill 1 eq {
		Ssrgb setrgbcolor
		x0 y0 moveto
		x0 y1 lineto x1 y1 lineto x1 y0 lineto x0 y0 lineto
		fill
	} if
	Slw setlinewidth
	Slrgb setrgbcolor
	x0 y0 moveto
	x0 y1 lineto x1 y1 lineto x1 y0 lineto x0 y0 lineto
	stroke
} def
/Sellipse {
	/sfill exch def
	yratio mul
	/yrad exch def
	xratio mul
	/xrad exch def
	yratio mul
	/y exch def
	xratio mul
	/x exch def
	sfill 1 eq {
		Ssrgb setrgbcolor
		/savematrix matrix currentmatrix def
		x y translate
		xrad yrad scale
		0 0 1 0 360 arc
		savematrix setmatrix
		fill
	} if
	Slw setlinewidth
	Slrgb setrgbcolor
		/savematrix matrix currentmatrix def
		x y translate
		xrad yrad scale
		0 0 1 0 360 arc
		savematrix setmatrix
	stroke
} def
/Stri {
	/sfill exch def
	xratio mul
	/r exch def
	yratio mul
	/y0 exch def
	xratio mul
	/x0 exch def
	/xcen x0 def
	y0 r add
	/ytop exch def
	r 2 div
	y0 exch sub
	/ybot exch def
	r 3 sqrt 2 div mul dup
	xcen exch sub
	/xleft exch def
	xcen add
	/xright exch def
	sfill 1 eq {
		Ssrgb setrgbcolor
		xcen ytop moveto xright ybot lineto xleft ybot lineto xcen ytop lineto fill
	} if
	Slw setlinewidth
	Slrgb setrgbcolor
	xcen ytop moveto xright ybot lineto xleft ybot lineto xcen ytop lineto stroke
} def
/Soldtri {
	/sfill exch def
	xratio mul
	/r exch def
	yratio mul
	/y0 exch def
	xratio mul
	/x0 exch def
	x0 r sub
	/x1 exch def
	y0 r sub
	/y1 exch def
	x0 r add
	/x2 exch def
	y0 r sub
	/y2 exch def
	/x3 x0 def
	y0 r add
	/y3 exch def
	sfill 1 eq {
		Ssrgb setrgbcolor
		x1 y1 moveto x2 y2 lineto x3 y3 lineto x1 y1 lineto fill
	} if
	Slw setlinewidth
	Slrgb setrgbcolor
	x1 y1 moveto x2 y2 lineto x3 y3 lineto x1 y1 lineto stroke
} def
/Sdia {
	/sfill exch def
	xratio mul
	/r exch def
	yratio mul
	/y exch def
	xratio mul
	/x exch def
	x r sub
	/x0 exch def
	/y0 y def
	/x1 x def
	y r sub
	/y1 exch def
	x r add
	/x2 exch def
	/y2 y def
	/x3 x def
	y r add
	/y3 exch def
	sfill 1 eq  {
		Ssrgb setrgbcolor
		x0 y0 moveto x1 y1 lineto x2 y2 lineto x3 y3 lineto x0 y0 lineto fill
	} if
	Slw setlinewidth
	Slrgb setrgbcolor
	x0 y0 moveto x1 y1 lineto x2 y2 lineto x3 y3 lineto x0 y0 lineto stroke
} def
/Scc {
	/sfill exch def
	xratio mul
	/r0 exch def
	yratio mul
	/y0 exch def
	xratio mul
	/x0 exch def
	sfill 1 eq {
		Ssrgb setrgbcolor
		x0 y0 r0 0 360 arc fill
	} if
	Slw setlinewidth
	Slrgb setrgbcolor
	x0 y0 r0 0 360 arc stroke
} def
/Spie {
	/sfill exch def
	/a1 exch def
	/a0 exch def
	xratio mul
	/r exch def
	yratio mul
	/y exch def
	xratio mul
	/x exch def
	sfill 1 eq {
		Ssrgb setrgbcolor
		newpath x y moveto x y r a0 a1 arc closepath
		fill
	} if
	Slw setlinewidth
	Slrgb setrgbcolor
	newpath x y moveto x y r a0 a1 arc closepath
	stroke
} def
/Splu {
	xratio mul
	/r exch def
	yratio mul
	/y exch def
	xratio mul
	/x exch def
	x r sub
	/x0 exch def
	x r add
	/x1 exch def
	x0 y M x1 y L
	y r sub
	/y0 exch def
	y r add
	/y1 exch def
	x y0 M x y1 L
} def
/Scro {
	xratio mul
	/r exch def
	yratio mul
	/y exch def
	xratio mul
	/x exch def
	x r sub
	/x0 exch def
	y r sub
	/y0 exch def
	x r add
	/x1 exch def
	y r add
	/y1 exch def
	x0 y0 M x1 y1 L
	x r add
	/x0 exch def
	y r sub
	/y0 exch def
	x r sub
	/x1 exch def
	y r add
	/y1 exch def
	x0 y0 M x1 y1 L
} def
/Sm {
	yratio mul
	/y exch def
	xratio mul
	/x exch def
	x y M
} def
/Sl {
	yratio mul
	/y exch def
	xratio mul
	/x exch def
	x y L
} def
/SPl {
	yratio mul
	/y exch def
	xratio mul
	/x exch def
	x y PL
} def
/Lcs {
	currentlinecap
	1 setlinecap
} def
/Lcr {
	setlinecap
} def
/Sbp {
	newpath
} def
/Sep {
	/sfill exch def
	closepath
	sfill 1 eq  {
		Ssrgb setrgbcolor
		gsave
		fill
		grestore
	} if
	Slw setlinewidth
	Slrgb setrgbcolor
	Lcs
	stroke
	Lcr
} def
/cp {currentpoint} def 
/M {moveto} def 
/rm {rmoveto} def 
/S {stroke} def 
/L {Slw setlinewidth Slrgb setrgbcolor lineto Lcs S Lcr} def 
/PL {Slw setlinewidth Slrgb setrgbcolor lineto} def 
/MF-Helvetica {
  /newfontname exch def
  /fontname exch def
  /fontdict fontname findfont def
  /newfont fontdict maxlength dict def
  fontdict {
  exch dup /FID eq {pop pop} {exch newfont 3 1 roll put} ifelse
  } forall
  newfont /FontName newfontname put
  newfont /Encoding ISOLatin1Encoding put
  newfontname newfont definefont pop
} def
/Helvetica /Helvetica-0 MF-Helvetica
/Slw 0.120 def
0.941 0.941 0.941 setrgbcolor
0 0 396.000 288.000 Sbgfill
/Slrgb {1.000 1.000 1.000} def
/Strgb {1.000 1.000 1.000} def
/Ssrgb {1.000 1.000 1.000} def
/Ssrgb {0.941 0.941 0.941} def
/Slw 0.576 def
/Slrgb {0.941 0.941 0.941} def
0 0 31999 23272 1 Srect
/Ssrgb {1.000 1.000 1.000} def
/Slrgb {1.000 1.000 1.000} def
3157 3157 31184 22457 1 Srect
/Slrgb {0.000 0.000 0.000} def
/Strgb {0.000 0.000 0.000} def
/Slw 0.864 def
/Slrgb {0.910 0.910 0.910} def
3157 3680 31184 3680 Sln
/Slw 0.576 def
/Slrgb {0.000 0.000 0.000} def
/Slw 0.864 def
/Slrgb {0.910 0.910 0.910} def
3157 7333 31184 7333 Sln
/Slw 0.576 def
/Slrgb {0.000 0.000 0.000} def
/Slw 0.864 def
/Slrgb {0.910 0.910 0.910} def
3157 10986 31184 10986 Sln
/Slw 0.576 def
/Slrgb {0.000 0.000 0.000} def
/Slw 0.864 def
/Slrgb {0.910 0.910 0.910} def
3157 14639 31184 14639 Sln
/Slw 0.576 def
/Slrgb {0.000 0.000 0.000} def
/Slw 0.864 def
/Slrgb {0.910 0.910 0.910} def
3157 18292 31184 18292 Sln
/Slw 0.576 def
/Slrgb {0.000 0.000 0.000} def
/Slw 0.864 def
/Slrgb {0.910 0.910 0.910} def
3157 21945 31184 21945 Sln
/Slw 0.576 def
/Slrgb {0.000 0.000 0.000} def
/Slw 0.864 def
/Slrgb {0.376 0.376 0.376} def
/Ssrgb {0.376 0.376 0.376} def
12677 12096 177 1 Scc 
8365 18993 177 1 Scc 
13405 17960 177 1 Scc 
15558 14758 177 1 Scc 
13164 12299 177 1 Scc 
10091 13456 177 1 Scc 
9520 16307 177 1 Scc 
18283 16393 177 1 Scc 
13876 9136 177 1 Scc 
11913 10885 177 1 Scc 
8814 16544 177 1 Scc 
14224 16035 177 1 Scc 
12542 15601 177 1 Scc 
12370 15693 177 1 Scc 
13536 13609 177 1 Scc 
10274 15126 177 1 Scc 
10032 12745 177 1 Scc 
14003 10277 177 1 Scc 
13194 13781 177 1 Scc 
16297 15506 177 1 Scc 
20517 13327 177 1 Scc 
17884 13673 177 1 Scc 
14103 12475 177 1 Scc 
13888 9722 177 1 Scc 
15338 5953 177 1 Scc 
20759 10914 177 1 Scc 
21492 15726 177 1 Scc 
18239 14655 177 1 Scc 
20751 12569 177 1 Scc 
22101 15117 177 1 Scc 
18960 10722 177 1 Scc 
17308 8705 177 1 Scc 
19790 7809 177 1 Scc 
27479 3669 177 1 Scc 
30672 10716 177 1 Scc 
28281 14276 177 1 Scc 
27310 12304 177 1 Scc 
25394 13242 177 1 Scc 
23784 10651 177 1 Scc 
22497 9573 177 1 Scc 
23831 10474 177 1 Scc 
20587 11521 177 1 Scc 
19182 12610 177 1 Scc 
17638 14294 177 1 Scc 
13755 15330 177 1 Scc 
22173 15431 177 1 Scc 
22349 13917 177 1 Scc 
10384 10948 177 1 Scc 
23295 7224 177 1 Scc 
12351 14985 177 1 Scc 
23415 18061 177 1 Scc 
22859 13979 177 1 Scc 
23093 9677 177 1 Scc 
19708 11555 177 1 Scc 
22006 15402 177 1 Scc 
17634 16578 177 1 Scc 
17959 16952 177 1 Scc 
18426 15033 177 1 Scc 
13877 16470 177 1 Scc 
14777 12355 177 1 Scc 
20896 10134 177 1 Scc 
15851 15703 177 1 Scc 
11042 16832 177 1 Scc 
12656 17631 177 1 Scc 
18257 13793 177 1 Scc 
6622 13395 177 1 Scc 
7300 14598 177 1 Scc 
7603 18752 177 1 Scc 
9109 14556 177 1 Scc 
11336 15974 177 1 Scc 
8053 15427 177 1 Scc 
9550 15053 177 1 Scc 
9384 13418 177 1 Scc 
9077 13625 177 1 Scc 
7097 17374 177 1 Scc 
7810 19578 177 1 Scc 
7409 18261 177 1 Scc 
8202 17597 177 1 Scc 
7416 19188 177 1 Scc 
3978 19345 177 1 Scc 
4952 19902 177 1 Scc 
8695 18409 177 1 Scc 
3669 19073 177 1 Scc 
5977 18643 177 1 Scc 
7460 16095 177 1 Scc 
11385 12308 177 1 Scc 
11211 10556 177 1 Scc 
15509 9878 177 1 Scc 
13803 8372 177 1 Scc 
13413 8079 177 1 Scc 
14853 10837 177 1 Scc 
16726 15237 177 1 Scc 
14813 15589 177 1 Scc 
15217 14896 177 1 Scc 
14155 13761 177 1 Scc 
11121 14413 177 1 Scc 
11926 14287 177 1 Scc 
11002 15630 177 1 Scc 
10840 16429 177 1 Scc 
9220 14557 177 1 Scc 
8584 10563 177 1 Scc 
12425 3979 177 1 Scc 
10477 5740 177 1 Scc 
18578 15694 177 1 Scc 
16162 14310 177 1 Scc 
12376 15542 177 1 Scc 
16135 15739 177 1 Scc 
12952 14055 177 1 Scc 
9033 13963 177 1 Scc 
14411 15043 177 1 Scc 
/Slrgb {0.000 0.000 0.000} def
3669 16443 4122 16334 Sln
4348 16280 4800 16171 Sln
5027 16116 5479 16007 Sln
5706 15953 6158 15844 Sln
6385 15789 6837 15680 Sln
7064 15626 7516 15517 Sln
7743 15462 8195 15354 Sln
8421 15299 8874 15190 Sln
9100 15136 9553 15027 Sln
9779 14972 10232 14863 Sln
10458 14809 10911 14700 Sln
11137 14645 11589 14536 Sln
11816 14482 12268 14373 Sln
12495 14318 12947 14209 Sln
13174 14155 13626 14047 Sln
13853 13992 14305 13884 Sln
14531 13829 14984 13720 Sln
15210 13666 15663 13557 Sln
15889 13503 16342 13394 Sln
16568 13340 17021 13231 Sln
17247 13177 17699 13068 Sln
17926 13013 18378 12904 Sln
18605 12850 19057 12741 Sln
19284 12686 19736 12577 Sln
19963 12523 20415 12414 Sln
20641 12359 21094 12251 Sln
21320 12196 21773 12087 Sln
21999 12032 22452 11924 Sln
22678 11869 23131 11760 Sln
23357 11706 23809 11597 Sln
24036 11542 24488 11433 Sln
24715 11379 25167 11270 Sln
25394 11215 25846 11106 Sln
26073 11052 26525 10944 Sln
26752 10889 27204 10781 Sln
27430 10726 27883 10617 Sln
28109 10563 28562 10454 Sln
28788 10400 29241 10291 Sln
29467 10237 29920 10128 Sln
30146 10074 30598 9965 Sln
/Slw 0.576 def
3157 3157 3157 22457 Sln
3157 3680 2834 3680 Sln
2430 3680 0
/Helvetica-0 findfont 808 yratio mul scalefont setfont
(-.6) stringwidth pop add
2 div xratio div
dup 4 3 roll exch 90.000 cos mul sub 3 1 roll 90.000 sin mul sub 2 copy
/fntsize {/Helvetica-0 findfont exch scalefont setfont } def
90.000 808
(-.6) Stxtl
(-.6) stringwidth pop xratio div
dup 4 3 roll exch 90.000 cos mul add 3 1 roll 90.000 sin mul add 2 copy
pop pop pop pop
3157 7333 2834 7333 Sln
2430 7333 0
/Helvetica-0 findfont 808 yratio mul scalefont setfont
(-.4) stringwidth pop add
2 div xratio div
dup 4 3 roll exch 90.000 cos mul sub 3 1 roll 90.000 sin mul sub 2 copy
/fntsize {/Helvetica-0 findfont exch scalefont setfont } def
90.000 808
(-.4) Stxtl
(-.4) stringwidth pop xratio div
dup 4 3 roll exch 90.000 cos mul add 3 1 roll 90.000 sin mul add 2 copy
pop pop pop pop
3157 10986 2834 10986 Sln
2430 10986 0
/Helvetica-0 findfont 808 yratio mul scalefont setfont
(-.2) stringwidth pop add
2 div xratio div
dup 4 3 roll exch 90.000 cos mul sub 3 1 roll 90.000 sin mul sub 2 copy
/fntsize {/Helvetica-0 findfont exch scalefont setfont } def
90.000 808
(-.2) Stxtl
(-.2) stringwidth pop xratio div
dup 4 3 roll exch 90.000 cos mul add 3 1 roll 90.000 sin mul add 2 copy
pop pop pop pop
3157 14639 2834 14639 Sln
2430 14639 0
/Helvetica-0 findfont 808 yratio mul scalefont setfont
(0) stringwidth pop add
2 div xratio div
dup 4 3 roll exch 90.000 cos mul sub 3 1 roll 90.000 sin mul sub 2 copy
/fntsize {/Helvetica-0 findfont exch scalefont setfont } def
90.000 808
(0) Stxtl
(0) stringwidth pop xratio div
dup 4 3 roll exch 90.000 cos mul add 3 1 roll 90.000 sin mul add 2 copy
pop pop pop pop
3157 18292 2834 18292 Sln
2430 18292 0
/Helvetica-0 findfont 808 yratio mul scalefont setfont
(.2) stringwidth pop add
2 div xratio div
dup 4 3 roll exch 90.000 cos mul sub 3 1 roll 90.000 sin mul sub 2 copy
/fntsize {/Helvetica-0 findfont exch scalefont setfont } def
90.000 808
(.2) Stxtl
(.2) stringwidth pop xratio div
dup 4 3 roll exch 90.000 cos mul add 3 1 roll 90.000 sin mul add 2 copy
pop pop pop pop
3157 21945 2834 21945 Sln
2430 21945 0
/Helvetica-0 findfont 808 yratio mul scalefont setfont
(.4) stringwidth pop add
2 div xratio div
dup 4 3 roll exch 90.000 cos mul sub 3 1 roll 90.000 sin mul sub 2 copy
/fntsize {/Helvetica-0 findfont exch scalefont setfont } def
90.000 808
(.4) Stxtl
(.4) stringwidth pop xratio div
dup 4 3 roll exch 90.000 cos mul add 3 1 roll 90.000 sin mul add 2 copy
pop pop pop pop
1541 12807 0
/Helvetica-0 findfont 808 yratio mul scalefont setfont
(Forecast error) stringwidth pop add
2 div xratio div
dup 4 3 roll exch 90.000 cos mul sub 3 1 roll 90.000 sin mul sub 2 copy
/fntsize {/Helvetica-0 findfont exch scalefont setfont } def
90.000 808
(Forecast error) Stxtl
(Forecast error) stringwidth pop xratio div
dup 4 3 roll exch 90.000 cos mul add 3 1 roll 90.000 sin mul add 2 copy
pop pop pop pop
3157 3157 31184 3157 Sln
4778 3157 4778 2834 Sln
4778 2108 0
/Helvetica-0 findfont 808 yratio mul scalefont setfont
(0) stringwidth pop add
2 div xratio div
dup 4 3 roll exch 0.000 cos mul sub 3 1 roll 0.000 sin mul sub 2 copy
/fntsize {/Helvetica-0 findfont exch scalefont setfont } def
0.000 808
(0) Stxtl
(0) stringwidth pop xratio div
dup 4 3 roll exch 0.000 cos mul add 3 1 roll 0.000 sin mul add 2 copy
pop pop pop pop
13364 3157 13364 2834 Sln
13364 2108 0
/Helvetica-0 findfont 808 yratio mul scalefont setfont
(.1) stringwidth pop add
2 div xratio div
dup 4 3 roll exch 0.000 cos mul sub 3 1 roll 0.000 sin mul sub 2 copy
/fntsize {/Helvetica-0 findfont exch scalefont setfont } def
0.000 808
(.1) Stxtl
(.1) stringwidth pop xratio div
dup 4 3 roll exch 0.000 cos mul add 3 1 roll 0.000 sin mul add 2 copy
pop pop pop pop
21951 3157 21951 2834 Sln
21951 2108 0
/Helvetica-0 findfont 808 yratio mul scalefont setfont
(.2) stringwidth pop add
2 div xratio div
dup 4 3 roll exch 0.000 cos mul sub 3 1 roll 0.000 sin mul sub 2 copy
/fntsize {/Helvetica-0 findfont exch scalefont setfont } def
0.000 808
(.2) Stxtl
(.2) stringwidth pop xratio div
dup 4 3 roll exch 0.000 cos mul add 3 1 roll 0.000 sin mul add 2 copy
pop pop pop pop
30538 3157 30538 2834 Sln
30538 2108 0
/Helvetica-0 findfont 808 yratio mul scalefont setfont
(.3) stringwidth pop add
2 div xratio div
dup 4 3 roll exch 0.000 cos mul sub 3 1 roll 0.000 sin mul sub 2 copy
/fntsize {/Helvetica-0 findfont exch scalefont setfont } def
0.000 808
(.3) Stxtl
(.3) stringwidth pop xratio div
dup 4 3 roll exch 0.000 cos mul add 3 1 roll 0.000 sin mul add 2 copy
pop pop pop pop
17171 1219 0
/Helvetica-0 findfont 808 yratio mul scalefont setfont
(12 month forecast) stringwidth pop add
2 div xratio div
dup 4 3 roll exch 0.000 cos mul sub 3 1 roll 0.000 sin mul sub 2 copy
/fntsize {/Helvetica-0 findfont exch scalefont setfont } def
0.000 808
(12 month forecast) Stxtl
(12 month forecast) stringwidth pop xratio div
dup 4 3 roll exch 0.000 cos mul add 3 1 roll 0.000 sin mul add 2 copy
pop pop pop pop
S showpage
%%EOF
