%!PS-Adobe-2.0 EPSF-2.0
%% This is a Stata generated postscript file
%%BoundingBox: 0 0 396 288
%%HiResBoundingBox: 0.000 0.000 396.000 288.000
%%DocumentNeededResources: font Helvetica
/xratio 0.012375 def
/yratio 0.012375 def
/Sbgfill {
	/y1 exch def
	/x1 exch def
	/y0 exch def
	/x0 exch def
	x0 y0 moveto
	x0 y1 lineto x1 y1 lineto x1 y0 lineto x0 y0 lineto
	fill
} def
/Spt {
	yratio mul
	/yp exch def
	xratio mul
	/xp exch def
	Slrgb setrgbcolor
	newpath
	xp yp moveto
	xp Slw add yp
	lineto
	currentlinecap
	1 setlinecap
	stroke
	setlinecap
} def
/Sln {
	yratio mul
	/y1p exch def
	xratio mul
	/x1p exch def
	yratio mul
	/y0p exch def
	xratio mul
	/x0p exch def
	Slw setlinewidth
	Slrgb setrgbcolor
	x0p y0p M x1p y1p lineto S
} def
/Scrv {
	yratio mul
	/y3p exch def
	xratio mul
	/x3p exch def
	yratio mul
	/y2p exch def
	xratio mul
	/x2p exch def
	yratio mul
	/y1p exch def
	xratio mul
	/x1p exch def
	Slw setlinewidth
	Slrgb setrgbcolor
	x1p y1p x2p y2p x3p y3p curveto
	stroke
} def
/Stxtl {
	/sp exch def
	yratio mul
	/sizep exch def
	dup
	/anglep exch def
	0 exch sub
	/angle2p exch def
	yratio mul
	/y0p exch def
	xratio mul
	/x0p exch def
	Strgb setrgbcolor
	x0p y0p M anglep rotate sizep fntsize sp show stroke angle2p rotate
} def
/Stxtc {
	/sp exch def
	yratio mul
	/sizep exch def
	dup
	/anglep exch def
	0 exch sub
	/angle2p exch def
	yratio mul
	/y0p exch def
	xratio mul
	/x0p exch def
	Strgb setrgbcolor
	x0p y0p M anglep rotate sizep fntsize sp stringwidth exch -2 div exch rm sp show stroke angle2p rotate
} def
/Stxtr {
	/sp exch def
	yratio mul
	/sizep exch def
	dup
	/anglep exch def
	0 exch sub
	/angle2p exch def
	yratio mul
	/y0p exch def
	xratio mul
	/x0p exch def
	Strgb setrgbcolor
	x0p y0p M anglep rotate sizep fntsize sp stringwidth 1 index -1 mul exch rm pop sp show stroke angle2p rotate
} def
/Srect {
	/sfill exch def
	yratio mul
	/y1 exch def
	xratio mul
	/x1 exch def
	yratio mul
	/y0 exch def
	xratio mul
	/x0 exch def
	sfill 1 eq {
		Ssrgb setrgbcolor
		x0 y0 moveto
		x0 y1 lineto x1 y1 lineto x1 y0 lineto x0 y0 lineto
		fill
	} if
	Slw setlinewidth
	Slrgb setrgbcolor
	x0 y0 moveto
	x0 y1 lineto x1 y1 lineto x1 y0 lineto x0 y0 lineto
	stroke
} def
/Sellipse {
	/sfill exch def
	yratio mul
	/yrad exch def
	xratio mul
	/xrad exch def
	yratio mul
	/y exch def
	xratio mul
	/x exch def
	sfill 1 eq {
		Ssrgb setrgbcolor
		/savematrix matrix currentmatrix def
		x y translate
		xrad yrad scale
		0 0 1 0 360 arc
		savematrix setmatrix
		fill
	} if
	Slw setlinewidth
	Slrgb setrgbcolor
		/savematrix matrix currentmatrix def
		x y translate
		xrad yrad scale
		0 0 1 0 360 arc
		savematrix setmatrix
	stroke
} def
/Stri {
	/sfill exch def
	xratio mul
	/r exch def
	yratio mul
	/y0 exch def
	xratio mul
	/x0 exch def
	/xcen x0 def
	y0 r add
	/ytop exch def
	r 2 div
	y0 exch sub
	/ybot exch def
	r 3 sqrt 2 div mul dup
	xcen exch sub
	/xleft exch def
	xcen add
	/xright exch def
	sfill 1 eq {
		Ssrgb setrgbcolor
		xcen ytop moveto xright ybot lineto xleft ybot lineto xcen ytop lineto fill
	} if
	Slw setlinewidth
	Slrgb setrgbcolor
	xcen ytop moveto xright ybot lineto xleft ybot lineto xcen ytop lineto stroke
} def
/Soldtri {
	/sfill exch def
	xratio mul
	/r exch def
	yratio mul
	/y0 exch def
	xratio mul
	/x0 exch def
	x0 r sub
	/x1 exch def
	y0 r sub
	/y1 exch def
	x0 r add
	/x2 exch def
	y0 r sub
	/y2 exch def
	/x3 x0 def
	y0 r add
	/y3 exch def
	sfill 1 eq {
		Ssrgb setrgbcolor
		x1 y1 moveto x2 y2 lineto x3 y3 lineto x1 y1 lineto fill
	} if
	Slw setlinewidth
	Slrgb setrgbcolor
	x1 y1 moveto x2 y2 lineto x3 y3 lineto x1 y1 lineto stroke
} def
/Sdia {
	/sfill exch def
	xratio mul
	/r exch def
	yratio mul
	/y exch def
	xratio mul
	/x exch def
	x r sub
	/x0 exch def
	/y0 y def
	/x1 x def
	y r sub
	/y1 exch def
	x r add
	/x2 exch def
	/y2 y def
	/x3 x def
	y r add
	/y3 exch def
	sfill 1 eq  {
		Ssrgb setrgbcolor
		x0 y0 moveto x1 y1 lineto x2 y2 lineto x3 y3 lineto x0 y0 lineto fill
	} if
	Slw setlinewidth
	Slrgb setrgbcolor
	x0 y0 moveto x1 y1 lineto x2 y2 lineto x3 y3 lineto x0 y0 lineto stroke
} def
/Scc {
	/sfill exch def
	xratio mul
	/r0 exch def
	yratio mul
	/y0 exch def
	xratio mul
	/x0 exch def
	sfill 1 eq {
		Ssrgb setrgbcolor
		x0 y0 r0 0 360 arc fill
	} if
	Slw setlinewidth
	Slrgb setrgbcolor
	x0 y0 r0 0 360 arc stroke
} def
/Spie {
	/sfill exch def
	/a1 exch def
	/a0 exch def
	xratio mul
	/r exch def
	yratio mul
	/y exch def
	xratio mul
	/x exch def
	sfill 1 eq {
		Ssrgb setrgbcolor
		newpath x y moveto x y r a0 a1 arc closepath
		fill
	} if
	Slw setlinewidth
	Slrgb setrgbcolor
	newpath x y moveto x y r a0 a1 arc closepath
	stroke
} def
/Splu {
	xratio mul
	/r exch def
	yratio mul
	/y exch def
	xratio mul
	/x exch def
	x r sub
	/x0 exch def
	x r add
	/x1 exch def
	x0 y M x1 y L
	y r sub
	/y0 exch def
	y r add
	/y1 exch def
	x y0 M x y1 L
} def
/Scro {
	xratio mul
	/r exch def
	yratio mul
	/y exch def
	xratio mul
	/x exch def
	x r sub
	/x0 exch def
	y r sub
	/y0 exch def
	x r add
	/x1 exch def
	y r add
	/y1 exch def
	x0 y0 M x1 y1 L
	x r add
	/x0 exch def
	y r sub
	/y0 exch def
	x r sub
	/x1 exch def
	y r add
	/y1 exch def
	x0 y0 M x1 y1 L
} def
/Sm {
	yratio mul
	/y exch def
	xratio mul
	/x exch def
	x y M
} def
/Sl {
	yratio mul
	/y exch def
	xratio mul
	/x exch def
	x y L
} def
/SPl {
	yratio mul
	/y exch def
	xratio mul
	/x exch def
	x y PL
} def
/Lcs {
	currentlinecap
	1 setlinecap
} def
/Lcr {
	setlinecap
} def
/Sbp {
	newpath
} def
/Sep {
	/sfill exch def
	closepath
	sfill 1 eq  {
		Ssrgb setrgbcolor
		gsave
		fill
		grestore
	} if
	Slw setlinewidth
	Slrgb setrgbcolor
	Lcs
	stroke
	Lcr
} def
/cp {currentpoint} def 
/M {moveto} def 
/rm {rmoveto} def 
/S {stroke} def 
/L {Slw setlinewidth Slrgb setrgbcolor lineto Lcs S Lcr} def 
/PL {Slw setlinewidth Slrgb setrgbcolor lineto} def 
/MF-Helvetica {
  /newfontname exch def
  /fontname exch def
  /fontdict fontname findfont def
  /newfont fontdict maxlength dict def
  fontdict {
  exch dup /FID eq {pop pop} {exch newfont 3 1 roll put} ifelse
  } forall
  newfont /FontName newfontname put
  newfont /Encoding ISOLatin1Encoding put
  newfontname newfont definefont pop
} def
/Helvetica /Helvetica-0 MF-Helvetica
/Slw 0.120 def
0.941 0.941 0.941 setrgbcolor
0 0 396.000 288.000 Sbgfill
/Slrgb {1.000 1.000 1.000} def
/Strgb {1.000 1.000 1.000} def
/Ssrgb {1.000 1.000 1.000} def
/Ssrgb {0.941 0.941 0.941} def
/Slw 0.576 def
/Slrgb {0.941 0.941 0.941} def
0 0 31999 23272 1 Srect
/Ssrgb {1.000 1.000 1.000} def
/Slrgb {1.000 1.000 1.000} def
3157 3157 31184 22457 1 Srect
/Slrgb {0.000 0.000 0.000} def
/Strgb {0.000 0.000 0.000} def
/Slw 0.864 def
/Slrgb {0.910 0.910 0.910} def
3157 8238 31184 8238 Sln
/Slw 0.576 def
/Slrgb {0.000 0.000 0.000} def
/Slw 0.864 def
/Slrgb {0.910 0.910 0.910} def
3157 12807 31184 12807 Sln
/Slw 0.576 def
/Slrgb {0.000 0.000 0.000} def
/Slw 0.864 def
/Slrgb {0.910 0.910 0.910} def
3157 17376 31184 17376 Sln
/Slw 0.576 def
/Slrgb {0.000 0.000 0.000} def
/Slw 0.864 def
/Slrgb {0.910 0.910 0.910} def
3157 21945 31184 21945 Sln
/Slw 0.576 def
/Slrgb {0.000 0.000 0.000} def
/Slw 0.864 def
/Slrgb {0.376 0.376 0.376} def
/Ssrgb {0.376 0.376 0.376} def
13256 11377 177 1 Scc 
9083 19485 177 1 Scc 
13961 21054 177 1 Scc 
16044 17560 177 1 Scc 
13727 15506 177 1 Scc 
10753 14698 177 1 Scc 
10200 17029 177 1 Scc 
18682 18329 177 1 Scc 
14417 16607 177 1 Scc 
12517 9000 177 1 Scc 
9517 18527 177 1 Scc 
14753 18341 177 1 Scc 
13125 16781 177 1 Scc 
12959 17854 177 1 Scc 
14087 16516 177 1 Scc 
10930 15330 177 1 Scc 
10697 17236 177 1 Scc 
14539 13593 177 1 Scc 
13757 13786 177 1 Scc 
16760 17538 177 1 Scc 
20843 15440 177 1 Scc 
18295 16165 177 1 Scc 
14636 16064 177 1 Scc 
14428 13066 177 1 Scc 
15832 12694 177 1 Scc 
21078 8553 177 1 Scc 
21788 18171 177 1 Scc 
18639 17539 177 1 Scc 
21071 14557 177 1 Scc 
22377 16774 177 1 Scc 
19337 16115 177 1 Scc 
17738 11643 177 1 Scc 
20140 12455 177 1 Scc 
27582 10738 177 1 Scc 
30672 6576 177 1 Scc 
28358 19963 177 1 Scc 
27418 12840 177 1 Scc 
25564 16156 177 1 Scc 
24006 14477 177 1 Scc 
22760 12571 177 1 Scc 
24051 12505 177 1 Scc 
20911 14154 177 1 Scc 
19552 13678 177 1 Scc 
18057 16917 177 1 Scc 
14300 18226 177 1 Scc 
22447 15875 177 1 Scc 
22617 19262 177 1 Scc 
11036 15331 177 1 Scc 
23532 11644 177 1 Scc 
12941 13479 177 1 Scc 
23648 18481 177 1 Scc 
23111 17739 177 1 Scc 
23337 13786 177 1 Scc 
20060 11862 177 1 Scc 
22285 15696 177 1 Scc 
18053 17718 177 1 Scc 
18368 16452 177 1 Scc 
18820 18866 177 1 Scc 
14417 14472 177 1 Scc 
15289 20001 177 1 Scc 
21210 10559 177 1 Scc 
16328 18314 177 1 Scc 
11674 16388 177 1 Scc 
13236 18328 177 1 Scc 
18657 16576 177 1 Scc 
7395 18691 177 1 Scc 
8052 15214 177 1 Scc 
8346 20736 177 1 Scc 
9803 18590 177 1 Scc 
11958 18415 177 1 Scc 
8781 18215 177 1 Scc 
10229 17403 177 1 Scc 
10069 17645 177 1 Scc 
9772 15657 177 1 Scc 
7856 17044 177 1 Scc 
8546 21239 177 1 Scc 
8158 20537 177 1 Scc 
8925 19015 177 1 Scc 
8165 19527 177 1 Scc 
4837 21310 177 1 Scc 
5779 20605 177 1 Scc 
9403 20475 177 1 Scc 
4538 19914 177 1 Scc 
6772 21173 177 1 Scc 
8207 19780 177 1 Scc 
12005 17448 177 1 Scc 
11837 14767 177 1 Scc 
15997 13199 177 1 Scc 
14346 14275 177 1 Scc 
13968 12136 177 1 Scc 
15362 11458 177 1 Scc 
17175 16757 177 1 Scc 
15323 19754 177 1 Scc 
15714 17343 177 1 Scc 
14687 17602 177 1 Scc 
11750 16805 177 1 Scc 
12529 17345 177 1 Scc 
11635 16846 177 1 Scc 
11478 18845 177 1 Scc 
9910 18462 177 1 Scc 
9295 16031 177 1 Scc 
13012 13004 177 1 Scc 
11127 6611 177 1 Scc 
18967 16626 177 1 Scc 
16629 19865 177 1 Scc 
12965 14772 177 1 Scc 
16602 18685 177 1 Scc 
13522 18632 177 1 Scc 
9729 15254 177 1 Scc 
14934 18051 177 1 Scc 
13979 17914 177 1 Scc 
/Slrgb {0.000 0.000 0.000} def
3669 18871 4116 18743 Sln
4340 18678 4787 18550 Sln
5011 18485 5458 18357 Sln
5682 18292 6129 18164 Sln
6353 18099 6800 17971 Sln
7024 17906 7471 17778 Sln
7695 17713 8142 17585 Sln
8366 17520 8813 17392 Sln
9037 17327 9484 17199 Sln
9708 17134 10155 17006 Sln
10379 16941 10826 16813 Sln
11050 16748 11497 16620 Sln
11721 16555 12168 16427 Sln
12392 16362 12839 16234 Sln
13063 16169 13510 16041 Sln
13734 15976 14181 15848 Sln
14405 15784 14852 15655 Sln
15076 15591 15523 15462 Sln
15747 15398 16194 15269 Sln
16418 15205 16865 15076 Sln
17089 15012 17536 14883 Sln
17760 14819 18208 14690 Sln
18432 14626 18879 14497 Sln
19103 14433 19550 14304 Sln
19774 14240 20221 14112 Sln
20445 14047 20892 13918 Sln
21116 13854 21563 13725 Sln
21787 13661 22234 13532 Sln
22458 13467 22905 13339 Sln
23128 13274 23575 13146 Sln
23799 13081 24246 12952 Sln
24470 12888 24838 12782 Sln
/Slw 0.576 def
3157 3157 3157 22457 Sln
3157 3669 2834 3669 Sln
2430 3669 0
/Helvetica-0 findfont 808 yratio mul scalefont setfont
(-.6) stringwidth pop add
2 div xratio div
dup 4 3 roll exch 90.000 cos mul sub 3 1 roll 90.000 sin mul sub 2 copy
/fntsize {/Helvetica-0 findfont exch scalefont setfont } def
90.000 808
(-.6) Stxtl
(-.6) stringwidth pop xratio div
dup 4 3 roll exch 90.000 cos mul add 3 1 roll 90.000 sin mul add 2 copy
pop pop pop pop
3157 8238 2834 8238 Sln
2430 8238 0
/Helvetica-0 findfont 808 yratio mul scalefont setfont
(-.4) stringwidth pop add
2 div xratio div
dup 4 3 roll exch 90.000 cos mul sub 3 1 roll 90.000 sin mul sub 2 copy
/fntsize {/Helvetica-0 findfont exch scalefont setfont } def
90.000 808
(-.4) Stxtl
(-.4) stringwidth pop xratio div
dup 4 3 roll exch 90.000 cos mul add 3 1 roll 90.000 sin mul add 2 copy
pop pop pop pop
3157 12807 2834 12807 Sln
2430 12807 0
/Helvetica-0 findfont 808 yratio mul scalefont setfont
(-.2) stringwidth pop add
2 div xratio div
dup 4 3 roll exch 90.000 cos mul sub 3 1 roll 90.000 sin mul sub 2 copy
/fntsize {/Helvetica-0 findfont exch scalefont setfont } def
90.000 808
(-.2) Stxtl
(-.2) stringwidth pop xratio div
dup 4 3 roll exch 90.000 cos mul add 3 1 roll 90.000 sin mul add 2 copy
pop pop pop pop
3157 17376 2834 17376 Sln
2430 17376 0
/Helvetica-0 findfont 808 yratio mul scalefont setfont
(0) stringwidth pop add
2 div xratio div
dup 4 3 roll exch 90.000 cos mul sub 3 1 roll 90.000 sin mul sub 2 copy
/fntsize {/Helvetica-0 findfont exch scalefont setfont } def
90.000 808
(0) Stxtl
(0) stringwidth pop xratio div
dup 4 3 roll exch 90.000 cos mul add 3 1 roll 90.000 sin mul add 2 copy
pop pop pop pop
3157 21945 2834 21945 Sln
2430 21945 0
/Helvetica-0 findfont 808 yratio mul scalefont setfont
(.2) stringwidth pop add
2 div xratio div
dup 4 3 roll exch 90.000 cos mul sub 3 1 roll 90.000 sin mul sub 2 copy
/fntsize {/Helvetica-0 findfont exch scalefont setfont } def
90.000 808
(.2) Stxtl
(.2) stringwidth pop xratio div
dup 4 3 roll exch 90.000 cos mul add 3 1 roll 90.000 sin mul add 2 copy
pop pop pop pop
1541 12807 0
/Helvetica-0 findfont 808 yratio mul scalefont setfont
(Forecast error) stringwidth pop add
2 div xratio div
dup 4 3 roll exch 90.000 cos mul sub 3 1 roll 90.000 sin mul sub 2 copy
/fntsize {/Helvetica-0 findfont exch scalefont setfont } def
90.000 808
(Forecast error) Stxtl
(Forecast error) stringwidth pop xratio div
dup 4 3 roll exch 90.000 cos mul add 3 1 roll 90.000 sin mul add 2 copy
pop pop pop pop
3157 3157 31184 3157 Sln
5611 3157 5611 2834 Sln
5611 2108 0
/Helvetica-0 findfont 808 yratio mul scalefont setfont
(0) stringwidth pop add
2 div xratio div
dup 4 3 roll exch 0.000 cos mul sub 3 1 roll 0.000 sin mul sub 2 copy
/fntsize {/Helvetica-0 findfont exch scalefont setfont } def
0.000 808
(0) Stxtl
(0) stringwidth pop xratio div
dup 4 3 roll exch 0.000 cos mul add 3 1 roll 0.000 sin mul add 2 copy
pop pop pop pop
13921 3157 13921 2834 Sln
13921 2108 0
/Helvetica-0 findfont 808 yratio mul scalefont setfont
(.1) stringwidth pop add
2 div xratio div
dup 4 3 roll exch 0.000 cos mul sub 3 1 roll 0.000 sin mul sub 2 copy
/fntsize {/Helvetica-0 findfont exch scalefont setfont } def
0.000 808
(.1) Stxtl
(.1) stringwidth pop xratio div
dup 4 3 roll exch 0.000 cos mul add 3 1 roll 0.000 sin mul add 2 copy
pop pop pop pop
22232 3157 22232 2834 Sln
22232 2108 0
/Helvetica-0 findfont 808 yratio mul scalefont setfont
(.2) stringwidth pop add
2 div xratio div
dup 4 3 roll exch 0.000 cos mul sub 3 1 roll 0.000 sin mul sub 2 copy
/fntsize {/Helvetica-0 findfont exch scalefont setfont } def
0.000 808
(.2) Stxtl
(.2) stringwidth pop xratio div
dup 4 3 roll exch 0.000 cos mul add 3 1 roll 0.000 sin mul add 2 copy
pop pop pop pop
30542 3157 30542 2834 Sln
30542 2108 0
/Helvetica-0 findfont 808 yratio mul scalefont setfont
(.3) stringwidth pop add
2 div xratio div
dup 4 3 roll exch 0.000 cos mul sub 3 1 roll 0.000 sin mul sub 2 copy
/fntsize {/Helvetica-0 findfont exch scalefont setfont } def
0.000 808
(.3) Stxtl
(.3) stringwidth pop xratio div
dup 4 3 roll exch 0.000 cos mul add 3 1 roll 0.000 sin mul add 2 copy
pop pop pop pop
17171 1219 0
/Helvetica-0 findfont 808 yratio mul scalefont setfont
(6 month forecast) stringwidth pop add
2 div xratio div
dup 4 3 roll exch 0.000 cos mul sub 3 1 roll 0.000 sin mul sub 2 copy
/fntsize {/Helvetica-0 findfont exch scalefont setfont } def
0.000 808
(6 month forecast) Stxtl
(6 month forecast) stringwidth pop xratio div
dup 4 3 roll exch 0.000 cos mul add 3 1 roll 0.000 sin mul add 2 copy
pop pop pop pop
S showpage
%%EOF
