%!PS-Adobe-3.0 EPSF-3.0
%%Creator: MATLAB, The MathWorks, Inc. Version 7.14.0.739 (R2012a). Operating System: Darwin 12.4.0 Darwin Kernel Version 12.4.0: Wed May  1 17:57:12 PDT 2013; root:xnu-2050.24.15~1/RELEASE_X86_64 x86_64.
%%Title: /Users/fckw/Dropbox/PhD/finfric/data/p-sloos.eps
%%CreationDate: 06/17/2013  01:46:06
%%DocumentNeededFonts: Helvetica
%%DocumentProcessColors: Cyan Magenta Yellow Black
%%LanguageLevel: 2
%%Pages: 1
%%BoundingBox:    57   231   555   561
%%EndComments

%%BeginProlog
% MathWorks dictionary
/MathWorks 160 dict begin
% definition operators
/bdef {bind def} bind def
/ldef {load def} bind def
/xdef {exch def} bdef
/xstore {exch store} bdef
% operator abbreviations
/c  /clip ldef
/cc /concat ldef
/cp /closepath ldef
/gr /grestore ldef
/gs /gsave ldef
/mt /moveto ldef
/np /newpath ldef
/cm /currentmatrix ldef
/sm /setmatrix ldef
/rm /rmoveto ldef
/rl /rlineto ldef
/s {show newpath} bdef
/sc {setcmykcolor} bdef
/sr /setrgbcolor ldef
/sg /setgray ldef
/w /setlinewidth ldef
/j /setlinejoin ldef
/cap /setlinecap ldef
/rc {rectclip} bdef
/rf {rectfill} bdef
% page state control
/pgsv () def
/bpage {/pgsv save def} bdef
/epage {pgsv restore} bdef
/bplot /gsave ldef
/eplot {stroke grestore} bdef
% orientation switch
/portraitMode 0 def /landscapeMode 1 def /rotateMode 2 def
% coordinate system mappings
/dpi2point 0 def
% font control
/FontSize 0 def
/FMS {/FontSize xstore findfont [FontSize 0 0 FontSize neg 0 0]
  makefont setfont} bdef
/reencode {exch dup where {pop load} {pop StandardEncoding} ifelse
  exch dup 3 1 roll findfont dup length dict begin
  { 1 index /FID ne {def}{pop pop} ifelse } forall
  /Encoding exch def currentdict end definefont pop} bdef
/isroman {findfont /CharStrings get /Agrave known} bdef
/FMSR {3 1 roll 1 index dup isroman {reencode} {pop pop} ifelse
  exch FMS} bdef
/csm {1 dpi2point div -1 dpi2point div scale neg translate
 dup landscapeMode eq {pop -90 rotate}
  {rotateMode eq {90 rotate} if} ifelse} bdef
% line types: solid, dotted, dashed, dotdash
/SO { [] 0 setdash } bdef
/DO { [.5 dpi2point mul 4 dpi2point mul] 0 setdash } bdef
/DA { [6 dpi2point mul] 0 setdash } bdef
/DD { [.5 dpi2point mul 4 dpi2point mul 6 dpi2point mul 4
  dpi2point mul] 0 setdash } bdef
% macros for lines and objects
/L {lineto stroke} bdef
/MP {3 1 roll moveto 1 sub {rlineto} repeat} bdef
/AP {{rlineto} repeat} bdef
/PDlw -1 def
/W {/PDlw currentlinewidth def setlinewidth} def
/PP {closepath eofill} bdef
/DP {closepath stroke} bdef
/MR {4 -2 roll moveto dup  0 exch rlineto exch 0 rlineto
  neg 0 exch rlineto closepath} bdef
/FR {MR stroke} bdef
/PR {MR fill} bdef
/L1i {{currentfile picstr readhexstring pop} image} bdef
/tMatrix matrix def
/MakeOval {newpath tMatrix currentmatrix pop translate scale
0 0 1 0 360 arc tMatrix setmatrix} bdef
/FO {MakeOval stroke} bdef
/PO {MakeOval fill} bdef
/PD {currentlinewidth 2 div 0 360 arc fill
   PDlw -1 eq not {PDlw w /PDlw -1 def} if} def
/FA {newpath tMatrix currentmatrix pop translate scale
  0 0 1 5 -2 roll arc tMatrix setmatrix stroke} bdef
/PA {newpath tMatrix currentmatrix pop	translate 0 0 moveto scale
  0 0 1 5 -2 roll arc closepath tMatrix setmatrix fill} bdef
/FAn {newpath tMatrix currentmatrix pop translate scale
  0 0 1 5 -2 roll arcn tMatrix setmatrix stroke} bdef
/PAn {newpath tMatrix currentmatrix pop translate 0 0 moveto scale
  0 0 1 5 -2 roll arcn closepath tMatrix setmatrix fill} bdef
/vradius 0 def /hradius 0 def /lry 0 def
/lrx 0 def /uly 0 def /ulx 0 def /rad 0 def
/MRR {/vradius xdef /hradius xdef /lry xdef /lrx xdef /uly xdef
  /ulx xdef newpath tMatrix currentmatrix pop ulx hradius add uly
  vradius add translate hradius vradius scale 0 0 1 180 270 arc 
  tMatrix setmatrix lrx hradius sub uly vradius add translate
  hradius vradius scale 0 0 1 270 360 arc tMatrix setmatrix
  lrx hradius sub lry vradius sub translate hradius vradius scale
  0 0 1 0 90 arc tMatrix setmatrix ulx hradius add lry vradius sub
  translate hradius vradius scale 0 0 1 90 180 arc tMatrix setmatrix
  closepath} bdef
/FRR {MRR stroke } bdef
/PRR {MRR fill } bdef
/MlrRR {/lry xdef /lrx xdef /uly xdef /ulx xdef /rad lry uly sub 2 div def
  newpath tMatrix currentmatrix pop ulx rad add uly rad add translate
  rad rad scale 0 0 1 90 270 arc tMatrix setmatrix lrx rad sub lry rad
  sub translate rad rad scale 0 0 1 270 90 arc tMatrix setmatrix
  closepath} bdef
/FlrRR {MlrRR stroke } bdef
/PlrRR {MlrRR fill } bdef
/MtbRR {/lry xdef /lrx xdef /uly xdef /ulx xdef /rad lrx ulx sub 2 div def
  newpath tMatrix currentmatrix pop ulx rad add uly rad add translate
  rad rad scale 0 0 1 180 360 arc tMatrix setmatrix lrx rad sub lry rad
  sub translate rad rad scale 0 0 1 0 180 arc tMatrix setmatrix
  closepath} bdef
/FtbRR {MtbRR stroke } bdef
/PtbRR {MtbRR fill } bdef
/stri 6 array def /dtri 6 array def
/smat 6 array def /dmat 6 array def
/tmat1 6 array def /tmat2 6 array def /dif 3 array def
/asub {/ind2 exch def /ind1 exch def dup dup
  ind1 get exch ind2 get sub exch } bdef
/tri_to_matrix {
  2 0 asub 3 1 asub 4 0 asub 5 1 asub
  dup 0 get exch 1 get 7 -1 roll astore } bdef
/compute_transform {
  dmat dtri tri_to_matrix tmat1 invertmatrix 
  smat stri tri_to_matrix tmat2 concatmatrix } bdef
/ds {stri astore pop} bdef
/dt {dtri astore pop} bdef
/db {2 copy /cols xdef /rows xdef mul dup 3 mul string
  currentfile 
  3 index 0 eq {/ASCIIHexDecode filter}
  {/ASCII85Decode filter 3 index 2 eq {/RunLengthDecode filter} if }
  ifelse exch readstring pop
  dup 0 3 index getinterval /rbmap xdef
  dup 2 index dup getinterval /gbmap xdef
  1 index dup 2 mul exch getinterval /bbmap xdef pop pop}bdef
/it {gs np dtri aload pop moveto lineto lineto cp c
  cols rows 8 compute_transform 
  rbmap gbmap bbmap true 3 colorimage gr}bdef
/il {newpath moveto lineto stroke}bdef
currentdict end def
%%EndProlog

%%BeginSetup
MathWorks begin

0 cap

end
%%EndSetup

%%Page: 1 1
%%BeginPageSetup
%%PageBoundingBox:    57   231   555   561
MathWorks begin
bpage
%%EndPageSetup

%%BeginObject: obj1
bplot

/dpi2point 12 def
portraitMode 0684 6732 csm

    0     0  5976  3955 rc
85 dict begin %Colortable dictionary
/c0 { 0.000000 0.000000 0.000000 sr} bdef
/c1 { 1.000000 1.000000 1.000000 sr} bdef
/c2 { 0.900000 0.000000 0.000000 sr} bdef
/c3 { 0.000000 0.820000 0.000000 sr} bdef
/c4 { 0.000000 0.000000 0.800000 sr} bdef
/c5 { 0.910000 0.820000 0.320000 sr} bdef
/c6 { 1.000000 0.260000 0.820000 sr} bdef
/c7 { 0.000000 0.820000 0.820000 sr} bdef
c0
1 j
1 sg
   0    0 5977 3956 rf
6 w
0 3223 4631 0 0 -3223 777 3520 4 MP
PP
-4631 0 0 3223 4631 0 0 -3223 777 3520 5 MP stroke
4 w
DO
SO
6 w
0 sg
 777 3520 mt 5408 3520 L
 777  297 mt 5408  297 L
/c8 { 0.000000 0.000000 1.000000 sr} bdef
c8
 777 3520 mt  777  297 L
5408 3520 mt 5408  297 L
0 sg
 777 3520 mt 5408 3520 L
c8
 777 3520 mt  777  297 L
0 sg
 777 3520 mt  777 3473 L
 777  297 mt  777  343 L
%%IncludeResource: font Helvetica
/Helvetica /ISOLatin1Encoding 120 FMSR

 644 3665 mt 
(1985) s
1548 3520 mt 1548 3473 L
1548  297 mt 1548  343 L
1415 3665 mt 
(1990) s
2320 3520 mt 2320 3473 L
2320  297 mt 2320  343 L
2187 3665 mt 
(1995) s
3092 3520 mt 3092 3473 L
3092  297 mt 3092  343 L
2959 3665 mt 
(2000) s
3864 3520 mt 3864 3473 L
3864  297 mt 3864  343 L
3731 3665 mt 
(2005) s
4636 3520 mt 4636 3473 L
4636  297 mt 4636  343 L
4503 3665 mt 
(2010) s
5408 3520 mt 5408 3473 L
5408  297 mt 5408  343 L
5275 3665 mt 
(2015) s
c8
 777 3520 mt  823 3520 L
5408 3520 mt 5361 3520 L
 506 3564 mt 
(-0.5) s
 777 1908 mt  823 1908 L
5408 1908 mt 5361 1908 L
 676 1952 mt 
(0) s
 777  297 mt  823  297 L
5408  297 mt 5361  297 L
 576  341 mt 
(0.5) s
0 sg
 777 3520 mt 5408 3520 L
 777  297 mt 5408  297 L
c8
 777 3520 mt  777  297 L
5408 3520 mt 5408  297 L
gs 777 297 4632 3224 rc
13 -66 13 90 13 18 13 -69 12 -78 13 -85 13 45 13 109 
13 23 13 -56 13 -105 12 -125 13 -46 13 -48 13 -91 13 42 
13 374 13 -85 13 126 12 4 13 -41 13 76 13 -75 13 -86 
13 -104 13 -70 12 -132 13 -98 13 -16 13 12 13 120 13 203 
13 -119 12 -168 13 99 13 -29 13 -73 13 -62 13 -72 13 -111 
13 -243 12 -44 13 -63 13 -197 13 -365 13 198 13 240 13 49 
12 -23 13 227 13 691 13 152 13 -85 13 214 13 166 12 -60 
13 -120 13 108 13 55 13 231 13 -47 13 172 13 -93 12 -94 
13 128 13 -24 13 -9 13 -91 13 -114 13 107 12 -36 13 -14 
13 -65 13 -70 13 -132 13 -97 13 -66 12 -12 13 96 13 43 
13 3 13 -27 13 9 13 -20 13 -79 12 -148 13 96 13 33 
13 10 13 -39 13 -64 13 -43 12 104 13 37 13 -32 13 54 
13 -95 13 -146 13 17 12 -79 13 50 13 70 13 -79 13 105 
13 -20 13 73 13 -17 12 -140 13 -101 13 -48 13 -70 13 -91 
13 15 13 -18 12 -178 13 -176 13 -176 13 -27 13 234 13 16 
13 21 12 -214 13 43 13 156 13 -33 13 362 13 190 13 83 
13 124 12 -147 13 113 13 8 13 -69 13 -173 13 -121 13 391 
12 58 13 70 13 76 13 -206 13 -8 13 309 13 78 12 2 
13 104 13 25 13 177 13 52 13 -29 13 -18 13 -79 12 101 
13 -37 13 -90 13 109 13 24 13 -78 13 -205 12 62 13 51 
13 150 13 -114 13 41 13 25 13 -87 13 -58 12 32 13 -123 
13 -102 13 -305 13 -1 13 199 13 271 12 -101 13 36 13 51 
13 -63 13 -122 13 -153 13 40 12 -45 13 78 13 0 13 14 
13 40 13 -130 13 -117 13 -239 12 164 13 76 13 -79 13 -45 
13 10 13 -104 13 -70 12 -5 13 -43 13 170 13 10 13 -21 
13 55 13 71 12 -127 13 61 13 -62 13 -31 13 28 13 -65 
13 37 13 -67 12 -50 13 -56 13 -48 13 -28 13 -65 13 -23 
13 74 12 57 13 56 13 21 13 -46 13 63 13 12 13 4 
12 150 13 91 13 47 13 -13 13 3 13 34 13 5 13 -6 
12 -18 13 28 13 6 13 10 13 80 13 -30 13 -16 12 38 
13 -80 13 -57 13 76 13 23 13 4 13 -30 12 80 13 -37 
13 20 13 73 13 54 13 -201 13 -4 13 32 12 21 13 47 
13 -53 13 2 13 21 13 37 13 -45 12 -70 13 -327 13 65 
13 -122 13 -65 13 118 13 193 12 315 13 29 13 -62 13 -93 
13 21 13 -47 13 119 1548 1775 276 MP stroke
gr

0 sg
 688 3635 mt 
( ) s
5320  411 mt 
( ) s
4 w
DO
SO
6 w
 777 3520 mt 5408 3520 L
/c9 { 0.000000 0.500000 0.000000 sr} bdef
c9
5408 3520 mt 5408  296 L
0 sg
 777 3520 mt  777 3473 L
 644 3665 mt 
(1985) s
1548 3520 mt 1548 3473 L
1415 3665 mt 
(1990) s
2320 3520 mt 2320 3473 L
2187 3665 mt 
(1995) s
3092 3520 mt 3092 3473 L
2959 3665 mt 
(2000) s
3864 3520 mt 3864 3473 L
3731 3665 mt 
(2005) s
4636 3520 mt 4636 3473 L
4503 3665 mt 
(2010) s
5408 3520 mt 5408 3473 L
5275 3665 mt 
(2015) s
c9
5408 3520 mt 5361 3520 L
5442 3564 mt 
(-100) s
5408 1908 mt 5361 1908 L
5442 1952 mt 
(0) s
5408  297 mt 5361  297 L
5442  341 mt 
(100) s
gs 777 297 4632 3224 rc
13 0 13 0 13 3 13 0 12 0 13 31 13 0 13 0 
13 -42 13 0 13 0 12 -198 13 0 13 0 13 182 13 0 
13 0 13 256 13 0 12 0 13 -87 13 0 13 0 13 -95 
13 0 13 0 12 0 13 0 13 0 13 -27 13 0 13 0 
13 -28 12 0 13 0 13 -25 13 0 13 0 13 -315 13 0 
13 0 12 -282 13 0 13 0 13 -130 13 0 13 0 13 -397 
12 0 13 0 13 -312 13 0 13 0 13 419 13 0 12 0 
13 35 13 0 13 0 13 374 13 0 13 0 13 210 12 0 
13 0 13 188 13 0 13 0 13 181 13 0 12 0 13 -60 
13 0 13 0 13 0 13 0 13 0 12 143 13 0 13 0 
13 55 13 0 13 0 13 -26 13 0 12 0 13 -30 13 0 
13 0 13 127 13 0 13 0 12 119 13 0 13 0 13 -8 
13 0 13 0 13 -40 12 0 13 0 13 -18 13 0 13 0 
13 45 13 0 13 0 12 -79 13 0 13 0 13 -288 13 0 
13 0 13 -56 12 0 13 0 13 -87 13 0 13 0 13 -212 
13 0 12 0 13 33 13 0 13 0 13 -23 13 0 13 0 
13 -58 12 0 13 0 13 -329 13 0 13 0 13 -88 13 0 
12 0 13 169 13 0 13 0 13 -169 13 0 13 0 12 -142 
13 0 13 0 13 256 13 0 13 0 13 160 13 0 12 0 
13 150 13 0 13 0 13 220 13 0 13 0 12 29 13 0 
13 0 13 60 13 0 13 0 13 -74 13 0 12 0 13 42 
13 0 13 0 13 -468 13 0 13 0 12 587 13 0 13 0 
13 114 13 0 13 0 13 -143 12 0 13 0 13 142 13 0 
13 0 13 -21 13 0 13 0 12 21 13 0 13 0 13 -24 
13 0 13 0 13 37 12 0 13 0 13 -66 13 0 13 0 
13 -45 13 0 12 0 13 -128 13 0 13 0 13 169 13 0 
13 0 13 42 12 0 13 0 13 -3 13 0 13 0 13 16 
13 0 12 0 13 169 13 0 13 0 13 -167 13 0 13 0 
12 84 13 0 13 0 13 12 13 0 13 0 13 78 13 0 
12 0 13 27 13 0 13 0 13 -187 13 0 13 0 12 -171 
13 0 13 0 13 -27 13 0 13 0 13 98 12 0 13 0 
13 -42 13 0 13 0 13 -70 13 0 13 0 12 -60 13 0 
13 0 13 -53 13 0 13 0 13 -52 12 0 13 0 13 -330 
13 0 13 0 13 -208 13 0 12 0 13 151 13 0 13 0 
13 -280 13 0 13 0 1548 2825 276 MP stroke
gr

1 sg
0 389 3979 0 0 -389 1100 760 4 MP
PP
-3979 0 0 389 3979 0 0 -389 1100 760 5 MP stroke
4 w
DO
SO
6 w
0 sg
1100  760 mt 5079  760 L
1100  371 mt 5079  371 L
1100  760 mt 1100  371 L
5079  760 mt 5079  371 L
1100  760 mt 5079  760 L
1100  760 mt 1100  371 L
1100  760 mt 5079  760 L
1100  371 mt 5079  371 L
1100  760 mt 1100  371 L
5079  760 mt 5079  371 L
1568  521 mt 
(S&P1500 cyclical component) s
gs 1100 371 3980 390 rc
c8
360 0 1172 478 2 MP stroke
gr

c8
0 sg
1568  695 mt 
(%Fed survey respondents tightening business loan conditions) s
gs 1100 371 3980 390 rc
c9
360 0 1172 652 2 MP stroke
gr

c9

end %%Color Dict

eplot
%%EndObject

epage
end

showpage

%%Trailer
%%EOF
