%!PS-Adobe-3.0 EPSF-3.0
%%Creator: MATLAB, The MathWorks, Inc. Version 7.14.0.739 (R2012a). Operating System: Darwin 12.4.0 Darwin Kernel Version 12.4.0: Wed May  1 17:57:12 PDT 2013; root:xnu-2050.24.15~1/RELEASE_X86_64 x86_64.
%%Title: /Users/fckw/Dropbox/PhD/finfric/data/p-spread.eps
%%CreationDate: 06/17/2013  01:48:12
%%DocumentNeededFonts: Helvetica
%%DocumentProcessColors: Cyan Magenta Yellow Black
%%LanguageLevel: 2
%%Pages: 1
%%BoundingBox:    26   186   585   606
%%EndComments

%%BeginProlog
% MathWorks dictionary
/MathWorks 160 dict begin
% definition operators
/bdef {bind def} bind def
/ldef {load def} bind def
/xdef {exch def} bdef
/xstore {exch store} bdef
% operator abbreviations
/c  /clip ldef
/cc /concat ldef
/cp /closepath ldef
/gr /grestore ldef
/gs /gsave ldef
/mt /moveto ldef
/np /newpath ldef
/cm /currentmatrix ldef
/sm /setmatrix ldef
/rm /rmoveto ldef
/rl /rlineto ldef
/s {show newpath} bdef
/sc {setcmykcolor} bdef
/sr /setrgbcolor ldef
/sg /setgray ldef
/w /setlinewidth ldef
/j /setlinejoin ldef
/cap /setlinecap ldef
/rc {rectclip} bdef
/rf {rectfill} bdef
% page state control
/pgsv () def
/bpage {/pgsv save def} bdef
/epage {pgsv restore} bdef
/bplot /gsave ldef
/eplot {stroke grestore} bdef
% orientation switch
/portraitMode 0 def /landscapeMode 1 def /rotateMode 2 def
% coordinate system mappings
/dpi2point 0 def
% font control
/FontSize 0 def
/FMS {/FontSize xstore findfont [FontSize 0 0 FontSize neg 0 0]
  makefont setfont} bdef
/reencode {exch dup where {pop load} {pop StandardEncoding} ifelse
  exch dup 3 1 roll findfont dup length dict begin
  { 1 index /FID ne {def}{pop pop} ifelse } forall
  /Encoding exch def currentdict end definefont pop} bdef
/isroman {findfont /CharStrings get /Agrave known} bdef
/FMSR {3 1 roll 1 index dup isroman {reencode} {pop pop} ifelse
  exch FMS} bdef
/csm {1 dpi2point div -1 dpi2point div scale neg translate
 dup landscapeMode eq {pop -90 rotate}
  {rotateMode eq {90 rotate} if} ifelse} bdef
% line types: solid, dotted, dashed, dotdash
/SO { [] 0 setdash } bdef
/DO { [.5 dpi2point mul 4 dpi2point mul] 0 setdash } bdef
/DA { [6 dpi2point mul] 0 setdash } bdef
/DD { [.5 dpi2point mul 4 dpi2point mul 6 dpi2point mul 4
  dpi2point mul] 0 setdash } bdef
% macros for lines and objects
/L {lineto stroke} bdef
/MP {3 1 roll moveto 1 sub {rlineto} repeat} bdef
/AP {{rlineto} repeat} bdef
/PDlw -1 def
/W {/PDlw currentlinewidth def setlinewidth} def
/PP {closepath eofill} bdef
/DP {closepath stroke} bdef
/MR {4 -2 roll moveto dup  0 exch rlineto exch 0 rlineto
  neg 0 exch rlineto closepath} bdef
/FR {MR stroke} bdef
/PR {MR fill} bdef
/L1i {{currentfile picstr readhexstring pop} image} bdef
/tMatrix matrix def
/MakeOval {newpath tMatrix currentmatrix pop translate scale
0 0 1 0 360 arc tMatrix setmatrix} bdef
/FO {MakeOval stroke} bdef
/PO {MakeOval fill} bdef
/PD {currentlinewidth 2 div 0 360 arc fill
   PDlw -1 eq not {PDlw w /PDlw -1 def} if} def
/FA {newpath tMatrix currentmatrix pop translate scale
  0 0 1 5 -2 roll arc tMatrix setmatrix stroke} bdef
/PA {newpath tMatrix currentmatrix pop	translate 0 0 moveto scale
  0 0 1 5 -2 roll arc closepath tMatrix setmatrix fill} bdef
/FAn {newpath tMatrix currentmatrix pop translate scale
  0 0 1 5 -2 roll arcn tMatrix setmatrix stroke} bdef
/PAn {newpath tMatrix currentmatrix pop translate 0 0 moveto scale
  0 0 1 5 -2 roll arcn closepath tMatrix setmatrix fill} bdef
/vradius 0 def /hradius 0 def /lry 0 def
/lrx 0 def /uly 0 def /ulx 0 def /rad 0 def
/MRR {/vradius xdef /hradius xdef /lry xdef /lrx xdef /uly xdef
  /ulx xdef newpath tMatrix currentmatrix pop ulx hradius add uly
  vradius add translate hradius vradius scale 0 0 1 180 270 arc 
  tMatrix setmatrix lrx hradius sub uly vradius add translate
  hradius vradius scale 0 0 1 270 360 arc tMatrix setmatrix
  lrx hradius sub lry vradius sub translate hradius vradius scale
  0 0 1 0 90 arc tMatrix setmatrix ulx hradius add lry vradius sub
  translate hradius vradius scale 0 0 1 90 180 arc tMatrix setmatrix
  closepath} bdef
/FRR {MRR stroke } bdef
/PRR {MRR fill } bdef
/MlrRR {/lry xdef /lrx xdef /uly xdef /ulx xdef /rad lry uly sub 2 div def
  newpath tMatrix currentmatrix pop ulx rad add uly rad add translate
  rad rad scale 0 0 1 90 270 arc tMatrix setmatrix lrx rad sub lry rad
  sub translate rad rad scale 0 0 1 270 90 arc tMatrix setmatrix
  closepath} bdef
/FlrRR {MlrRR stroke } bdef
/PlrRR {MlrRR fill } bdef
/MtbRR {/lry xdef /lrx xdef /uly xdef /ulx xdef /rad lrx ulx sub 2 div def
  newpath tMatrix currentmatrix pop ulx rad add uly rad add translate
  rad rad scale 0 0 1 180 360 arc tMatrix setmatrix lrx rad sub lry rad
  sub translate rad rad scale 0 0 1 0 180 arc tMatrix setmatrix
  closepath} bdef
/FtbRR {MtbRR stroke } bdef
/PtbRR {MtbRR fill } bdef
/stri 6 array def /dtri 6 array def
/smat 6 array def /dmat 6 array def
/tmat1 6 array def /tmat2 6 array def /dif 3 array def
/asub {/ind2 exch def /ind1 exch def dup dup
  ind1 get exch ind2 get sub exch } bdef
/tri_to_matrix {
  2 0 asub 3 1 asub 4 0 asub 5 1 asub
  dup 0 get exch 1 get 7 -1 roll astore } bdef
/compute_transform {
  dmat dtri tri_to_matrix tmat1 invertmatrix 
  smat stri tri_to_matrix tmat2 concatmatrix } bdef
/ds {stri astore pop} bdef
/dt {dtri astore pop} bdef
/db {2 copy /cols xdef /rows xdef mul dup 3 mul string
  currentfile 
  3 index 0 eq {/ASCIIHexDecode filter}
  {/ASCII85Decode filter 3 index 2 eq {/RunLengthDecode filter} if }
  ifelse exch readstring pop
  dup 0 3 index getinterval /rbmap xdef
  dup 2 index dup getinterval /gbmap xdef
  1 index dup 2 mul exch getinterval /bbmap xdef pop pop}bdef
/it {gs np dtri aload pop moveto lineto lineto cp c
  cols rows 8 compute_transform 
  rbmap gbmap bbmap true 3 colorimage gr}bdef
/il {newpath moveto lineto stroke}bdef
currentdict end def
%%EndProlog

%%BeginSetup
MathWorks begin

0 cap

end
%%EndSetup

%%Page: 1 1
%%BeginPageSetup
%%PageBoundingBox:    26   186   585   606
MathWorks begin
bpage
%%EndPageSetup

%%BeginObject: obj1
bplot

/dpi2point 12 def
portraitMode 0312 7272 csm

    0     0  6719  5033 rc
85 dict begin %Colortable dictionary
/c0 { 0.000000 0.000000 0.000000 sr} bdef
/c1 { 1.000000 1.000000 1.000000 sr} bdef
/c2 { 0.900000 0.000000 0.000000 sr} bdef
/c3 { 0.000000 0.820000 0.000000 sr} bdef
/c4 { 0.000000 0.000000 0.800000 sr} bdef
/c5 { 0.910000 0.820000 0.320000 sr} bdef
/c6 { 1.000000 0.260000 0.820000 sr} bdef
/c7 { 0.000000 0.820000 0.820000 sr} bdef
c0
1 j
1 sg
   0    0 6720 5034 rf
6 w
0 4102 5208 0 0 -4102 873 4479 4 MP
PP
-5208 0 0 4102 5208 0 0 -4102 873 4479 5 MP stroke
4 w
DO
SO
6 w
0 sg
 873 4479 mt 6081 4479 L
 873  377 mt 6081  377 L
/c8 { 0.000000 0.000000 1.000000 sr} bdef
c8
 873 4479 mt  873  377 L
6081 4479 mt 6081  377 L
0 sg
 873 4479 mt 6081 4479 L
c8
 873 4479 mt  873  377 L
0 sg
 873 4479 mt  873 4426 L
 873  377 mt  873  429 L
%%IncludeResource: font Helvetica
/Helvetica /ISOLatin1Encoding 120 FMSR

 740 4624 mt 
(1940) s
1524 4479 mt 1524 4426 L
1524  377 mt 1524  429 L
1391 4624 mt 
(1950) s
2175 4479 mt 2175 4426 L
2175  377 mt 2175  429 L
2042 4624 mt 
(1960) s
2826 4479 mt 2826 4426 L
2826  377 mt 2826  429 L
2693 4624 mt 
(1970) s
3477 4479 mt 3477 4426 L
3477  377 mt 3477  429 L
3344 4624 mt 
(1980) s
4128 4479 mt 4128 4426 L
4128  377 mt 4128  429 L
3995 4624 mt 
(1990) s
4779 4479 mt 4779 4426 L
4779  377 mt 4779  429 L
4646 4624 mt 
(2000) s
5430 4479 mt 5430 4426 L
5430  377 mt 5430  429 L
5297 4624 mt 
(2010) s
6081 4479 mt 6081 4426 L
6081  377 mt 6081  429 L
5948 4624 mt 
(2020) s
c8
 873 4479 mt  925 4479 L
6081 4479 mt 6028 4479 L
 602 4523 mt 
(-0.5) s
 873 2428 mt  925 2428 L
6081 2428 mt 6028 2428 L
 772 2472 mt 
(0) s
 873  377 mt  925  377 L
6081  377 mt 6028  377 L
 672  421 mt 
(0.5) s
0 sg
 873 4479 mt 6081 4479 L
 873  377 mt 6081  377 L
c8
 873 4479 mt  873  377 L
6081 4479 mt 6081  377 L
gs 873 377 5209 4103 rc
5 -84 5 115 6 23 5 -89 6 -98 5 -109 6 57 5 139 
5 29 6 -70 5 -135 6 -159 5 -58 6 -61 5 -115 5 53 
6 476 5 -109 6 161 5 5 6 -52 5 97 5 -96 6 -110 
5 -132 6 -89 5 -169 6 -124 5 -20 5 16 6 152 5 258 
6 -151 5 -215 6 127 5 -37 5 -93 6 -79 5 -91 6 -142 
5 -309 5 -56 6 -80 5 -251 6 -465 5 252 6 306 5 63 
5 -30 6 289 5 880 6 193 5 -109 6 273 5 212 5 -77 
6 -153 5 138 6 69 5 295 6 -60 5 219 5 -119 6 -119 
5 163 6 -31 5 -11 6 -116 5 -146 5 137 6 -46 5 -18 
6 -83 5 -88 6 -169 5 -122 5 -84 6 -17 5 123 6 54 
5 5 5 -35 6 12 5 -26 6 -100 5 -188 6 121 5 43 
5 12 6 -50 5 -81 6 -54 5 132 6 47 5 -41 5 69 
6 -121 5 -186 6 22 5 -101 6 63 5 90 5 -100 6 133 
5 -25 6 92 5 -22 6 -177 5 -129 5 -61 6 -89 5 -116 
6 20 5 -23 6 -227 5 -224 5 -225 6 -34 5 298 6 21 
5 26 5 -272 6 55 5 198 6 -42 5 461 6 242 5 106 
5 157 6 -187 5 145 6 9 5 -88 6 -220 5 -154 5 498 
6 74 5 89 6 97 5 -263 6 -10 5 393 5 99 6 3 
5 132 6 32 5 225 6 66 5 -37 5 -22 6 -101 5 129 
6 -47 5 -115 6 139 5 30 5 -98 6 -262 5 79 6 65 
5 191 5 -145 6 52 5 32 6 -111 5 -74 6 42 5 -157 
5 -130 6 -388 5 -2 6 254 5 345 6 -129 5 46 5 65 
6 -81 5 -154 6 -196 5 51 6 -57 5 100 5 -1 6 19 
5 51 6 -166 5 -149 6 -304 5 208 5 97 6 -101 5 -57 
6 13 5 -132 6 -90 5 -6 5 -54 6 215 5 13 6 -26 
5 70 5 90 6 -161 5 78 6 -80 5 -39 6 36 5 -84 
5 48 6 -86 5 -64 6 -71 5 -60 6 -36 5 -83 5 -30 
6 95 5 73 6 71 5 27 6 -59 5 80 5 15 6 6 
5 190 6 117 5 60 6 -18 5 5 5 43 6 6 5 -8 
6 -22 5 35 6 8 5 12 5 103 6 -38 5 -21 6 48 
5 -101 5 -73 6 97 5 28 6 6 5 -38 6 101 5 -47 
5 26 6 92 5 70 6 -256 5 -6 6 41 5 28 5 59 
6 -68 5 3 6 26 5 48 6 -57 5 -89 5 -417 6 82 
5 -155 6 -82 5 151 6 245 5 401 5 36 6 -78 5 -118 
6 26 5 -60 6 152 5 162 5 -77 6 113 5 35 6 23 
5 -154 5 -75 6 -98 5 -113 6 -87 5 60 6 -85 5 -91 
5 -55 6 119 5 -108 6 -18 5 121 6 63 5 -188 5 138 
6 92 5 -78 6 -89 3997 2648 300 MP stroke
5 -124 6 91 5 579 5 565 6 182 5 -199 6 -79 5 -129 
6 46 5 96 5 -118 6 -202 5 -198 6 -23 5 -96 6 52 
5 165 5 -41 6 120 5 -59 6 37 5 -72 5 -219 6 -191 
5 29 6 -152 5 -196 6 4 5 140 5 133 6 -35 5 -41 
6 -47 5 27 6 83 5 -163 5 -132 6 78 5 -4 6 77 
5 9 6 -299 5 101 5 135 6 68 5 45 6 34 5 279 
6 3 5 51 5 96 6 26 5 -73 6 152 5 26 6 -22 
5 -115 5 -102 6 -119 5 -46 6 -113 5 -36 5 -154 6 -302 
5 -425 6 13 5 47 6 307 5 48 5 -170 6 141 5 122 
6 243 5 -9 6 -85 5 -37 5 419 6 20 5 149 6 20 
5 118 6 -8 5 -122 5 187 6 48 5 104 6 -138 5 -82 
6 -67 5 -99 5 -186 6 -215 5 -148 6 108 5 451 6 -109 
5 -66 5 -124 6 61 5 182 6 -11 5 -155 5 -5 6 -46 
5 137 6 -46 5 -49 6 97 5 -128 5 -56 6 252 5 154 
6 17 5 -271 6 36 5 17 5 -180 6 -161 5 23 6 67 
5 168 6 15 5 -22 5 103 6 59 5 96 6 -37 5 -14 
6 13 5 78 5 24 6 134 5 36 6 -146 5 14 6 143 
5 -93 5 36 6 -96 5 -24 6 35 5 -40 5 -36 6 -163 
5 -377 6 54 5 -63 6 -187 5 48 5 294 6 16 5 -99 
6 -256 5 -57 6 -196 5 -403 5 -335 6 278 5 -131 6 -69 
5 470 6 192 5 511 5 -3 6 145 5 201 6 -152 5 136 
6 -53 5 296 5 298 6 -154 5 -92 6 121 5 -59 6 91 
5 117 5 77 6 76 5 150 6 -48 5 -101 5 -216 6 -13 
5 46 6 -156 5 27 6 -23 5 31 5 -53 6 -106 5 -74 
6 -186 5 -271 6 177 5 80 5 -107 6 68 5 23 6 92 
5 61 6 -143 5 -108 5 -160 6 -169 5 -265 6 11 5 -81 
6 -231 5 -132 5 0 6 33 5 499 6 145 5 -62 6 154 
5 34 5 232 6 -20 5 -35 6 -16 5 33 5 198 6 231 
5 -131 6 -70 5 113 6 33 5 179 5 -40 6 -59 5 -85 
6 -128 5 96 6 25 5 -91 5 -87 6 -286 5 83 6 198 
5 32 6 -107 5 141 5 16 6 -46 5 -53 6 -58 5 64 
6 -60 5 -57 5 -81 6 -137 5 -152 6 -14 5 -197 6 65 
5 152 5 286 6 28 5 53 6 228 5 -91 5 193 6 61 
5 -62 6 41 5 -24 6 -68 5 -123 5 -64 6 18 5 238 
6 -47 5 -26 6 23 5 -15 5 -88 6 87 5 1 6 -53 
5 -39 6 65 5 -118 5 56 6 -21 5 -40 6 -54 5 -30 
6 -104 5 -54 5 44 6 24 5 -86 6 -91 5 95 6 37 
5 -61 5 -168 6 50 2375 2704 300 MP stroke
5 -33 6 -134 5 -153 5 -253 6 152 5 71 6 -90 5 -64 
6 530 5 337 5 166 6 16 5 -34 6 176 5 -18 6 -162 
5 -25 5 66 6 -138 5 59 6 75 5 -21 6 -88 5 -106 
5 -145 6 -185 5 -77 6 -110 5 130 6 145 5 -28 5 124 
6 -115 5 59 6 -18 5 77 6 197 5 79 5 -108 6 5 
5 39 6 201 5 45 5 -124 6 72 5 -39 6 -32 5 -80 
6 71 5 -123 5 -68 6 -85 5 -141 6 -83 5 -141 6 -74 
5 -74 5 -105 6 16 5 -31 6 10 5 -26 6 27 5 128 
5 290 6 195 5 258 6 -27 5 -25 6 -113 5 -52 5 -9 
6 224 5 120 6 -16 5 74 6 99 5 189 5 42 6 -153 
5 89 6 181 5 3 5 -236 6 12 5 150 6 -14 5 -228 
6 252 5 -124 5 67 6 -231 5 -188 6 61 5 -95 6 78 
5 -90 5 -28 6 -153 5 -112 6 -48 5 -64 6 -34 5 -116 
5 13 6 -98 5 -130 6 -40 5 -44 6 -58 5 -10 5 -60 
6 -62 5 236 6 42 5 -15 6 207 5 36 5 248 6 36 
5 76 6 2 5 -122 5 -89 6 125 5 104 6 21 5 -48 
6 -58 5 38 5 63 6 25 5 79 6 -100 5 -76 6 181 
5 69 5 -40 6 -145 5 -40 6 102 5 44 6 -25 5 115 
5 -74 6 -200 5 93 6 51 5 -107 6 -100 5 -183 5 384 
6 -26 5 -97 6 -93 5 4 6 -60 5 -83 5 -125 6 -23 
5 -123 6 -22 5 -113 5 -248 6 260 5 24 6 32 5 -30 
6 134 5 -56 5 15 6 206 5 -123 6 49 5 141 6 151 
5 -132 5 -178 6 -235 5 -77 6 170 5 105 6 115 5 62 
5 -109 6 193 5 132 6 -217 5 -127 6 69 5 149 5 240 
6 -161 1328 2475 194 MP stroke
gr

0 sg
 832 4546 mt 
( ) s
6041  443 mt 
( ) s
4 w
DO
SO
6 w
 873 4479 mt 6081 4479 L
/c9 { 0.000000 0.500000 0.000000 sr} bdef
c9
6081 4479 mt 6081  377 L
0 sg
 873 4479 mt  873 4426 L
 740 4624 mt 
(1940) s
1524 4479 mt 1524 4426 L
1391 4624 mt 
(1950) s
2175 4479 mt 2175 4426 L
2042 4624 mt 
(1960) s
2826 4479 mt 2826 4426 L
2693 4624 mt 
(1970) s
3477 4479 mt 3477 4426 L
3344 4624 mt 
(1980) s
4128 4479 mt 4128 4426 L
3995 4624 mt 
(1990) s
4779 4479 mt 4779 4426 L
4646 4624 mt 
(2000) s
5430 4479 mt 5430 4426 L
5297 4624 mt 
(2010) s
6081 4479 mt 6081 4426 L
5948 4624 mt 
(2020) s
c9
6081 4479 mt 6028 4479 L
6115 4523 mt 
(-4) s
6081 2428 mt 6028 2428 L
6115 2472 mt 
(-2) s
6081  377 mt 6028  377 L
6115  421 mt 
(0) s
gs 873 377 5209 4103 rc
5 -31 5 -103 6 -246 5 -82 6 -41 5 92 6 113 5 41 
5 -10 6 -51 5 -93 6 62 5 51 6 -123 5 215 5 195 
6 164 5 72 6 -61 5 -41 6 -41 5 -31 5 -123 6 -31 
5 31 6 10 5 -92 6 -41 5 -123 5 -62 6 267 5 133 
6 -41 5 10 6 0 5 -123 5 -20 6 -11 5 -41 6 -143 
5 -369 5 -216 6 -646 5 -492 6 82 5 113 6 -287 5 -298 
5 298 6 502 5 964 6 154 5 21 6 102 5 31 5 -62 
6 41 5 93 6 82 5 51 6 205 5 144 5 -31 6 -10 
5 -62 6 10 5 -10 6 0 5 -51 5 82 6 -51 5 41 
6 30 5 -41 6 -10 5 10 5 0 6 21 5 92 6 -41 
5 -41 5 -41 6 -31 5 0 6 -20 5 20 6 52 5 30 
5 -20 6 -10 5 41 6 143 5 62 6 41 5 -41 5 -21 
6 0 5 -61 6 -72 5 0 6 10 5 31 5 61 6 -20 
5 -51 6 10 5 -133 6 -82 5 -31 5 -21 6 -41 5 -61 
6 0 5 -93 6 62 5 51 5 51 6 -51 5 -72 6 -61 
5 -72 5 -102 6 164 5 41 6 -164 5 51 6 -21 5 72 
5 -31 6 -82 5 62 6 41 5 451 6 -41 5 21 5 30 
6 -10 5 51 6 11 5 -93 6 11 5 92 5 -10 6 -31 
5 -21 6 41 5 62 6 20 5 11 5 -113 6 -103 5 154 
6 72 5 82 6 61 5 -92 5 -154 6 -41 5 21 6 61 
5 -10 5 -31 6 0 5 -51 6 -72 5 -82 6 -61 5 41 
5 82 6 123 5 123 6 72 5 20 6 0 5 -10 5 -31 
6 41 5 21 6 0 5 20 6 10 5 -20 5 20 6 -51 
5 -10 6 0 5 -10 6 10 5 -21 5 0 6 -41 5 -20 
6 0 5 10 6 -10 5 -31 5 21 6 10 5 10 6 -10 
5 10 5 41 6 -20 5 -11 6 11 5 30 6 21 5 -10 
5 -11 6 31 5 51 6 -20 5 -10 6 -11 5 -30 5 -21 
6 0 5 10 6 -10 5 -31 6 -20 5 10 5 51 6 -10 
5 -10 6 -31 5 -51 6 -31 5 31 5 92 6 -41 5 -72 
6 -10 5 21 6 -41 5 102 5 113 6 -113 5 -82 6 -72 
5 -30 5 10 6 154 5 0 6 -72 5 -62 6 -20 5 -31 
5 -20 6 -41 5 10 6 -21 5 -20 6 31 5 41 5 0 
6 10 5 -62 6 -51 5 -82 6 -82 5 -82 5 -174 6 30 
5 62 6 113 5 133 6 82 5 41 5 0 6 21 5 102 
6 0 5 -82 6 -31 5 -10 5 41 6 31 5 -10 6 -21 
5 -20 5 10 6 41 5 72 6 -52 5 -102 6 -62 5 -51 
5 51 6 134 5 -185 6 -21 5 -51 6 10 5 0 5 -92 
6 51 5 -41 6 31 3997 1597 300 MP stroke
5 10 6 -41 5 123 5 -30 6 0 5 -62 6 -10 5 20 
6 -10 5 -61 5 -21 6 -92 5 -123 6 92 5 10 6 72 
5 -154 5 185 6 72 5 10 6 -205 5 -103 5 62 6 51 
5 -31 6 -20 5 102 6 -71 5 -41 5 -11 6 0 5 31 
6 154 5 154 6 30 5 -82 5 -92 6 82 5 -123 6 -390 
5 -71 6 51 5 215 5 41 6 -41 5 82 6 -92 5 62 
6 276 5 -20 5 -10 6 30 5 52 6 -113 5 -400 6 0 
5 -154 5 -102 6 -62 5 -215 6 -164 5 -318 5 10 6 -82 
5 82 6 431 5 82 6 -277 5 61 5 82 6 339 5 -10 
6 -411 5 154 6 472 5 287 5 -20 6 -349 5 -267 6 431 
5 -51 6 -339 5 -10 5 -205 6 297 5 267 6 -256 5 246 
6 174 5 -72 5 -564 6 -51 5 31 6 677 5 307 6 -143 
5 10 5 92 6 -41 5 174 6 -20 5 31 5 0 6 123 
5 20 6 62 5 72 6 -62 5 103 5 -21 6 103 5 -31 
6 -62 5 72 6 -123 5 41 5 41 6 10 5 21 6 -31 
5 -41 6 -72 5 21 5 -31 6 41 5 -92 6 -31 5 0 
6 -72 5 10 5 -61 6 -41 5 -21 6 165 5 10 6 -52 
5 -174 5 -72 6 -10 5 -10 6 -267 5 -61 5 -93 6 -123 
5 41 6 -10 5 21 6 102 5 21 5 -72 6 -144 5 62 
6 164 5 -185 6 -225 5 51 5 246 6 31 5 513 6 277 
5 174 6 10 5 -41 5 123 6 62 5 10 6 -72 5 31 
6 -154 5 51 5 -61 6 -195 5 154 6 61 5 31 6 -10 
5 -62 5 93 6 -11 5 0 6 -102 5 -21 5 21 6 -21 
5 -133 6 -21 5 52 6 41 5 -10 5 -62 6 41 5 -82 
6 -92 5 10 6 31 5 -62 5 -20 6 51 5 10 6 21 
5 -113 6 -51 5 -62 5 -72 6 -102 5 154 6 30 5 0 
6 -10 5 359 5 195 6 -103 5 0 6 82 5 -61 6 -103 
5 21 5 31 6 10 5 -21 6 21 5 133 5 41 6 -10 
5 82 6 -10 5 20 6 -92 5 -51 5 -41 6 71 5 -71 
6 20 5 62 6 -52 5 31 5 0 6 21 5 41 6 30 
5 -71 6 92 5 -51 5 -52 6 41 5 31 6 -31 5 -10 
6 0 5 0 5 -72 6 21 5 -21 6 11 5 92 6 92 
5 82 5 0 6 10 5 11 6 51 5 51 5 62 6 20 
5 -20 6 -10 5 -21 6 -20 5 0 5 -11 6 11 5 20 
6 0 5 10 6 -10 5 0 5 0 6 -10 5 -10 6 -11 
5 -10 6 -20 5 -11 5 0 6 -10 5 0 6 -20 5 30 
6 -61 5 -11 5 0 6 -20 5 -10 6 -41 5 -31 6 -21 
5 -30 5 -31 6 -10 2375 1094 300 MP stroke
5 0 6 20 5 -31 5 0 6 0 5 0 6 0 5 -30 
6 20 5 31 5 41 6 0 5 -10 6 -21 5 -41 6 10 
5 41 5 11 6 -21 5 -20 6 -41 5 -21 6 -41 5 0 
5 21 6 30 5 -20 6 -41 5 51 6 -41 5 -10 5 0 
6 -10 5 71 6 -10 5 -20 6 51 5 31 5 0 6 -11 
5 52 6 0 5 51 5 31 6 -11 5 -41 6 -92 5 -31 
6 0 5 -20 5 -10 6 -31 5 31 6 -41 5 -41 6 -123 
5 -72 5 -21 6 21 5 -21 6 -164 5 10 6 216 5 123 
5 82 6 92 5 -20 6 20 5 -61 6 10 5 0 5 -31 
6 82 5 103 6 71 5 -30 6 71 5 11 5 -21 6 21 
5 51 6 10 5 -61 5 0 6 10 5 21 6 -11 5 -10 
6 31 5 10 5 -10 6 0 5 0 6 -21 5 21 6 -82 
5 20 5 -31 6 -10 5 -31 6 11 5 -41 6 10 5 20 
5 0 6 -30 5 -31 6 -10 5 10 6 41 5 -31 5 -20 
6 71 5 -20 6 31 5 123 6 20 5 21 5 -31 6 -10 
5 -31 6 -51 5 -11 5 21 6 -41 5 0 6 20 5 -10 
6 0 5 -10 5 20 6 -51 5 -10 6 10 5 0 6 -10 
5 -10 5 0 6 30 5 41 6 41 5 31 6 31 5 -51 
5 -11 6 -20 5 -21 6 0 5 -20 6 -51 5 -52 5 11 
6 20 5 10 6 -30 5 0 6 -11 5 -61 5 -21 6 0 
5 -20 6 -10 5 -11 5 31 6 21 5 -11 6 -20 5 31 
6 -11 5 11 5 51 6 31 5 51 6 10 5 41 6 -20 
5 -41 5 -72 6 -10 5 20 6 21 5 0 6 -11 5 21 
5 31 6 10 5 -21 6 -30 5 20 6 10 5 31 5 31 
6 10 1328 951 194 MP stroke
gr

1 sg
0 390 2457 0 0 -390 2247 4418 4 MP
PP
-2457 0 0 390 2457 0 0 -390 2247 4418 5 MP stroke
4 w
DO
SO
6 w
0 sg
2247 4418 mt 4704 4418 L
2247 4028 mt 4704 4028 L
2247 4418 mt 2247 4028 L
4704 4418 mt 4704 4028 L
2247 4418 mt 4704 4418 L
2247 4418 mt 2247 4028 L
2247 4418 mt 4704 4418 L
2247 4028 mt 4704 4028 L
2247 4418 mt 2247 4028 L
4704 4418 mt 4704 4028 L
2715 4178 mt 
(S&P1500 cyclical component) s
gs 2247 4028 2458 391 rc
c8
360 0 2319 4136 2 MP stroke
gr

c8
0 sg
2715 4353 mt 
(Moodys baa-aaa corporate spread) s
gs 2247 4028 2458 391 rc
c9
360 0 2319 4309 2 MP stroke
gr

c9

end %%Color Dict

eplot
%%EndObject

epage
end

showpage

%%Trailer
%%EOF
