%!PS-Adobe-2.0 EPSF-2.0
%% This is a Stata generated postscript file
%%BoundingBox: 0 0 396 288
%%HiResBoundingBox: 0.000 0.000 396.000 288.000
%%DocumentNeededResources: font Helvetica
/xratio 0.012375 def
/yratio 0.012375 def
/Sbgfill {
	/y1 exch def
	/x1 exch def
	/y0 exch def
	/x0 exch def
	x0 y0 moveto
	x0 y1 lineto x1 y1 lineto x1 y0 lineto x0 y0 lineto
	fill
} def
/Spt {
	yratio mul
	/yp exch def
	xratio mul
	/xp exch def
	Slrgb setrgbcolor
	newpath
	xp yp moveto
	xp Slw add yp
	lineto
	currentlinecap
	1 setlinecap
	stroke
	setlinecap
} def
/Sln {
	yratio mul
	/y1p exch def
	xratio mul
	/x1p exch def
	yratio mul
	/y0p exch def
	xratio mul
	/x0p exch def
	Slw setlinewidth
	Slrgb setrgbcolor
	x0p y0p M x1p y1p lineto S
} def
/Scrv {
	yratio mul
	/y3p exch def
	xratio mul
	/x3p exch def
	yratio mul
	/y2p exch def
	xratio mul
	/x2p exch def
	yratio mul
	/y1p exch def
	xratio mul
	/x1p exch def
	Slw setlinewidth
	Slrgb setrgbcolor
	x1p y1p x2p y2p x3p y3p curveto
	stroke
} def
/Stxtl {
	/sp exch def
	yratio mul
	/sizep exch def
	dup
	/anglep exch def
	0 exch sub
	/angle2p exch def
	yratio mul
	/y0p exch def
	xratio mul
	/x0p exch def
	Strgb setrgbcolor
	x0p y0p M anglep rotate sizep fntsize sp show stroke angle2p rotate
} def
/Stxtc {
	/sp exch def
	yratio mul
	/sizep exch def
	dup
	/anglep exch def
	0 exch sub
	/angle2p exch def
	yratio mul
	/y0p exch def
	xratio mul
	/x0p exch def
	Strgb setrgbcolor
	x0p y0p M anglep rotate sizep fntsize sp stringwidth exch -2 div exch rm sp show stroke angle2p rotate
} def
/Stxtr {
	/sp exch def
	yratio mul
	/sizep exch def
	dup
	/anglep exch def
	0 exch sub
	/angle2p exch def
	yratio mul
	/y0p exch def
	xratio mul
	/x0p exch def
	Strgb setrgbcolor
	x0p y0p M anglep rotate sizep fntsize sp stringwidth 1 index -1 mul exch rm pop sp show stroke angle2p rotate
} def
/Srect {
	/sfill exch def
	yratio mul
	/y1 exch def
	xratio mul
	/x1 exch def
	yratio mul
	/y0 exch def
	xratio mul
	/x0 exch def
	sfill 1 eq {
		Ssrgb setrgbcolor
		x0 y0 moveto
		x0 y1 lineto x1 y1 lineto x1 y0 lineto x0 y0 lineto
		fill
	} if
	Slw setlinewidth
	Slrgb setrgbcolor
	x0 y0 moveto
	x0 y1 lineto x1 y1 lineto x1 y0 lineto x0 y0 lineto
	stroke
} def
/Sellipse {
	/sfill exch def
	yratio mul
	/yrad exch def
	xratio mul
	/xrad exch def
	yratio mul
	/y exch def
	xratio mul
	/x exch def
	sfill 1 eq {
		Ssrgb setrgbcolor
		/savematrix matrix currentmatrix def
		x y translate
		xrad yrad scale
		0 0 1 0 360 arc
		savematrix setmatrix
		fill
	} if
	Slw setlinewidth
	Slrgb setrgbcolor
		/savematrix matrix currentmatrix def
		x y translate
		xrad yrad scale
		0 0 1 0 360 arc
		savematrix setmatrix
	stroke
} def
/Stri {
	/sfill exch def
	xratio mul
	/r exch def
	yratio mul
	/y0 exch def
	xratio mul
	/x0 exch def
	/xcen x0 def
	y0 r add
	/ytop exch def
	r 2 div
	y0 exch sub
	/ybot exch def
	r 3 sqrt 2 div mul dup
	xcen exch sub
	/xleft exch def
	xcen add
	/xright exch def
	sfill 1 eq {
		Ssrgb setrgbcolor
		xcen ytop moveto xright ybot lineto xleft ybot lineto xcen ytop lineto fill
	} if
	Slw setlinewidth
	Slrgb setrgbcolor
	xcen ytop moveto xright ybot lineto xleft ybot lineto xcen ytop lineto stroke
} def
/Soldtri {
	/sfill exch def
	xratio mul
	/r exch def
	yratio mul
	/y0 exch def
	xratio mul
	/x0 exch def
	x0 r sub
	/x1 exch def
	y0 r sub
	/y1 exch def
	x0 r add
	/x2 exch def
	y0 r sub
	/y2 exch def
	/x3 x0 def
	y0 r add
	/y3 exch def
	sfill 1 eq {
		Ssrgb setrgbcolor
		x1 y1 moveto x2 y2 lineto x3 y3 lineto x1 y1 lineto fill
	} if
	Slw setlinewidth
	Slrgb setrgbcolor
	x1 y1 moveto x2 y2 lineto x3 y3 lineto x1 y1 lineto stroke
} def
/Sdia {
	/sfill exch def
	xratio mul
	/r exch def
	yratio mul
	/y exch def
	xratio mul
	/x exch def
	x r sub
	/x0 exch def
	/y0 y def
	/x1 x def
	y r sub
	/y1 exch def
	x r add
	/x2 exch def
	/y2 y def
	/x3 x def
	y r add
	/y3 exch def
	sfill 1 eq  {
		Ssrgb setrgbcolor
		x0 y0 moveto x1 y1 lineto x2 y2 lineto x3 y3 lineto x0 y0 lineto fill
	} if
	Slw setlinewidth
	Slrgb setrgbcolor
	x0 y0 moveto x1 y1 lineto x2 y2 lineto x3 y3 lineto x0 y0 lineto stroke
} def
/Scc {
	/sfill exch def
	xratio mul
	/r0 exch def
	yratio mul
	/y0 exch def
	xratio mul
	/x0 exch def
	sfill 1 eq {
		Ssrgb setrgbcolor
		x0 y0 r0 0 360 arc fill
	} if
	Slw setlinewidth
	Slrgb setrgbcolor
	x0 y0 r0 0 360 arc stroke
} def
/Spie {
	/sfill exch def
	/a1 exch def
	/a0 exch def
	xratio mul
	/r exch def
	yratio mul
	/y exch def
	xratio mul
	/x exch def
	sfill 1 eq {
		Ssrgb setrgbcolor
		newpath x y moveto x y r a0 a1 arc closepath
		fill
	} if
	Slw setlinewidth
	Slrgb setrgbcolor
	newpath x y moveto x y r a0 a1 arc closepath
	stroke
} def
/Splu {
	xratio mul
	/r exch def
	yratio mul
	/y exch def
	xratio mul
	/x exch def
	x r sub
	/x0 exch def
	x r add
	/x1 exch def
	x0 y M x1 y L
	y r sub
	/y0 exch def
	y r add
	/y1 exch def
	x y0 M x y1 L
} def
/Scro {
	xratio mul
	/r exch def
	yratio mul
	/y exch def
	xratio mul
	/x exch def
	x r sub
	/x0 exch def
	y r sub
	/y0 exch def
	x r add
	/x1 exch def
	y r add
	/y1 exch def
	x0 y0 M x1 y1 L
	x r add
	/x0 exch def
	y r sub
	/y0 exch def
	x r sub
	/x1 exch def
	y r add
	/y1 exch def
	x0 y0 M x1 y1 L
} def
/Sm {
	yratio mul
	/y exch def
	xratio mul
	/x exch def
	x y M
} def
/Sl {
	yratio mul
	/y exch def
	xratio mul
	/x exch def
	x y L
} def
/SPl {
	yratio mul
	/y exch def
	xratio mul
	/x exch def
	x y PL
} def
/Lcs {
	currentlinecap
	1 setlinecap
} def
/Lcr {
	setlinecap
} def
/Sbp {
	newpath
} def
/Sep {
	/sfill exch def
	closepath
	sfill 1 eq  {
		Ssrgb setrgbcolor
		gsave
		fill
		grestore
	} if
	Slw setlinewidth
	Slrgb setrgbcolor
	Lcs
	stroke
	Lcr
} def
/cp {currentpoint} def 
/M {moveto} def 
/rm {rmoveto} def 
/S {stroke} def 
/L {Slw setlinewidth Slrgb setrgbcolor lineto Lcs S Lcr} def 
/PL {Slw setlinewidth Slrgb setrgbcolor lineto} def 
/MF-Helvetica {
  /newfontname exch def
  /fontname exch def
  /fontdict fontname findfont def
  /newfont fontdict maxlength dict def
  fontdict {
  exch dup /FID eq {pop pop} {exch newfont 3 1 roll put} ifelse
  } forall
  newfont /FontName newfontname put
  newfont /Encoding ISOLatin1Encoding put
  newfontname newfont definefont pop
} def
/Helvetica /Helvetica-0 MF-Helvetica
/Slw 0.120 def
0.918 0.949 0.953 setrgbcolor
0 0 396.000 288.000 Sbgfill
/Slrgb {1.000 1.000 1.000} def
/Strgb {1.000 1.000 1.000} def
/Ssrgb {1.000 1.000 1.000} def
/Ssrgb {0.918 0.949 0.953} def
/Slw 0.576 def
/Slrgb {0.918 0.949 0.953} def
0 0 31999 23272 1 Srect
/Ssrgb {1.000 1.000 1.000} def
/Slrgb {1.000 1.000 1.000} def
3158 5223 28841 22457 1 Srect
/Slrgb {0.000 0.000 0.000} def
/Strgb {0.000 0.000 0.000} def
/Slw 0.864 def
/Slrgb {0.918 0.949 0.953} def
3158 5735 28841 5735 Sln
/Slw 0.576 def
/Slrgb {0.000 0.000 0.000} def
/Slw 0.864 def
/Slrgb {0.918 0.949 0.953} def
3158 11138 28841 11138 Sln
/Slw 0.576 def
/Slrgb {0.000 0.000 0.000} def
/Slw 0.864 def
/Slrgb {0.918 0.949 0.953} def
3158 16542 28841 16542 Sln
/Slw 0.576 def
/Slrgb {0.000 0.000 0.000} def
/Slw 0.864 def
/Slrgb {0.918 0.949 0.953} def
3158 21945 28841 21945 Sln
/Slw 0.576 def
/Slrgb {0.000 0.000 0.000} def
/Slw 0.864 def
/Slrgb {0.102 0.278 0.435} def
3669 10516 Sm
3691 10732 Sl
3691 10732 Sm
3713 10489 Sl
3713 10489 Sm
3735 10570 Sl
3735 10570 Sm
3757 10327 Sl
3757 10327 Sm
3779 10165 Sl
3779 10165 Sm
3801 10111 Sl
3801 10111 Sm
3822 9976 Sl
3822 9976 Sm
3844 10246 Sl
3844 10246 Sm
3866 10597 Sl
3866 10597 Sm
3888 10813 Sl
3888 10813 Sm
3910 11246 Sl
3910 11246 Sm
3932 11219 Sl
3932 11219 Sm
3954 11354 Sl
3954 11354 Sm
3976 11273 Sl
3976 11273 Sm
3998 11489 Sl
3998 11489 Sm
4019 11516 Sl
4019 11516 Sm
4041 11165 Sl
4041 11165 Sm
4063 11624 Sl
4063 11624 Sm
4085 11381 Sl
4085 11381 Sm
4107 10922 Sl
4107 10922 Sm
4129 10976 Sl
4129 10976 Sm
4151 11489 Sl
4151 11489 Sm
4173 11948 Sl
4173 11948 Sm
4194 12110 Sl
4194 12110 Sm
4216 12056 Sl
4216 12056 Sm
4238 12408 Sl
4238 12408 Sm
4260 12408 Sl
4260 12408 Sm
4282 12245 Sl
4282 12245 Sm
4304 12164 Sl
4304 12164 Sm
4326 12110 Sl
4326 12110 Sm
4348 12543 Sl
4348 12543 Sm
4369 12245 Sl
4369 12245 Sm
4391 12489 Sl
4391 12489 Sm
4413 11894 Sl
4413 11894 Sm
4435 11435 Sl
4435 11435 Sm
4457 12110 Sl
4457 12110 Sm
4479 11840 Sl
4479 11840 Sm
4501 11732 Sl
4501 11732 Sm
4523 11111 Sl
4523 11111 Sm
4545 10489 Sl
4545 10489 Sm
4566 10840 Sl
4566 10840 Sm
4588 10840 Sl
4588 10840 Sm
4610 10840 Sl
4610 10840 Sm
4632 10651 Sl
4632 10651 Sm
4654 10624 Sl
4654 10624 Sm
4676 10840 Sl
4676 10840 Sm
4698 10976 Sl
4698 10976 Sm
4720 10976 Sl
4720 10976 Sm
4741 10868 Sl
4741 10868 Sm
4763 11030 Sl
4763 11030 Sm
4785 11003 Sl
4785 11003 Sm
4807 11165 Sl
4807 11165 Sm
4829 11300 Sl
4829 11300 Sm
4851 11678 Sl
4851 11678 Sm
4873 11948 Sl
4873 11948 Sm
4895 11840 Sl
4895 11840 Sm
4916 12083 Sl
4916 12083 Sm
4938 11975 Sl
4938 11975 Sm
4960 11921 Sl
4960 11921 Sm
4982 11543 Sl
4982 11543 Sm
5004 11273 Sl
5004 11273 Sm
5026 11084 Sl
5026 11084 Sm
5048 11003 Sl
5048 11003 Sm
5070 10949 Sl
5070 10949 Sm
5092 10678 Sl
5092 10678 Sm
5113 10381 Sl
5113 10381 Sm
5135 10435 Sl
5135 10435 Sm
5157 10543 Sl
5157 10543 Sm
5179 10327 Sl
5179 10327 Sm
5201 10057 Sl
5201 10057 Sm
5223 9814 Sl
5223 9814 Sm
5245 9760 Sl
5245 9760 Sm
5267 9544 Sl
5267 9544 Sm
5288 9652 Sl
5288 9652 Sm
5310 9895 Sl
5310 9895 Sm
5332 9706 Sl
5332 9706 Sm
5354 9382 Sl
5354 9382 Sm
5376 9327 Sl
5376 9327 Sm
5398 9354 Sl
5398 9354 Sm
5420 9327 Sl
5420 9327 Sm
5442 9300 Sl
5442 9300 Sm
5464 9327 Sl
5464 9327 Sm
5485 9246 Sl
5485 9246 Sm
5507 9165 Sl
5507 9165 Sm
5529 9111 Sl
5529 9111 Sm
5551 9138 Sl
5551 9138 Sm
5573 9084 Sl
5573 9084 Sm
5595 8841 Sl
5595 8841 Sm
5617 8652 Sl
5617 8652 Sm
5639 8652 Sl
5639 8652 Sm
5660 8679 Sl
5660 8679 Sm
5682 8625 Sl
5682 8625 Sm
5704 8706 Sl
5704 8706 Sm
5726 8679 Sl
5726 8679 Sm
5748 8436 Sl
5748 8436 Sm
5770 8301 Sl
5770 8301 Sm
5792 8220 Sl
5792 8220 Sm
5814 8220 Sl
5814 8220 Sm
5835 8166 Sl
5835 8166 Sm
5857 8247 Sl
5857 8247 Sm
5879 8355 Sl
5879 8355 Sm
5901 8301 Sl
5901 8301 Sm
5923 8220 Sl
5923 8220 Sm
5945 8112 Sl
5945 8112 Sm
5967 8085 Sl
5967 8085 Sm
5989 8058 Sl
5989 8058 Sm
6011 8058 Sl
6011 8058 Sm
6032 8139 Sl
6032 8139 Sm
6054 8085 Sl
6054 8085 Sm
6076 8058 Sl
6076 8058 Sm
6098 8085 Sl
6098 8085 Sm
6120 8247 Sl
6120 8247 Sm
6142 8382 Sl
6142 8382 Sm
6164 8355 Sl
6164 8355 Sm
6186 8355 Sl
6186 8355 Sm
6207 8382 Sl
6207 8382 Sm
6229 8355 Sl
6229 8355 Sm
6251 8355 Sl
6251 8355 Sm
6273 8409 Sl
6273 8409 Sm
6295 8463 Sl
6295 8463 Sm
6317 8436 Sl
6317 8436 Sm
6339 8679 Sl
6339 8679 Sm
6361 8733 Sl
6361 8733 Sm
6382 8706 Sl
6382 8706 Sm
6404 8895 Sl
6404 8895 Sm
6426 8922 Sl
6426 8922 Sm
6448 9111 Sl
6448 9111 Sm
6470 9300 Sl
6470 9300 Sm
6492 9354 Sl
6492 9354 Sm
6514 9165 Sl
6514 9165 Sm
6536 9192 Sl
6536 9192 Sm
6558 9138 Sl
6558 9138 Sm
6579 8976 Sl
6579 8976 Sm
6601 8733 Sl
6601 8733 Sm
6623 8706 Sl
6623 8706 Sm
6645 8760 Sl
6645 8760 Sm
6667 9003 Sl
6667 9003 Sm
6689 9111 Sl
6689 9111 Sm
6711 9138 Sl
6711 9138 Sm
6733 9057 Sl
6733 9057 Sm
6754 9841 Sl
6754 9841 Sm
6776 10543 Sl
6776 10543 Sm
6798 11651 Sl
6798 11651 Sm
6820 11111 Sl
6820 11111 Sm
6842 11003 Sl
6842 11003 Sm
6864 11273 Sl
6864 11273 Sm
6886 12002 Sl
6886 12002 Sm
6908 13245 Sl
6908 13245 Sm
6930 13840 Sl
6930 13840 Sm
6951 13083 Sl
6951 13083 Sm
6973 14029 Sl
6973 14029 Sm
6995 15244 Sl
6995 15244 Sm
7017 16676 Sl
7017 16676 Sm
7039 16514 Sl
7039 16514 Sm
7061 19513 Sl
7061 19513 Sm
7083 16352 Sl
7083 16352 Sm
7105 15569 Sl
7105 15569 Sm
7126 16136 Sl
7126 16136 Sm
7148 20027 Sl
7148 20027 Sm
7170 20972 Sl
7170 20972 Sm
7192 20837 Sl
7192 20837 Sm
7214 20675 Sl
7214 20675 Sm
7236 14677 Sl
7236 14677 Sm
7258 13596 Sl
7258 13596 Sm
7280 14461 Sl
7280 14461 Sm
7301 15488 Sl
7301 15488 Sm
7323 16082 Sl
7323 16082 Sm
7345 15380 Sl
7345 15380 Sm
7367 16244 Sl
7367 16244 Sm
7389 17163 Sl
7389 17163 Sm
7411 17460 Sl
7411 17460 Sm
7433 14137 Sl
7433 14137 Sm
7455 12786 Sl
7455 12786 Sm
7477 11840 Sl
7477 11840 Sm
7498 12408 Sl
7498 12408 Sm
7520 13596 Sl
7520 13596 Sm
7542 14245 Sl
7542 14245 Sm
7564 15028 Sl
7564 15028 Sm
7586 14515 Sl
7586 14515 Sm
7608 12921 Sl
7608 12921 Sm
7630 11327 Sl
7630 11327 Sm
7652 11489 Sl
7652 11489 Sm
7673 10976 Sl
7673 10976 Sm
7695 11246 Sl
7695 11246 Sm
7717 11489 Sl
7717 11489 Sm
7739 11786 Sl
7739 11786 Sm
7761 12651 Sl
7761 12651 Sm
7783 12786 Sl
7783 12786 Sm
7805 12489 Sl
7805 12489 Sm
7827 12516 Sl
7827 12516 Sm
7848 12272 Sl
7848 12272 Sm
7870 11705 Sl
7870 11705 Sm
7892 11840 Sl
7892 11840 Sm
7914 12570 Sl
7914 12570 Sm
7936 12408 Sl
7936 12408 Sm
7958 11921 Sl
7958 11921 Sm
7980 11570 Sl
7980 11570 Sm
8002 11435 Sl
8002 11435 Sm
8024 11084 Sl
8024 11084 Sm
8045 10976 Sl
8045 10976 Sm
8067 11192 Sl
8067 11192 Sm
8089 11030 Sl
8089 11030 Sm
8111 10759 Sl
8111 10759 Sm
8133 10138 Sl
8133 10138 Sm
8155 9733 Sl
8155 9733 Sm
8177 9976 Sl
8177 9976 Sm
8199 10111 Sl
8199 10111 Sm
8220 10246 Sl
8220 10246 Sm
8242 10219 Sl
8242 10219 Sm
8264 10084 Sl
8264 10084 Sm
8286 9868 Sl
8286 9868 Sm
8308 9625 Sl
8308 9625 Sm
8330 9409 Sl
8330 9409 Sm
8352 9436 Sl
8352 9436 Sm
8374 9598 Sl
8374 9598 Sm
8396 9490 Sl
8396 9490 Sm
8417 9273 Sl
8417 9273 Sm
8439 9409 Sl
8439 9409 Sm
8461 9571 Sl
8461 9571 Sm
8483 9814 Sl
8483 9814 Sm
8505 10192 Sl
8505 10192 Sm
8527 10219 Sl
8527 10219 Sm
8549 10273 Sl
8549 10273 Sm
8571 10813 Sl
8571 10813 Sm
8592 11813 Sl
8592 11813 Sm
8614 12705 Sl
8614 12705 Sm
8636 12543 Sl
8636 12543 Sm
8658 13083 Sl
8658 13083 Sm
8680 13218 Sl
8680 13218 Sm
8702 14056 Sl
8702 14056 Sm
8724 14299 Sl
8724 14299 Sm
8746 13407 Sl
8746 13407 Sm
8767 13813 Sl
8767 13813 Sm
8789 12245 Sl
8789 12245 Sm
8811 11975 Sl
8811 11975 Sm
8833 12326 Sl
8833 12326 Sm
8855 11705 Sl
8855 11705 Sm
8877 11489 Sl
8877 11489 Sm
8899 11651 Sl
8899 11651 Sm
8921 11435 Sl
8921 11435 Sm
8943 11273 Sl
8943 11273 Sm
8964 10868 Sl
8964 10868 Sm
8986 11489 Sl
8986 11489 Sm
9008 11408 Sl
9008 11408 Sm
9030 11111 Sl
9030 11111 Sm
9052 11003 Sl
9052 11003 Sm
9074 10922 Sl
9074 10922 Sm
9096 10462 Sl
9096 10462 Sm
9118 10408 Sl
9118 10408 Sm
9139 10732 Sl
9139 10732 Sm
9161 11084 Sl
9161 11084 Sm
9183 11084 Sl
9183 11084 Sm
9205 11057 Sl
9205 11057 Sm
9227 11030 Sl
9227 11030 Sm
9249 10922 Sl
9249 10922 Sm
9271 11165 Sl
9271 11165 Sm
9293 11543 Sl
9293 11543 Sm
9314 10922 Sl
9314 10922 Sm
9336 10895 Sl
9336 10895 Sm
9358 10705 Sl
9358 10705 Sm
9380 10516 Sl
9380 10516 Sm
9402 10408 Sl
9402 10408 Sm
9424 10435 Sl
9424 10435 Sm
9446 10138 Sl
9446 10138 Sm
9468 10165 Sl
9468 10165 Sm
9490 10003 Sl
9490 10003 Sm
9511 9814 Sl
9511 9814 Sm
9533 9814 Sl
9533 9814 Sm
9555 9895 Sl
9555 9895 Sm
9577 9895 Sl
9577 9895 Sm
9599 9868 Sl
9599 9868 Sm
9621 9922 Sl
9621 9922 Sm
9643 9922 Sl
9643 9922 Sm
9665 9949 Sl
9665 9949 Sm
9686 10003 Sl
9686 10003 Sm
9708 9679 Sl
9708 9679 Sm
9730 9625 Sl
9730 9625 Sm
9752 9625 Sl
9752 9625 Sm
9774 9598 Sl
9774 9598 Sm
9796 9571 Sl
9796 9571 Sm
9818 9733 Sl
9818 9733 Sm
9840 9706 Sl
9840 9706 Sm
9862 9706 Sl
9862 9706 Sm
9883 9679 Sl
9883 9679 Sm
9905 9625 Sl
9905 9625 Sm
9927 9679 Sl
9927 9679 Sm
9949 9706 Sl
9949 9706 Sm
9971 9436 Sl
9971 9436 Sm
9993 9273 Sl
9993 9273 Sm
10015 9111 Sl
10015 9111 Sm
10037 8976 Sl
10037 8976 Sm
10058 8895 Sl
10058 8895 Sm
10080 8868 Sl
10080 8868 Sm
10102 8760 Sl
10102 8760 Sm
10124 8760 Sl
10124 8760 Sm
10146 8814 Sl
10146 8814 Sm
10168 8760 Sl
10168 8760 Sm
10190 8760 Sl
10190 8760 Sm
10212 8652 Sl
10212 8652 Sm
10233 8544 Sl
10233 8544 Sm
10255 8382 Sl
10255 8382 Sm
10277 8328 Sl
10277 8328 Sm
10299 8274 Sl
10299 8274 Sm
10321 8166 Sl
10321 8166 Sm
10343 8058 Sl
10343 8058 Sm
10365 8031 Sl
10365 8031 Sm
10387 8004 Sl
10387 8004 Sm
10409 8004 Sl
10409 8004 Sm
10430 7977 Sl
10430 7977 Sm
10452 7923 Sl
10452 7923 Sm
10474 7868 Sl
10474 7868 Sm
10496 7814 Sl
10496 7814 Sm
10518 7787 Sl
10518 7787 Sm
10540 7787 Sl
10540 7787 Sm
10562 7760 Sl
10562 7760 Sm
10584 7625 Sl
10584 7625 Sm
10605 7571 Sl
10605 7571 Sm
10627 7517 Sl
10627 7517 Sm
10649 7490 Sl
10649 7490 Sm
10671 7409 Sl
10671 7409 Sm
10693 7301 Sl
10693 7301 Sm
10715 7166 Sl
10715 7166 Sm
10737 7058 Sl
10737 7058 Sm
10759 7004 Sl
10759 7004 Sm
10780 7004 Sl
10780 7004 Sm
10802 7004 Sl
10802 7004 Sm
10824 7085 Sl
10824 7085 Sm
10846 7112 Sl
10846 7112 Sm
10868 7193 Sl
10868 7193 Sm
10890 7220 Sl
10890 7220 Sm
10912 7139 Sl
10912 7139 Sm
10934 7139 Sl
10934 7139 Sm
10956 7220 Sl
10956 7220 Sm
10977 7301 Sl
10977 7301 Sm
10999 7247 Sl
10999 7247 Sm
11021 7247 Sl
11021 7247 Sm
11043 7274 Sl
11043 7274 Sm
11065 7355 Sl
11065 7355 Sm
11087 7436 Sl
11087 7436 Sm
11109 7463 Sl
11109 7463 Sm
11131 7517 Sl
11131 7517 Sm
11152 7436 Sl
11152 7436 Sm
11174 7382 Sl
11174 7382 Sm
11196 7409 Sl
11196 7409 Sm
11218 7490 Sl
11218 7490 Sm
11240 7544 Sl
11240 7544 Sm
11262 7517 Sl
11262 7517 Sm
11284 7517 Sl
11284 7517 Sm
11306 7571 Sl
11306 7571 Sm
11328 7625 Sl
11328 7625 Sm
11349 7598 Sl
11349 7598 Sm
11371 7409 Sl
11371 7409 Sm
11393 7301 Sl
11393 7301 Sm
11415 7247 Sl
11415 7247 Sm
11437 7355 Sl
11437 7355 Sm
11459 7382 Sl
11459 7382 Sm
11481 7517 Sl
11481 7517 Sm
11503 7598 Sl
11503 7598 Sm
11524 7733 Sl
11524 7733 Sm
11546 7760 Sl
11546 7760 Sm
11568 7733 Sl
11568 7733 Sm
11590 7814 Sl
11590 7814 Sm
11612 7760 Sl
11612 7760 Sm
11634 7733 Sl
11634 7733 Sm
11656 7787 Sl
11656 7787 Sm
11678 7868 Sl
11678 7868 Sm
11699 7841 Sl
11699 7841 Sm
11721 7814 Sl
11721 7814 Sm
11743 7760 Sl
11743 7760 Sm
11765 7760 Sl
11765 7760 Sm
11787 7706 Sl
11787 7706 Sm
11809 7544 Sl
11809 7544 Sm
11831 7517 Sl
11831 7517 Sm
11853 7517 Sl
11853 7517 Sm
11875 7436 Sl
11875 7436 Sm
11896 7463 Sl
11896 7463 Sm
11918 7517 Sl
11918 7517 Sm
11940 7544 Sl
11940 7544 Sm
11962 7409 Sl
11962 7409 Sm
11984 7274 Sl
11984 7274 Sm
12006 7220 Sl
12006 7220 Sm
12028 7220 Sl
12028 7220 Sm
12050 7166 Sl
12050 7166 Sm
12071 7112 Sl
12071 7112 Sm
12093 7085 Sl
12093 7085 Sm
12115 6950 Sl
12115 6950 Sm
12137 7031 Sl
12137 7031 Sm
12159 7112 Sl
12159 7112 Sm
12181 7220 Sl
12181 7220 Sm
12203 7328 Sl
12203 7328 Sm
12225 7409 Sl
12225 7409 Sm
12246 7409 Sl
12246 7409 Sm
12268 7382 Sl
12268 7382 Sm
12290 7355 Sl
12290 7355 Sm
12312 7355 Sl
12312 7355 Sm
12334 7382 Sl
12334 7382 Sm
12356 7355 Sl
12356 7355 Sm
12378 7220 Sl
12378 7220 Sm
12400 7274 Sl
12400 7274 Sm
12422 7247 Sl
12422 7247 Sm
12443 7247 Sl
12443 7247 Sm
12465 7220 Sl
12465 7220 Sm
12487 7274 Sl
12487 7274 Sm
12509 7274 Sl
12509 7274 Sm
12531 7166 Sl
12531 7166 Sm
12553 7220 Sl
12553 7220 Sm
12575 7193 Sl
12575 7193 Sm
12597 7058 Sl
12597 7058 Sm
12618 6977 Sl
12618 6977 Sm
12640 6950 Sl
12640 6950 Sm
12662 6869 Sl
12662 6869 Sm
12684 6923 Sl
12684 6923 Sm
12706 6977 Sl
12706 6977 Sm
12728 7301 Sl
12728 7301 Sm
12750 7382 Sl
12750 7382 Sm
12772 7328 Sl
12772 7328 Sm
12793 7517 Sl
12793 7517 Sm
12815 7463 Sl
12815 7463 Sm
12837 7382 Sl
12837 7382 Sm
12859 7490 Sl
12859 7490 Sm
12881 7517 Sl
12881 7517 Sm
12903 7490 Sl
12903 7490 Sm
12925 7409 Sl
12925 7409 Sm
12947 7328 Sl
12947 7328 Sm
12969 7328 Sl
12969 7328 Sm
12990 7382 Sl
12990 7382 Sm
13012 7409 Sl
13012 7409 Sm
13034 7301 Sl
13034 7301 Sm
13056 7328 Sl
13056 7328 Sm
13078 7247 Sl
13078 7247 Sm
13100 7220 Sl
13100 7220 Sm
13122 7139 Sl
13122 7139 Sm
13144 7193 Sl
13144 7193 Sm
13165 6977 Sl
13165 6977 Sm
13187 7031 Sl
13187 7031 Sm
13209 6977 Sl
13209 6977 Sm
13231 6977 Sl
13231 6977 Sm
13253 6977 Sl
13253 6977 Sm
13275 6950 Sl
13275 6950 Sm
13297 6977 Sl
13297 6977 Sm
13319 7058 Sl
13319 7058 Sm
13341 7031 Sl
13341 7031 Sm
13362 7004 Sl
13362 7004 Sm
13384 7058 Sl
13384 7058 Sm
13406 7085 Sl
13406 7085 Sm
13428 7085 Sl
13428 7085 Sm
13450 6923 Sl
13450 6923 Sm
13472 6950 Sl
13472 6950 Sm
13494 7085 Sl
13494 7085 Sm
13516 7139 Sl
13516 7139 Sm
13537 7085 Sl
13537 7085 Sm
13559 7112 Sl
13559 7112 Sm
13581 7301 Sl
13581 7301 Sm
13603 7220 Sl
13603 7220 Sm
13625 7409 Sl
13625 7409 Sm
13647 7679 Sl
13647 7679 Sm
13669 7896 Sl
13669 7896 Sm
13691 7814 Sl
13691 7814 Sm
13712 7814 Sl
13712 7814 Sm
13734 7841 Sl
13734 7841 Sm
13756 7679 Sl
13756 7679 Sm
13778 7733 Sl
13778 7733 Sm
13800 7679 Sl
13800 7679 Sm
13822 7923 Sl
13822 7923 Sm
13844 8139 Sl
13844 8139 Sm
13866 8463 Sl
13866 8463 Sm
13888 9030 Sl
13888 9030 Sm
13909 9057 Sl
13909 9057 Sm
13931 8625 Sl
13931 8625 Sm
13953 8571 Sl
13953 8571 Sm
13975 8625 Sl
13975 8625 Sm
13997 8571 Sl
13997 8571 Sm
14019 8382 Sl
14019 8382 Sm
14041 8058 Sl
14041 8058 Sm
14063 7950 Sl
14063 7950 Sm
14084 7841 Sl
14084 7841 Sm
14106 7923 Sl
14106 7923 Sm
14128 7841 Sl
14128 7841 Sm
14150 7814 Sl
14150 7814 Sm
14172 7760 Sl
14172 7760 Sm
14194 7760 Sl
14194 7760 Sm
14216 7679 Sl
14216 7679 Sm
14238 7436 Sl
14238 7436 Sm
14259 7328 Sl
14259 7328 Sm
14281 7301 Sl
14281 7301 Sm
14303 7382 Sl
14303 7382 Sm
14325 7517 Sl
14325 7517 Sm
14347 7517 Sl
14347 7517 Sm
14369 7652 Sl
14369 7652 Sm
14391 7625 Sl
14391 7625 Sm
14413 7625 Sl
14413 7625 Sm
14435 7706 Sl
14435 7706 Sm
14456 7841 Sl
14456 7841 Sm
14478 7787 Sl
14478 7787 Sm
14500 7760 Sl
14500 7760 Sm
14522 7950 Sl
14522 7950 Sm
14544 7923 Sl
14544 7923 Sm
14566 7923 Sl
14566 7923 Sm
14588 7896 Sl
14588 7896 Sm
14610 7787 Sl
14610 7787 Sm
14631 7923 Sl
14631 7923 Sm
14653 7814 Sl
14653 7814 Sm
14675 7760 Sl
14675 7760 Sm
14697 7841 Sl
14697 7841 Sm
14719 7896 Sl
14719 7896 Sm
14741 7896 Sl
14741 7896 Sm
14763 7787 Sl
14763 7787 Sm
14785 7733 Sl
14785 7733 Sm
14807 7625 Sl
14807 7625 Sm
14828 7571 Sl
14828 7571 Sm
14850 7517 Sl
14850 7517 Sm
14872 7544 Sl
14872 7544 Sm
14894 7652 Sl
14894 7652 Sm
14916 7679 Sl
14916 7679 Sm
14938 7571 Sl
14938 7571 Sm
14960 7517 Sl
14960 7517 Sm
14982 7490 Sl
14982 7490 Sm
15003 7490 Sl
15003 7490 Sm
15025 7598 Sl
15025 7598 Sm
15047 7679 Sl
15047 7679 Sm
15069 7733 Sl
15069 7733 Sm
15091 7652 Sl
15091 7652 Sm
15113 7652 Sl
15113 7652 Sm
15135 7652 Sl
15135 7652 Sm
15157 7652 Sl
15157 7652 Sm
15178 7652 Sl
15178 7652 Sm
15200 7571 Sl
15200 7571 Sm
15222 7625 Sl
15222 7625 Sm
15244 7625 Sl
15244 7625 Sm
15266 7598 Sl
15266 7598 Sm
15288 7517 Sl
15288 7517 Sm
15310 7436 Sl
15310 7436 Sm
15332 7382 Sl
15332 7382 Sm
15354 7301 Sl
15354 7301 Sm
15375 7193 Sl
15375 7193 Sm
15397 7166 Sl
15397 7166 Sm
15419 7112 Sl
15419 7112 Sm
15441 7112 Sl
15441 7112 Sm
15463 7085 Sl
15463 7085 Sm
15485 6923 Sl
15485 6923 Sm
15507 7004 Sl
15507 7004 Sm
15529 6950 Sl
15529 6950 Sm
15550 6950 Sl
15550 6950 Sm
15572 6923 Sl
15572 6923 Sm
15594 6923 Sl
15594 6923 Sm
15616 6896 Sl
15616 6896 Sm
15638 6842 Sl
15638 6842 Sm
15660 6815 Sl
15660 6815 Sm
15682 6788 Sl
15682 6788 Sm
15704 6761 Sl
15704 6761 Sm
15725 6734 Sl
15725 6734 Sm
15747 6734 Sl
15747 6734 Sm
15769 6734 Sl
15769 6734 Sm
15791 6707 Sl
15791 6707 Sm
15813 6734 Sl
15813 6734 Sm
15835 6734 Sl
15835 6734 Sm
15857 6788 Sl
15857 6788 Sm
15879 6815 Sl
15879 6815 Sm
15901 6788 Sl
15901 6788 Sm
15922 6788 Sl
15922 6788 Sm
15944 6734 Sl
15944 6734 Sm
15966 6680 Sl
15966 6680 Sm
15988 6653 Sl
15988 6653 Sm
16010 6599 Sl
16010 6599 Sm
16032 6653 Sl
16032 6653 Sm
16054 6815 Sl
16054 6815 Sm
16076 6950 Sl
16076 6950 Sm
16097 7085 Sl
16097 7085 Sm
16119 7112 Sl
16119 7112 Sm
16141 7139 Sl
16141 7139 Sm
16163 7139 Sl
16163 7139 Sm
16185 7355 Sl
16185 7355 Sm
16207 7598 Sl
16207 7598 Sm
16229 7841 Sl
16229 7841 Sm
16251 7868 Sl
16251 7868 Sm
16273 7814 Sl
16273 7814 Sm
16294 7868 Sl
16294 7868 Sm
16316 7679 Sl
16316 7679 Sm
16338 7679 Sl
16338 7679 Sm
16360 7679 Sl
16360 7679 Sm
16382 7652 Sl
16382 7652 Sm
16404 7571 Sl
16404 7571 Sm
16426 7652 Sl
16426 7652 Sm
16448 7760 Sl
16448 7760 Sm
16469 7625 Sl
16469 7625 Sm
16491 7490 Sl
16491 7490 Sm
16513 7733 Sl
16513 7733 Sm
16535 7544 Sl
16535 7544 Sm
16557 7625 Sl
16557 7625 Sm
16579 7733 Sl
16579 7733 Sm
16601 7787 Sl
16601 7787 Sm
16623 7787 Sl
16623 7787 Sm
16644 7868 Sl
16644 7868 Sm
16666 7733 Sl
16666 7733 Sm
16688 7896 Sl
16688 7896 Sm
16710 7950 Sl
16710 7950 Sm
16732 7760 Sl
16732 7760 Sm
16754 7950 Sl
16754 7950 Sm
16776 7841 Sl
16776 7841 Sm
16798 7706 Sl
16798 7706 Sm
16820 7463 Sl
16820 7463 Sm
16841 7517 Sl
16841 7517 Sm
16863 7490 Sl
16863 7490 Sm
16885 7706 Sl
16885 7706 Sm
16907 7679 Sl
16907 7679 Sm
16929 7787 Sl
16929 7787 Sm
16951 8139 Sl
16951 8139 Sm
16973 8193 Sl
16973 8193 Sm
16995 8139 Sl
16995 8139 Sm
17016 8166 Sl
17016 8166 Sm
17038 8247 Sl
17038 8247 Sm
17060 8301 Sl
17060 8301 Sm
17082 8031 Sl
17082 8031 Sm
17104 7868 Sl
17104 7868 Sm
17126 8085 Sl
17126 8085 Sm
17148 8085 Sl
17148 8085 Sm
17170 7814 Sl
17170 7814 Sm
17191 8328 Sl
17191 8328 Sm
17213 9273 Sl
17213 9273 Sm
17235 9246 Sl
17235 9246 Sm
17257 9246 Sl
17257 9246 Sm
17279 9327 Sl
17279 9327 Sm
17301 9733 Sl
17301 9733 Sm
17323 9463 Sl
17323 9463 Sm
17345 9273 Sl
17345 9273 Sm
17367 9111 Sl
17367 9111 Sm
17388 8976 Sl
17388 8976 Sm
17410 8679 Sl
17410 8679 Sm
17432 8733 Sl
17432 8733 Sm
17454 8760 Sl
17454 8760 Sm
17476 8895 Sl
17476 8895 Sm
17498 8841 Sl
17498 8841 Sm
17520 8679 Sl
17520 8679 Sm
17542 8760 Sl
17542 8760 Sm
17563 8787 Sl
17563 8787 Sm
17585 8544 Sl
17585 8544 Sm
17607 8328 Sl
17607 8328 Sm
17629 8436 Sl
17629 8436 Sm
17651 8274 Sl
17651 8274 Sm
17673 8247 Sl
17673 8247 Sm
17695 8355 Sl
17695 8355 Sm
17717 8490 Sl
17717 8490 Sm
17739 8436 Sl
17739 8436 Sm
17760 8085 Sl
17760 8085 Sm
17782 8031 Sl
17782 8031 Sm
17804 8085 Sl
17804 8085 Sm
17826 8031 Sl
17826 8031 Sm
17848 7760 Sl
17848 7760 Sm
17870 7760 Sl
17870 7760 Sm
17892 7733 Sl
17892 7733 Sm
17914 7977 Sl
17914 7977 Sm
17935 7814 Sl
17935 7814 Sm
17957 7787 Sl
17957 7787 Sm
17979 7868 Sl
17979 7868 Sm
18001 8031 Sl
18001 8031 Sm
18023 8436 Sl
18023 8436 Sm
18045 7923 Sl
18045 7923 Sm
18067 7760 Sl
18067 7760 Sm
18089 7896 Sl
18089 7896 Sm
18110 7490 Sl
18110 7490 Sm
18132 7571 Sl
18132 7571 Sm
18154 7382 Sl
18154 7382 Sm
18176 7409 Sl
18176 7409 Sm
18198 7571 Sl
18198 7571 Sm
18220 7896 Sl
18220 7896 Sm
18242 7787 Sl
18242 7787 Sm
18264 7814 Sl
18264 7814 Sm
18286 8274 Sl
18286 8274 Sm
18307 9003 Sl
18307 9003 Sm
18329 10354 Sl
18329 10354 Sm
18351 10435 Sl
18351 10435 Sm
18373 11084 Sl
18373 11084 Sm
18395 11219 Sl
18395 11219 Sm
18417 10624 Sl
18417 10624 Sm
18439 10138 Sl
18439 10138 Sm
18461 10570 Sl
18461 10570 Sm
18482 10732 Sl
18482 10732 Sm
18504 10354 Sl
18504 10354 Sm
18526 10165 Sl
18526 10165 Sm
18548 10219 Sl
18548 10219 Sm
18570 10489 Sl
18570 10489 Sm
18592 10543 Sl
18592 10543 Sm
18614 10516 Sl
18614 10516 Sm
18636 10624 Sl
18636 10624 Sm
18657 10300 Sl
18657 10300 Sm
18679 10057 Sl
18679 10057 Sm
18701 9895 Sl
18701 9895 Sm
18723 9192 Sl
18723 9192 Sm
18745 9165 Sl
18745 9165 Sm
18767 9138 Sl
18767 9138 Sm
18789 8949 Sl
18789 8949 Sm
18811 8490 Sl
18811 8490 Sm
18833 8355 Sl
18833 8355 Sm
18854 8382 Sl
18854 8382 Sm
18876 8814 Sl
18876 8814 Sm
18898 8760 Sl
18898 8760 Sm
18920 8652 Sl
18920 8652 Sm
18942 8490 Sl
18942 8490 Sm
18964 8517 Sl
18964 8517 Sm
18986 8328 Sl
18986 8328 Sm
19008 8328 Sl
19008 8328 Sm
19029 8247 Sl
19029 8247 Sm
19051 8004 Sl
19051 8004 Sm
19073 8112 Sl
19073 8112 Sm
19095 8031 Sl
19095 8031 Sm
19117 8085 Sl
19117 8085 Sm
19139 7896 Sl
19139 7896 Sm
19161 7787 Sl
19161 7787 Sm
19183 7706 Sl
19183 7706 Sm
19205 7760 Sl
19205 7760 Sm
19226 7787 Sl
19226 7787 Sm
19248 7896 Sl
19248 7896 Sm
19270 8004 Sl
19270 8004 Sm
19292 7679 Sl
19292 7679 Sm
19314 7868 Sl
19314 7868 Sm
19336 7706 Sl
19336 7706 Sm
19358 7625 Sl
19358 7625 Sm
19380 7896 Sl
19380 7896 Sm
19401 7841 Sl
19401 7841 Sm
19423 8112 Sl
19423 8112 Sm
19445 7950 Sl
19445 7950 Sm
19467 8139 Sl
19467 8139 Sm
19489 8301 Sl
19489 8301 Sm
19511 8355 Sl
19511 8355 Sm
19533 8679 Sl
19533 8679 Sm
19555 8679 Sl
19555 8679 Sm
19576 8760 Sl
19576 8760 Sm
19598 8706 Sl
19598 8706 Sm
19620 9165 Sl
19620 9165 Sm
19642 9057 Sl
19642 9057 Sm
19664 9300 Sl
19664 9300 Sm
19686 9327 Sl
19686 9327 Sm
19708 8949 Sl
19708 8949 Sm
19730 9760 Sl
19730 9760 Sm
19752 11543 Sl
19752 11543 Sm
19773 11624 Sl
19773 11624 Sm
19795 11489 Sl
19795 11489 Sm
19817 10003 Sl
19817 10003 Sm
19839 9814 Sl
19839 9814 Sm
19861 10273 Sl
19861 10273 Sm
19883 10922 Sl
19883 10922 Sm
19905 10246 Sl
19905 10246 Sm
19927 10949 Sl
19927 10949 Sm
19948 11732 Sl
19948 11732 Sm
19970 11192 Sl
19970 11192 Sm
19992 11165 Sl
19992 11165 Sm
20014 10273 Sl
20014 10273 Sm
20036 10138 Sl
20036 10138 Sm
20058 11273 Sl
20058 11273 Sm
20080 10570 Sl
20080 10570 Sm
20102 9652 Sl
20102 9652 Sm
20123 9598 Sl
20123 9598 Sm
20145 10354 Sl
20145 10354 Sm
20167 11597 Sl
20167 11597 Sm
20189 12002 Sl
20189 12002 Sm
20211 10922 Sl
20211 10922 Sm
20233 10895 Sl
20233 10895 Sm
20255 11786 Sl
20255 11786 Sm
20277 12002 Sl
20277 12002 Sm
20299 12164 Sl
20299 12164 Sm
20320 11435 Sl
20320 11435 Sm
20342 11651 Sl
20342 11651 Sm
20364 12786 Sl
20364 12786 Sm
20386 13002 Sl
20386 13002 Sm
20408 12786 Sl
20408 12786 Sm
20430 12813 Sl
20430 12813 Sm
20452 11975 Sl
20452 11975 Sm
20474 11543 Sl
20474 11543 Sm
20495 10976 Sl
20495 10976 Sm
20517 10813 Sl
20517 10813 Sm
20539 10543 Sl
20539 10543 Sm
20561 10138 Sl
20561 10138 Sm
20583 10138 Sl
20583 10138 Sm
20605 9084 Sl
20605 9084 Sm
20627 8787 Sl
20627 8787 Sm
20649 8922 Sl
20649 8922 Sm
20670 9003 Sl
20670 9003 Sm
20692 8976 Sl
20692 8976 Sm
20714 8922 Sl
20714 8922 Sm
20736 9652 Sl
20736 9652 Sm
20758 9814 Sl
20758 9814 Sm
20780 9571 Sl
20780 9571 Sm
20802 9787 Sl
20802 9787 Sm
20824 9679 Sl
20824 9679 Sm
20846 9787 Sl
20846 9787 Sm
20867 10354 Sl
20867 10354 Sm
20889 10489 Sl
20889 10489 Sm
20911 10300 Sl
20911 10300 Sm
20933 9273 Sl
20933 9273 Sm
20955 8949 Sl
20955 8949 Sm
20977 9165 Sl
20977 9165 Sm
20999 8922 Sl
20999 8922 Sm
21021 8706 Sl
21021 8706 Sm
21042 8787 Sl
21042 8787 Sm
21064 9192 Sl
21064 9192 Sm
21086 9598 Sl
21086 9598 Sm
21108 9679 Sl
21108 9679 Sm
21130 9679 Sl
21130 9679 Sm
21152 9652 Sl
21152 9652 Sm
21174 9544 Sl
21174 9544 Sm
21196 9354 Sl
21196 9354 Sm
21218 9625 Sl
21218 9625 Sm
21239 9571 Sl
21239 9571 Sm
21261 9490 Sl
21261 9490 Sm
21283 9625 Sl
21283 9625 Sm
21305 9787 Sl
21305 9787 Sm
21327 9517 Sl
21327 9517 Sm
21349 8976 Sl
21349 8976 Sm
21371 9003 Sl
21371 9003 Sm
21393 9192 Sl
21393 9192 Sm
21414 9679 Sl
21414 9679 Sm
21436 9273 Sl
21436 9273 Sm
21458 9463 Sl
21458 9463 Sm
21480 9490 Sl
21480 9490 Sm
21502 9733 Sl
21502 9733 Sm
21524 9409 Sl
21524 9409 Sm
21546 9165 Sl
21546 9165 Sm
21568 9111 Sl
21568 9111 Sm
21589 8949 Sl
21589 8949 Sm
21611 8922 Sl
21611 8922 Sm
21633 8976 Sl
21633 8976 Sm
21655 8949 Sl
21655 8949 Sm
21677 8787 Sl
21677 8787 Sm
21699 8787 Sl
21699 8787 Sm
21721 8706 Sl
21721 8706 Sm
21743 9030 Sl
21743 9030 Sm
21765 8922 Sl
21765 8922 Sm
21786 8949 Sl
21786 8949 Sm
21808 9030 Sl
21808 9030 Sm
21830 8922 Sl
21830 8922 Sm
21852 9057 Sl
21852 9057 Sm
21874 8814 Sl
21874 8814 Sm
21896 8814 Sl
21896 8814 Sm
21918 8841 Sl
21918 8841 Sm
21940 8706 Sl
21940 8706 Sm
21961 8652 Sl
21961 8652 Sm
21983 8166 Sl
21983 8166 Sm
22005 8517 Sl
22005 8517 Sm
22027 8652 Sl
22027 8652 Sm
22049 8517 Sl
22049 8517 Sm
22071 8355 Sl
22071 8355 Sm
22093 8085 Sl
22093 8085 Sm
22115 7950 Sl
22115 7950 Sm
22136 8139 Sl
22136 8139 Sm
22158 8247 Sl
22158 8247 Sm
22180 8274 Sl
22180 8274 Sm
22202 8220 Sl
22202 8220 Sm
22224 8166 Sl
22224 8166 Sm
22246 8139 Sl
22246 8139 Sm
22268 8220 Sl
22268 8220 Sm
22290 8328 Sl
22290 8328 Sm
22312 8301 Sl
22312 8301 Sm
22333 8220 Sl
22333 8220 Sm
22355 8004 Sl
22355 8004 Sm
22377 8004 Sl
22377 8004 Sm
22399 8274 Sl
22399 8274 Sm
22421 8328 Sl
22421 8328 Sm
22443 8328 Sl
22443 8328 Sm
22465 8436 Sl
22465 8436 Sm
22487 8652 Sl
22487 8652 Sm
22508 9003 Sl
22508 9003 Sm
22530 9300 Sl
22530 9300 Sm
22552 9463 Sl
22552 9463 Sm
22574 9544 Sl
22574 9544 Sm
22596 9084 Sl
22596 9084 Sm
22618 8868 Sl
22618 8868 Sm
22640 8652 Sl
22640 8652 Sm
22662 8436 Sl
22662 8436 Sm
22684 8301 Sl
22684 8301 Sm
22705 8139 Sl
22705 8139 Sm
22727 8166 Sl
22727 8166 Sm
22749 8166 Sl
22749 8166 Sm
22771 8274 Sl
22771 8274 Sm
22793 8355 Sl
22793 8355 Sm
22815 8301 Sl
22815 8301 Sm
22837 8247 Sl
22837 8247 Sm
22859 8274 Sl
22859 8274 Sm
22880 8166 Sl
22880 8166 Sm
22902 8112 Sl
22902 8112 Sm
22924 8031 Sl
22924 8031 Sm
22946 7977 Sl
22946 7977 Sm
22968 7814 Sl
22968 7814 Sm
22990 7625 Sl
22990 7625 Sm
23012 7625 Sl
23012 7625 Sm
23034 8031 Sl
23034 8031 Sm
23055 8058 Sl
23055 8058 Sm
23077 7977 Sl
23077 7977 Sm
23099 7787 Sl
23099 7787 Sm
23121 7571 Sl
23121 7571 Sm
23143 7274 Sl
23143 7274 Sm
23165 7571 Sl
23165 7571 Sm
23187 7841 Sl
23187 7841 Sm
23209 7733 Sl
23209 7733 Sm
23231 7787 Sl
23231 7787 Sm
23252 7760 Sl
23252 7760 Sm
23274 7571 Sl
23274 7571 Sm
23296 7463 Sl
23296 7463 Sm
23318 7706 Sl
23318 7706 Sm
23340 7787 Sl
23340 7787 Sm
23362 7706 Sl
23362 7706 Sm
23384 7571 Sl
23384 7571 Sm
23406 7490 Sl
23406 7490 Sm
23427 7463 Sl
23427 7463 Sm
23449 7436 Sl
23449 7436 Sm
23471 7571 Sl
23471 7571 Sm
23493 7598 Sl
23493 7598 Sm
23515 7544 Sl
23515 7544 Sm
23537 7463 Sl
23537 7463 Sm
23559 7436 Sl
23559 7436 Sm
23581 7463 Sl
23581 7463 Sm
23602 7463 Sl
23602 7463 Sm
23624 7409 Sl
23624 7409 Sm
23646 7328 Sl
23646 7328 Sm
23668 7301 Sl
23668 7301 Sm
23690 7274 Sl
23690 7274 Sm
23712 7220 Sl
23712 7220 Sm
23734 7355 Sl
23734 7355 Sm
23756 7436 Sl
23756 7436 Sm
23778 7409 Sl
23778 7409 Sm
23799 7382 Sl
23799 7382 Sm
23821 7436 Sl
23821 7436 Sm
23843 7517 Sl
23843 7517 Sm
23865 7544 Sl
23865 7544 Sm
23887 7517 Sl
23887 7517 Sm
23909 7463 Sl
23909 7463 Sm
23931 7571 Sl
23931 7571 Sm
23953 7598 Sl
23953 7598 Sm
23974 7571 Sl
23974 7571 Sm
23996 7598 Sl
23996 7598 Sm
24018 7625 Sl
24018 7625 Sm
24040 7679 Sl
24040 7679 Sm
24062 7598 Sl
24062 7598 Sm
24084 7571 Sl
24084 7571 Sm
24106 7598 Sl
24106 7598 Sm
24128 7598 Sl
24128 7598 Sm
24150 7544 Sl
24150 7544 Sm
24171 7436 Sl
24171 7436 Sm
24193 7436 Sl
24193 7436 Sm
24215 7382 Sl
24215 7382 Sm
24237 7409 Sl
24237 7409 Sm
24259 7382 Sl
24259 7382 Sm
24281 7382 Sl
24281 7382 Sm
24303 7355 Sl
24303 7355 Sm
24325 7220 Sl
24325 7220 Sm
24346 7274 Sl
24346 7274 Sm
24368 7220 Sl
24368 7220 Sm
24390 7247 Sl
24390 7247 Sm
24412 7301 Sl
24412 7301 Sm
24434 7301 Sl
24434 7301 Sm
24456 7355 Sl
24456 7355 Sm
24478 7463 Sl
24478 7463 Sm
24500 7382 Sl
24500 7382 Sm
24521 7355 Sl
24521 7355 Sm
24543 7355 Sl
24543 7355 Sm
24565 7409 Sl
24565 7409 Sm
24587 7598 Sl
24587 7598 Sm
24609 7923 Sl
24609 7923 Sm
24631 8247 Sl
24631 8247 Sm
24653 8463 Sl
24653 8463 Sm
24675 8571 Sl
24675 8571 Sm
24697 8409 Sl
24697 8409 Sm
24718 8193 Sl
24718 8193 Sm
24740 8004 Sl
24740 8004 Sm
24762 7868 Sl
24762 7868 Sm
24784 7868 Sl
24784 7868 Sm
24806 7787 Sl
24806 7787 Sm
24828 7760 Sl
24828 7760 Sm
24850 7923 Sl
24850 7923 Sm
24872 7977 Sl
24872 7977 Sm
24893 7868 Sl
24893 7868 Sm
24915 7463 Sl
24915 7463 Sm
24937 7220 Sl
24937 7220 Sm
24959 7382 Sl
24959 7382 Sm
24981 7598 Sl
24981 7598 Sm
25003 7787 Sl
25003 7787 Sm
25025 8193 Sl
25025 8193 Sm
25047 7923 Sl
25047 7923 Sm
25068 7625 Sl
25068 7625 Sm
25090 7652 Sl
25090 7652 Sm
25112 7706 Sl
25112 7706 Sm
25134 7868 Sl
25134 7868 Sm
25156 7977 Sl
25156 7977 Sm
25178 7923 Sl
25178 7923 Sm
25200 7841 Sl
25200 7841 Sm
25222 7814 Sl
25222 7814 Sm
25244 8058 Sl
25244 8058 Sm
25265 8085 Sl
25265 8085 Sm
25287 7841 Sl
25287 7841 Sm
25309 7868 Sl
25309 7868 Sm
25331 8004 Sl
25331 8004 Sm
25353 7977 Sl
25353 7977 Sm
25375 8058 Sl
25375 8058 Sm
25397 8112 Sl
25397 8112 Sm
25419 8004 Sl
25419 8004 Sm
25440 9192 Sl
25440 9192 Sm
25462 9300 Sl
25462 9300 Sm
25484 9463 Sl
25484 9463 Sm
25506 9246 Sl
25506 9246 Sm
25528 9165 Sl
25528 9165 Sm
25550 9354 Sl
25550 9354 Sm
25572 9300 Sl
25572 9300 Sm
25594 9436 Sl
25594 9436 Sm
25616 9003 Sl
25616 9003 Sm
25637 9111 Sl
25637 9111 Sm
25659 9544 Sl
25659 9544 Sm
25681 9273 Sl
25681 9273 Sm
25703 9084 Sl
25703 9084 Sm
25725 8922 Sl
25725 8922 Sm
25747 8733 Sl
25747 8733 Sm
25769 8598 Sl
25769 8598 Sm
25791 8733 Sl
25791 8733 Sm
25812 8868 Sl
25812 8868 Sm
25834 9030 Sl
25834 9030 Sm
25856 8787 Sl
25856 8787 Sm
25878 8787 Sl
25878 8787 Sm
25900 8625 Sl
25900 8625 Sm
25922 8517 Sl
25922 8517 Sm
25944 8463 Sl
25944 8463 Sm
25966 8382 Sl
25966 8382 Sm
25987 8166 Sl
25987 8166 Sm
26009 7814 Sl
26009 7814 Sm
26031 7841 Sl
26031 7841 Sm
26053 7706 Sl
26053 7706 Sm
26075 7652 Sl
26075 7652 Sm
26097 7814 Sl
26097 7814 Sm
26119 7896 Sl
26119 7896 Sm
26141 7923 Sl
26141 7923 Sm
26163 7923 Sl
26163 7923 Sm
26184 7733 Sl
26184 7733 Sm
26206 7571 Sl
26206 7571 Sm
26228 7571 Sl
26228 7571 Sm
26250 7517 Sl
26250 7517 Sm
26272 7409 Sl
26272 7409 Sm
26294 7517 Sl
26294 7517 Sm
26316 7679 Sl
26316 7679 Sm
26338 8058 Sl
26338 8058 Sm
26359 8166 Sl
26359 8166 Sm
26381 8139 Sl
26381 8139 Sm
26403 8085 Sl
26403 8085 Sm
26425 8166 Sl
26425 8166 Sm
26447 8301 Sl
26447 8301 Sm
26469 8355 Sl
26469 8355 Sm
26491 8301 Sl
26491 8301 Sm
26513 8301 Sl
26513 8301 Sm
26534 8220 Sl
26534 8220 Sm
26556 8112 Sl
26556 8112 Sm
26578 8004 Sl
26578 8004 Sm
26600 7896 Sl
26600 7896 Sm
26622 8139 Sl
26622 8139 Sm
26644 8193 Sl
26644 8193 Sm
26666 8193 Sl
26666 8193 Sm
26688 8220 Sl
26688 8220 Sm
26710 8193 Sl
26710 8193 Sm
26731 8085 Sl
26731 8085 Sm
26753 8166 Sl
26753 8166 Sm
26775 8274 Sl
26775 8274 Sm
26797 8139 Sl
26797 8139 Sm
26819 8355 Sl
26819 8355 Sm
26841 8220 Sl
26841 8220 Sm
26863 8220 Sl
26863 8220 Sm
26885 8193 Sl
26885 8193 Sm
26906 8220 Sl
26906 8220 Sm
26928 8058 Sl
26928 8058 Sm
26950 8031 Sl
26950 8031 Sm
26972 7950 Sl
26972 7950 Sm
26994 8328 Sl
26994 8328 Sm
27016 8868 Sl
27016 8868 Sm
27038 9003 Sl
27038 9003 Sm
27060 9219 Sl
27060 9219 Sm
27082 9463 Sl
27082 9463 Sm
27103 9571 Sl
27103 9571 Sm
27125 9409 Sl
27125 9409 Sm
27147 9490 Sl
27147 9490 Sm
27169 9760 Sl
27169 9760 Sm
27191 9814 Sl
27191 9814 Sm
27213 10219 Sl
27213 10219 Sm
27235 12759 Sl
27235 12759 Sm
27257 14083 Sl
27257 14083 Sm
27278 14866 Sl
27278 14866 Sm
27300 14083 Sl
27300 14083 Sm
27322 13326 Sl
27322 13326 Sm
27344 13623 Sl
27344 13623 Sm
27366 13840 Sl
27366 13840 Sm
27388 12543 Sl
27388 12543 Sm
27410 10840 Sl
27410 10840 Sm
27432 10273 Sl
27432 10273 Sm
27453 9300 Sl
27453 9300 Sm
27475 8922 Sl
27475 8922 Sm
27497 8814 Sl
27497 8814 Sm
27519 8787 Sl
27519 8787 Sm
27541 8733 Sl
27541 8733 Sm
27563 8409 Sl
27563 8409 Sm
27585 8409 Sl
27585 8409 Sm
27607 8436 Sl
27607 8436 Sm
27629 8328 Sl
27629 8328 Sm
27650 8679 Sl
27650 8679 Sm
27672 9382 Sl
27672 9382 Sm
27694 9219 Sl
27694 9219 Sm
27716 8895 Sl
27716 8895 Sm
27738 8787 Sl
27738 8787 Sm
27760 8544 Sl
27760 8544 Sm
27782 8571 Sl
27782 8571 Sm
27804 8652 Sl
27804 8652 Sm
27825 8571 Sl
27825 8571 Sm
27847 8247 Sl
27847 8247 Sm
27869 8166 Sl
27869 8166 Sm
27891 8058 Sl
27891 8058 Sm
27913 7950 Sl
27913 7950 Sm
27935 7787 Sl
27935 7787 Sm
27957 7977 Sl
27957 7977 Sm
27979 8409 Sl
27979 8409 Sm
28000 8922 Sl
28000 8922 Sm
28022 9490 Sl
28022 9490 Sm
28044 9165 Sl
28044 9165 Sm
28066 9300 Sl
28066 9300 Sm
28088 9463 Sl
28088 9463 Sm
28110 9219 Sl
28110 9219 Sm
28132 9084 Sl
28132 9084 Sm
28154 9057 Sl
28154 9057 Sm
28176 9165 Sl
28176 9165 Sm
28197 9463 Sl
28197 9463 Sm
28219 9706 Sl
28219 9706 Sm
28241 9598 Sl
28241 9598 Sm
28263 9382 Sl
28263 9382 Sm
28285 8733 Sl
28285 8733 Sm
28307 8463 Sl
28307 8463 Sm
28329 8382 Sl
/Slrgb {0.565 0.208 0.231} def
3669 7980 Sm
3691 8002 Sl
3691 8002 Sm
3713 8085 Sl
3713 8085 Sm
3735 8177 Sl
3735 8177 Sm
3757 8362 Sl
3757 8362 Sm
3779 8449 Sl
3779 8449 Sm
3801 8554 Sl
3801 8554 Sm
3822 8381 Sl
3822 8381 Sm
3844 8439 Sl
3844 8439 Sm
3866 8594 Sl
3866 8594 Sm
3888 8528 Sl
3888 8528 Sm
3910 8462 Sl
3910 8462 Sm
3932 8444 Sl
3932 8444 Sm
3954 8227 Sl
3954 8227 Sm
3976 8411 Sl
3976 8411 Sm
3998 8398 Sl
3998 8398 Sm
4019 8239 Sl
4019 8239 Sm
4041 8203 Sl
4041 8203 Sm
4063 8208 Sl
4063 8208 Sm
4085 8118 Sl
4085 8118 Sm
4107 8211 Sl
4107 8211 Sm
4129 8223 Sl
4129 8223 Sm
4151 8104 Sl
4151 8104 Sm
4173 7899 Sl
4173 7899 Sm
4194 8013 Sl
4194 8013 Sm
4216 8015 Sl
4216 8015 Sm
4238 7976 Sl
4238 7976 Sm
4260 8005 Sl
4260 8005 Sm
4282 8093 Sl
4282 8093 Sm
4304 7923 Sl
4304 7923 Sm
4326 7936 Sl
4326 7936 Sm
4348 7927 Sl
4348 7927 Sm
4369 8002 Sl
4369 8002 Sm
4391 8053 Sl
4391 8053 Sm
4413 8200 Sl
4413 8200 Sm
4435 8310 Sl
4435 8310 Sm
4457 8283 Sl
4457 8283 Sm
4479 8316 Sl
4479 8316 Sm
4501 8390 Sl
4501 8390 Sm
4523 8526 Sl
4523 8526 Sm
4545 8610 Sl
4545 8610 Sm
4566 8558 Sl
4566 8558 Sm
4588 8554 Sl
4588 8554 Sm
4610 8636 Sl
4610 8636 Sm
4632 8686 Sl
4632 8686 Sm
4654 8726 Sl
4654 8726 Sm
4676 8554 Sl
4676 8554 Sm
4698 8525 Sl
4698 8525 Sm
4720 8554 Sl
4720 8554 Sm
4741 8665 Sl
4741 8665 Sm
4763 8702 Sl
4763 8702 Sm
4785 8589 Sl
4785 8589 Sm
4807 8446 Sl
4807 8446 Sm
4829 8334 Sl
4829 8334 Sm
4851 8239 Sl
4851 8239 Sm
4873 8243 Sl
4873 8243 Sm
4895 8251 Sl
4895 8251 Sm
4916 8206 Sl
4916 8206 Sm
4938 8272 Sl
4938 8272 Sm
4960 8349 Sl
4960 8349 Sm
4982 8426 Sl
4982 8426 Sm
5004 8430 Sl
5004 8430 Sm
5026 8370 Sl
5026 8370 Sm
5048 8301 Sl
5048 8301 Sm
5070 8285 Sl
5070 8285 Sm
5092 8325 Sl
5092 8325 Sm
5113 8436 Sl
5113 8436 Sm
5135 8521 Sl
5135 8521 Sm
5157 8485 Sl
5157 8485 Sm
5179 8441 Sl
5179 8441 Sm
5201 8584 Sl
5201 8584 Sm
5223 8729 Sl
5223 8729 Sm
5245 8829 Sl
5245 8829 Sm
5267 8832 Sl
5267 8832 Sm
5288 8728 Sl
5288 8728 Sm
5310 8675 Sl
5310 8675 Sm
5332 8747 Sl
5332 8747 Sm
5354 8779 Sl
5354 8779 Sm
5376 8841 Sl
5376 8841 Sm
5398 8861 Sl
5398 8861 Sm
5420 8910 Sl
5420 8910 Sm
5442 8992 Sl
5442 8992 Sm
5464 9070 Sl
5464 9070 Sm
5485 9101 Sl
5485 9101 Sm
5507 9110 Sl
5507 9110 Sm
5529 9074 Sl
5529 9074 Sm
5551 8810 Sl
5551 8810 Sm
5573 8688 Sl
5573 8688 Sm
5595 8674 Sl
5595 8674 Sm
5617 8778 Sl
5617 8778 Sm
5639 8869 Sl
5639 8869 Sm
5660 8957 Sl
5660 8957 Sm
5682 8969 Sl
5682 8969 Sm
5704 8861 Sl
5704 8861 Sm
5726 8867 Sl
5726 8867 Sm
5748 8903 Sl
5748 8903 Sm
5770 8852 Sl
5770 8852 Sm
5792 8883 Sl
5792 8883 Sm
5814 8901 Sl
5814 8901 Sm
5835 8948 Sl
5835 8948 Sm
5857 9029 Sl
5857 9029 Sm
5879 9041 Sl
5879 9041 Sm
5901 9083 Sl
5901 9083 Sm
5923 9230 Sl
5923 9230 Sm
5945 9396 Sl
5945 9396 Sm
5967 9307 Sl
5967 9307 Sm
5989 9357 Sl
5989 9357 Sm
6011 9410 Sl
6011 9410 Sm
6032 9393 Sl
6032 9393 Sm
6054 9319 Sl
6054 9319 Sm
6076 9479 Sl
6076 9479 Sm
6098 9681 Sl
6098 9681 Sm
6120 9770 Sl
6120 9770 Sm
6142 9541 Sl
6142 9541 Sm
6164 9537 Sl
6164 9537 Sm
6186 9629 Sl
6186 9629 Sm
6207 9869 Sl
6207 9869 Sm
6229 9919 Sl
6229 9919 Sm
6251 10167 Sl
6251 10167 Sm
6273 10149 Sl
6273 10149 Sm
6295 10420 Sl
6295 10420 Sm
6317 10391 Sl
6317 10391 Sm
6339 10419 Sl
6339 10419 Sm
6361 10339 Sl
6361 10339 Sm
6382 10356 Sl
6382 10356 Sm
6404 10392 Sl
6404 10392 Sm
6426 10752 Sl
6426 10752 Sm
6448 10981 Sl
6448 10981 Sm
6470 11132 Sl
6470 11132 Sm
6492 10510 Sl
6492 10510 Sm
6514 9209 Sl
6514 9209 Sm
6536 9310 Sl
6536 9310 Sm
6558 9359 Sl
6558 9359 Sm
6579 9583 Sl
6579 9583 Sm
6601 9725 Sl
6601 9725 Sm
6623 9975 Sl
6623 9975 Sm
6645 9718 Sl
6645 9718 Sm
6667 9312 Sl
6667 9312 Sm
6689 9233 Sl
6689 9233 Sm
6711 9185 Sl
6711 9185 Sm
6733 9180 Sl
6733 9180 Sm
6754 8703 Sl
6754 8703 Sm
6776 8486 Sl
6776 8486 Sm
6798 8300 Sl
6798 8300 Sm
6820 8414 Sl
6820 8414 Sm
6842 8659 Sl
6842 8659 Sm
6864 8757 Sl
6864 8757 Sm
6886 8508 Sl
6886 8508 Sm
6908 8278 Sl
6908 8278 Sm
6930 8232 Sl
6930 8232 Sm
6951 8354 Sl
6951 8354 Sm
6973 8314 Sl
6973 8314 Sm
6995 7964 Sl
6995 7964 Sm
7017 7697 Sl
7017 7697 Sm
7039 7755 Sl
7039 7755 Sm
7061 7403 Sl
7061 7403 Sm
7083 7430 Sl
7083 7430 Sm
7105 7474 Sl
7105 7474 Sm
7126 7544 Sl
7126 7544 Sm
7148 7161 Sl
7148 7161 Sm
7170 7035 Sl
7170 7035 Sm
7192 6906 Sl
7192 6906 Sm
7214 7016 Sl
7214 7016 Sm
7236 7746 Sl
7236 7746 Sm
7258 8043 Sl
7258 8043 Sm
7280 7820 Sl
7280 7820 Sm
7301 7904 Sl
7301 7904 Sm
7323 7945 Sl
7323 7945 Sm
7345 8056 Sl
7345 8056 Sm
7367 7802 Sl
7367 7802 Sm
7389 7816 Sl
7389 7816 Sm
7411 8061 Sl
7411 8061 Sm
7433 8761 Sl
7433 8761 Sm
7455 9318 Sl
7455 9318 Sm
7477 9649 Sl
7477 9649 Sm
7498 9494 Sl
7498 9494 Sm
7520 9504 Sl
7520 9504 Sm
7542 9174 Sl
7542 9174 Sm
7564 9297 Sl
7564 9297 Sm
7586 9407 Sl
7586 9407 Sm
7608 9610 Sl
7608 9610 Sm
7630 9889 Sl
7630 9889 Sm
7652 9669 Sl
7652 9669 Sm
7673 9727 Sl
7673 9727 Sm
7695 9314 Sl
7695 9314 Sm
7717 9355 Sl
7717 9355 Sm
7739 9178 Sl
7739 9178 Sm
7761 9036 Sl
7761 9036 Sm
7783 8951 Sl
7783 8951 Sm
7805 8970 Sl
7805 8970 Sm
7827 9054 Sl
7827 9054 Sm
7848 9070 Sl
7848 9070 Sm
7870 9070 Sl
7870 9070 Sm
7892 8969 Sl
7892 8969 Sm
7914 8764 Sl
7914 8764 Sm
7936 9015 Sl
7936 9015 Sm
7958 9299 Sl
7958 9299 Sm
7980 9463 Sl
7980 9463 Sm
8002 9658 Sl
8002 9658 Sm
8024 9923 Sl
8024 9923 Sm
8045 10012 Sl
8045 10012 Sm
8067 10028 Sl
8067 10028 Sm
8089 10329 Sl
8089 10329 Sm
8111 10232 Sl
8111 10232 Sm
8133 10381 Sl
8133 10381 Sm
8155 10548 Sl
8155 10548 Sm
8177 10552 Sl
8177 10552 Sm
8199 10403 Sl
8199 10403 Sm
8220 10017 Sl
8220 10017 Sm
8242 10064 Sl
8242 10064 Sm
8264 10159 Sl
8264 10159 Sm
8286 10095 Sl
8286 10095 Sm
8308 9999 Sl
8308 9999 Sm
8330 9968 Sl
8330 9968 Sm
8352 9852 Sl
8352 9852 Sm
8374 9575 Sl
8374 9575 Sm
8396 9640 Sl
8396 9640 Sm
8417 9701 Sl
8417 9701 Sm
8439 9644 Sl
8439 9644 Sm
8461 9269 Sl
8461 9269 Sm
8483 8986 Sl
8483 8986 Sm
8505 8752 Sl
8505 8752 Sm
8527 9023 Sl
8527 9023 Sm
8549 9155 Sl
8549 9155 Sm
8571 8759 Sl
8571 8759 Sm
8592 8286 Sl
8592 8286 Sm
8614 8032 Sl
8614 8032 Sm
8636 7967 Sl
8636 7967 Sm
8658 8045 Sl
8658 8045 Sm
8680 8009 Sl
8680 8009 Sm
8702 7877 Sl
8702 7877 Sm
8724 7825 Sl
8724 7825 Sm
8746 7882 Sl
8746 7882 Sm
8767 7971 Sl
8767 7971 Sm
8789 8516 Sl
8789 8516 Sm
8811 8640 Sl
8811 8640 Sm
8833 8620 Sl
8833 8620 Sm
8855 9205 Sl
8855 9205 Sm
8877 9518 Sl
8877 9518 Sm
8899 9768 Sl
8899 9768 Sm
8921 9682 Sl
8921 9682 Sm
8943 9625 Sl
8943 9625 Sm
8964 9597 Sl
8964 9597 Sm
8986 9089 Sl
8986 9089 Sm
9008 9191 Sl
9008 9191 Sm
9030 9230 Sl
9030 9230 Sm
9052 9249 Sl
9052 9249 Sm
9074 9135 Sl
9074 9135 Sm
9096 9431 Sl
9096 9431 Sm
9118 9340 Sl
9118 9340 Sm
9139 9157 Sl
9139 9157 Sm
9161 8968 Sl
9161 8968 Sm
9183 8933 Sl
9183 8933 Sm
9205 8895 Sl
9205 8895 Sm
9227 8860 Sl
9227 8860 Sm
9249 8858 Sl
9249 8858 Sm
9271 8400 Sl
9271 8400 Sm
9293 8146 Sl
9293 8146 Sm
9314 8200 Sl
9314 8200 Sm
9336 8227 Sl
9336 8227 Sm
9358 8306 Sl
9358 8306 Sm
9380 8330 Sl
9380 8330 Sm
9402 8391 Sl
9402 8391 Sm
9424 8282 Sl
9424 8282 Sm
9446 8274 Sl
9446 8274 Sm
9468 8103 Sl
9468 8103 Sm
9490 8106 Sl
9490 8106 Sm
9511 8021 Sl
9511 8021 Sm
9533 7960 Sl
9533 7960 Sm
9555 8027 Sl
9555 8027 Sm
9577 8133 Sl
9577 8133 Sm
9599 8110 Sl
9599 8110 Sm
9621 8105 Sl
9621 8105 Sm
9643 8000 Sl
9643 8000 Sm
9665 7884 Sl
9665 7884 Sm
9686 7734 Sl
9686 7734 Sm
9708 7792 Sl
9708 7792 Sm
9730 7747 Sl
9730 7747 Sm
9752 7656 Sl
9752 7656 Sm
9774 7603 Sl
9774 7603 Sm
9796 7653 Sl
9796 7653 Sm
9818 7780 Sl
9818 7780 Sm
9840 7900 Sl
9840 7900 Sm
9862 7933 Sl
9862 7933 Sm
9883 8004 Sl
9883 8004 Sm
9905 8211 Sl
9905 8211 Sm
9927 8293 Sl
9927 8293 Sm
9949 8350 Sl
9949 8350 Sm
9971 8506 Sl
9971 8506 Sm
9993 8671 Sl
9993 8671 Sm
10015 8776 Sl
10015 8776 Sm
10037 8877 Sl
10037 8877 Sm
10058 9001 Sl
10058 9001 Sm
10080 9059 Sl
10080 9059 Sm
10102 9108 Sl
10102 9108 Sm
10124 8924 Sl
10124 8924 Sm
10146 8974 Sl
10146 8974 Sm
10168 8926 Sl
10168 8926 Sm
10190 8762 Sl
10190 8762 Sm
10212 8785 Sl
10212 8785 Sm
10233 8866 Sl
10233 8866 Sm
10255 8828 Sl
10255 8828 Sm
10277 8898 Sl
10277 8898 Sm
10299 8826 Sl
10299 8826 Sm
10321 8864 Sl
10321 8864 Sm
10343 8994 Sl
10343 8994 Sm
10365 9062 Sl
10365 9062 Sm
10387 8996 Sl
10387 8996 Sm
10409 8926 Sl
10409 8926 Sm
10430 9004 Sl
10430 9004 Sm
10452 8981 Sl
10452 8981 Sm
10474 9052 Sl
10474 9052 Sm
10496 9133 Sl
10496 9133 Sm
10518 9229 Sl
10518 9229 Sm
10540 9208 Sl
10540 9208 Sm
10562 9295 Sl
10562 9295 Sm
10584 9430 Sl
10584 9430 Sm
10605 9497 Sl
10605 9497 Sm
10627 9401 Sl
10627 9401 Sm
10649 9395 Sl
10649 9395 Sm
10671 9625 Sl
10671 9625 Sm
10693 9787 Sl
10693 9787 Sm
10715 9919 Sl
10715 9919 Sm
10737 9991 Sl
10737 9991 Sm
10759 10116 Sl
10759 10116 Sm
10780 10085 Sl
10780 10085 Sm
10802 9913 Sl
10802 9913 Sm
10824 10183 Sl
10824 10183 Sm
10846 10192 Sl
10846 10192 Sm
10868 10163 Sl
10868 10163 Sm
10890 10016 Sl
10890 10016 Sm
10912 9913 Sl
10912 9913 Sm
10934 9279 Sl
10934 9279 Sm
10956 9166 Sl
10956 9166 Sm
10977 9120 Sl
10977 9120 Sm
10999 9189 Sl
10999 9189 Sm
11021 9191 Sl
11021 9191 Sm
11043 9308 Sl
11043 9308 Sm
11065 9147 Sl
11065 9147 Sm
11087 8962 Sl
11087 8962 Sm
11109 8847 Sl
11109 8847 Sm
11131 8899 Sl
11131 8899 Sm
11152 9054 Sl
11152 9054 Sm
11174 8947 Sl
11174 8947 Sm
11196 8824 Sl
11196 8824 Sm
11218 8839 Sl
11218 8839 Sm
11240 8741 Sl
11240 8741 Sm
11262 8635 Sl
11262 8635 Sm
11284 8585 Sl
11284 8585 Sm
11306 8434 Sl
11306 8434 Sm
11328 8461 Sl
11328 8461 Sm
11349 8671 Sl
11349 8671 Sm
11371 8814 Sl
11371 8814 Sm
11393 8942 Sl
11393 8942 Sm
11415 8841 Sl
11415 8841 Sm
11437 8727 Sl
11437 8727 Sm
11459 8671 Sl
11459 8671 Sm
11481 8683 Sl
11481 8683 Sm
11503 8458 Sl
11503 8458 Sm
11524 8382 Sl
11524 8382 Sm
11546 8364 Sl
11546 8364 Sm
11568 8220 Sl
11568 8220 Sm
11590 8200 Sl
11590 8200 Sm
11612 8164 Sl
11612 8164 Sm
11634 8114 Sl
11634 8114 Sm
11656 7954 Sl
11656 7954 Sm
11678 8065 Sl
11678 8065 Sm
11699 8133 Sl
11699 8133 Sm
11721 8149 Sl
11721 8149 Sm
11743 8134 Sl
11743 8134 Sm
11765 8094 Sl
11765 8094 Sm
11787 8086 Sl
11787 8086 Sm
11809 8114 Sl
11809 8114 Sm
11831 8139 Sl
11831 8139 Sm
11853 8138 Sl
11853 8138 Sm
11875 8185 Sl
11875 8185 Sm
11896 8246 Sl
11896 8246 Sm
11918 8266 Sl
11918 8266 Sm
11940 8000 Sl
11940 8000 Sm
11962 8056 Sl
11962 8056 Sm
11984 8060 Sl
11984 8060 Sm
12006 8074 Sl
12006 8074 Sm
12028 7993 Sl
12028 7993 Sm
12050 7912 Sl
12050 7912 Sm
12071 8047 Sl
12071 8047 Sm
12093 8106 Sl
12093 8106 Sm
12115 8041 Sl
12115 8041 Sm
12137 8052 Sl
12137 8052 Sm
12159 8033 Sl
12159 8033 Sm
12181 7973 Sl
12181 7973 Sm
12203 8033 Sl
12203 8033 Sm
12225 8154 Sl
12225 8154 Sm
12246 8238 Sl
12246 8238 Sm
12268 8287 Sl
12268 8287 Sm
12290 8279 Sl
12290 8279 Sm
12312 8426 Sl
12312 8426 Sm
12334 8509 Sl
12334 8509 Sm
12356 8452 Sl
12356 8452 Sm
12378 8452 Sl
12378 8452 Sm
12400 8425 Sl
12400 8425 Sm
12422 8405 Sl
12422 8405 Sm
12443 8460 Sl
12443 8460 Sm
12465 8538 Sl
12465 8538 Sm
12487 8549 Sl
12487 8549 Sm
12509 8504 Sl
12509 8504 Sm
12531 8471 Sl
12531 8471 Sm
12553 8585 Sl
12553 8585 Sm
12575 8728 Sl
12575 8728 Sm
12597 8744 Sl
12597 8744 Sm
12618 8707 Sl
12618 8707 Sm
12640 8722 Sl
12640 8722 Sm
12662 8568 Sl
12662 8568 Sm
12684 8576 Sl
12684 8576 Sm
12706 8468 Sl
12706 8468 Sm
12728 8507 Sl
12728 8507 Sm
12750 8518 Sl
12750 8518 Sm
12772 8391 Sl
12772 8391 Sm
12793 8451 Sl
12793 8451 Sm
12815 8492 Sl
12815 8492 Sm
12837 8510 Sl
12837 8510 Sm
12859 8567 Sl
12859 8567 Sm
12881 8617 Sl
12881 8617 Sm
12903 8664 Sl
12903 8664 Sm
12925 8795 Sl
12925 8795 Sm
12947 8931 Sl
12947 8931 Sm
12969 8972 Sl
12969 8972 Sm
12990 9087 Sl
12990 9087 Sm
13012 9138 Sl
13012 9138 Sm
13034 9202 Sl
13034 9202 Sm
13056 9227 Sl
13056 9227 Sm
13078 9308 Sl
13078 9308 Sm
13100 9415 Sl
13100 9415 Sm
13122 9465 Sl
13122 9465 Sm
13144 9574 Sl
13144 9574 Sm
13165 9527 Sl
13165 9527 Sm
13187 9650 Sl
13187 9650 Sm
13209 9625 Sl
13209 9625 Sm
13231 9842 Sl
13231 9842 Sm
13253 10096 Sl
13253 10096 Sm
13275 10024 Sl
13275 10024 Sm
13297 10171 Sl
13297 10171 Sm
13319 9931 Sl
13319 9931 Sm
13341 10195 Sl
13341 10195 Sm
13362 10219 Sl
13362 10219 Sm
13384 10020 Sl
13384 10020 Sm
13406 9971 Sl
13406 9971 Sm
13428 10184 Sl
13428 10184 Sm
13450 10177 Sl
13450 10177 Sm
13472 9981 Sl
13472 9981 Sm
13494 9901 Sl
13494 9901 Sm
13516 10095 Sl
13516 10095 Sm
13537 10037 Sl
13537 10037 Sm
13559 9861 Sl
13559 9861 Sm
13581 9883 Sl
13581 9883 Sm
13603 9917 Sl
13603 9917 Sm
13625 10061 Sl
13625 10061 Sm
13647 9975 Sl
13647 9975 Sm
13669 9800 Sl
13669 9800 Sm
13691 9860 Sl
13691 9860 Sm
13712 9955 Sl
13712 9955 Sm
13734 10118 Sl
13734 10118 Sm
13756 10190 Sl
13756 10190 Sm
13778 10254 Sl
13778 10254 Sm
13800 9980 Sl
13800 9980 Sm
13822 9785 Sl
13822 9785 Sm
13844 9511 Sl
13844 9511 Sm
13866 9409 Sl
13866 9409 Sm
13888 9386 Sl
13888 9386 Sm
13909 9472 Sl
13909 9472 Sm
13931 9499 Sl
13931 9499 Sm
13953 9591 Sl
13953 9591 Sm
13975 9641 Sl
13975 9641 Sm
13997 9798 Sl
13997 9798 Sm
14019 9927 Sl
14019 9927 Sm
14041 10043 Sl
14041 10043 Sm
14063 10204 Sl
14063 10204 Sm
14084 10322 Sl
14084 10322 Sm
14106 10490 Sl
14106 10490 Sm
14128 10616 Sl
14128 10616 Sm
14150 10689 Sl
14150 10689 Sm
14172 10867 Sl
14172 10867 Sm
14194 10769 Sl
14194 10769 Sm
14216 10878 Sl
14216 10878 Sm
14238 10944 Sl
14238 10944 Sm
14259 11003 Sl
14259 11003 Sm
14281 10938 Sl
14281 10938 Sm
14303 11124 Sl
14303 11124 Sm
14325 11074 Sl
14325 11074 Sm
14347 10844 Sl
14347 10844 Sm
14369 10820 Sl
14369 10820 Sm
14391 10822 Sl
14391 10822 Sm
14413 10966 Sl
14413 10966 Sm
14435 10774 Sl
14435 10774 Sm
14456 10485 Sl
14456 10485 Sm
14478 10332 Sl
14478 10332 Sm
14500 10383 Sl
14500 10383 Sm
14522 10333 Sl
14522 10333 Sm
14544 10494 Sl
14544 10494 Sm
14566 10376 Sl
14566 10376 Sm
14588 10432 Sl
14588 10432 Sm
14610 10291 Sl
14610 10291 Sm
14631 10201 Sl
14631 10201 Sm
14653 10345 Sl
14653 10345 Sm
14675 10456 Sl
14675 10456 Sm
14697 10707 Sl
14697 10707 Sm
14719 10920 Sl
14719 10920 Sm
14741 11092 Sl
14741 11092 Sm
14763 11235 Sl
14763 11235 Sm
14785 11291 Sl
14785 11291 Sm
14807 11217 Sl
14807 11217 Sm
14828 11184 Sl
14828 11184 Sm
14850 11360 Sl
14850 11360 Sm
14872 11297 Sl
14872 11297 Sm
14894 11301 Sl
14894 11301 Sm
14916 11495 Sl
14916 11495 Sm
14938 11491 Sl
14938 11491 Sm
14960 11259 Sl
14960 11259 Sm
14982 11332 Sl
14982 11332 Sm
15003 11320 Sl
15003 11320 Sm
15025 11124 Sl
15025 11124 Sm
15047 10707 Sl
15047 10707 Sm
15069 10112 Sl
15069 10112 Sm
15091 10203 Sl
15091 10203 Sm
15113 10310 Sl
15113 10310 Sm
15135 10254 Sl
15135 10254 Sm
15157 10077 Sl
15157 10077 Sm
15178 10340 Sl
15178 10340 Sm
15200 10501 Sl
15200 10501 Sm
15222 10670 Sl
15222 10670 Sm
15244 10720 Sl
15244 10720 Sm
15266 10686 Sl
15266 10686 Sm
15288 10879 Sl
15288 10879 Sm
15310 10942 Sl
15310 10942 Sm
15332 10900 Sl
15332 10900 Sm
15354 10816 Sl
15354 10816 Sm
15375 10948 Sl
15375 10948 Sm
15397 11078 Sl
15397 11078 Sm
15419 11035 Sl
15419 11035 Sm
15441 10951 Sl
15441 10951 Sm
15463 11008 Sl
15463 11008 Sm
15485 11130 Sl
15485 11130 Sm
15507 11157 Sl
15507 11157 Sm
15529 11217 Sl
15529 11217 Sm
15550 11256 Sl
15550 11256 Sm
15572 11271 Sl
15572 11271 Sm
15594 11199 Sl
15594 11199 Sm
15616 11355 Sl
15616 11355 Sm
15638 11227 Sl
15638 11227 Sm
15660 11276 Sl
15660 11276 Sm
15682 11326 Sl
15682 11326 Sm
15704 11319 Sl
15704 11319 Sm
15725 11178 Sl
15725 11178 Sm
15747 11281 Sl
15747 11281 Sm
15769 11285 Sl
15769 11285 Sm
15791 11254 Sl
15791 11254 Sm
15813 11283 Sl
15813 11283 Sm
15835 11322 Sl
15835 11322 Sm
15857 11016 Sl
15857 11016 Sm
15879 10974 Sl
15879 10974 Sm
15901 11038 Sl
15901 11038 Sm
15922 11181 Sl
15922 11181 Sm
15944 11262 Sl
15944 11262 Sm
15966 11267 Sl
15966 11267 Sm
15988 11201 Sl
15988 11201 Sm
16010 11255 Sl
16010 11255 Sm
16032 11178 Sl
16032 11178 Sm
16054 10917 Sl
16054 10917 Sm
16076 11044 Sl
16076 11044 Sm
16097 10734 Sl
16097 10734 Sm
16119 10664 Sl
16119 10664 Sm
16141 10617 Sl
16141 10617 Sm
16163 10289 Sl
16163 10289 Sm
16185 10099 Sl
16185 10099 Sm
16207 10071 Sl
16207 10071 Sm
16229 10298 Sl
16229 10298 Sm
16251 10328 Sl
16251 10328 Sm
16273 10488 Sl
16273 10488 Sm
16294 10634 Sl
16294 10634 Sm
16316 10733 Sl
16316 10733 Sm
16338 10819 Sl
16338 10819 Sm
16360 10910 Sl
16360 10910 Sm
16382 10845 Sl
16382 10845 Sm
16404 10921 Sl
16404 10921 Sm
16426 10992 Sl
16426 10992 Sm
16448 11053 Sl
16448 11053 Sm
16469 11045 Sl
16469 11045 Sm
16491 10878 Sl
16491 10878 Sm
16513 11025 Sl
16513 11025 Sm
16535 10992 Sl
16535 10992 Sm
16557 10738 Sl
16557 10738 Sm
16579 10630 Sl
16579 10630 Sm
16601 10968 Sl
16601 10968 Sm
16623 11064 Sl
16623 11064 Sm
16644 11183 Sl
16644 11183 Sm
16666 11148 Sl
16666 11148 Sm
16688 11006 Sl
16688 11006 Sm
16710 11154 Sl
16710 11154 Sm
16732 11263 Sl
16732 11263 Sm
16754 11324 Sl
16754 11324 Sm
16776 11358 Sl
16776 11358 Sm
16798 11103 Sl
16798 11103 Sm
16820 11059 Sl
16820 11059 Sm
16841 10927 Sl
16841 10927 Sm
16863 11014 Sl
16863 11014 Sm
16885 11169 Sl
16885 11169 Sm
16907 10869 Sl
16907 10869 Sm
16929 10629 Sl
16929 10629 Sm
16951 10591 Sl
16951 10591 Sm
16973 10598 Sl
16973 10598 Sm
16995 10645 Sl
16995 10645 Sm
17016 10675 Sl
17016 10675 Sm
17038 10408 Sl
17038 10408 Sm
17060 10362 Sl
17060 10362 Sm
17082 10196 Sl
17082 10196 Sm
17104 10267 Sl
17104 10267 Sm
17126 10125 Sl
17126 10125 Sm
17148 9615 Sl
17148 9615 Sm
17170 9587 Sl
17170 9587 Sm
17191 9590 Sl
17191 9590 Sm
17213 9698 Sl
17213 9698 Sm
17235 9931 Sl
17235 9931 Sm
17257 10044 Sl
17257 10044 Sm
17279 10062 Sl
17279 10062 Sm
17301 10383 Sl
17301 10383 Sm
17323 10576 Sl
17323 10576 Sm
17345 10780 Sl
17345 10780 Sm
17367 10926 Sl
17367 10926 Sm
17388 11109 Sl
17388 11109 Sm
17410 11041 Sl
17410 11041 Sm
17432 10949 Sl
17432 10949 Sm
17454 10917 Sl
17454 10917 Sm
17476 10830 Sl
17476 10830 Sm
17498 10949 Sl
17498 10949 Sm
17520 10849 Sl
17520 10849 Sm
17542 10623 Sl
17542 10623 Sm
17563 10971 Sl
17563 10971 Sm
17585 11189 Sl
17585 11189 Sm
17607 11289 Sl
17607 11289 Sm
17629 11421 Sl
17629 11421 Sm
17651 11479 Sl
17651 11479 Sm
17673 11421 Sl
17673 11421 Sm
17695 11437 Sl
17695 11437 Sm
17717 11389 Sl
17717 11389 Sm
17739 11583 Sl
17739 11583 Sm
17760 11492 Sl
17760 11492 Sm
17782 11459 Sl
17782 11459 Sm
17804 11702 Sl
17804 11702 Sm
17826 11781 Sl
17826 11781 Sm
17848 11814 Sl
17848 11814 Sm
17870 11586 Sl
17870 11586 Sm
17892 11482 Sl
17892 11482 Sm
17914 11345 Sl
17914 11345 Sm
17935 11159 Sl
17935 11159 Sm
17957 11010 Sl
17957 11010 Sm
17979 11033 Sl
17979 11033 Sm
18001 10906 Sl
18001 10906 Sm
18023 10969 Sl
18023 10969 Sm
18045 11117 Sl
18045 11117 Sm
18067 10680 Sl
18067 10680 Sm
18089 10280 Sl
18089 10280 Sm
18110 10317 Sl
18110 10317 Sm
18132 10164 Sl
18132 10164 Sm
18154 10326 Sl
18154 10326 Sm
18176 10066 Sl
18176 10066 Sm
18198 9911 Sl
18198 9911 Sm
18220 9893 Sl
18220 9893 Sm
18242 9376 Sl
18242 9376 Sm
18264 9196 Sl
18264 9196 Sm
18286 8810 Sl
18286 8810 Sm
18307 8867 Sl
18307 8867 Sm
18329 8968 Sl
18329 8968 Sm
18351 8754 Sl
18351 8754 Sm
18373 8980 Sl
18373 8980 Sm
18395 9295 Sl
18395 9295 Sm
18417 9435 Sl
18417 9435 Sm
18439 9463 Sl
18439 9463 Sm
18461 9685 Sl
18461 9685 Sm
18482 9771 Sl
18482 9771 Sm
18504 9775 Sl
18504 9775 Sm
18526 9479 Sl
18526 9479 Sm
18548 9434 Sl
18548 9434 Sm
18570 9615 Sl
18570 9615 Sm
18592 9691 Sl
18592 9691 Sm
18614 9641 Sl
18614 9641 Sm
18636 9997 Sl
18636 9997 Sm
18657 10158 Sl
18657 10158 Sm
18679 10176 Sl
18679 10176 Sm
18701 10183 Sl
18701 10183 Sm
18723 10124 Sl
18723 10124 Sm
18745 10123 Sl
18745 10123 Sm
18767 10191 Sl
18767 10191 Sm
18789 10118 Sl
18789 10118 Sm
18811 10176 Sl
18811 10176 Sm
18833 9952 Sl
18833 9952 Sm
18854 9853 Sl
18854 9853 Sm
18876 9925 Sl
18876 9925 Sm
18898 9842 Sl
18898 9842 Sm
18920 9686 Sl
18920 9686 Sm
18942 9626 Sl
18942 9626 Sm
18964 9515 Sl
18964 9515 Sm
18986 9454 Sl
18986 9454 Sm
19008 9426 Sl
19008 9426 Sm
19029 9420 Sl
19029 9420 Sm
19051 9292 Sl
19051 9292 Sm
19073 9201 Sl
19073 9201 Sm
19095 9069 Sl
19095 9069 Sm
19117 9047 Sl
19117 9047 Sm
19139 8991 Sl
19139 8991 Sm
19161 8838 Sl
19161 8838 Sm
19183 8767 Sl
19183 8767 Sm
19205 8734 Sl
19205 8734 Sm
19226 8841 Sl
19226 8841 Sm
19248 8974 Sl
19248 8974 Sm
19270 8958 Sl
19270 8958 Sm
19292 8919 Sl
19292 8919 Sm
19314 9114 Sl
19314 9114 Sm
19336 9089 Sl
19336 9089 Sm
19358 8972 Sl
19358 8972 Sm
19380 8772 Sl
19380 8772 Sm
19401 8807 Sl
19401 8807 Sm
19423 8895 Sl
19423 8895 Sm
19445 8822 Sl
19445 8822 Sm
19467 8855 Sl
19467 8855 Sm
19489 8889 Sl
19489 8889 Sm
19511 8788 Sl
19511 8788 Sm
19533 8821 Sl
19533 8821 Sm
19555 8819 Sl
19555 8819 Sm
19576 8927 Sl
19576 8927 Sm
19598 8929 Sl
19598 8929 Sm
19620 8783 Sl
19620 8783 Sm
19642 8734 Sl
19642 8734 Sm
19664 8827 Sl
19664 8827 Sm
19686 8888 Sl
19686 8888 Sm
19708 8985 Sl
19708 8985 Sm
19730 8660 Sl
19730 8660 Sm
19752 8590 Sl
19752 8590 Sm
19773 8697 Sl
19773 8697 Sm
19795 8862 Sl
19795 8862 Sm
19817 8980 Sl
19817 8980 Sm
19839 9056 Sl
19839 9056 Sm
19861 9112 Sl
19861 9112 Sm
19883 9194 Sl
19883 9194 Sm
19905 9323 Sl
19905 9323 Sm
19927 9247 Sl
19927 9247 Sm
19948 9212 Sl
19948 9212 Sm
19970 9070 Sl
19970 9070 Sm
19992 9172 Sl
19992 9172 Sm
20014 9183 Sl
20014 9183 Sm
20036 9094 Sl
20036 9094 Sm
20058 9090 Sl
20058 9090 Sm
20080 8987 Sl
20080 8987 Sm
20102 8978 Sl
20102 8978 Sm
20123 8675 Sl
20123 8675 Sm
20145 8696 Sl
20145 8696 Sm
20167 8756 Sl
20167 8756 Sm
20189 8761 Sl
20189 8761 Sm
20211 8589 Sl
20211 8589 Sm
20233 8509 Sl
20233 8509 Sm
20255 8407 Sl
20255 8407 Sm
20277 8527 Sl
20277 8527 Sm
20299 8517 Sl
20299 8517 Sm
20320 8345 Sl
20320 8345 Sm
20342 8333 Sl
20342 8333 Sm
20364 8335 Sl
20364 8335 Sm
20386 8631 Sl
20386 8631 Sm
20408 8871 Sl
20408 8871 Sm
20430 8996 Sl
20430 8996 Sm
20452 9023 Sl
20452 9023 Sm
20474 9132 Sl
20474 9132 Sm
20495 9185 Sl
20495 9185 Sm
20517 9298 Sl
20517 9298 Sm
20539 9428 Sl
20539 9428 Sm
20561 9573 Sl
20561 9573 Sm
20583 9621 Sl
20583 9621 Sm
20605 9624 Sl
20605 9624 Sm
20627 9506 Sl
20627 9506 Sm
20649 9606 Sl
20649 9606 Sm
20670 9601 Sl
20670 9601 Sm
20692 9527 Sl
20692 9527 Sm
20714 9493 Sl
20714 9493 Sm
20736 9523 Sl
20736 9523 Sm
20758 9300 Sl
20758 9300 Sm
20780 9288 Sl
20780 9288 Sm
20802 9271 Sl
20802 9271 Sm
20824 9228 Sl
20824 9228 Sm
20846 9129 Sl
20846 9129 Sm
20867 9074 Sl
20867 9074 Sm
20889 9357 Sl
20889 9357 Sm
20911 9383 Sl
20911 9383 Sm
20933 9330 Sl
20933 9330 Sm
20955 9338 Sl
20955 9338 Sm
20977 9275 Sl
20977 9275 Sm
20999 9407 Sl
20999 9407 Sm
21021 9584 Sl
21021 9584 Sm
21042 9531 Sl
21042 9531 Sm
21064 9543 Sl
21064 9543 Sm
21086 9620 Sl
21086 9620 Sm
21108 9690 Sl
21108 9690 Sm
21130 9749 Sl
21130 9749 Sm
21152 9644 Sl
21152 9644 Sm
21174 9541 Sl
21174 9541 Sm
21196 9574 Sl
21196 9574 Sm
21218 9797 Sl
21218 9797 Sm
21239 9988 Sl
21239 9988 Sm
21261 9985 Sl
21261 9985 Sm
21283 10191 Sl
21283 10191 Sm
21305 10430 Sl
21305 10430 Sm
21327 10529 Sl
21327 10529 Sm
21349 10523 Sl
21349 10523 Sm
21371 10643 Sl
21371 10643 Sm
21393 10516 Sl
21393 10516 Sm
21414 10585 Sl
21414 10585 Sm
21436 10428 Sl
21436 10428 Sm
21458 10401 Sl
21458 10401 Sm
21480 10542 Sl
21480 10542 Sm
21502 10601 Sl
21502 10601 Sm
21524 10900 Sl
21524 10900 Sm
21546 11207 Sl
21546 11207 Sm
21568 11420 Sl
21568 11420 Sm
21589 11317 Sl
21589 11317 Sm
21611 11274 Sl
21611 11274 Sm
21633 11469 Sl
21633 11469 Sm
21655 11602 Sl
21655 11602 Sm
21677 11934 Sl
21677 11934 Sm
21699 11700 Sl
21699 11700 Sm
21721 10949 Sl
21721 10949 Sm
21743 10268 Sl
21743 10268 Sm
21765 10169 Sl
21765 10169 Sm
21786 10319 Sl
21786 10319 Sm
21808 10433 Sl
21808 10433 Sm
21830 10547 Sl
21830 10547 Sm
21852 10441 Sl
21852 10441 Sm
21874 10278 Sl
21874 10278 Sm
21896 10488 Sl
21896 10488 Sm
21918 10421 Sl
21918 10421 Sm
21940 10290 Sl
21940 10290 Sm
21961 10327 Sl
21961 10327 Sm
21983 10443 Sl
21983 10443 Sm
22005 10291 Sl
22005 10291 Sm
22027 10341 Sl
22027 10341 Sm
22049 10449 Sl
22049 10449 Sm
22071 10550 Sl
22071 10550 Sm
22093 10489 Sl
22093 10489 Sm
22115 10592 Sl
22115 10592 Sm
22136 10726 Sl
22136 10726 Sm
22158 10829 Sl
22158 10829 Sm
22180 10896 Sl
22180 10896 Sm
22202 11062 Sl
22202 11062 Sm
22224 11011 Sl
22224 11011 Sm
22246 10950 Sl
22246 10950 Sm
22268 10783 Sl
22268 10783 Sm
22290 10848 Sl
22290 10848 Sm
22312 10681 Sl
22312 10681 Sm
22333 10504 Sl
22333 10504 Sm
22355 10581 Sl
22355 10581 Sm
22377 10528 Sl
22377 10528 Sm
22399 10649 Sl
22399 10649 Sm
22421 10740 Sl
22421 10740 Sm
22443 10711 Sl
22443 10711 Sm
22465 10284 Sl
22465 10284 Sm
22487 10053 Sl
22487 10053 Sm
22508 9908 Sl
22508 9908 Sm
22530 9989 Sl
22530 9989 Sm
22552 10138 Sl
22552 10138 Sm
22574 10092 Sl
22574 10092 Sm
22596 10582 Sl
22596 10582 Sm
22618 10713 Sl
22618 10713 Sm
22640 10808 Sl
22640 10808 Sm
22662 10781 Sl
22662 10781 Sm
22684 10781 Sl
22684 10781 Sm
22705 10789 Sl
22705 10789 Sm
22727 10893 Sl
22727 10893 Sm
22749 10846 Sl
22749 10846 Sm
22771 10852 Sl
22771 10852 Sm
22793 10851 Sl
22793 10851 Sm
22815 10896 Sl
22815 10896 Sm
22837 11245 Sl
22837 11245 Sm
22859 11180 Sl
22859 11180 Sm
22880 11094 Sl
22880 11094 Sm
22902 11095 Sl
22902 11095 Sm
22924 11192 Sl
22924 11192 Sm
22946 11106 Sl
22946 11106 Sm
22968 11185 Sl
22968 11185 Sm
22990 11213 Sl
22990 11213 Sm
23012 11209 Sl
23012 11209 Sm
23034 11133 Sl
23034 11133 Sm
23055 11269 Sl
23055 11269 Sm
23077 11439 Sl
23077 11439 Sm
23099 11418 Sl
23099 11418 Sm
23121 11487 Sl
23121 11487 Sm
23143 11581 Sl
23143 11581 Sm
23165 11483 Sl
23165 11483 Sm
23187 11505 Sl
23187 11505 Sm
23209 11536 Sl
23209 11536 Sm
23231 11526 Sl
23231 11526 Sm
23252 11614 Sl
23252 11614 Sm
23274 11680 Sl
23274 11680 Sm
23296 11731 Sl
23296 11731 Sm
23318 11708 Sl
23318 11708 Sm
23340 11738 Sl
23340 11738 Sm
23362 11808 Sl
23362 11808 Sm
23384 11769 Sl
23384 11769 Sm
23406 11650 Sl
23406 11650 Sm
23427 11419 Sl
23427 11419 Sm
23449 11446 Sl
23449 11446 Sm
23471 11476 Sl
23471 11476 Sm
23493 11420 Sl
23493 11420 Sm
23515 11568 Sl
23515 11568 Sm
23537 11589 Sl
23537 11589 Sm
23559 11512 Sl
23559 11512 Sm
23581 11440 Sl
23581 11440 Sm
23602 11333 Sl
23602 11333 Sm
23624 11456 Sl
23624 11456 Sm
23646 11661 Sl
23646 11661 Sm
23668 11800 Sl
23668 11800 Sm
23690 11951 Sl
23690 11951 Sm
23712 12115 Sl
23712 12115 Sm
23734 12274 Sl
23734 12274 Sm
23756 12457 Sl
23756 12457 Sm
23778 12443 Sl
23778 12443 Sm
23799 12643 Sl
23799 12643 Sm
23821 12657 Sl
23821 12657 Sm
23843 12771 Sl
23843 12771 Sm
23865 12959 Sl
23865 12959 Sm
23887 12903 Sl
23887 12903 Sm
23909 13257 Sl
23909 13257 Sm
23931 13173 Sl
23931 13173 Sm
23953 13145 Sl
23953 13145 Sm
23974 13276 Sl
23974 13276 Sm
23996 13328 Sl
23996 13328 Sm
24018 12985 Sl
24018 12985 Sm
24040 13127 Sl
24040 13127 Sm
24062 13197 Sl
24062 13197 Sm
24084 13449 Sl
24084 13449 Sm
24106 13781 Sl
24106 13781 Sm
24128 13820 Sl
24128 13820 Sm
24150 14041 Sl
24150 14041 Sm
24171 14359 Sl
24171 14359 Sm
24193 14261 Sl
24193 14261 Sm
24215 13939 Sl
24215 13939 Sm
24237 14662 Sl
24237 14662 Sm
24259 15104 Sl
24259 15104 Sm
24281 15592 Sl
24281 15592 Sm
24303 15576 Sl
24303 15576 Sm
24325 15643 Sl
24325 15643 Sm
24346 15755 Sl
24346 15755 Sm
24368 15590 Sl
24368 15590 Sm
24390 15799 Sl
24390 15799 Sm
24412 15777 Sl
24412 15777 Sm
24434 16372 Sl
24434 16372 Sm
24456 16888 Sl
24456 16888 Sm
24478 17182 Sl
24478 17182 Sm
24500 17071 Sl
24500 17071 Sm
24521 16999 Sl
24521 16999 Sm
24543 17440 Sl
24543 17440 Sm
24565 16566 Sl
24565 16566 Sm
24587 15979 Sl
24587 15979 Sm
24609 16087 Sl
24609 16087 Sm
24631 17198 Sl
24631 17198 Sm
24653 17643 Sl
24653 17643 Sm
24675 18166 Sl
24675 18166 Sm
24697 18081 Sl
24697 18081 Sm
24718 18364 Sl
24718 18364 Sm
24740 18952 Sl
24740 18952 Sm
24762 18990 Sl
24762 18990 Sm
24784 18960 Sl
24784 18960 Sm
24806 19474 Sl
24806 19474 Sm
24828 18875 Sl
24828 18875 Sm
24850 18716 Sl
24850 18716 Sm
24872 18532 Sl
24872 18532 Sm
24893 19422 Sl
24893 19422 Sm
24915 19788 Sl
24915 19788 Sm
24937 19678 Sl
24937 19678 Sm
24959 19243 Sl
24959 19243 Sm
24981 19684 Sl
24981 19684 Sm
25003 19886 Sl
25003 19886 Sm
25025 19487 Sl
25025 19487 Sm
25047 19926 Sl
25047 19926 Sm
25068 20136 Sl
25068 20136 Sm
25090 20364 Sl
25090 20364 Sm
25112 20299 Sl
25112 20299 Sm
25134 19545 Sl
25134 19545 Sm
25156 19445 Sl
25156 19445 Sm
25178 18995 Sl
25178 18995 Sm
25200 19124 Sl
25200 19124 Sm
25222 18906 Sl
25222 18906 Sm
25244 17771 Sl
25244 17771 Sm
25265 17883 Sl
25265 17883 Sm
25287 18782 Sl
25287 18782 Sm
25309 18532 Sl
25309 18532 Sm
25331 18165 Sl
25331 18165 Sm
25353 17885 Sl
25353 17885 Sm
25375 16493 Sl
25375 16493 Sm
25397 16822 Sl
25397 16822 Sm
25419 17369 Sl
25419 17369 Sm
25440 17526 Sl
25440 17526 Sm
25462 17480 Sl
25462 17480 Sm
25484 17075 Sl
25484 17075 Sm
25506 17625 Sl
25506 17625 Sm
25528 17121 Sl
25528 17121 Sm
25550 16717 Sl
25550 16717 Sm
25572 15989 Sl
25572 15989 Sm
25594 14918 Sl
25594 14918 Sm
25616 15056 Sl
25616 15056 Sm
25637 14643 Sl
25637 14643 Sm
25659 14457 Sl
25659 14457 Sm
25681 14967 Sl
25681 14967 Sm
25703 14805 Sl
25703 14805 Sm
25725 14743 Sl
25725 14743 Sm
25747 14126 Sl
25747 14126 Sm
25769 14196 Sl
25769 14196 Sm
25791 14639 Sl
25791 14639 Sm
25812 15108 Sl
25812 15108 Sm
25834 15639 Sl
25834 15639 Sm
25856 15599 Sl
25856 15599 Sm
25878 15486 Sl
25878 15486 Sm
25900 15696 Sl
25900 15696 Sm
25922 15723 Sl
25922 15723 Sm
25944 15674 Sl
25944 15674 Sm
25966 15808 Sl
25966 15808 Sm
25987 16165 Sl
25987 16165 Sm
26009 16141 Sl
26009 16141 Sm
26031 15845 Sl
26031 15845 Sm
26053 15822 Sl
26053 15822 Sm
26075 15446 Sl
26075 15446 Sm
26097 15607 Sl
26097 15607 Sm
26119 15276 Sl
26119 15276 Sm
26141 15038 Sl
26141 15038 Sm
26163 15190 Sl
26163 15190 Sm
26184 15141 Sl
26184 15141 Sm
26206 15529 Sl
26206 15529 Sm
26228 15734 Sl
26228 15734 Sm
26250 15454 Sl
26250 15454 Sm
26272 15474 Sl
26272 15474 Sm
26294 15309 Sl
26294 15309 Sm
26316 14959 Sl
26316 14959 Sm
26338 14963 Sl
26338 14963 Sm
26359 15046 Sl
26359 15046 Sm
26381 15118 Sl
26381 15118 Sm
26403 15053 Sl
26403 15053 Sm
26425 14986 Sl
26425 14986 Sm
26447 14628 Sl
26447 14628 Sm
26469 14863 Sl
26469 14863 Sm
26491 14942 Sl
26491 14942 Sm
26513 14984 Sl
26513 14984 Sm
26534 14891 Sl
26534 14891 Sm
26556 14937 Sl
26556 14937 Sm
26578 14909 Sl
26578 14909 Sm
26600 14739 Sl
26600 14739 Sm
26622 14401 Sl
26622 14401 Sm
26644 14369 Sl
26644 14369 Sm
26666 14472 Sl
26666 14472 Sm
26688 14598 Sl
26688 14598 Sm
26710 14807 Sl
26710 14807 Sm
26731 14877 Sl
26731 14877 Sm
26753 14963 Sl
26753 14963 Sm
26775 14938 Sl
26775 14938 Sm
26797 14996 Sl
26797 14996 Sm
26819 14682 Sl
26819 14682 Sm
26841 14960 Sl
26841 14960 Sm
26863 15177 Sl
26863 15177 Sm
26885 15114 Sl
26885 15114 Sm
26906 15059 Sl
26906 15059 Sm
26928 14565 Sl
26928 14565 Sm
26950 14733 Sl
26950 14733 Sm
26972 14902 Sl
26972 14902 Sm
26994 14368 Sl
26994 14368 Sm
27016 14382 Sl
27016 14382 Sm
27038 13739 Sl
27038 13739 Sm
27060 13548 Sl
27060 13548 Sm
27082 13278 Sl
27082 13278 Sm
27103 13547 Sl
27103 13547 Sm
27125 13695 Sl
27125 13695 Sm
27147 13307 Sl
27147 13307 Sm
27169 12822 Sl
27169 12822 Sm
27191 12946 Sl
27191 12946 Sm
27213 12572 Sl
27213 12572 Sm
27235 11207 Sl
27235 11207 Sm
27257 10749 Sl
27257 10749 Sm
27278 10745 Sl
27278 10745 Sm
27300 10744 Sl
27300 10744 Sm
27322 10458 Sl
27322 10458 Sm
27344 10238 Sl
27344 10238 Sm
27366 10884 Sl
27366 10884 Sm
27388 11330 Sl
27388 11330 Sm
27410 11601 Sl
27410 11601 Sm
27432 11796 Sl
27432 11796 Sm
27453 12425 Sl
27453 12425 Sm
27475 12819 Sl
27475 12819 Sm
27497 13129 Sl
27497 13129 Sm
27519 13434 Sl
27519 13434 Sm
27541 13766 Sl
27541 13766 Sm
27563 13923 Sl
27563 13923 Sm
27585 13732 Sl
27585 13732 Sm
27607 14258 Sl
27607 14258 Sm
27629 14575 Sl
27629 14575 Sm
27650 14025 Sl
27650 14025 Sm
27672 13702 Sl
27672 13702 Sm
27694 13638 Sl
27694 13638 Sm
27716 13655 Sl
27716 13655 Sm
27738 13869 Sl
27738 13869 Sm
27760 14181 Sl
27760 14181 Sm
27782 14331 Sl
27782 14331 Sm
27804 14589 Sl
27804 14589 Sm
27825 14789 Sl
27825 14789 Sm
27847 14967 Sl
27847 14967 Sm
27869 14760 Sl
27869 14760 Sm
27891 14829 Sl
27891 14829 Sm
27913 14760 Sl
27913 14760 Sm
27935 14308 Sl
27935 14308 Sm
27957 14460 Sl
27957 14460 Sm
27979 13451 Sl
27979 13451 Sm
28000 13292 Sl
28000 13292 Sm
28022 13380 Sl
28022 13380 Sm
28044 13377 Sl
28044 13377 Sm
28066 13360 Sl
28066 13360 Sm
28088 13620 Sl
28088 13620 Sm
28110 13841 Sl
28110 13841 Sm
28132 13968 Sl
28132 13968 Sm
28154 13856 Sl
28154 13856 Sm
28176 13500 Sl
28176 13500 Sm
28197 13310 Sl
28197 13310 Sm
28219 13403 Sl
28219 13403 Sm
28241 13534 Sl
28241 13534 Sm
28263 13642 Sl
28263 13642 Sm
28285 13467 Sl
28285 13467 Sm
28307 13098 Sl
28307 13098 Sm
28329 13112 Sl
/Slw 0.576 def
/Slrgb {0.000 0.000 0.000} def
28841 5223 28841 22457 Sln
28841 5735 29164 5735 Sln
29892 5735 0
/Helvetica-0 findfont 808 yratio mul scalefont setfont
(0) stringwidth pop add
2 div xratio div
dup 4 3 roll exch 90.000 cos mul sub 3 1 roll 90.000 sin mul sub 2 copy
/fntsize {/Helvetica-0 findfont exch scalefont setfont } def
90.000 808
(0) Stxtl
(0) stringwidth pop xratio div
dup 4 3 roll exch 90.000 cos mul add 3 1 roll 90.000 sin mul add 2 copy
pop pop pop pop
28841 8977 29164 8977 Sln
29892 8977 0
/Helvetica-0 findfont 808 yratio mul scalefont setfont
(20) stringwidth pop add
2 div xratio div
dup 4 3 roll exch 90.000 cos mul sub 3 1 roll 90.000 sin mul sub 2 copy
/fntsize {/Helvetica-0 findfont exch scalefont setfont } def
90.000 808
(20) Stxtl
(20) stringwidth pop xratio div
dup 4 3 roll exch 90.000 cos mul add 3 1 roll 90.000 sin mul add 2 copy
pop pop pop pop
28841 12219 29164 12219 Sln
29892 12219 0
/Helvetica-0 findfont 808 yratio mul scalefont setfont
(40) stringwidth pop add
2 div xratio div
dup 4 3 roll exch 90.000 cos mul sub 3 1 roll 90.000 sin mul sub 2 copy
/fntsize {/Helvetica-0 findfont exch scalefont setfont } def
90.000 808
(40) Stxtl
(40) stringwidth pop xratio div
dup 4 3 roll exch 90.000 cos mul add 3 1 roll 90.000 sin mul add 2 copy
pop pop pop pop
28841 15461 29164 15461 Sln
29892 15461 0
/Helvetica-0 findfont 808 yratio mul scalefont setfont
(60) stringwidth pop add
2 div xratio div
dup 4 3 roll exch 90.000 cos mul sub 3 1 roll 90.000 sin mul sub 2 copy
/fntsize {/Helvetica-0 findfont exch scalefont setfont } def
90.000 808
(60) Stxtl
(60) stringwidth pop xratio div
dup 4 3 roll exch 90.000 cos mul add 3 1 roll 90.000 sin mul add 2 copy
pop pop pop pop
28841 18703 29164 18703 Sln
29892 18703 0
/Helvetica-0 findfont 808 yratio mul scalefont setfont
(80) stringwidth pop add
2 div xratio div
dup 4 3 roll exch 90.000 cos mul sub 3 1 roll 90.000 sin mul sub 2 copy
/fntsize {/Helvetica-0 findfont exch scalefont setfont } def
90.000 808
(80) Stxtl
(80) stringwidth pop xratio div
dup 4 3 roll exch 90.000 cos mul add 3 1 roll 90.000 sin mul add 2 copy
pop pop pop pop
28841 21945 29164 21945 Sln
29892 21945 0
/Helvetica-0 findfont 808 yratio mul scalefont setfont
(100) stringwidth pop add
2 div xratio div
dup 4 3 roll exch 90.000 cos mul sub 3 1 roll 90.000 sin mul sub 2 copy
/fntsize {/Helvetica-0 findfont exch scalefont setfont } def
90.000 808
(100) Stxtl
(100) stringwidth pop xratio div
dup 4 3 roll exch 90.000 cos mul add 3 1 roll 90.000 sin mul add 2 copy
pop pop pop pop
30781 13840 0
/Helvetica-0 findfont 808 yratio mul scalefont setfont
(PD ratio) stringwidth pop add
2 div xratio div
dup 4 3 roll exch 90.000 cos mul sub 3 1 roll 90.000 sin mul sub 2 copy
/fntsize {/Helvetica-0 findfont exch scalefont setfont } def
90.000 808
(PD ratio) Stxtl
(PD ratio) stringwidth pop xratio div
dup 4 3 roll exch 90.000 cos mul add 3 1 roll 90.000 sin mul add 2 copy
pop pop pop pop
3158 5223 3158 22457 Sln
3158 5735 2835 5735 Sln
2431 5735 0
/Helvetica-0 findfont 808 yratio mul scalefont setfont
(0) stringwidth pop add
2 div xratio div
dup 4 3 roll exch 90.000 cos mul sub 3 1 roll 90.000 sin mul sub 2 copy
/fntsize {/Helvetica-0 findfont exch scalefont setfont } def
90.000 808
(0) Stxtl
(0) stringwidth pop xratio div
dup 4 3 roll exch 90.000 cos mul add 3 1 roll 90.000 sin mul add 2 copy
pop pop pop pop
3158 11138 2835 11138 Sln
2431 11138 0
/Helvetica-0 findfont 808 yratio mul scalefont setfont
(2) stringwidth pop add
2 div xratio div
dup 4 3 roll exch 90.000 cos mul sub 3 1 roll 90.000 sin mul sub 2 copy
/fntsize {/Helvetica-0 findfont exch scalefont setfont } def
90.000 808
(2) Stxtl
(2) stringwidth pop xratio div
dup 4 3 roll exch 90.000 cos mul add 3 1 roll 90.000 sin mul add 2 copy
pop pop pop pop
3158 16542 2835 16542 Sln
2431 16542 0
/Helvetica-0 findfont 808 yratio mul scalefont setfont
(4) stringwidth pop add
2 div xratio div
dup 4 3 roll exch 90.000 cos mul sub 3 1 roll 90.000 sin mul sub 2 copy
/fntsize {/Helvetica-0 findfont exch scalefont setfont } def
90.000 808
(4) Stxtl
(4) stringwidth pop xratio div
dup 4 3 roll exch 90.000 cos mul add 3 1 roll 90.000 sin mul add 2 copy
pop pop pop pop
3158 21945 2835 21945 Sln
2431 21945 0
/Helvetica-0 findfont 808 yratio mul scalefont setfont
(6) stringwidth pop add
2 div xratio div
dup 4 3 roll exch 90.000 cos mul sub 3 1 roll 90.000 sin mul sub 2 copy
/fntsize {/Helvetica-0 findfont exch scalefont setfont } def
90.000 808
(6) Stxtl
(6) stringwidth pop xratio div
dup 4 3 roll exch 90.000 cos mul add 3 1 roll 90.000 sin mul add 2 copy
pop pop pop pop
1542 13840 0
/Helvetica-0 findfont 808 yratio mul scalefont setfont
(Corporate bond spread) stringwidth pop add
2 div xratio div
dup 4 3 roll exch 90.000 cos mul sub 3 1 roll 90.000 sin mul sub 2 copy
/fntsize {/Helvetica-0 findfont exch scalefont setfont } def
90.000 808
(Corporate bond spread) Stxtl
(Corporate bond spread) stringwidth pop xratio div
dup 4 3 roll exch 90.000 cos mul add 3 1 roll 90.000 sin mul add 2 copy
pop pop pop pop
3158 5223 28841 5223 Sln
3932 5223 3932 4899 Sln
3932 4172 0
/Helvetica-0 findfont 808 yratio mul scalefont setfont
(1920) stringwidth pop add
2 div xratio div
dup 4 3 roll exch 0.000 cos mul sub 3 1 roll 0.000 sin mul sub 2 copy
/fntsize {/Helvetica-0 findfont exch scalefont setfont } def
0.000 808
(1920) Stxtl
(1920) stringwidth pop xratio div
dup 4 3 roll exch 0.000 cos mul add 3 1 roll 0.000 sin mul add 2 copy
pop pop pop pop
6558 5223 6558 4899 Sln
6558 4172 0
/Helvetica-0 findfont 808 yratio mul scalefont setfont
(1930) stringwidth pop add
2 div xratio div
dup 4 3 roll exch 0.000 cos mul sub 3 1 roll 0.000 sin mul sub 2 copy
/fntsize {/Helvetica-0 findfont exch scalefont setfont } def
0.000 808
(1930) Stxtl
(1930) stringwidth pop xratio div
dup 4 3 roll exch 0.000 cos mul add 3 1 roll 0.000 sin mul add 2 copy
pop pop pop pop
9184 5223 9184 4899 Sln
9184 4172 0
/Helvetica-0 findfont 808 yratio mul scalefont setfont
(1940) stringwidth pop add
2 div xratio div
dup 4 3 roll exch 0.000 cos mul sub 3 1 roll 0.000 sin mul sub 2 copy
/fntsize {/Helvetica-0 findfont exch scalefont setfont } def
0.000 808
(1940) Stxtl
(1940) stringwidth pop xratio div
dup 4 3 roll exch 0.000 cos mul add 3 1 roll 0.000 sin mul add 2 copy
pop pop pop pop
11809 5223 11809 4899 Sln
11809 4172 0
/Helvetica-0 findfont 808 yratio mul scalefont setfont
(1950) stringwidth pop add
2 div xratio div
dup 4 3 roll exch 0.000 cos mul sub 3 1 roll 0.000 sin mul sub 2 copy
/fntsize {/Helvetica-0 findfont exch scalefont setfont } def
0.000 808
(1950) Stxtl
(1950) stringwidth pop xratio div
dup 4 3 roll exch 0.000 cos mul add 3 1 roll 0.000 sin mul add 2 copy
pop pop pop pop
14435 5223 14435 4899 Sln
14435 4172 0
/Helvetica-0 findfont 808 yratio mul scalefont setfont
(1960) stringwidth pop add
2 div xratio div
dup 4 3 roll exch 0.000 cos mul sub 3 1 roll 0.000 sin mul sub 2 copy
/fntsize {/Helvetica-0 findfont exch scalefont setfont } def
0.000 808
(1960) Stxtl
(1960) stringwidth pop xratio div
dup 4 3 roll exch 0.000 cos mul add 3 1 roll 0.000 sin mul add 2 copy
pop pop pop pop
17061 5223 17061 4899 Sln
17061 4172 0
/Helvetica-0 findfont 808 yratio mul scalefont setfont
(1970) stringwidth pop add
2 div xratio div
dup 4 3 roll exch 0.000 cos mul sub 3 1 roll 0.000 sin mul sub 2 copy
/fntsize {/Helvetica-0 findfont exch scalefont setfont } def
0.000 808
(1970) Stxtl
(1970) stringwidth pop xratio div
dup 4 3 roll exch 0.000 cos mul add 3 1 roll 0.000 sin mul add 2 copy
pop pop pop pop
19686 5223 19686 4899 Sln
19686 4172 0
/Helvetica-0 findfont 808 yratio mul scalefont setfont
(1980) stringwidth pop add
2 div xratio div
dup 4 3 roll exch 0.000 cos mul sub 3 1 roll 0.000 sin mul sub 2 copy
/fntsize {/Helvetica-0 findfont exch scalefont setfont } def
0.000 808
(1980) Stxtl
(1980) stringwidth pop xratio div
dup 4 3 roll exch 0.000 cos mul add 3 1 roll 0.000 sin mul add 2 copy
pop pop pop pop
22312 5223 22312 4899 Sln
22312 4172 0
/Helvetica-0 findfont 808 yratio mul scalefont setfont
(1990) stringwidth pop add
2 div xratio div
dup 4 3 roll exch 0.000 cos mul sub 3 1 roll 0.000 sin mul sub 2 copy
/fntsize {/Helvetica-0 findfont exch scalefont setfont } def
0.000 808
(1990) Stxtl
(1990) stringwidth pop xratio div
dup 4 3 roll exch 0.000 cos mul add 3 1 roll 0.000 sin mul add 2 copy
pop pop pop pop
24938 5223 24938 4899 Sln
24938 4172 0
/Helvetica-0 findfont 808 yratio mul scalefont setfont
(2000) stringwidth pop add
2 div xratio div
dup 4 3 roll exch 0.000 cos mul sub 3 1 roll 0.000 sin mul sub 2 copy
/fntsize {/Helvetica-0 findfont exch scalefont setfont } def
0.000 808
(2000) Stxtl
(2000) stringwidth pop xratio div
dup 4 3 roll exch 0.000 cos mul add 3 1 roll 0.000 sin mul add 2 copy
pop pop pop pop
27563 5223 27563 4899 Sln
27563 4172 0
/Helvetica-0 findfont 808 yratio mul scalefont setfont
(2010) stringwidth pop add
2 div xratio div
dup 4 3 roll exch 0.000 cos mul sub 3 1 roll 0.000 sin mul sub 2 copy
/fntsize {/Helvetica-0 findfont exch scalefont setfont } def
0.000 808
(2010) Stxtl
(2010) stringwidth pop xratio div
dup 4 3 roll exch 0.000 cos mul add 3 1 roll 0.000 sin mul add 2 copy
pop pop pop pop
16000 3283 0
/Helvetica-0 findfont 808 yratio mul scalefont setfont
(Date) stringwidth pop add
2 div xratio div
dup 4 3 roll exch 0.000 cos mul sub 3 1 roll 0.000 sin mul sub 2 copy
/fntsize {/Helvetica-0 findfont exch scalefont setfont } def
0.000 808
(Date) Stxtl
(Date) stringwidth pop xratio div
dup 4 3 roll exch 0.000 cos mul add 3 1 roll 0.000 sin mul add 2 copy
pop pop pop pop
5706 1094 26293 2600 1 Srect
/Slw 0.864 def
/Slrgb {0.102 0.278 0.435} def
6055 1847 9081 1847 Sln
/Slrgb {0.565 0.208 0.231} def
19393 1847 22419 1847 Sln
9565 1564 2 copy
/fntsize {/Helvetica-0 findfont exch scalefont setfont } def
0.000 808
(Corporate bond spread) Stxtl
(Corporate bond spread) stringwidth pop xratio div
dup 4 3 roll exch 0.000 cos mul add 3 1 roll 0.000 sin mul add 2 copy
pop pop pop pop
22904 1564 2 copy
/fntsize {/Helvetica-0 findfont exch scalefont setfont } def
0.000 808
(PD ratio) Stxtl
(PD ratio) stringwidth pop xratio div
dup 4 3 roll exch 0.000 cos mul add 3 1 roll 0.000 sin mul add 2 copy
pop pop pop pop
S showpage
%%EOF
