%!PS-Adobe-2.0 EPSF-2.0
%% This is a Stata generated postscript file
%%BoundingBox: 0 0 396 288
%%HiResBoundingBox: 0.000 0.000 396.000 288.000
%%DocumentNeededResources: font Helvetica
/xratio 0.012375 def
/yratio 0.012375 def
/Sbgfill {
	/y1 exch def
	/x1 exch def
	/y0 exch def
	/x0 exch def
	x0 y0 moveto
	x0 y1 lineto x1 y1 lineto x1 y0 lineto x0 y0 lineto
	fill
} def
/Spt {
	yratio mul
	/yp exch def
	xratio mul
	/xp exch def
	Slrgb setrgbcolor
	newpath
	xp yp moveto
	xp Slw add yp
	lineto
	currentlinecap
	1 setlinecap
	stroke
	setlinecap
} def
/Sln {
	yratio mul
	/y1p exch def
	xratio mul
	/x1p exch def
	yratio mul
	/y0p exch def
	xratio mul
	/x0p exch def
	Slw setlinewidth
	Slrgb setrgbcolor
	x0p y0p M x1p y1p lineto S
} def
/Scrv {
	yratio mul
	/y3p exch def
	xratio mul
	/x3p exch def
	yratio mul
	/y2p exch def
	xratio mul
	/x2p exch def
	yratio mul
	/y1p exch def
	xratio mul
	/x1p exch def
	Slw setlinewidth
	Slrgb setrgbcolor
	x1p y1p x2p y2p x3p y3p curveto
	stroke
} def
/Stxtl {
	/sp exch def
	yratio mul
	/sizep exch def
	dup
	/anglep exch def
	0 exch sub
	/angle2p exch def
	yratio mul
	/y0p exch def
	xratio mul
	/x0p exch def
	Strgb setrgbcolor
	x0p y0p M anglep rotate sizep fntsize sp show stroke angle2p rotate
} def
/Stxtc {
	/sp exch def
	yratio mul
	/sizep exch def
	dup
	/anglep exch def
	0 exch sub
	/angle2p exch def
	yratio mul
	/y0p exch def
	xratio mul
	/x0p exch def
	Strgb setrgbcolor
	x0p y0p M anglep rotate sizep fntsize sp stringwidth exch -2 div exch rm sp show stroke angle2p rotate
} def
/Stxtr {
	/sp exch def
	yratio mul
	/sizep exch def
	dup
	/anglep exch def
	0 exch sub
	/angle2p exch def
	yratio mul
	/y0p exch def
	xratio mul
	/x0p exch def
	Strgb setrgbcolor
	x0p y0p M anglep rotate sizep fntsize sp stringwidth 1 index -1 mul exch rm pop sp show stroke angle2p rotate
} def
/Srect {
	/sfill exch def
	yratio mul
	/y1 exch def
	xratio mul
	/x1 exch def
	yratio mul
	/y0 exch def
	xratio mul
	/x0 exch def
	sfill 1 eq {
		Ssrgb setrgbcolor
		x0 y0 moveto
		x0 y1 lineto x1 y1 lineto x1 y0 lineto x0 y0 lineto
		fill
	} if
	Slw setlinewidth
	Slrgb setrgbcolor
	x0 y0 moveto
	x0 y1 lineto x1 y1 lineto x1 y0 lineto x0 y0 lineto
	stroke
} def
/Sellipse {
	/sfill exch def
	yratio mul
	/yrad exch def
	xratio mul
	/xrad exch def
	yratio mul
	/y exch def
	xratio mul
	/x exch def
	sfill 1 eq {
		Ssrgb setrgbcolor
		/savematrix matrix currentmatrix def
		x y translate
		xrad yrad scale
		0 0 1 0 360 arc
		savematrix setmatrix
		fill
	} if
	Slw setlinewidth
	Slrgb setrgbcolor
		/savematrix matrix currentmatrix def
		x y translate
		xrad yrad scale
		0 0 1 0 360 arc
		savematrix setmatrix
	stroke
} def
/Stri {
	/sfill exch def
	xratio mul
	/r exch def
	yratio mul
	/y0 exch def
	xratio mul
	/x0 exch def
	/xcen x0 def
	y0 r add
	/ytop exch def
	r 2 div
	y0 exch sub
	/ybot exch def
	r 3 sqrt 2 div mul dup
	xcen exch sub
	/xleft exch def
	xcen add
	/xright exch def
	sfill 1 eq {
		Ssrgb setrgbcolor
		xcen ytop moveto xright ybot lineto xleft ybot lineto xcen ytop lineto fill
	} if
	Slw setlinewidth
	Slrgb setrgbcolor
	xcen ytop moveto xright ybot lineto xleft ybot lineto xcen ytop lineto stroke
} def
/Soldtri {
	/sfill exch def
	xratio mul
	/r exch def
	yratio mul
	/y0 exch def
	xratio mul
	/x0 exch def
	x0 r sub
	/x1 exch def
	y0 r sub
	/y1 exch def
	x0 r add
	/x2 exch def
	y0 r sub
	/y2 exch def
	/x3 x0 def
	y0 r add
	/y3 exch def
	sfill 1 eq {
		Ssrgb setrgbcolor
		x1 y1 moveto x2 y2 lineto x3 y3 lineto x1 y1 lineto fill
	} if
	Slw setlinewidth
	Slrgb setrgbcolor
	x1 y1 moveto x2 y2 lineto x3 y3 lineto x1 y1 lineto stroke
} def
/Sdia {
	/sfill exch def
	xratio mul
	/r exch def
	yratio mul
	/y exch def
	xratio mul
	/x exch def
	x r sub
	/x0 exch def
	/y0 y def
	/x1 x def
	y r sub
	/y1 exch def
	x r add
	/x2 exch def
	/y2 y def
	/x3 x def
	y r add
	/y3 exch def
	sfill 1 eq  {
		Ssrgb setrgbcolor
		x0 y0 moveto x1 y1 lineto x2 y2 lineto x3 y3 lineto x0 y0 lineto fill
	} if
	Slw setlinewidth
	Slrgb setrgbcolor
	x0 y0 moveto x1 y1 lineto x2 y2 lineto x3 y3 lineto x0 y0 lineto stroke
} def
/Scc {
	/sfill exch def
	xratio mul
	/r0 exch def
	yratio mul
	/y0 exch def
	xratio mul
	/x0 exch def
	sfill 1 eq {
		Ssrgb setrgbcolor
		x0 y0 r0 0 360 arc fill
	} if
	Slw setlinewidth
	Slrgb setrgbcolor
	x0 y0 r0 0 360 arc stroke
} def
/Spie {
	/sfill exch def
	/a1 exch def
	/a0 exch def
	xratio mul
	/r exch def
	yratio mul
	/y exch def
	xratio mul
	/x exch def
	sfill 1 eq {
		Ssrgb setrgbcolor
		newpath x y moveto x y r a0 a1 arc closepath
		fill
	} if
	Slw setlinewidth
	Slrgb setrgbcolor
	newpath x y moveto x y r a0 a1 arc closepath
	stroke
} def
/Splu {
	xratio mul
	/r exch def
	yratio mul
	/y exch def
	xratio mul
	/x exch def
	x r sub
	/x0 exch def
	x r add
	/x1 exch def
	x0 y M x1 y L
	y r sub
	/y0 exch def
	y r add
	/y1 exch def
	x y0 M x y1 L
} def
/Scro {
	xratio mul
	/r exch def
	yratio mul
	/y exch def
	xratio mul
	/x exch def
	x r sub
	/x0 exch def
	y r sub
	/y0 exch def
	x r add
	/x1 exch def
	y r add
	/y1 exch def
	x0 y0 M x1 y1 L
	x r add
	/x0 exch def
	y r sub
	/y0 exch def
	x r sub
	/x1 exch def
	y r add
	/y1 exch def
	x0 y0 M x1 y1 L
} def
/Sm {
	yratio mul
	/y exch def
	xratio mul
	/x exch def
	x y M
} def
/Sl {
	yratio mul
	/y exch def
	xratio mul
	/x exch def
	x y L
} def
/SPl {
	yratio mul
	/y exch def
	xratio mul
	/x exch def
	x y PL
} def
/Lcs {
	currentlinecap
	1 setlinecap
} def
/Lcr {
	setlinecap
} def
/Sbp {
	newpath
} def
/Sep {
	/sfill exch def
	closepath
	sfill 1 eq  {
		Ssrgb setrgbcolor
		gsave
		fill
		grestore
	} if
	Slw setlinewidth
	Slrgb setrgbcolor
	Lcs
	stroke
	Lcr
} def
/cp {currentpoint} def 
/M {moveto} def 
/rm {rmoveto} def 
/S {stroke} def 
/L {Slw setlinewidth Slrgb setrgbcolor lineto Lcs S Lcr} def 
/PL {Slw setlinewidth Slrgb setrgbcolor lineto} def 
/MF-Helvetica {
  /newfontname exch def
  /fontname exch def
  /fontdict fontname findfont def
  /newfont fontdict maxlength dict def
  fontdict {
  exch dup /FID eq {pop pop} {exch newfont 3 1 roll put} ifelse
  } forall
  newfont /FontName newfontname put
  newfont /Encoding ISOLatin1Encoding put
  newfontname newfont definefont pop
} def
/Helvetica /Helvetica-0 MF-Helvetica
/Slw 0.120 def
0.918 0.949 0.953 setrgbcolor
0 0 396.000 288.000 Sbgfill
/Slrgb {1.000 1.000 1.000} def
/Strgb {1.000 1.000 1.000} def
/Ssrgb {1.000 1.000 1.000} def
/Ssrgb {0.918 0.949 0.953} def
/Slw 0.576 def
/Slrgb {0.918 0.949 0.953} def
0 0 31999 23272 1 Srect
/Ssrgb {1.000 1.000 1.000} def
/Slrgb {1.000 1.000 1.000} def
2268 5222 29730 22457 1 Srect
/Slrgb {0.000 0.000 0.000} def
/Strgb {0.000 0.000 0.000} def
/Slw 0.864 def
/Slrgb {0.918 0.949 0.953} def
2268 6276 29730 6276 Sln
/Slw 0.576 def
/Slrgb {0.000 0.000 0.000} def
/Slw 0.864 def
/Slrgb {0.918 0.949 0.953} def
2268 9286 29730 9286 Sln
/Slw 0.576 def
/Slrgb {0.000 0.000 0.000} def
/Slw 0.864 def
/Slrgb {0.918 0.949 0.953} def
2268 12297 29730 12297 Sln
/Slw 0.576 def
/Slrgb {0.000 0.000 0.000} def
/Slw 0.864 def
/Slrgb {0.918 0.949 0.953} def
2268 15307 29730 15307 Sln
/Slw 0.576 def
/Slrgb {0.000 0.000 0.000} def
/Slw 0.864 def
/Slrgb {0.918 0.949 0.953} def
2268 18317 29730 18317 Sln
/Slw 0.576 def
/Slrgb {0.000 0.000 0.000} def
/Slw 0.864 def
/Slrgb {0.918 0.949 0.953} def
2268 21328 29730 21328 Sln
/Slw 0.576 def
/Slrgb {0.000 0.000 0.000} def
/Slw 0.864 def
/Slrgb {0.102 0.278 0.435} def
3045 9753 Sm
3133 9753 Sl
3133 9753 Sm
3221 9753 Sl
3221 9753 Sm
3309 10626 Sl
3309 10626 Sm
3397 11499 Sl
3397 11499 Sm
3485 12372 Sl
3485 12372 Sm
3574 11900 Sl
3574 11900 Sm
3662 11429 Sl
3662 11429 Sm
3750 10957 Sl
3750 10957 Sm
3838 11604 Sl
3838 11604 Sm
3926 12252 Sl
3926 12252 Sm
4014 12899 Sl
4014 12899 Sm
4102 13927 Sl
4102 13927 Sm
4190 14956 Sl
4190 14956 Sm
4279 15984 Sl
4279 15984 Sm
4367 16145 Sl
4367 16145 Sm
4455 16306 Sl
4455 16306 Sm
4543 16466 Sl
4543 16466 Sm
4631 16632 Sl
4631 16632 Sm
4719 16797 Sl
4719 16797 Sm
4807 16963 Sl
4807 16963 Sm
4895 17148 Sl
4895 17148 Sm
4984 17334 Sl
4984 17334 Sm
5072 17520 Sl
5072 17520 Sm
5160 17740 Sl
5160 17740 Sm
5248 17961 Sl
5248 17961 Sm
5336 18182 Sl
5336 18182 Sm
5424 18312 Sl
5424 18312 Sm
5512 18443 Sl
5512 18443 Sm
5600 18573 Sl
5600 18573 Sm
5689 18267 Sl
5689 18267 Sm
5777 17961 Sl
5777 17961 Sm
5865 17655 Sl
5865 17655 Sm
5953 17740 Sl
5953 17740 Sm
6041 17826 Sl
6041 17826 Sm
6129 17911 Sl
6129 17911 Sm
6217 18443 Sl
6217 18443 Sm
6305 18975 Sl
6305 18975 Sm
6394 19507 Sl
6394 19507 Sm
6482 20089 Sl
6482 20089 Sm
6570 20671 Sl
6570 20671 Sm
6658 21253 Sl
6658 21253 Sm
6746 21167 Sl
6746 21167 Sm
6834 21082 Sl
6834 21082 Sm
6922 20997 Sl
6922 20997 Sm
7010 20756 Sl
7010 20756 Sm
7099 20515 Sl
7099 20515 Sm
7187 20274 Sl
7187 20274 Sm
7275 20234 Sl
7275 20234 Sm
7363 20194 Sl
7363 20194 Sm
7451 20154 Sl
7451 20154 Sm
7539 19893 Sl
7539 19893 Sm
7627 19632 Sl
7627 19632 Sm
7715 19371 Sl
7715 19371 Sm
7804 19893 Sl
7804 19893 Sm
7892 20415 Sl
7892 20415 Sm
7980 20937 Sl
7980 20937 Sm
8068 20410 Sl
8068 20410 Sm
8156 19883 Sl
8156 19883 Sm
8244 19356 Sl
8244 19356 Sm
8332 19306 Sl
8332 19306 Sm
8420 19256 Sl
8420 19256 Sm
8508 19206 Sl
8508 19206 Sm
8597 19216 Sl
8597 19216 Sm
8685 19226 Sl
8685 19226 Sm
8773 19236 Sl
8773 19236 Sm
8861 19105 Sl
8861 19105 Sm
8949 18975 Sl
8949 18975 Sm
9037 18844 Sl
9037 18844 Sm
9125 18317 Sl
9125 18317 Sm
9213 17791 Sl
9213 17791 Sm
9302 17264 Sl
9302 17264 Sm
9390 17660 Sl
9390 17660 Sm
9478 18057 Sl
9478 18057 Sm
9566 18453 Sl
9566 18453 Sm
9654 18593 Sl
9654 18593 Sm
9742 18734 Sl
9742 18734 Sm
9830 18874 Sl
9830 18874 Sm
9918 19080 Sl
9918 19080 Sm
10007 19286 Sl
10007 19286 Sm
10095 19492 Sl
10095 19492 Sm
10183 19376 Sl
10183 19376 Sm
10271 19261 Sl
10271 19261 Sm
10359 19145 Sl
10359 19145 Sm
10447 19221 Sl
10447 19221 Sm
10535 19296 Sl
10535 19296 Sm
10623 19371 Sl
10623 19371 Sm
10712 19306 Sl
10712 19306 Sm
10800 19241 Sl
10800 19241 Sm
10888 19175 Sl
10888 19175 Sm
10976 19241 Sl
10976 19241 Sm
11064 19306 Sl
11064 19306 Sm
11152 19371 Sl
11152 19371 Sm
11240 18930 Sl
11240 18930 Sm
11328 18488 Sl
11328 18488 Sm
11417 18047 Sl
11417 18047 Sm
11505 18493 Sl
11505 18493 Sm
11593 18940 Sl
11593 18940 Sm
11681 19386 Sl
11681 19386 Sm
11769 19030 Sl
11769 19030 Sm
11857 18674 Sl
11857 18674 Sm
11945 18317 Sl
11945 18317 Sm
12033 16491 Sl
12033 16491 Sm
12122 14665 Sl
12122 14665 Sm
12210 12839 Sl
12210 12839 Sm
12298 14294 Sl
12298 14294 Sm
12386 15749 Sl
12386 15749 Sm
12474 17204 Sl
12474 17204 Sm
12562 17073 Sl
12562 17073 Sm
12650 16943 Sl
12650 16943 Sm
12738 16812 Sl
12738 16812 Sm
12827 17043 Sl
12827 17043 Sm
12915 17274 Sl
12915 17274 Sm
13003 17505 Sl
13003 17505 Sm
13091 17319 Sl
13091 17319 Sm
13179 17133 Sl
13179 17133 Sm
13267 16948 Sl
13267 16948 Sm
13355 16857 Sl
13355 16857 Sm
13443 16767 Sl
13443 16767 Sm
13532 16677 Sl
13532 16677 Sm
13620 15989 Sl
13620 15989 Sm
13708 15302 Sl
13708 15302 Sm
13796 14615 Sl
13796 14615 Sm
13884 14148 Sl
13884 14148 Sm
13972 13681 Sl
13972 13681 Sm
14060 13215 Sl
14060 13215 Sm
14148 12718 Sl
14148 12718 Sm
14237 12221 Sl
14237 12221 Sm
14325 11725 Sl
14325 11725 Sm
14413 10927 Sl
14413 10927 Sm
14501 10129 Sl
14501 10129 Sm
14589 9331 Sl
14589 9331 Sm
14677 9773 Sl
14677 9773 Sm
14765 10215 Sl
14765 10215 Sm
14853 10656 Sl
14853 10656 Sm
14942 11183 Sl
14942 11183 Sm
15030 11710 Sl
15030 11710 Sm
15118 12236 Sl
15118 12236 Sm
15206 11710 Sl
15206 11710 Sm
15294 11183 Sl
15294 11183 Sm
15382 10656 Sl
15382 10656 Sm
15470 10932 Sl
15470 10932 Sm
15558 11208 Sl
15558 11208 Sm
15647 11484 Sl
15647 11484 Sm
15735 12507 Sl
15735 12507 Sm
15823 13531 Sl
15823 13531 Sm
15911 14554 Sl
15911 14554 Sm
15999 14735 Sl
15999 14735 Sm
16087 14916 Sl
16087 14916 Sm
16175 15096 Sl
16175 15096 Sm
16263 15167 Sl
16263 15167 Sm
16351 15237 Sl
16351 15237 Sm
16440 15307 Sl
16440 15307 Sm
16528 15207 Sl
16528 15207 Sm
16616 15106 Sl
16616 15106 Sm
16704 15006 Sl
16704 15006 Sm
16792 15663 Sl
16792 15663 Sm
16880 16321 Sl
16880 16321 Sm
16968 16978 Sl
16968 16978 Sm
17056 17249 Sl
17056 17249 Sm
17145 17520 Sl
17145 17520 Sm
17233 17791 Sl
17233 17791 Sm
17321 17966 Sl
17321 17966 Sm
17409 18142 Sl
17409 18142 Sm
17497 18317 Sl
17497 18317 Sm
17585 19216 Sl
17585 19216 Sm
17673 20114 Sl
17673 20114 Sm
17761 21012 Sl
17761 21012 Sm
17850 21258 Sl
17850 21258 Sm
17938 21503 Sl
17938 21503 Sm
18026 21749 Sl
18026 21749 Sm
18114 21609 Sl
18114 21609 Sm
18202 21468 Sl
18202 21468 Sm
18290 21328 Sl
18290 21328 Sm
18378 21383 Sl
18378 21383 Sm
18466 21438 Sl
18466 21438 Sm
18555 21493 Sl
18555 21493 Sm
18643 21619 Sl
18643 21619 Sm
18731 21744 Sl
18731 21744 Sm
18819 21870 Sl
18819 21870 Sm
18907 21895 Sl
18907 21895 Sm
18995 21920 Sl
18995 21920 Sm
19083 21945 Sl
19083 21945 Sm
19171 21574 Sl
19171 21574 Sm
19260 21202 Sl
19260 21202 Sm
19348 20831 Sl
19348 20831 Sm
19436 20435 Sl
19436 20435 Sm
19524 20038 Sl
19524 20038 Sm
19612 19642 Sl
19612 19642 Sm
19700 19737 Sl
19700 19737 Sm
19788 19833 Sl
19788 19833 Sm
19876 19928 Sl
19876 19928 Sm
19965 20008 Sl
19965 20008 Sm
20053 20089 Sl
20053 20089 Sm
20141 20169 Sl
20141 20169 Sm
20229 19998 Sl
20229 19998 Sm
20317 19828 Sl
20317 19828 Sm
20405 19657 Sl
20405 19657 Sm
20493 19211 Sl
20493 19211 Sm
20581 18764 Sl
20581 18764 Sm
20670 18317 Sl
20670 18317 Sm
20758 18317 Sl
20758 18317 Sm
20846 18317 Sl
20846 18317 Sm
20934 18317 Sl
20934 18317 Sm
21022 18503 Sl
21022 18503 Sm
21110 18689 Sl
21110 18689 Sm
21198 18874 Sl
21198 18874 Sm
21286 18312 Sl
21286 18312 Sm
21375 17751 Sl
21375 17751 Sm
21463 17189 Sl
21463 17189 Sm
21551 16602 Sl
21551 16602 Sm
21639 16015 Sl
21639 16015 Sm
21727 15428 Sl
21727 15428 Sm
21815 14775 Sl
21815 14775 Sm
21903 14123 Sl
21903 14123 Sm
21991 13471 Sl
21991 13471 Sm
22080 12307 Sl
22080 12307 Sm
22168 11143 Sl
22168 11143 Sm
22256 9979 Sl
22256 9979 Sm
22344 9868 Sl
22344 9868 Sm
22432 9758 Sl
22432 9758 Sm
22520 9648 Sl
22520 9648 Sm
22608 8343 Sl
22608 8343 Sm
22696 7039 Sl
22696 7039 Sm
22785 5734 Sl
22785 5734 Sm
22873 6707 Sl
22873 6707 Sm
22961 7681 Sl
22961 7681 Sm
23049 8654 Sl
23049 8654 Sm
23137 9888 Sl
23137 9888 Sm
23225 11123 Sl
23225 11123 Sm
23313 12357 Sl
23313 12357 Sm
23401 12763 Sl
23401 12763 Sm
23490 13170 Sl
23490 13170 Sm
23578 13576 Sl
23578 13576 Sm
23666 14454 Sl
23666 14454 Sm
23754 15332 Sl
23754 15332 Sm
23842 16210 Sl
23842 16210 Sm
23930 17189 Sl
23930 17189 Sm
24018 18167 Sl
24018 18167 Sm
24106 19145 Sl
24106 19145 Sm
24194 19226 Sl
24194 19226 Sm
24283 19306 Sl
24283 19306 Sm
24371 19386 Sl
24371 19386 Sm
24459 19471 Sl
24459 19471 Sm
24547 19557 Sl
24547 19557 Sm
24635 19642 Sl
24635 19642 Sm
24723 19727 Sl
24723 19727 Sm
24811 19813 Sl
24811 19813 Sm
24899 19898 Sl
24899 19898 Sm
24988 19898 Sl
24988 19898 Sm
25076 19898 Sl
25076 19898 Sm
25164 19898 Sl
25164 19898 Sm
25252 20194 Sl
25252 20194 Sm
25340 20490 Sl
25340 20490 Sm
25428 20786 Sl
25428 20786 Sm
25516 21057 Sl
25516 21057 Sm
25604 21328 Sl
25604 21328 Sm
25693 21599 Sl
25693 21599 Sm
25781 20801 Sl
25781 20801 Sm
25869 20003 Sl
25869 20003 Sm
25957 19206 Sl
25957 19206 Sm
26045 18639 Sl
26045 18639 Sm
26133 18072 Sl
26133 18072 Sm
26221 17505 Sl
26221 17505 Sm
26309 18122 Sl
26309 18122 Sm
26398 18739 Sl
26398 18739 Sm
26486 19356 Sl
26486 19356 Sm
26574 19487 Sl
26574 19487 Sm
26662 19617 Sl
26662 19617 Sm
26750 19747 Sl
26750 19747 Sm
26838 19652 Sl
26838 19652 Sm
26926 19557 Sl
26926 19557 Sm
27014 19461 Sl
27014 19461 Sm
27103 19451 Sl
/Slrgb {0.565 0.208 0.231} def
3045 7673 Sm
3133 7824 Sl
3133 7824 Sm
3221 7939 Sl
3221 7939 Sm
3309 7903 Sl
3309 7903 Sm
3397 7369 Sl
3397 7369 Sm
3485 7079 Sl
3485 7079 Sm
3574 6899 Sl
3574 6899 Sm
3662 7000 Sl
3662 7000 Sm
3750 7187 Sl
3750 7187 Sm
3838 7129 Sl
3838 7129 Sm
3926 7741 Sl
3926 7741 Sm
4014 7906 Sl
4014 7906 Sm
4102 8024 Sl
4102 8024 Sm
4190 7991 Sl
4190 7991 Sm
4279 7990 Sl
4279 7990 Sm
4367 8000 Sl
4367 8000 Sm
4455 8130 Sl
4455 8130 Sm
4543 8071 Sl
4543 8071 Sm
4631 8079 Sl
4631 8079 Sm
4719 8077 Sl
4719 8077 Sm
4807 8134 Sl
4807 8134 Sm
4895 8570 Sl
4895 8570 Sm
4984 8489 Sl
4984 8489 Sm
5072 8381 Sl
5072 8381 Sm
5160 8382 Sl
5160 8382 Sm
5248 8504 Sl
5248 8504 Sm
5336 8396 Sl
5336 8396 Sm
5424 8495 Sl
5424 8495 Sm
5512 8529 Sl
5512 8529 Sm
5600 8525 Sl
5600 8525 Sm
5689 8429 Sl
5689 8429 Sm
5777 8601 Sl
5777 8601 Sm
5865 8812 Sl
5865 8812 Sm
5953 8786 Sl
5953 8786 Sm
6041 8872 Sl
6041 8872 Sm
6129 8991 Sl
6129 8991 Sm
6217 8868 Sl
6217 8868 Sm
6305 8895 Sl
6305 8895 Sm
6394 8933 Sl
6394 8933 Sm
6482 8921 Sl
6482 8921 Sm
6570 9031 Sl
6570 9031 Sm
6658 9114 Sl
6658 9114 Sm
6746 9178 Sl
6746 9178 Sm
6834 9149 Sl
6834 9149 Sm
6922 9187 Sl
6922 9187 Sm
7010 9274 Sl
7010 9274 Sm
7099 9225 Sl
7099 9225 Sm
7187 9076 Sl
7187 9076 Sm
7275 8787 Sl
7275 8787 Sm
7363 8821 Sl
7363 8821 Sm
7451 8859 Sl
7451 8859 Sm
7539 8789 Sl
7539 8789 Sm
7627 8974 Sl
7627 8974 Sm
7715 8999 Sl
7715 8999 Sm
7804 8904 Sl
7804 8904 Sm
7892 8814 Sl
7892 8814 Sm
7980 8680 Sl
7980 8680 Sm
8068 8834 Sl
8068 8834 Sm
8156 9091 Sl
8156 9091 Sm
8244 9263 Sl
8244 9263 Sm
8332 9453 Sl
8332 9453 Sm
8420 9658 Sl
8420 9658 Sm
8508 9856 Sl
8508 9856 Sm
8597 10085 Sl
8597 10085 Sm
8685 10067 Sl
8685 10067 Sm
8773 10318 Sl
8773 10318 Sm
8861 10335 Sl
8861 10335 Sm
8949 10477 Sl
8949 10477 Sm
9037 10712 Sl
9037 10712 Sm
9125 10643 Sl
9125 10643 Sm
9213 11085 Sl
9213 11085 Sm
9302 10981 Sl
9302 10981 Sm
9390 10945 Sl
9390 10945 Sm
9478 11108 Sl
9478 11108 Sm
9566 11174 Sl
9566 11174 Sm
9654 10745 Sl
9654 10745 Sm
9742 10923 Sl
9742 10923 Sm
9830 11010 Sl
9830 11010 Sm
9918 11325 Sl
9918 11325 Sm
10007 11740 Sl
10007 11740 Sm
10095 11789 Sl
10095 11789 Sm
10183 12065 Sl
10183 12065 Sm
10271 12462 Sl
10271 12462 Sm
10359 12340 Sl
10359 12340 Sm
10447 11938 Sl
10447 11938 Sm
10535 12841 Sl
10535 12841 Sm
10623 13394 Sl
10623 13394 Sm
10712 14003 Sl
10712 14003 Sm
10800 13983 Sl
10800 13983 Sm
10888 14067 Sl
10888 14067 Sm
10976 14208 Sl
10976 14208 Sm
11064 14001 Sl
11064 14001 Sm
11152 14263 Sl
11152 14263 Sm
11240 14235 Sl
11240 14235 Sm
11328 14979 Sl
11328 14979 Sm
11417 15624 Sl
11417 15624 Sm
11505 15991 Sl
11505 15991 Sm
11593 15852 Sl
11593 15852 Sm
11681 15763 Sl
11681 15763 Sm
11769 16314 Sl
11769 16314 Sm
11857 15221 Sl
11857 15221 Sm
11945 14487 Sl
11945 14487 Sm
12033 14623 Sl
12033 14623 Sm
12122 16011 Sl
12122 16011 Sm
12210 16567 Sl
12210 16567 Sm
12298 17222 Sl
12298 17222 Sm
12386 17115 Sl
12386 17115 Sm
12474 17469 Sl
12474 17469 Sm
12562 18204 Sl
12562 18204 Sm
12650 18251 Sl
12650 18251 Sm
12738 18214 Sl
12738 18214 Sm
12827 18856 Sl
12827 18856 Sm
12915 18107 Sl
12915 18107 Sm
13003 17909 Sl
13003 17909 Sm
13091 17679 Sl
13091 17679 Sm
13179 18792 Sl
13179 18792 Sm
13267 19248 Sl
13267 19248 Sm
13355 19112 Sl
13355 19112 Sm
13443 18567 Sl
13443 18567 Sm
13532 19118 Sl
13532 19118 Sm
13620 19371 Sl
13620 19371 Sm
13708 18872 Sl
13708 18872 Sm
13796 19421 Sl
13796 19421 Sm
13884 19684 Sl
13884 19684 Sm
13972 19969 Sl
13972 19969 Sm
14060 19887 Sl
14060 19887 Sm
14148 18945 Sl
14148 18945 Sm
14237 18820 Sl
14237 18820 Sm
14325 18258 Sl
14325 18258 Sm
14413 18419 Sl
14413 18419 Sm
14501 18146 Sl
14501 18146 Sm
14589 16728 Sl
14589 16728 Sm
14677 16867 Sl
14677 16867 Sm
14765 17991 Sl
14765 17991 Sm
14853 17679 Sl
14853 17679 Sm
14942 17220 Sl
14942 17220 Sm
15030 16869 Sl
15030 16869 Sm
15118 15130 Sl
15118 15130 Sm
15206 15541 Sl
15206 15541 Sm
15294 16225 Sl
15294 16225 Sm
15382 16421 Sl
15382 16421 Sm
15470 16363 Sl
15470 16363 Sm
15558 15857 Sl
15558 15857 Sm
15647 16545 Sl
15647 16545 Sm
15735 15915 Sl
15735 15915 Sm
15823 15410 Sl
15823 15410 Sm
15911 14500 Sl
15911 14500 Sm
15999 13161 Sl
15999 13161 Sm
16087 13333 Sl
16087 13333 Sm
16175 12818 Sl
16175 12818 Sm
16263 12585 Sl
16263 12585 Sm
16351 13222 Sl
16351 13222 Sm
16440 13020 Sl
16440 13020 Sm
16528 12942 Sl
16528 12942 Sm
16616 12171 Sl
16616 12171 Sm
16704 12258 Sl
16704 12258 Sm
16792 12812 Sl
16792 12812 Sm
16880 13398 Sl
16880 13398 Sm
16968 14063 Sl
16968 14063 Sm
17056 14013 Sl
17056 14013 Sm
17145 13871 Sl
17145 13871 Sm
17233 14133 Sl
17233 14133 Sm
17321 14168 Sl
17321 14168 Sm
17409 14106 Sl
17409 14106 Sm
17497 14273 Sl
17497 14273 Sm
17585 14721 Sl
17585 14721 Sm
17673 14690 Sl
17673 14690 Sm
17761 14321 Sl
17761 14321 Sm
17850 14291 Sl
17850 14291 Sm
17938 13822 Sl
17938 13822 Sm
18026 14022 Sl
18026 14022 Sm
18114 13609 Sl
18114 13609 Sm
18202 13311 Sl
18202 13311 Sm
18290 13502 Sl
18290 13502 Sm
18378 13440 Sl
18378 13440 Sm
18466 13925 Sl
18466 13925 Sm
18555 14182 Sl
18555 14182 Sm
18643 13831 Sl
18643 13831 Sm
18731 13856 Sl
18731 13856 Sm
18819 13650 Sl
18819 13650 Sm
18907 13212 Sl
18907 13212 Sm
18995 13218 Sl
18995 13218 Sm
19083 13321 Sl
19083 13321 Sm
19171 13412 Sl
19171 13412 Sm
19260 13330 Sl
19260 13330 Sm
19348 13246 Sl
19348 13246 Sm
19436 12798 Sl
19436 12798 Sm
19524 13092 Sl
19524 13092 Sm
19612 13191 Sl
19612 13191 Sm
19700 13244 Sl
19700 13244 Sm
19788 13128 Sl
19788 13128 Sm
19876 13185 Sl
19876 13185 Sm
19965 13150 Sl
19965 13150 Sm
20053 12937 Sl
20053 12937 Sm
20141 12515 Sl
20141 12515 Sm
20229 12475 Sl
20229 12475 Sm
20317 12604 Sl
20317 12604 Sm
20405 12761 Sl
20405 12761 Sm
20493 13022 Sl
20493 13022 Sm
20581 13111 Sl
20581 13111 Sm
20670 13217 Sl
20670 13217 Sm
20758 13186 Sl
20758 13186 Sm
20846 13259 Sl
20846 13259 Sm
20934 12866 Sl
20934 12866 Sm
21022 13214 Sl
21022 13214 Sm
21110 13484 Sl
21110 13484 Sm
21198 13406 Sl
21198 13406 Sm
21286 13338 Sl
21286 13338 Sm
21375 12720 Sl
21375 12720 Sm
21463 12930 Sl
21463 12930 Sm
21551 13142 Sl
21551 13142 Sm
21639 12474 Sl
21639 12474 Sm
21727 12491 Sl
21727 12491 Sm
21815 11688 Sl
21815 11688 Sm
21903 11448 Sl
21903 11448 Sm
21991 11111 Sl
21991 11111 Sm
22080 11447 Sl
22080 11447 Sm
22168 11633 Sl
22168 11633 Sm
22256 11148 Sl
22256 11148 Sm
22344 10541 Sl
22344 10541 Sm
22432 10697 Sl
22432 10697 Sm
22520 10229 Sl
22520 10229 Sm
22608 8522 Sl
22608 8522 Sm
22696 7950 Sl
22696 7950 Sm
22785 7945 Sl
22785 7945 Sm
22873 7943 Sl
22873 7943 Sm
22961 7587 Sl
22961 7587 Sm
23049 7311 Sl
23049 7311 Sm
23137 8119 Sl
23137 8119 Sm
23225 8676 Sl
23225 8676 Sm
23313 9015 Sl
23313 9015 Sm
23401 9258 Sl
23401 9258 Sm
23490 10045 Sl
23490 10045 Sm
23578 10538 Sl
23578 10538 Sm
23666 10926 Sl
23666 10926 Sm
23754 11307 Sl
23754 11307 Sm
23842 11722 Sl
23842 11722 Sm
23930 11917 Sl
23930 11917 Sm
24018 11678 Sl
24018 11678 Sm
24106 12336 Sl
24106 12336 Sm
24194 12733 Sl
24194 12733 Sm
24283 12046 Sl
24283 12046 Sm
24371 11642 Sl
24371 11642 Sm
24459 11561 Sl
24459 11561 Sm
24547 11582 Sl
24547 11582 Sm
24635 11850 Sl
24635 11850 Sm
24723 12240 Sl
24723 12240 Sm
24811 12428 Sl
24811 12428 Sm
24899 12749 Sl
24899 12749 Sm
24988 13000 Sl
24988 13000 Sm
25076 13222 Sl
25076 13222 Sm
25164 12963 Sl
25164 12963 Sm
25252 13050 Sl
25252 13050 Sm
25340 12964 Sl
25340 12964 Sm
25428 12398 Sl
25428 12398 Sm
25516 12588 Sl
25516 12588 Sm
25604 11327 Sl
25604 11327 Sm
25693 11128 Sl
25693 11128 Sm
25781 11238 Sl
25781 11238 Sm
25869 11235 Sl
25869 11235 Sm
25957 11214 Sl
25957 11214 Sm
26045 11538 Sl
26045 11538 Sm
26133 11816 Sl
26133 11816 Sm
26221 11974 Sl
26221 11974 Sm
26309 11833 Sl
26309 11833 Sm
26398 11389 Sl
26398 11389 Sm
26486 11151 Sl
26486 11151 Sm
26574 11268 Sl
26574 11268 Sm
26662 11432 Sl
26662 11432 Sm
26750 11566 Sl
26750 11566 Sm
26838 11347 Sl
26838 11347 Sm
26926 10887 Sl
26926 10887 Sm
27014 10904 Sl
/Slw 0.576 def
/Slrgb {0.000 0.000 0.000} def
29730 5222 29730 22457 Sln
29730 5734 30053 5734 Sln
30779 5734 0
/Helvetica-0 findfont 808 yratio mul scalefont setfont
(20) stringwidth pop add
2 div xratio div
dup 4 3 roll exch 90.000 cos mul sub 3 1 roll 90.000 sin mul sub 2 copy
/fntsize {/Helvetica-0 findfont exch scalefont setfont } def
90.000 808
(20) Stxtl
(20) stringwidth pop xratio div
dup 4 3 roll exch 90.000 cos mul add 3 1 roll 90.000 sin mul add 2 copy
pop pop pop pop
29730 9787 30053 9787 Sln
30779 9787 0
/Helvetica-0 findfont 808 yratio mul scalefont setfont
(40) stringwidth pop add
2 div xratio div
dup 4 3 roll exch 90.000 cos mul sub 3 1 roll 90.000 sin mul sub 2 copy
/fntsize {/Helvetica-0 findfont exch scalefont setfont } def
90.000 808
(40) Stxtl
(40) stringwidth pop xratio div
dup 4 3 roll exch 90.000 cos mul add 3 1 roll 90.000 sin mul add 2 copy
pop pop pop pop
29730 13840 30053 13840 Sln
30779 13840 0
/Helvetica-0 findfont 808 yratio mul scalefont setfont
(60) stringwidth pop add
2 div xratio div
dup 4 3 roll exch 90.000 cos mul sub 3 1 roll 90.000 sin mul sub 2 copy
/fntsize {/Helvetica-0 findfont exch scalefont setfont } def
90.000 808
(60) Stxtl
(60) stringwidth pop xratio div
dup 4 3 roll exch 90.000 cos mul add 3 1 roll 90.000 sin mul add 2 copy
pop pop pop pop
29730 17892 30053 17892 Sln
30779 17892 0
/Helvetica-0 findfont 808 yratio mul scalefont setfont
(80) stringwidth pop add
2 div xratio div
dup 4 3 roll exch 90.000 cos mul sub 3 1 roll 90.000 sin mul sub 2 copy
/fntsize {/Helvetica-0 findfont exch scalefont setfont } def
90.000 808
(80) Stxtl
(80) stringwidth pop xratio div
dup 4 3 roll exch 90.000 cos mul add 3 1 roll 90.000 sin mul add 2 copy
pop pop pop pop
29730 21945 30053 21945 Sln
30779 21945 0
/Helvetica-0 findfont 808 yratio mul scalefont setfont
(100) stringwidth pop add
2 div xratio div
dup 4 3 roll exch 90.000 cos mul sub 3 1 roll 90.000 sin mul sub 2 copy
/fntsize {/Helvetica-0 findfont exch scalefont setfont } def
90.000 808
(100) Stxtl
(100) stringwidth pop xratio div
dup 4 3 roll exch 90.000 cos mul add 3 1 roll 90.000 sin mul add 2 copy
pop pop pop pop
2268 5222 2268 22457 Sln
2268 6276 1945 6276 Sln
1541 6276 0
/Helvetica-0 findfont 808 yratio mul scalefont setfont
(-80) stringwidth pop add
2 div xratio div
dup 4 3 roll exch 90.000 cos mul sub 3 1 roll 90.000 sin mul sub 2 copy
/fntsize {/Helvetica-0 findfont exch scalefont setfont } def
90.000 808
(-80) Stxtl
(-80) stringwidth pop xratio div
dup 4 3 roll exch 90.000 cos mul add 3 1 roll 90.000 sin mul add 2 copy
pop pop pop pop
2268 9286 1945 9286 Sln
1541 9286 0
/Helvetica-0 findfont 808 yratio mul scalefont setfont
(-60) stringwidth pop add
2 div xratio div
dup 4 3 roll exch 90.000 cos mul sub 3 1 roll 90.000 sin mul sub 2 copy
/fntsize {/Helvetica-0 findfont exch scalefont setfont } def
90.000 808
(-60) Stxtl
(-60) stringwidth pop xratio div
dup 4 3 roll exch 90.000 cos mul add 3 1 roll 90.000 sin mul add 2 copy
pop pop pop pop
2268 12297 1945 12297 Sln
1541 12297 0
/Helvetica-0 findfont 808 yratio mul scalefont setfont
(-40) stringwidth pop add
2 div xratio div
dup 4 3 roll exch 90.000 cos mul sub 3 1 roll 90.000 sin mul sub 2 copy
/fntsize {/Helvetica-0 findfont exch scalefont setfont } def
90.000 808
(-40) Stxtl
(-40) stringwidth pop xratio div
dup 4 3 roll exch 90.000 cos mul add 3 1 roll 90.000 sin mul add 2 copy
pop pop pop pop
2268 15307 1945 15307 Sln
1541 15307 0
/Helvetica-0 findfont 808 yratio mul scalefont setfont
(-20) stringwidth pop add
2 div xratio div
dup 4 3 roll exch 90.000 cos mul sub 3 1 roll 90.000 sin mul sub 2 copy
/fntsize {/Helvetica-0 findfont exch scalefont setfont } def
90.000 808
(-20) Stxtl
(-20) stringwidth pop xratio div
dup 4 3 roll exch 90.000 cos mul add 3 1 roll 90.000 sin mul add 2 copy
pop pop pop pop
2268 18317 1945 18317 Sln
1541 18317 0
/Helvetica-0 findfont 808 yratio mul scalefont setfont
(0) stringwidth pop add
2 div xratio div
dup 4 3 roll exch 90.000 cos mul sub 3 1 roll 90.000 sin mul sub 2 copy
/fntsize {/Helvetica-0 findfont exch scalefont setfont } def
90.000 808
(0) Stxtl
(0) stringwidth pop xratio div
dup 4 3 roll exch 90.000 cos mul add 3 1 roll 90.000 sin mul add 2 copy
pop pop pop pop
2268 21328 1945 21328 Sln
1541 21328 0
/Helvetica-0 findfont 808 yratio mul scalefont setfont
(20) stringwidth pop add
2 div xratio div
dup 4 3 roll exch 90.000 cos mul sub 3 1 roll 90.000 sin mul sub 2 copy
/fntsize {/Helvetica-0 findfont exch scalefont setfont } def
90.000 808
(20) Stxtl
(20) stringwidth pop xratio div
dup 4 3 roll exch 90.000 cos mul add 3 1 roll 90.000 sin mul add 2 copy
pop pop pop pop
2268 5222 29730 5222 Sln
2780 5222 2780 4899 Sln
2780 4172 0
/Helvetica-0 findfont 808 yratio mul scalefont setfont
(1990m1) stringwidth pop add
2 div xratio div
dup 4 3 roll exch 0.000 cos mul sub 3 1 roll 0.000 sin mul sub 2 copy
/fntsize {/Helvetica-0 findfont exch scalefont setfont } def
0.000 808
(1990m1) Stxtl
(1990m1) stringwidth pop xratio div
dup 4 3 roll exch 0.000 cos mul add 3 1 roll 0.000 sin mul add 2 copy
pop pop pop pop
8068 5222 8068 4899 Sln
8068 4172 0
/Helvetica-0 findfont 808 yratio mul scalefont setfont
(1995m1) stringwidth pop add
2 div xratio div
dup 4 3 roll exch 0.000 cos mul sub 3 1 roll 0.000 sin mul sub 2 copy
/fntsize {/Helvetica-0 findfont exch scalefont setfont } def
0.000 808
(1995m1) Stxtl
(1995m1) stringwidth pop xratio div
dup 4 3 roll exch 0.000 cos mul add 3 1 roll 0.000 sin mul add 2 copy
pop pop pop pop
13355 5222 13355 4899 Sln
13355 4172 0
/Helvetica-0 findfont 808 yratio mul scalefont setfont
(2000m1) stringwidth pop add
2 div xratio div
dup 4 3 roll exch 0.000 cos mul sub 3 1 roll 0.000 sin mul sub 2 copy
/fntsize {/Helvetica-0 findfont exch scalefont setfont } def
0.000 808
(2000m1) Stxtl
(2000m1) stringwidth pop xratio div
dup 4 3 roll exch 0.000 cos mul add 3 1 roll 0.000 sin mul add 2 copy
pop pop pop pop
18643 5222 18643 4899 Sln
18643 4172 0
/Helvetica-0 findfont 808 yratio mul scalefont setfont
(2005m1) stringwidth pop add
2 div xratio div
dup 4 3 roll exch 0.000 cos mul sub 3 1 roll 0.000 sin mul sub 2 copy
/fntsize {/Helvetica-0 findfont exch scalefont setfont } def
0.000 808
(2005m1) Stxtl
(2005m1) stringwidth pop xratio div
dup 4 3 roll exch 0.000 cos mul add 3 1 roll 0.000 sin mul add 2 copy
pop pop pop pop
23930 5222 23930 4899 Sln
23930 4172 0
/Helvetica-0 findfont 808 yratio mul scalefont setfont
(2010m1) stringwidth pop add
2 div xratio div
dup 4 3 roll exch 0.000 cos mul sub 3 1 roll 0.000 sin mul sub 2 copy
/fntsize {/Helvetica-0 findfont exch scalefont setfont } def
0.000 808
(2010m1) Stxtl
(2010m1) stringwidth pop xratio div
dup 4 3 roll exch 0.000 cos mul add 3 1 roll 0.000 sin mul add 2 copy
pop pop pop pop
29218 5222 29218 4899 Sln
29218 4172 0
/Helvetica-0 findfont 808 yratio mul scalefont setfont
(2015m1) stringwidth pop add
2 div xratio div
dup 4 3 roll exch 0.000 cos mul sub 3 1 roll 0.000 sin mul sub 2 copy
/fntsize {/Helvetica-0 findfont exch scalefont setfont } def
0.000 808
(2015m1) Stxtl
(2015m1) stringwidth pop xratio div
dup 4 3 roll exch 0.000 cos mul add 3 1 roll 0.000 sin mul add 2 copy
pop pop pop pop
15999 3283 0
/Helvetica-0 findfont 808 yratio mul scalefont setfont
(date) stringwidth pop add
2 div xratio div
dup 4 3 roll exch 0.000 cos mul sub 3 1 roll 0.000 sin mul sub 2 copy
/fntsize {/Helvetica-0 findfont exch scalefont setfont } def
0.000 808
(date) Stxtl
(date) stringwidth pop xratio div
dup 4 3 roll exch 0.000 cos mul add 3 1 roll 0.000 sin mul add 2 copy
pop pop pop pop
3155 1093 28843 2599 1 Srect
/Slw 0.864 def
/Slrgb {0.102 0.278 0.435} def
3504 1846 6530 1846 Sln
/Slrgb {0.565 0.208 0.231} def
21683 1846 24708 1846 Sln
7014 1563 2 copy
/fntsize {/Helvetica-0 findfont exch scalefont setfont } def
0.000 808
(% respondents tightening standards) Stxtl
(% respondents tightening standards) stringwidth pop xratio div
dup 4 3 roll exch 0.000 cos mul add 3 1 roll 0.000 sin mul add 2 copy
pop pop pop pop
25193 1563 2 copy
/fntsize {/Helvetica-0 findfont exch scalefont setfont } def
0.000 808
(P/D ratio) Stxtl
(P/D ratio) stringwidth pop xratio div
dup 4 3 roll exch 0.000 cos mul add 3 1 roll 0.000 sin mul add 2 copy
pop pop pop pop
S showpage
%%EOF
