%!PS-Adobe-2.0 EPSF-2.0
%% This is a Stata generated postscript file
%%BoundingBox: 0 0 396 288
%%HiResBoundingBox: 0.000 0.000 396.000 288.000
%%DocumentNeededResources: font Helvetica
/xratio 0.012375 def
/yratio 0.012375 def
/Sbgfill {
	/y1 exch def
	/x1 exch def
	/y0 exch def
	/x0 exch def
	x0 y0 moveto
	x0 y1 lineto x1 y1 lineto x1 y0 lineto x0 y0 lineto
	fill
} def
/Spt {
	yratio mul
	/yp exch def
	xratio mul
	/xp exch def
	Slrgb setrgbcolor
	xp yp .5 0 360 arc fill
} def
/Sln {
	yratio mul
	/y1p exch def
	xratio mul
	/x1p exch def
	yratio mul
	/y0p exch def
	xratio mul
	/x0p exch def
	Slw setlinewidth
	Slrgb setrgbcolor
	x0p y0p M x1p y1p lineto S
} def
/Scrv {
	yratio mul
	/y3p exch def
	xratio mul
	/x3p exch def
	yratio mul
	/y2p exch def
	xratio mul
	/x2p exch def
	yratio mul
	/y1p exch def
	xratio mul
	/x1p exch def
	Slw setlinewidth
	Slrgb setrgbcolor
	x1p y1p x2p y2p x3p y3p curveto
	stroke
} def
/Stxtl {
	/sp exch def
	yratio mul
	/sizep exch def
	dup
	/anglep exch def
	0 exch sub
	/angle2p exch def
	yratio mul
	/y0p exch def
	xratio mul
	/x0p exch def
	Strgb setrgbcolor
	x0p y0p M anglep rotate sizep fntsize sp show stroke angle2p rotate
} def
/Stxtc {
	/sp exch def
	yratio mul
	/sizep exch def
	dup
	/anglep exch def
	0 exch sub
	/angle2p exch def
	yratio mul
	/y0p exch def
	xratio mul
	/x0p exch def
	Strgb setrgbcolor
	x0p y0p M anglep rotate sizep fntsize sp stringwidth exch -2 div exch rm sp show stroke angle2p rotate
} def
/Stxtr {
	/sp exch def
	yratio mul
	/sizep exch def
	dup
	/anglep exch def
	0 exch sub
	/angle2p exch def
	yratio mul
	/y0p exch def
	xratio mul
	/x0p exch def
	Strgb setrgbcolor
	x0p y0p M anglep rotate sizep fntsize sp stringwidth 1 index -1 mul exch rm pop sp show stroke angle2p rotate
} def
/Srect {
	/sfill exch def
	yratio mul
	/y1 exch def
	xratio mul
	/x1 exch def
	yratio mul
	/y0 exch def
	xratio mul
	/x0 exch def
	newpath x0 y0 moveto x0 y1 lineto x1 y1 lineto x1 y0 lineto x0 y0 lineto closepath
	sfill 1 eq {
		Ssrgb setrgbcolor
		gsave
		fill
		grestore
	} if
	Slw setlinewidth
	Slrgb setrgbcolor
	stroke
} def
/Sellipse {
	/sfill exch def
	yratio mul
	/yrad exch def
	xratio mul
	/xrad exch def
	yratio mul
	/y exch def
	xratio mul
	/x exch def
	/savematrix matrix currentmatrix def
	x y translate
	xrad yrad scale
	0 0 1 0 360 arc
	savematrix setmatrix
	sfill 1 eq {
		Ssrgb setrgbcolor
		gsave
		fill
		grestore
	} if
	Slw setlinewidth
	Slrgb setrgbcolor
	stroke
} def
/Stri {
	/sfill exch def
	xratio mul
	/r exch def
	yratio mul
	/y0 exch def
	xratio mul
	/x0 exch def
	/xcen x0 def
	y0 r add
	/ytop exch def
	r 2 div
	y0 exch sub
	/ybot exch def
	r 3 sqrt 2 div mul dup
	xcen exch sub
	/xleft exch def
	xcen add
	/xright exch def
	newpath xcen ytop moveto xright ybot lineto xleft ybot lineto xcen ytop lineto closepath
	sfill 1 eq {
		Ssrgb setrgbcolor
		gsave
		fill
		grestore
	} if
	Slw setlinewidth
	Slrgb setrgbcolor
	stroke
} def
/Soldtri {
	/sfill exch def
	xratio mul
	/r exch def
	yratio mul
	/y0 exch def
	xratio mul
	/x0 exch def
	x0 r sub
	/x1 exch def
	y0 r sub
	/y1 exch def
	x0 r add
	/x2 exch def
	y0 r sub
	/y2 exch def
	/x3 x0 def
	y0 r add
	/y3 exch def
	newpath x1 y1 moveto x2 y2 lineto x3 y3 lineto x1 y1 lineto closepath
	sfill 1 eq {
		Ssrgb setrgbcolor
		gsave
		fill
		grestore
	} if
	Slw setlinewidth
	Slrgb setrgbcolor
	stroke
} def
/Sdia {
	/sfill exch def
	xratio mul
	/r exch def
	yratio mul
	/y exch def
	xratio mul
	/x exch def
	x r sub
	/x0 exch def
	/y0 y def
	/x1 x def
	y r sub
	/y1 exch def
	x r add
	/x2 exch def
	/y2 y def
	/x3 x def
	y r add
	/y3 exch def
	newpath x0 y0 moveto x1 y1 lineto x2 y2 lineto x3 y3 lineto x0 y0 lineto closepath
	sfill 1 eq {
		Ssrgb setrgbcolor
		gsave
		fill
		grestore
	} if
	Slw setlinewidth
	Slrgb setrgbcolor
	stroke
} def
/Scc {
	/sfill exch def
	xratio mul
	/r0 exch def
	yratio mul
	/y0 exch def
	xratio mul
	/x0 exch def
	x0 y0 r0 0 360 arc closepath
	sfill 1 eq {
		Ssrgb setrgbcolor
		gsave
		fill
		grestore
	} if
	Slw setlinewidth
	Slrgb setrgbcolor
	stroke
} def
/Spie {
	/sfill exch def
	/a1 exch def
	/a0 exch def
	xratio mul
	/r exch def
	yratio mul
	/y exch def
	xratio mul
	/x exch def
	newpath x y moveto x y r a0 a1 arc closepath
	sfill 1 eq {
		Ssrgb setrgbcolor
		gsave
		fill
		grestore
	} if
	Slw setlinewidth
	Slrgb setrgbcolor
	stroke
} def
/Splu {
	xratio mul
	/r exch def
	yratio mul
	/y exch def
	xratio mul
	/x exch def
	x r sub
	/x0 exch def
	x r add
	/x1 exch def
	x0 y M x1 y L
	y r sub
	/y0 exch def
	y r add
	/y1 exch def
	x y0 M x y1 L
} def
/Scro {
	xratio mul
	/r exch def
	yratio mul
	/y exch def
	xratio mul
	/x exch def
	x r sub
	/x0 exch def
	y r sub
	/y0 exch def
	x r add
	/x1 exch def
	y r add
	/y1 exch def
	x0 y0 M x1 y1 L
	x r add
	/x0 exch def
	y r sub
	/y0 exch def
	x r sub
	/x1 exch def
	y r add
	/y1 exch def
	x0 y0 M x1 y1 L
} def
/Sm {
	yratio mul
	/y exch def
	xratio mul
	/x exch def
	x y M
} def
/Sl {
	yratio mul
	/y exch def
	xratio mul
	/x exch def
	x y L
} def
/SPl {
	yratio mul
	/y exch def
	xratio mul
	/x exch def
	x y PL
} def
/Lcs {
	currentlinecap
	1 setlinecap
} def
/Lcr {
	setlinecap
} def
/Sbp {
	newpath
} def
/Sep {
	/sfill exch def
	closepath
	sfill 1 eq  {
		Ssrgb setrgbcolor
		gsave
		fill
		grestore
	} if
	Slw setlinewidth
	Slrgb setrgbcolor
	Lcs
	stroke
	Lcr
} def
/cp {currentpoint} def 
/M {moveto} def 
/rm {rmoveto} def 
/S {stroke} def 
/L {Slw setlinewidth Slrgb setrgbcolor lineto Lcs S Lcr} def 
/PL {Slw setlinewidth Slrgb setrgbcolor lineto} def 
/MF-Helvetica {
  /newfontname exch def
  /fontname exch def
  /fontdict fontname findfont def
  /newfont fontdict maxlength dict def
  fontdict {
  exch dup /FID eq {pop pop} {exch newfont 3 1 roll put} ifelse
  } forall
  newfont /FontName newfontname put
  newfont /Encoding ISOLatin1Encoding put
  newfontname newfont definefont pop
} def
/Helvetica /Helvetica-0 MF-Helvetica
/Slw 0.120 def
0.918 0.949 0.953 setrgbcolor
0 0 396.000 288.000 Sbgfill
/Slrgb {1.000 1.000 1.000} def
/Strgb {1.000 1.000 1.000} def
/Ssrgb {1.000 1.000 1.000} def
/Slw 0.576 def
/Slrgb {0.918 0.949 0.953} def
0 0 31999 23272 1 Srect
/Slrgb {1.000 1.000 1.000} def
3158 3158 31184 22457 1 Srect
/Slrgb {0.000 0.000 0.000} def
/Strgb {0.000 0.000 0.000} def
/Slw 0.864 def
/Slrgb {0.918 0.949 0.953} def
3158 3670 31184 3670 Sln
/Slw 0.576 def
/Slrgb {0.000 0.000 0.000} def
/Slw 0.864 def
/Slrgb {0.918 0.949 0.953} def
3158 7325 31184 7325 Sln
/Slw 0.576 def
/Slrgb {0.000 0.000 0.000} def
/Slw 0.864 def
/Slrgb {0.918 0.949 0.953} def
3158 10980 31184 10980 Sln
/Slw 0.576 def
/Slrgb {0.000 0.000 0.000} def
/Slw 0.864 def
/Slrgb {0.918 0.949 0.953} def
3158 14635 31184 14635 Sln
/Slw 0.576 def
/Slrgb {0.000 0.000 0.000} def
/Slw 0.864 def
/Slrgb {0.918 0.949 0.953} def
3158 18290 31184 18290 Sln
/Slw 0.576 def
/Slrgb {0.000 0.000 0.000} def
/Slw 0.864 def
/Slrgb {0.918 0.949 0.953} def
3158 21945 31184 21945 Sln
/Slw 0.576 def
/Slrgb {0.000 0.000 0.000} def
/Slw 0.864 def
/Slrgb {0.102 0.278 0.435} def
/Ssrgb {0.102 0.278 0.435} def
12777 19470 178 1 Scc 
13877 19297 178 1 Scc 
15938 18850 178 1 Scc 
17722 17974 178 1 Scc 
19158 17231 178 1 Scc 
19664 16863 178 1 Scc 
20832 14777 178 1 Scc 
21374 12175 178 1 Scc 
21954 10017 178 1 Scc 
21900 8578 178 1 Scc 
19399 9210 178 1 Scc 
16087 11416 178 1 Scc 
13667 12916 178 1 Scc 
11969 14661 178 1 Scc 
11785 16256 178 1 Scc 
12341 17170 178 1 Scc 
12018 17873 178 1 Scc 
12780 16914 178 1 Scc 
14146 15149 178 1 Scc 
15358 12353 178 1 Scc 
15774 10655 178 1 Scc 
14299 10611 178 1 Scc 
12792 11854 178 1 Scc 
9871 14411 178 1 Scc 
8488 15393 178 1 Scc 
8241 16055 178 1 Scc 
9491 16051 178 1 Scc 
10927 15828 178 1 Scc 
10227 15833 178 1 Scc 
10205 15584 178 1 Scc 
10623 15227 178 1 Scc 
11246 14583 178 1 Scc 
10828 14268 178 1 Scc 
10343 14031 178 1 Scc 
10360 13836 178 1 Scc 
10031 14323 178 1 Scc 
9263 15466 178 1 Scc 
8679 16358 178 1 Scc 
8730 16453 178 1 Scc 
9691 16943 178 1 Scc 
10898 16611 178 1 Scc 
11615 16392 178 1 Scc 
11642 16157 178 1 Scc 
12932 15405 178 1 Scc 
13038 15349 178 1 Scc 
13131 15232 178 1 Scc 
12454 15621 178 1 Scc 
12358 16162 178 1 Scc 
12652 16572 178 1 Scc 
12792 17423 178 1 Scc 
13179 17740 178 1 Scc 
14230 16636 178 1 Scc 
15135 15680 178 1 Scc 
16572 14292 178 1 Scc 
16953 13007 178 1 Scc 
15871 12450 178 1 Scc 
15347 11559 178 1 Scc 
14493 11630 178 1 Scc 
13243 12635 178 1 Scc 
11855 14211 178 1 Scc 
10103 16212 178 1 Scc 
10037 17538 178 1 Scc 
10812 18053 178 1 Scc 
11991 18059 178 1 Scc 
13234 17836 178 1 Scc 
14377 17809 178 1 Scc 
15093 17852 178 1 Scc 
15790 18192 178 1 Scc 
16619 18818 178 1 Scc 
18096 19142 178 1 Scc 
19274 20127 178 1 Scc 
20800 20081 178 1 Scc 
22660 18059 178 1 Scc 
24521 15016 178 1 Scc 
27203 11312 178 1 Scc 
27985 8177 178 1 Scc 
26077 5964 178 1 Scc 
23095 4903 178 1 Scc 
19825 5235 178 1 Scc 
16397 7311 178 1 Scc 
12014 9845 178 1 Scc 
8198 12939 178 1 Scc 
6415 14798 178 1 Scc 
6829 15386 178 1 Scc 
6608 16378 178 1 Scc 
7306 15810 178 1 Scc 
7422 15499 178 1 Scc 
7791 15080 178 1 Scc 
8373 15055 178 1 Scc 
7504 16515 178 1 Scc 
7383 17345 178 1 Scc 
7489 17481 178 1 Scc 
8664 16893 178 1 Scc 
10848 15823 178 1 Scc 
11751 14662 178 1 Scc 
11484 13954 178 1 Scc 
10741 14358 178 1 Scc 
10456 14243 178 1 Scc 
9635 14935 178 1 Scc 
8904 15837 178 1 Scc 
9503 15446 178 1 Scc 
9413 15196 178 1 Scc 
10017 14469 178 1 Scc 
10324 14812 178 1 Scc 
9749 15338 178 1 Scc 
9283 15506 178 1 Scc 
8648 15559 178 1 Scc 
9867 14481 178 1 Scc 
10411 14241 178 1 Scc 
10044 14549 178 1 Scc 
9208 15193 178 1 Scc 
8377 16357 178 1 Scc 
8872 16544 178 1 Scc 
9419 17018 178 1 Scc 
10098 16975 178 1 Scc 
11375 15896 178 1 Scc 
11858 15761 178 1 Scc 
12858 14955 178 1 Scc 
12901 14683 178 1 Scc 
12262 14619 178 1 Scc 
12678 13872 178 1 Scc 
12400 13848 178 1 Scc 
12312 14118 178 1 Scc 
11517 15098 178 1 Scc 
10497 16901 178 1 Scc 
10305 18509 178 1 Scc 
10604 18926 178 1 Scc 
11547 18550 178 1 Scc 
13428 16776 178 1 Scc 
15285 14613 178 1 Scc 
15769 13329 178 1 Scc 
15761 12543 178 1 Scc 
14612 13418 178 1 Scc 
13463 14666 178 1 Scc 
12660 15637 178 1 Scc 
11986 16309 178 1 Scc 
12962 16116 178 1 Scc 
13730 14934 178 1 Scc 
14035 14107 178 1 Scc 
13980 13599 178 1 Scc 
13881 12613 178 1 Scc 
12622 12433 178 1 Scc 
11875 12915 178 1 Scc 
11209 13443 178 1 Scc 
9893 14496 178 1 Scc 
8970 15369 178 1 Scc 
9117 15715 178 1 Scc 
9430 15908 178 1 Scc 
9982 16123 178 1 Scc 
10075 16111 178 1 Scc 
10387 16146 178 1 Scc 
10748 16050 178 1 Scc 
11356 15705 178 1 Scc 
11249 16219 178 1 Scc 
11673 16266 178 1 Scc 
11860 16569 178 1 Scc 
11986 16527 178 1 Scc 
12898 15986 178 1 Scc 
13312 15994 178 1 Scc 
13996 15443 178 1 Scc 
13897 15678 178 1 Scc 
13794 15621 178 1 Scc 
14433 14661 178 1 Scc 
14212 13231 178 1 Scc 
14749 12264 178 1 Scc 
14369 12698 178 1 Scc 
13149 13102 178 1 Scc 
10876 13845 178 1 Scc 
10165 14657 178 1 Scc 
11047 14680 178 1 Scc 
10845 15193 178 1 Scc 
9987 15882 178 1 Scc 
10251 15892 178 1 Scc 
10760 15940 178 1 Scc 
11377 15545 178 1 Scc 
11302 14911 178 1 Scc 
11336 15020 178 1 Scc 
11863 15178 178 1 Scc 
11537 15397 178 1 Scc 
10495 16233 178 1 Scc 
11107 16913 178 1 Scc 
12026 17055 178 1 Scc 
12343 16830 178 1 Scc 
12718 16681 178 1 Scc 
13930 16199 178 1 Scc 
14745 16493 178 1 Scc 
14542 17193 178 1 Scc 
14575 16984 178 1 Scc 
15253 14989 178 1 Scc 
16904 12406 178 1 Scc 
17679 10561 178 1 Scc 
16822 9882 178 1 Scc 
13975 11502 178 1 Scc 
11569 12917 178 1 Scc 
10042 14004 178 1 Scc 
9264 14953 178 1 Scc 
10065 15312 178 1 Scc 
9941 16054 178 1 Scc 
9862 16663 178 1 Scc 
10062 16480 178 1 Scc 
10739 15714 178 1 Scc 
/Slrgb {0.565 0.208 0.231} def
6415 16726 Sm
17200 13814 Sl
17200 13814 Sm
27985 10902 Sl
/Slw 0.576 def
/Slrgb {0.000 0.000 0.000} def
3158 3158 3158 22457 Sln
3158 3670 2835 3670 Sln
2431 3670 0
/Helvetica-0 findfont 808 yratio mul scalefont setfont
(-150) stringwidth pop add
2 div xratio div
dup 4 3 roll exch 90.000 cos mul sub 3 1 roll 90.000 sin mul sub 2 copy
/fntsize {/Helvetica-0 findfont exch scalefont setfont } def
90.000 808
(-150) Stxtl
(-150) stringwidth pop xratio div
dup 4 3 roll exch 90.000 cos mul add 3 1 roll 90.000 sin mul add 2 copy
pop pop pop pop
3158 7325 2835 7325 Sln
2431 7325 0
/Helvetica-0 findfont 808 yratio mul scalefont setfont
(-100) stringwidth pop add
2 div xratio div
dup 4 3 roll exch 90.000 cos mul sub 3 1 roll 90.000 sin mul sub 2 copy
/fntsize {/Helvetica-0 findfont exch scalefont setfont } def
90.000 808
(-100) Stxtl
(-100) stringwidth pop xratio div
dup 4 3 roll exch 90.000 cos mul add 3 1 roll 90.000 sin mul add 2 copy
pop pop pop pop
3158 10980 2835 10980 Sln
2431 10980 0
/Helvetica-0 findfont 808 yratio mul scalefont setfont
(-50) stringwidth pop add
2 div xratio div
dup 4 3 roll exch 90.000 cos mul sub 3 1 roll 90.000 sin mul sub 2 copy
/fntsize {/Helvetica-0 findfont exch scalefont setfont } def
90.000 808
(-50) Stxtl
(-50) stringwidth pop xratio div
dup 4 3 roll exch 90.000 cos mul add 3 1 roll 90.000 sin mul add 2 copy
pop pop pop pop
3158 14635 2835 14635 Sln
2431 14635 0
/Helvetica-0 findfont 808 yratio mul scalefont setfont
(0) stringwidth pop add
2 div xratio div
dup 4 3 roll exch 90.000 cos mul sub 3 1 roll 90.000 sin mul sub 2 copy
/fntsize {/Helvetica-0 findfont exch scalefont setfont } def
90.000 808
(0) Stxtl
(0) stringwidth pop xratio div
dup 4 3 roll exch 90.000 cos mul add 3 1 roll 90.000 sin mul add 2 copy
pop pop pop pop
3158 18290 2835 18290 Sln
2431 18290 0
/Helvetica-0 findfont 808 yratio mul scalefont setfont
(50) stringwidth pop add
2 div xratio div
dup 4 3 roll exch 90.000 cos mul sub 3 1 roll 90.000 sin mul sub 2 copy
/fntsize {/Helvetica-0 findfont exch scalefont setfont } def
90.000 808
(50) Stxtl
(50) stringwidth pop xratio div
dup 4 3 roll exch 90.000 cos mul add 3 1 roll 90.000 sin mul add 2 copy
pop pop pop pop
3158 21945 2835 21945 Sln
2431 21945 0
/Helvetica-0 findfont 808 yratio mul scalefont setfont
(100) stringwidth pop add
2 div xratio div
dup 4 3 roll exch 90.000 cos mul sub 3 1 roll 90.000 sin mul sub 2 copy
/fntsize {/Helvetica-0 findfont exch scalefont setfont } def
90.000 808
(100) Stxtl
(100) stringwidth pop xratio div
dup 4 3 roll exch 90.000 cos mul add 3 1 roll 90.000 sin mul add 2 copy
pop pop pop pop
1542 12808 0
/Helvetica-0 findfont 808 yratio mul scalefont setfont
(1-year realised return) stringwidth pop add
2 div xratio div
dup 4 3 roll exch 90.000 cos mul sub 3 1 roll 90.000 sin mul sub 2 copy
/fntsize {/Helvetica-0 findfont exch scalefont setfont } def
90.000 808
(1-year realised return) Stxtl
(1-year realised return) stringwidth pop xratio div
dup 4 3 roll exch 90.000 cos mul add 3 1 roll 90.000 sin mul add 2 copy
pop pop pop pop
3158 3158 31184 3158 Sln
3670 3158 3670 2835 Sln
3670 2107 0
/Helvetica-0 findfont 808 yratio mul scalefont setfont
(2) stringwidth pop add
2 div xratio div
dup 4 3 roll exch 0.000 cos mul sub 3 1 roll 0.000 sin mul sub 2 copy
/fntsize {/Helvetica-0 findfont exch scalefont setfont } def
0.000 808
(2) Stxtl
(2) stringwidth pop xratio div
dup 4 3 roll exch 0.000 cos mul add 3 1 roll 0.000 sin mul add 2 copy
pop pop pop pop
9070 3158 9070 2835 Sln
9070 2107 0
/Helvetica-0 findfont 808 yratio mul scalefont setfont
(2.5) stringwidth pop add
2 div xratio div
dup 4 3 roll exch 0.000 cos mul sub 3 1 roll 0.000 sin mul sub 2 copy
/fntsize {/Helvetica-0 findfont exch scalefont setfont } def
0.000 808
(2.5) Stxtl
(2.5) stringwidth pop xratio div
dup 4 3 roll exch 0.000 cos mul add 3 1 roll 0.000 sin mul add 2 copy
pop pop pop pop
14471 3158 14471 2835 Sln
14471 2107 0
/Helvetica-0 findfont 808 yratio mul scalefont setfont
(3) stringwidth pop add
2 div xratio div
dup 4 3 roll exch 0.000 cos mul sub 3 1 roll 0.000 sin mul sub 2 copy
/fntsize {/Helvetica-0 findfont exch scalefont setfont } def
0.000 808
(3) Stxtl
(3) stringwidth pop xratio div
dup 4 3 roll exch 0.000 cos mul add 3 1 roll 0.000 sin mul add 2 copy
pop pop pop pop
19871 3158 19871 2835 Sln
19871 2107 0
/Helvetica-0 findfont 808 yratio mul scalefont setfont
(3.5) stringwidth pop add
2 div xratio div
dup 4 3 roll exch 0.000 cos mul sub 3 1 roll 0.000 sin mul sub 2 copy
/fntsize {/Helvetica-0 findfont exch scalefont setfont } def
0.000 808
(3.5) Stxtl
(3.5) stringwidth pop xratio div
dup 4 3 roll exch 0.000 cos mul add 3 1 roll 0.000 sin mul add 2 copy
pop pop pop pop
25272 3158 25272 2835 Sln
25272 2107 0
/Helvetica-0 findfont 808 yratio mul scalefont setfont
(4) stringwidth pop add
2 div xratio div
dup 4 3 roll exch 0.000 cos mul sub 3 1 roll 0.000 sin mul sub 2 copy
/fntsize {/Helvetica-0 findfont exch scalefont setfont } def
0.000 808
(4) Stxtl
(4) stringwidth pop xratio div
dup 4 3 roll exch 0.000 cos mul add 3 1 roll 0.000 sin mul add 2 copy
pop pop pop pop
30672 3158 30672 2835 Sln
30672 2107 0
/Helvetica-0 findfont 808 yratio mul scalefont setfont
(4.5) stringwidth pop add
2 div xratio div
dup 4 3 roll exch 0.000 cos mul sub 3 1 roll 0.000 sin mul sub 2 copy
/fntsize {/Helvetica-0 findfont exch scalefont setfont } def
0.000 808
(4.5) Stxtl
(4.5) stringwidth pop xratio div
dup 4 3 roll exch 0.000 cos mul add 3 1 roll 0.000 sin mul add 2 copy
pop pop pop pop
17171 1218 0
/Helvetica-0 findfont 808 yratio mul scalefont setfont
(log P/D ratio) stringwidth pop add
2 div xratio div
dup 4 3 roll exch 0.000 cos mul sub 3 1 roll 0.000 sin mul sub 2 copy
/fntsize {/Helvetica-0 findfont exch scalefont setfont } def
0.000 808
(log P/D ratio) Stxtl
(log P/D ratio) stringwidth pop xratio div
dup 4 3 roll exch 0.000 cos mul add 3 1 roll 0.000 sin mul add 2 copy
pop pop pop pop
S showpage
%%EOF
