%!PS-Adobe-2.0 EPSF-2.0
%% This is a Stata generated postscript file
%%BoundingBox: 0 0 396 288
%%HiResBoundingBox: 0.000 0.000 396.000 288.000
%%DocumentNeededResources: font Helvetica
/xratio 0.012375 def
/yratio 0.012375 def
/Sbgfill {
	/y1 exch def
	/x1 exch def
	/y0 exch def
	/x0 exch def
	x0 y0 moveto
	x0 y1 lineto x1 y1 lineto x1 y0 lineto x0 y0 lineto
	fill
} def
/Spt {
	yratio mul
	/yp exch def
	xratio mul
	/xp exch def
	Slrgb setrgbcolor
	newpath
	xp yp moveto
	xp Slw add yp
	lineto
	currentlinecap
	1 setlinecap
	stroke
	setlinecap
} def
/Sln {
	yratio mul
	/y1p exch def
	xratio mul
	/x1p exch def
	yratio mul
	/y0p exch def
	xratio mul
	/x0p exch def
	Slw setlinewidth
	Slrgb setrgbcolor
	x0p y0p M x1p y1p lineto S
} def
/Scrv {
	yratio mul
	/y3p exch def
	xratio mul
	/x3p exch def
	yratio mul
	/y2p exch def
	xratio mul
	/x2p exch def
	yratio mul
	/y1p exch def
	xratio mul
	/x1p exch def
	Slw setlinewidth
	Slrgb setrgbcolor
	x1p y1p x2p y2p x3p y3p curveto
	stroke
} def
/Stxtl {
	/sp exch def
	yratio mul
	/sizep exch def
	dup
	/anglep exch def
	0 exch sub
	/angle2p exch def
	yratio mul
	/y0p exch def
	xratio mul
	/x0p exch def
	Strgb setrgbcolor
	x0p y0p M anglep rotate sizep fntsize sp show stroke angle2p rotate
} def
/Stxtc {
	/sp exch def
	yratio mul
	/sizep exch def
	dup
	/anglep exch def
	0 exch sub
	/angle2p exch def
	yratio mul
	/y0p exch def
	xratio mul
	/x0p exch def
	Strgb setrgbcolor
	x0p y0p M anglep rotate sizep fntsize sp stringwidth exch -2 div exch rm sp show stroke angle2p rotate
} def
/Stxtr {
	/sp exch def
	yratio mul
	/sizep exch def
	dup
	/anglep exch def
	0 exch sub
	/angle2p exch def
	yratio mul
	/y0p exch def
	xratio mul
	/x0p exch def
	Strgb setrgbcolor
	x0p y0p M anglep rotate sizep fntsize sp stringwidth 1 index -1 mul exch rm pop sp show stroke angle2p rotate
} def
/Srect {
	/sfill exch def
	yratio mul
	/y1 exch def
	xratio mul
	/x1 exch def
	yratio mul
	/y0 exch def
	xratio mul
	/x0 exch def
	sfill 1 eq {
		Ssrgb setrgbcolor
		x0 y0 moveto
		x0 y1 lineto x1 y1 lineto x1 y0 lineto x0 y0 lineto
		fill
	} if
	Slw setlinewidth
	Slrgb setrgbcolor
	x0 y0 moveto
	x0 y1 lineto x1 y1 lineto x1 y0 lineto x0 y0 lineto
	stroke
} def
/Sellipse {
	/sfill exch def
	yratio mul
	/yrad exch def
	xratio mul
	/xrad exch def
	yratio mul
	/y exch def
	xratio mul
	/x exch def
	sfill 1 eq {
		Ssrgb setrgbcolor
		/savematrix matrix currentmatrix def
		x y translate
		xrad yrad scale
		0 0 1 0 360 arc
		savematrix setmatrix
		fill
	} if
	Slw setlinewidth
	Slrgb setrgbcolor
		/savematrix matrix currentmatrix def
		x y translate
		xrad yrad scale
		0 0 1 0 360 arc
		savematrix setmatrix
	stroke
} def
/Stri {
	/sfill exch def
	xratio mul
	/r exch def
	yratio mul
	/y0 exch def
	xratio mul
	/x0 exch def
	/xcen x0 def
	y0 r add
	/ytop exch def
	r 2 div
	y0 exch sub
	/ybot exch def
	r 3 sqrt 2 div mul dup
	xcen exch sub
	/xleft exch def
	xcen add
	/xright exch def
	sfill 1 eq {
		Ssrgb setrgbcolor
		xcen ytop moveto xright ybot lineto xleft ybot lineto xcen ytop lineto fill
	} if
	Slw setlinewidth
	Slrgb setrgbcolor
	xcen ytop moveto xright ybot lineto xleft ybot lineto xcen ytop lineto stroke
} def
/Soldtri {
	/sfill exch def
	xratio mul
	/r exch def
	yratio mul
	/y0 exch def
	xratio mul
	/x0 exch def
	x0 r sub
	/x1 exch def
	y0 r sub
	/y1 exch def
	x0 r add
	/x2 exch def
	y0 r sub
	/y2 exch def
	/x3 x0 def
	y0 r add
	/y3 exch def
	sfill 1 eq {
		Ssrgb setrgbcolor
		x1 y1 moveto x2 y2 lineto x3 y3 lineto x1 y1 lineto fill
	} if
	Slw setlinewidth
	Slrgb setrgbcolor
	x1 y1 moveto x2 y2 lineto x3 y3 lineto x1 y1 lineto stroke
} def
/Sdia {
	/sfill exch def
	xratio mul
	/r exch def
	yratio mul
	/y exch def
	xratio mul
	/x exch def
	x r sub
	/x0 exch def
	/y0 y def
	/x1 x def
	y r sub
	/y1 exch def
	x r add
	/x2 exch def
	/y2 y def
	/x3 x def
	y r add
	/y3 exch def
	sfill 1 eq  {
		Ssrgb setrgbcolor
		x0 y0 moveto x1 y1 lineto x2 y2 lineto x3 y3 lineto x0 y0 lineto fill
	} if
	Slw setlinewidth
	Slrgb setrgbcolor
	x0 y0 moveto x1 y1 lineto x2 y2 lineto x3 y3 lineto x0 y0 lineto stroke
} def
/Scc {
	/sfill exch def
	xratio mul
	/r0 exch def
	yratio mul
	/y0 exch def
	xratio mul
	/x0 exch def
	sfill 1 eq {
		Ssrgb setrgbcolor
		x0 y0 r0 0 360 arc fill
	} if
	Slw setlinewidth
	Slrgb setrgbcolor
	x0 y0 r0 0 360 arc stroke
} def
/Spie {
	/sfill exch def
	/a1 exch def
	/a0 exch def
	xratio mul
	/r exch def
	yratio mul
	/y exch def
	xratio mul
	/x exch def
	sfill 1 eq {
		Ssrgb setrgbcolor
		newpath x y moveto x y r a0 a1 arc closepath
		fill
	} if
	Slw setlinewidth
	Slrgb setrgbcolor
	newpath x y moveto x y r a0 a1 arc closepath
	stroke
} def
/Splu {
	xratio mul
	/r exch def
	yratio mul
	/y exch def
	xratio mul
	/x exch def
	x r sub
	/x0 exch def
	x r add
	/x1 exch def
	x0 y M x1 y L
	y r sub
	/y0 exch def
	y r add
	/y1 exch def
	x y0 M x y1 L
} def
/Scro {
	xratio mul
	/r exch def
	yratio mul
	/y exch def
	xratio mul
	/x exch def
	x r sub
	/x0 exch def
	y r sub
	/y0 exch def
	x r add
	/x1 exch def
	y r add
	/y1 exch def
	x0 y0 M x1 y1 L
	x r add
	/x0 exch def
	y r sub
	/y0 exch def
	x r sub
	/x1 exch def
	y r add
	/y1 exch def
	x0 y0 M x1 y1 L
} def
/Sm {
	yratio mul
	/y exch def
	xratio mul
	/x exch def
	x y M
} def
/Sl {
	yratio mul
	/y exch def
	xratio mul
	/x exch def
	x y L
} def
/SPl {
	yratio mul
	/y exch def
	xratio mul
	/x exch def
	x y PL
} def
/Lcs {
	currentlinecap
	1 setlinecap
} def
/Lcr {
	setlinecap
} def
/Sbp {
	newpath
} def
/Sep {
	/sfill exch def
	closepath
	sfill 1 eq  {
		Ssrgb setrgbcolor
		gsave
		fill
		grestore
	} if
	Slw setlinewidth
	Slrgb setrgbcolor
	Lcs
	stroke
	Lcr
} def
/cp {currentpoint} def 
/M {moveto} def 
/rm {rmoveto} def 
/S {stroke} def 
/L {Slw setlinewidth Slrgb setrgbcolor lineto Lcs S Lcr} def 
/PL {Slw setlinewidth Slrgb setrgbcolor lineto} def 
/MF-Helvetica {
  /newfontname exch def
  /fontname exch def
  /fontdict fontname findfont def
  /newfont fontdict maxlength dict def
  fontdict {
  exch dup /FID eq {pop pop} {exch newfont 3 1 roll put} ifelse
  } forall
  newfont /FontName newfontname put
  newfont /Encoding ISOLatin1Encoding put
  newfontname newfont definefont pop
} def
/Helvetica /Helvetica-0 MF-Helvetica
/Slw 0.120 def
0.918 0.949 0.953 setrgbcolor
0 0 396.000 288.000 Sbgfill
/Slrgb {1.000 1.000 1.000} def
/Strgb {1.000 1.000 1.000} def
/Ssrgb {1.000 1.000 1.000} def
/Ssrgb {0.918 0.949 0.953} def
/Slw 0.576 def
/Slrgb {0.918 0.949 0.953} def
0 0 31999 23272 1 Srect
/Ssrgb {1.000 1.000 1.000} def
/Slrgb {1.000 1.000 1.000} def
3012 5222 28986 22457 1 Srect
/Slrgb {0.000 0.000 0.000} def
/Strgb {0.000 0.000 0.000} def
/Slw 0.864 def
/Slrgb {0.918 0.949 0.953} def
3012 6429 28986 6429 Sln
/Slw 0.576 def
/Slrgb {0.000 0.000 0.000} def
/Slw 0.864 def
/Slrgb {0.918 0.949 0.953} def
3012 9423 28986 9423 Sln
/Slw 0.576 def
/Slrgb {0.000 0.000 0.000} def
/Slw 0.864 def
/Slrgb {0.918 0.949 0.953} def
3012 12417 28986 12417 Sln
/Slw 0.576 def
/Slrgb {0.000 0.000 0.000} def
/Slw 0.864 def
/Slrgb {0.918 0.949 0.953} def
3012 15412 28986 15412 Sln
/Slw 0.576 def
/Slrgb {0.000 0.000 0.000} def
/Slw 0.864 def
/Slrgb {0.918 0.949 0.953} def
3012 18406 28986 18406 Sln
/Slw 0.576 def
/Slrgb {0.000 0.000 0.000} def
/Slw 0.864 def
/Slrgb {0.918 0.949 0.953} def
3012 21400 28986 21400 Sln
/Slw 0.576 def
/Slrgb {0.000 0.000 0.000} def
/Slw 0.864 def
/Slrgb {0.102 0.278 0.435} def
3524 19385 Sm
4018 13007 Sl
4018 13007 Sm
4512 6911 Sl
4512 6911 Sm
5006 7875 Sl
5006 7875 Sm
5500 5734 Sl
5500 5734 Sm
5994 14145 Sl
5994 14145 Sm
6488 15340 Sl
6488 15340 Sm
6982 14507 Sl
6982 14507 Sm
7476 14831 Sl
7476 14831 Sm
7971 14678 Sl
7971 14678 Sm
8465 15537 Sl
8465 15537 Sm
8959 15412 Sl
8959 15412 Sm
9453 15855 Sl
9453 15855 Sm
9947 16088 Sl
9947 16088 Sm
10441 14849 Sl
10441 14849 Sm
10935 14947 Sl
10935 14947 Sm
11429 14612 Sl
11429 14612 Sm
11923 14576 Sl
11923 14576 Sm
12417 14384 Sl
12417 14384 Sm
12911 14720 Sl
12911 14720 Sm
13405 16921 Sl
13405 16921 Sm
13899 18702 Sl
13899 18702 Sm
14393 19319 Sl
14393 19319 Sm
14887 20292 Sl
14887 20292 Sm
15134 20870 Sl
15134 20870 Sm
15217 21077 Sl
15217 21077 Sm
15299 20181 Sl
15299 20181 Sm
15381 19861 Sl
15381 19861 Sm
15464 20286 Sl
15464 20286 Sm
15546 19017 Sl
15546 19017 Sm
15628 18355 Sl
15628 18355 Sm
15711 17280 Sl
15711 17280 Sm
15793 18103 Sl
15793 18103 Sm
15875 17337 Sl
15875 17337 Sm
15958 16966 Sl
15958 16966 Sm
16040 17756 Sl
16040 17756 Sm
16123 18193 Sl
16123 18193 Sm
16205 19115 Sl
16205 19115 Sm
16287 17343 Sl
16287 17343 Sm
16370 16918 Sl
16370 16918 Sm
16452 16669 Sl
16452 16669 Sm
16534 15639 Sl
16534 15639 Sm
16617 15343 Sl
16617 15343 Sm
16699 15124 Sl
16699 15124 Sm
16781 16864 Sl
16781 16864 Sm
16864 17169 Sl
16864 17169 Sm
16946 17013 Sl
16946 17013 Sm
17028 16322 Sl
17028 16322 Sm
17111 16618 Sl
17111 16618 Sm
17193 15840 Sl
17193 15840 Sm
17275 15546 Sl
17275 15546 Sm
17358 15998 Sl
17358 15998 Sm
17440 15915 Sl
17440 15915 Sm
17522 17097 Sl
17522 17097 Sm
17605 17472 Sl
17605 17472 Sm
17687 17097 Sl
17687 17097 Sm
17769 17283 Sl
17769 17283 Sm
17852 16846 Sl
17852 16846 Sm
17934 16618 Sl
17934 16618 Sm
18016 17253 Sl
18016 17253 Sm
18099 16888 Sl
18099 16888 Sm
18181 17645 Sl
18181 17645 Sm
18263 17022 Sl
18263 17022 Sm
18346 17900 Sl
18346 17900 Sm
18428 18696 Sl
18428 18696 Sm
18510 17978 Sl
18510 17978 Sm
18593 18106 Sl
18593 18106 Sm
18675 17570 Sl
18675 17570 Sm
18758 18253 Sl
18758 18253 Sm
18840 18175 Sl
18840 18175 Sm
18922 18867 Sl
18922 18867 Sm
19005 19403 Sl
19005 19403 Sm
19087 19538 Sl
19087 19538 Sm
19169 20831 Sl
19169 20831 Sm
19252 20394 Sl
19252 20394 Sm
19334 19496 Sl
19334 19496 Sm
19416 18145 Sl
19416 18145 Sm
19499 17744 Sl
19499 17744 Sm
19581 17343 Sl
19581 17343 Sm
19663 16945 Sl
19663 16945 Sm
19746 16696 Sl
19746 16696 Sm
19828 17199 Sl
19828 17199 Sm
19910 16510 Sl
19910 16510 Sm
19993 15894 Sl
19993 15894 Sm
20075 15840 Sl
20075 15840 Sm
20157 15286 Sl
20157 15286 Sm
20240 15849 Sl
20240 15849 Sm
20322 16100 Sl
20322 16100 Sm
20404 16468 Sl
20404 16468 Sm
20487 16795 Sl
20487 16795 Sm
20569 17409 Sl
20569 17409 Sm
20651 18397 Sl
20651 18397 Sm
20734 17780 Sl
20734 17780 Sm
20816 17316 Sl
20816 17316 Sm
20898 17969 Sl
20898 17969 Sm
20981 18382 Sl
20981 18382 Sm
21063 18573 Sl
21063 18573 Sm
21145 19283 Sl
21145 19283 Sm
21228 20071 Sl
21228 20071 Sm
21310 20577 Sl
21310 20577 Sm
21392 21205 Sl
21392 21205 Sm
21475 21945 Sl
21475 21945 Sm
21557 20478 Sl
21557 20478 Sm
21640 20577 Sl
21640 20577 Sm
21722 19702 Sl
21722 19702 Sm
21804 19166 Sl
21804 19166 Sm
21887 18921 Sl
21887 18921 Sm
21969 17753 Sl
21969 17753 Sm
22051 17780 Sl
22051 17780 Sm
22134 17493 Sl
22134 17493 Sm
22216 16891 Sl
22216 16891 Sm
22298 16415 Sl
22298 16415 Sm
22381 16124 Sl
22381 16124 Sm
22463 17037 Sl
22463 17037 Sm
22545 17100 Sl
22545 17100 Sm
22628 16570 Sl
22628 16570 Sm
22710 17795 Sl
22710 17795 Sm
22792 17570 Sl
22792 17570 Sm
22875 17660 Sl
22875 17660 Sm
22957 17969 Sl
22957 17969 Sm
23039 17627 Sl
23039 17627 Sm
23122 18058 Sl
23122 18058 Sm
23204 17714 Sl
23204 17714 Sm
23286 17409 Sl
23286 17409 Sm
23369 16585 Sl
23369 16585 Sm
23451 16442 Sl
23451 16442 Sm
23533 16834 Sl
23533 16834 Sm
23616 16783 Sl
23616 16783 Sm
23698 15936 Sl
23698 15936 Sm
23780 16570 Sl
23780 16570 Sm
23863 18187 Sl
23863 18187 Sm
23945 18139 Sl
23945 18139 Sm
24027 18433 Sl
24027 18433 Sm
24110 18783 Sl
24110 18783 Sm
24192 18849 Sl
24192 18849 Sm
24274 18864 Sl
24274 18864 Sm
24357 18912 Sl
24357 18912 Sm
24439 18732 Sl
24439 18732 Sm
24522 18558 Sl
24522 18558 Sm
24604 18337 Sl
24604 18337 Sm
24686 18049 Sl
24686 18049 Sm
24769 17460 Sl
24769 17460 Sm
24851 15965 Sl
24851 15965 Sm
24933 16115 Sl
24933 16115 Sm
25016 15450 Sl
/Slrgb {0.565 0.208 0.231} def
3524 13495 Sm
4018 18078 Sl
4018 18078 Sm
4512 20120 Sl
4512 20120 Sm
5006 16793 Sl
5006 16793 Sm
5500 16471 Sl
5500 16471 Sm
5994 16601 Sl
5994 16601 Sm
6488 17047 Sl
6488 17047 Sm
6982 15120 Sl
6982 15120 Sm
7476 14960 Sl
7476 14960 Sm
7971 17137 Sl
7971 17137 Sm
8465 18557 Sl
8465 18557 Sm
8959 18225 Sl
8959 18225 Sm
9453 16943 Sl
9453 16943 Sm
9947 16418 Sl
9947 16418 Sm
10441 18416 Sl
10441 18416 Sm
10935 19354 Sl
10935 19354 Sm
11429 14025 Sl
11429 14025 Sm
11923 15392 Sl
11923 15392 Sm
12417 15916 Sl
12417 15916 Sm
12911 13266 Sl
12911 13266 Sm
13405 12709 Sl
13405 12709 Sm
13899 8216 Sl
13899 8216 Sm
14393 7776 Sl
14393 7776 Sm
14887 11157 Sl
14887 11157 Sm
15134 7657 Sl
15134 7657 Sm
15217 8197 Sl
15217 8197 Sm
15299 9475 Sl
15299 9475 Sm
15381 8694 Sl
15381 8694 Sm
15464 8969 Sl
15464 8969 Sm
15546 8584 Sl
15546 8584 Sm
15628 8624 Sl
15628 8624 Sm
15711 8099 Sl
15711 8099 Sm
15793 7586 Sl
15793 7586 Sm
15875 9237 Sl
15875 9237 Sm
15958 10659 Sl
15958 10659 Sm
16040 12640 Sl
16040 12640 Sm
16123 14679 Sl
16123 14679 Sm
16205 14435 Sl
16205 14435 Sm
16287 15759 Sl
16287 15759 Sm
16370 16358 Sl
16370 16358 Sm
16452 15481 Sl
16452 15481 Sm
16534 16138 Sl
16534 16138 Sm
16617 16970 Sl
16617 16970 Sm
16699 18301 Sl
16699 18301 Sm
16781 17740 Sl
16781 17740 Sm
16864 16880 Sl
16864 16880 Sm
16946 15390 Sl
16946 15390 Sm
17028 14883 Sl
17028 14883 Sm
17111 14445 Sl
17111 14445 Sm
17193 14301 Sl
17193 14301 Sm
17275 14271 Sl
17275 14271 Sm
17358 13849 Sl
17358 13849 Sm
17440 14393 Sl
17440 14393 Sm
17522 14383 Sl
17522 14383 Sm
17605 13386 Sl
17605 13386 Sm
17687 13497 Sl
17687 13497 Sm
17769 13715 Sl
17769 13715 Sm
17852 13094 Sl
17852 13094 Sm
17934 13899 Sl
17934 13899 Sm
18016 13846 Sl
18016 13846 Sm
18099 14442 Sl
18099 14442 Sm
18181 14657 Sl
18181 14657 Sm
18263 14065 Sl
18263 14065 Sm
18346 13662 Sl
18346 13662 Sm
18428 13694 Sl
18428 13694 Sm
18510 13625 Sl
18510 13625 Sm
18593 14027 Sl
18593 14027 Sm
18675 13818 Sl
18675 13818 Sm
18758 14166 Sl
18758 14166 Sm
18840 14694 Sl
18840 14694 Sm
18922 14233 Sl
18922 14233 Sm
19005 13385 Sl
19005 13385 Sm
19087 13253 Sl
19087 13253 Sm
19169 13660 Sl
19169 13660 Sm
19252 14348 Sl
19252 14348 Sm
19334 15544 Sl
19334 15544 Sm
19416 15101 Sl
19416 15101 Sm
19499 15005 Sl
19499 15005 Sm
19581 14952 Sl
19581 14952 Sm
19663 15168 Sl
19663 15168 Sm
19746 14428 Sl
19746 14428 Sm
19828 15030 Sl
19828 15030 Sm
19910 15712 Sl
19910 15712 Sm
19993 16227 Sl
19993 16227 Sm
20075 16236 Sl
20075 16236 Sm
20157 15161 Sl
20157 15161 Sm
20240 15115 Sl
20240 15115 Sm
20322 14877 Sl
20322 14877 Sm
20404 13576 Sl
20404 13576 Sm
20487 13478 Sl
20487 13478 Sm
20569 12193 Sl
20569 12193 Sm
20651 11746 Sl
20651 11746 Sm
20734 11778 Sl
20734 11778 Sm
20816 11844 Sl
20816 11844 Sm
20898 11717 Sl
20898 11717 Sm
20981 10847 Sl
20981 10847 Sm
21063 9681 Sl
21063 9681 Sm
21145 10858 Sl
21145 10858 Sm
21228 9662 Sl
21228 9662 Sm
21310 5790 Sl
21310 5790 Sm
21392 5734 Sl
21392 5734 Sm
21475 5833 Sl
21475 5833 Sm
21557 6977 Sl
21557 6977 Sm
21640 6253 Sl
21640 6253 Sm
21722 6039 Sl
21722 6039 Sm
21804 7495 Sl
21804 7495 Sm
21887 8368 Sl
21887 8368 Sm
21969 9689 Sl
21969 9689 Sm
22051 11137 Sl
22051 11137 Sm
22134 12029 Sl
22134 12029 Sm
22216 13444 Sl
22216 13444 Sm
22298 17451 Sl
22298 17451 Sm
22381 18866 Sl
22381 18866 Sm
22463 18972 Sl
22463 18972 Sm
22545 19223 Sl
22545 19223 Sm
22628 19792 Sl
22628 19792 Sm
22710 21560 Sl
22710 21560 Sm
22792 20013 Sl
22792 20013 Sm
22875 17700 Sl
22875 17700 Sm
22957 16629 Sl
22957 16629 Sm
23039 16253 Sl
23039 16253 Sm
23122 15006 Sl
23122 15006 Sm
23204 14916 Sl
23204 14916 Sm
23286 15232 Sl
23286 15232 Sm
23369 15271 Sl
23369 15271 Sm
23451 15433 Sl
23451 15433 Sm
23533 15737 Sl
23533 15737 Sm
23616 16665 Sl
23616 16665 Sm
23698 15354 Sl
23698 15354 Sm
23780 14952 Sl
23780 14952 Sm
23863 16024 Sl
23863 16024 Sm
23945 15982 Sl
23945 15982 Sm
24027 16500 Sl
24027 16500 Sm
24110 14433 Sl
24110 14433 Sm
24192 13733 Sl
24192 13733 Sm
24274 13563 Sl
24274 13563 Sm
24357 13500 Sl
24357 13500 Sm
24439 13257 Sl
24439 13257 Sm
24522 13521 Sl
24522 13521 Sm
24604 13736 Sl
24604 13736 Sm
24686 14481 Sl
24686 14481 Sm
24769 14188 Sl
24769 14188 Sm
24851 13681 Sl
24851 13681 Sm
24933 14168 Sl
24933 14168 Sm
25016 14221 Sl
25016 14221 Sm
25098 16649 Sl
25098 16649 Sm
25180 17241 Sl
25180 17241 Sm
25263 16651 Sl
25263 16651 Sm
25345 15926 Sl
25345 15926 Sm
25427 16047 Sl
/Slw 0.576 def
/Slrgb {0.000 0.000 0.000} def
28986 5222 28986 22457 Sln
28986 5763 29309 5763 Sln
30036 5763 0
/Helvetica-0 findfont 808 yratio mul scalefont setfont
(.98) stringwidth pop add
2 div xratio div
dup 4 3 roll exch 90.000 cos mul sub 3 1 roll 90.000 sin mul sub 2 copy
/fntsize {/Helvetica-0 findfont exch scalefont setfont } def
90.000 808
(.98) Stxtl
(.98) stringwidth pop xratio div
dup 4 3 roll exch 90.000 cos mul add 3 1 roll 90.000 sin mul add 2 copy
pop pop pop pop
28986 9809 29309 9809 Sln
30036 9809 0
/Helvetica-0 findfont 808 yratio mul scalefont setfont
(1) stringwidth pop add
2 div xratio div
dup 4 3 roll exch 90.000 cos mul sub 3 1 roll 90.000 sin mul sub 2 copy
/fntsize {/Helvetica-0 findfont exch scalefont setfont } def
90.000 808
(1) Stxtl
(1) stringwidth pop xratio div
dup 4 3 roll exch 90.000 cos mul add 3 1 roll 90.000 sin mul add 2 copy
pop pop pop pop
28986 13854 29309 13854 Sln
30036 13854 0
/Helvetica-0 findfont 808 yratio mul scalefont setfont
(1.02) stringwidth pop add
2 div xratio div
dup 4 3 roll exch 90.000 cos mul sub 3 1 roll 90.000 sin mul sub 2 copy
/fntsize {/Helvetica-0 findfont exch scalefont setfont } def
90.000 808
(1.02) Stxtl
(1.02) stringwidth pop xratio div
dup 4 3 roll exch 90.000 cos mul add 3 1 roll 90.000 sin mul add 2 copy
pop pop pop pop
28986 17900 29309 17900 Sln
30036 17900 0
/Helvetica-0 findfont 808 yratio mul scalefont setfont
(1.04) stringwidth pop add
2 div xratio div
dup 4 3 roll exch 90.000 cos mul sub 3 1 roll 90.000 sin mul sub 2 copy
/fntsize {/Helvetica-0 findfont exch scalefont setfont } def
90.000 808
(1.04) Stxtl
(1.04) stringwidth pop xratio div
dup 4 3 roll exch 90.000 cos mul add 3 1 roll 90.000 sin mul add 2 copy
pop pop pop pop
28986 21945 29309 21945 Sln
30036 21945 0
/Helvetica-0 findfont 808 yratio mul scalefont setfont
(1.06) stringwidth pop add
2 div xratio div
dup 4 3 roll exch 90.000 cos mul sub 3 1 roll 90.000 sin mul sub 2 copy
/fntsize {/Helvetica-0 findfont exch scalefont setfont } def
90.000 808
(1.06) Stxtl
(1.06) stringwidth pop xratio div
dup 4 3 roll exch 90.000 cos mul add 3 1 roll 90.000 sin mul add 2 copy
pop pop pop pop
30925 13840 0
/Helvetica-0 findfont 808 yratio mul scalefont setfont
(Return 1 year from now) stringwidth pop add
2 div xratio div
dup 4 3 roll exch 90.000 cos mul sub 3 1 roll 90.000 sin mul sub 2 copy
/fntsize {/Helvetica-0 findfont exch scalefont setfont } def
90.000 808
(Return 1 year from now) Stxtl
(Return 1 year from now) stringwidth pop xratio div
dup 4 3 roll exch 90.000 cos mul add 3 1 roll 90.000 sin mul add 2 copy
pop pop pop pop
3012 5222 3012 22457 Sln
3012 6429 2689 6429 Sln
2284 6429 0
/Helvetica-0 findfont 808 yratio mul scalefont setfont
(30) stringwidth pop add
2 div xratio div
dup 4 3 roll exch 90.000 cos mul sub 3 1 roll 90.000 sin mul sub 2 copy
/fntsize {/Helvetica-0 findfont exch scalefont setfont } def
90.000 808
(30) Stxtl
(30) stringwidth pop xratio div
dup 4 3 roll exch 90.000 cos mul add 3 1 roll 90.000 sin mul add 2 copy
pop pop pop pop
3012 9423 2689 9423 Sln
2284 9423 0
/Helvetica-0 findfont 808 yratio mul scalefont setfont
(40) stringwidth pop add
2 div xratio div
dup 4 3 roll exch 90.000 cos mul sub 3 1 roll 90.000 sin mul sub 2 copy
/fntsize {/Helvetica-0 findfont exch scalefont setfont } def
90.000 808
(40) Stxtl
(40) stringwidth pop xratio div
dup 4 3 roll exch 90.000 cos mul add 3 1 roll 90.000 sin mul add 2 copy
pop pop pop pop
3012 12417 2689 12417 Sln
2284 12417 0
/Helvetica-0 findfont 808 yratio mul scalefont setfont
(50) stringwidth pop add
2 div xratio div
dup 4 3 roll exch 90.000 cos mul sub 3 1 roll 90.000 sin mul sub 2 copy
/fntsize {/Helvetica-0 findfont exch scalefont setfont } def
90.000 808
(50) Stxtl
(50) stringwidth pop xratio div
dup 4 3 roll exch 90.000 cos mul add 3 1 roll 90.000 sin mul add 2 copy
pop pop pop pop
3012 15412 2689 15412 Sln
2284 15412 0
/Helvetica-0 findfont 808 yratio mul scalefont setfont
(60) stringwidth pop add
2 div xratio div
dup 4 3 roll exch 90.000 cos mul sub 3 1 roll 90.000 sin mul sub 2 copy
/fntsize {/Helvetica-0 findfont exch scalefont setfont } def
90.000 808
(60) Stxtl
(60) stringwidth pop xratio div
dup 4 3 roll exch 90.000 cos mul add 3 1 roll 90.000 sin mul add 2 copy
pop pop pop pop
3012 18406 2689 18406 Sln
2284 18406 0
/Helvetica-0 findfont 808 yratio mul scalefont setfont
(70) stringwidth pop add
2 div xratio div
dup 4 3 roll exch 90.000 cos mul sub 3 1 roll 90.000 sin mul sub 2 copy
/fntsize {/Helvetica-0 findfont exch scalefont setfont } def
90.000 808
(70) Stxtl
(70) stringwidth pop xratio div
dup 4 3 roll exch 90.000 cos mul add 3 1 roll 90.000 sin mul add 2 copy
pop pop pop pop
3012 21400 2689 21400 Sln
2284 21400 0
/Helvetica-0 findfont 808 yratio mul scalefont setfont
(80) stringwidth pop add
2 div xratio div
dup 4 3 roll exch 90.000 cos mul sub 3 1 roll 90.000 sin mul sub 2 copy
/fntsize {/Helvetica-0 findfont exch scalefont setfont } def
90.000 808
(80) Stxtl
(80) stringwidth pop xratio div
dup 4 3 roll exch 90.000 cos mul add 3 1 roll 90.000 sin mul add 2 copy
pop pop pop pop
1541 13840 0
/Helvetica-0 findfont 808 yratio mul scalefont setfont
(Yale Investor Confidence) stringwidth pop add
2 div xratio div
dup 4 3 roll exch 90.000 cos mul sub 3 1 roll 90.000 sin mul sub 2 copy
/fntsize {/Helvetica-0 findfont exch scalefont setfont } def
90.000 808
(Yale Investor Confidence) Stxtl
(Yale Investor Confidence) stringwidth pop xratio div
dup 4 3 roll exch 90.000 cos mul add 3 1 roll 90.000 sin mul add 2 copy
pop pop pop pop
3012 5222 28986 5222 Sln
3771 5222 3771 4899 Sln
3771 4172 0
/Helvetica-0 findfont 808 yratio mul scalefont setfont
(1990-01) stringwidth pop add
2 div xratio div
dup 4 3 roll exch 0.000 cos mul sub 3 1 roll 0.000 sin mul sub 2 copy
/fntsize {/Helvetica-0 findfont exch scalefont setfont } def
0.000 808
(1990-01) Stxtl
(1990-01) stringwidth pop xratio div
dup 4 3 roll exch 0.000 cos mul add 3 1 roll 0.000 sin mul add 2 copy
pop pop pop pop
8712 5222 8712 4899 Sln
8712 4172 0
/Helvetica-0 findfont 808 yratio mul scalefont setfont
(1995-01) stringwidth pop add
2 div xratio div
dup 4 3 roll exch 0.000 cos mul sub 3 1 roll 0.000 sin mul sub 2 copy
/fntsize {/Helvetica-0 findfont exch scalefont setfont } def
0.000 808
(1995-01) Stxtl
(1995-01) stringwidth pop xratio div
dup 4 3 roll exch 0.000 cos mul add 3 1 roll 0.000 sin mul add 2 copy
pop pop pop pop
13652 5222 13652 4899 Sln
13652 4172 0
/Helvetica-0 findfont 808 yratio mul scalefont setfont
(2000-01) stringwidth pop add
2 div xratio div
dup 4 3 roll exch 0.000 cos mul sub 3 1 roll 0.000 sin mul sub 2 copy
/fntsize {/Helvetica-0 findfont exch scalefont setfont } def
0.000 808
(2000-01) Stxtl
(2000-01) stringwidth pop xratio div
dup 4 3 roll exch 0.000 cos mul add 3 1 roll 0.000 sin mul add 2 copy
pop pop pop pop
18593 5222 18593 4899 Sln
18593 4172 0
/Helvetica-0 findfont 808 yratio mul scalefont setfont
(2005-01) stringwidth pop add
2 div xratio div
dup 4 3 roll exch 0.000 cos mul sub 3 1 roll 0.000 sin mul sub 2 copy
/fntsize {/Helvetica-0 findfont exch scalefont setfont } def
0.000 808
(2005-01) Stxtl
(2005-01) stringwidth pop xratio div
dup 4 3 roll exch 0.000 cos mul add 3 1 roll 0.000 sin mul add 2 copy
pop pop pop pop
23533 5222 23533 4899 Sln
23533 4172 0
/Helvetica-0 findfont 808 yratio mul scalefont setfont
(2010-01) stringwidth pop add
2 div xratio div
dup 4 3 roll exch 0.000 cos mul sub 3 1 roll 0.000 sin mul sub 2 copy
/fntsize {/Helvetica-0 findfont exch scalefont setfont } def
0.000 808
(2010-01) Stxtl
(2010-01) stringwidth pop xratio div
dup 4 3 roll exch 0.000 cos mul add 3 1 roll 0.000 sin mul add 2 copy
pop pop pop pop
28474 5222 28474 4899 Sln
28474 4172 0
/Helvetica-0 findfont 808 yratio mul scalefont setfont
(2015-01) stringwidth pop add
2 div xratio div
dup 4 3 roll exch 0.000 cos mul sub 3 1 roll 0.000 sin mul sub 2 copy
/fntsize {/Helvetica-0 findfont exch scalefont setfont } def
0.000 808
(2015-01) Stxtl
(2015-01) stringwidth pop xratio div
dup 4 3 roll exch 0.000 cos mul add 3 1 roll 0.000 sin mul add 2 copy
pop pop pop pop
15999 3283 0
/Helvetica-0 findfont 808 yratio mul scalefont setfont
(Date) stringwidth pop add
2 div xratio div
dup 4 3 roll exch 0.000 cos mul sub 3 1 roll 0.000 sin mul sub 2 copy
/fntsize {/Helvetica-0 findfont exch scalefont setfont } def
0.000 808
(Date) Stxtl
(Date) stringwidth pop xratio div
dup 4 3 roll exch 0.000 cos mul add 3 1 roll 0.000 sin mul add 2 copy
pop pop pop pop
3291 1093 28707 2599 1 Srect
/Slw 0.864 def
/Slrgb {0.102 0.278 0.435} def
3640 1846 6469 1846 Sln
/Slrgb {0.565 0.208 0.231} def
16786 1846 19615 1846 Sln
6923 1563 2 copy
/fntsize {/Helvetica-0 findfont exch scalefont setfont } def
0.000 808
(Yale Investor Confidence) Stxtl
(Yale Investor Confidence) stringwidth pop xratio div
dup 4 3 roll exch 0.000 cos mul add 3 1 roll 0.000 sin mul add 2 copy
pop pop pop pop
20068 1563 2 copy
/fntsize {/Helvetica-0 findfont exch scalefont setfont } def
0.000 808
(Return 1 year from now) Stxtl
(Return 1 year from now) stringwidth pop xratio div
dup 4 3 roll exch 0.000 cos mul add 3 1 roll 0.000 sin mul add 2 copy
pop pop pop pop
S showpage
%%EOF
