%!PS-Adobe-3.0 EPSF-3.0
%%Creator: MATLAB, The MathWorks, Inc. Version 7.14.0.739 (R2012a). Operating System: Darwin 13.1.0 Darwin Kernel Version 13.1.0: Thu Jan 16 19:40:37 PST 2014; root:xnu-2422.90.20~2/RELEASE_X86_64 x86_64.
%%Title: /Users/fckw/Dropbox/PhD/finfric/paper/beliefirf.eps
%%CreationDate: 05/12/2014  10:05:46
%%DocumentNeededFonts: Helvetica
%%DocumentProcessColors: Cyan Magenta Yellow Black
%%LanguageLevel: 2
%%Pages: 1
%%BoundingBox:    26   186   585   606
%%EndComments

%%BeginProlog
% MathWorks dictionary
/MathWorks 160 dict begin
% definition operators
/bdef {bind def} bind def
/ldef {load def} bind def
/xdef {exch def} bdef
/xstore {exch store} bdef
% operator abbreviations
/c  /clip ldef
/cc /concat ldef
/cp /closepath ldef
/gr /grestore ldef
/gs /gsave ldef
/mt /moveto ldef
/np /newpath ldef
/cm /currentmatrix ldef
/sm /setmatrix ldef
/rm /rmoveto ldef
/rl /rlineto ldef
/s {show newpath} bdef
/sc {setcmykcolor} bdef
/sr /setrgbcolor ldef
/sg /setgray ldef
/w /setlinewidth ldef
/j /setlinejoin ldef
/cap /setlinecap ldef
/rc {rectclip} bdef
/rf {rectfill} bdef
% page state control
/pgsv () def
/bpage {/pgsv save def} bdef
/epage {pgsv restore} bdef
/bplot /gsave ldef
/eplot {stroke grestore} bdef
% orientation switch
/portraitMode 0 def /landscapeMode 1 def /rotateMode 2 def
% coordinate system mappings
/dpi2point 0 def
% font control
/FontSize 0 def
/FMS {/FontSize xstore findfont [FontSize 0 0 FontSize neg 0 0]
  makefont setfont} bdef
/reencode {exch dup where {pop load} {pop StandardEncoding} ifelse
  exch dup 3 1 roll findfont dup length dict begin
  { 1 index /FID ne {def}{pop pop} ifelse } forall
  /Encoding exch def currentdict end definefont pop} bdef
/isroman {findfont /CharStrings get /Agrave known} bdef
/FMSR {3 1 roll 1 index dup isroman {reencode} {pop pop} ifelse
  exch FMS} bdef
/csm {1 dpi2point div -1 dpi2point div scale neg translate
 dup landscapeMode eq {pop -90 rotate}
  {rotateMode eq {90 rotate} if} ifelse} bdef
% line types: solid, dotted, dashed, dotdash
/dom { dpi2point 1 currentlinewidth 0.08 mul add mul mul } bdef/dam { dpi2point 2 currentlinewidth 0.04 mul add mul mul } bdef/SO { [] 0 setdash 0 setlinecap } bdef/DO { [1 dom 1.2 dom] 0 setdash 0 setlinecap } bdef/DA { [4 dam 1.5 dam] 0 setdash 0 setlinecap } bdef/DD { [1 dom 1.2 dom 4 dam 1.2 dom] 0 setdash 0 setlinecap } bdef/GR { [0 dpi2point mul 4 dpi2point mul] 0 setdash 1 setlinecap } bdef% macros for lines and objects
/L {lineto stroke} bdef
/MP {3 1 roll moveto 1 sub {rlineto} repeat} bdef
/AP {{rlineto} repeat} bdef
/PDlw -1 def
/W {/PDlw currentlinewidth def setlinewidth} def
/PP {closepath eofill} bdef
/DP {closepath stroke} bdef
/MR {4 -2 roll moveto dup  0 exch rlineto exch 0 rlineto
  neg 0 exch rlineto closepath} bdef
/FR {MR stroke} bdef
/PR {MR fill} bdef
/L1i {{currentfile picstr readhexstring pop} image} bdef
/tMatrix matrix def
/MakeOval {newpath tMatrix currentmatrix pop translate scale
0 0 1 0 360 arc tMatrix setmatrix} bdef
/FO {MakeOval stroke} bdef
/PO {MakeOval fill} bdef
/PD {currentlinewidth 2 div 0 360 arc fill
   PDlw -1 eq not {PDlw w /PDlw -1 def} if} def
/FA {newpath tMatrix currentmatrix pop translate scale
  0 0 1 5 -2 roll arc tMatrix setmatrix stroke} bdef
/PA {newpath tMatrix currentmatrix pop	translate 0 0 moveto scale
  0 0 1 5 -2 roll arc closepath tMatrix setmatrix fill} bdef
/FAn {newpath tMatrix currentmatrix pop translate scale
  0 0 1 5 -2 roll arcn tMatrix setmatrix stroke} bdef
/PAn {newpath tMatrix currentmatrix pop translate 0 0 moveto scale
  0 0 1 5 -2 roll arcn closepath tMatrix setmatrix fill} bdef
/vradius 0 def /hradius 0 def /lry 0 def
/lrx 0 def /uly 0 def /ulx 0 def /rad 0 def
/MRR {/vradius xdef /hradius xdef /lry xdef /lrx xdef /uly xdef
  /ulx xdef newpath tMatrix currentmatrix pop ulx hradius add uly
  vradius add translate hradius vradius scale 0 0 1 180 270 arc 
  tMatrix setmatrix lrx hradius sub uly vradius add translate
  hradius vradius scale 0 0 1 270 360 arc tMatrix setmatrix
  lrx hradius sub lry vradius sub translate hradius vradius scale
  0 0 1 0 90 arc tMatrix setmatrix ulx hradius add lry vradius sub
  translate hradius vradius scale 0 0 1 90 180 arc tMatrix setmatrix
  closepath} bdef
/FRR {MRR stroke } bdef
/PRR {MRR fill } bdef
/MlrRR {/lry xdef /lrx xdef /uly xdef /ulx xdef /rad lry uly sub 2 div def
  newpath tMatrix currentmatrix pop ulx rad add uly rad add translate
  rad rad scale 0 0 1 90 270 arc tMatrix setmatrix lrx rad sub lry rad
  sub translate rad rad scale 0 0 1 270 90 arc tMatrix setmatrix
  closepath} bdef
/FlrRR {MlrRR stroke } bdef
/PlrRR {MlrRR fill } bdef
/MtbRR {/lry xdef /lrx xdef /uly xdef /ulx xdef /rad lrx ulx sub 2 div def
  newpath tMatrix currentmatrix pop ulx rad add uly rad add translate
  rad rad scale 0 0 1 180 360 arc tMatrix setmatrix lrx rad sub lry rad
  sub translate rad rad scale 0 0 1 0 180 arc tMatrix setmatrix
  closepath} bdef
/FtbRR {MtbRR stroke } bdef
/PtbRR {MtbRR fill } bdef
/stri 6 array def /dtri 6 array def
/smat 6 array def /dmat 6 array def
/tmat1 6 array def /tmat2 6 array def /dif 3 array def
/asub {/ind2 exch def /ind1 exch def dup dup
  ind1 get exch ind2 get sub exch } bdef
/tri_to_matrix {
  2 0 asub 3 1 asub 4 0 asub 5 1 asub
  dup 0 get exch 1 get 7 -1 roll astore } bdef
/compute_transform {
  dmat dtri tri_to_matrix tmat1 invertmatrix 
  smat stri tri_to_matrix tmat2 concatmatrix } bdef
/ds {stri astore pop} bdef
/dt {dtri astore pop} bdef
/db {2 copy /cols xdef /rows xdef mul dup 3 mul string
  currentfile 
  3 index 0 eq {/ASCIIHexDecode filter}
  {/ASCII85Decode filter 3 index 2 eq {/RunLengthDecode filter} if }
  ifelse exch readstring pop
  dup 0 3 index getinterval /rbmap xdef
  dup 2 index dup getinterval /gbmap xdef
  1 index dup 2 mul exch getinterval /bbmap xdef pop pop}bdef
/it {gs np dtri aload pop moveto lineto lineto cp c
  cols rows 8 compute_transform 
  rbmap gbmap bbmap true 3 colorimage gr}bdef
/il {newpath moveto lineto stroke}bdef
currentdict end def
%%EndProlog

%%BeginSetup
MathWorks begin

0 cap

end
%%EndSetup

%%Page: 1 1
%%BeginPageSetup
%%PageBoundingBox:    26   186   585   606
MathWorks begin
bpage
%%EndPageSetup

%%BeginObject: obj1
bplot

/dpi2point 12 def
portraitMode 0312 7272 csm

    0     0  6719  5033 rc
86 dict begin %Colortable dictionary
/c0 { 0.000000 0.000000 0.000000 sr} bdef
/c1 { 1.000000 1.000000 1.000000 sr} bdef
/c2 { 0.900000 0.000000 0.000000 sr} bdef
/c3 { 0.000000 0.820000 0.000000 sr} bdef
/c4 { 0.000000 0.000000 0.800000 sr} bdef
/c5 { 0.910000 0.820000 0.320000 sr} bdef
/c6 { 1.000000 0.260000 0.820000 sr} bdef
/c7 { 0.000000 0.820000 0.820000 sr} bdef
c0
1 j
1 sg
   0    0 6720 5034 rf
6 w
0 1718 2249 0 0 -1718 873 2095 4 MP
PP
-2249 0 0 1718 2249 0 0 -1718 873 2095 5 MP stroke
4 w
DO
6 w
SO
0 sg
 873 2095 mt 3122 2095 L
 873 2095 mt  873  377 L
 873 2095 mt  873 2072 L
%%IncludeResource: font Helvetica
/Helvetica /ISOLatin1Encoding 120 FMSR

 840 2240 mt 
(0) s
1435 2095 mt 1435 2072 L
1369 2240 mt 
(20) s
1997 2095 mt 1997 2072 L
1931 2240 mt 
(40) s
2559 2095 mt 2559 2072 L
2493 2240 mt 
(60) s
3122 2095 mt 3122 2072 L
3056 2240 mt 
(80) s
 873 2095 mt  895 2095 L
 535 2139 mt 
(-0.01) s
 873 1665 mt  895 1665 L
 772 1709 mt 
(0) s
 873 1236 mt  895 1236 L
 605 1280 mt 
(0.01) s
 873  806 mt  895  806 L
 605  850 mt 
(0.02) s
 873  377 mt  895  377 L
 605  421 mt 
(0.03) s
gs 873 376 2250 1720 rc
18 w
DA
/c8 { 0.000000 1.000000 0.000000 sr} bdef
c8
29 -6 28 -6 28 -5 28 -6 28 -5 28 -6 28 -5 28 -6 
29 -5 28 -6 28 -6 28 -5 28 -6 28 -5 28 -6 28 -5 
28 -6 29 -6 28 -5 28 -6 28 -5 28 -6 28 -5 28 -6 
28 -6 28 -5 29 -6 28 -5 28 -6 28 -5 28 -6 28 -6 
28 -5 28 -6 28 -5 29 -6 28 -5 28 -6 28 -5 28 -6 
28 -6 28 -5 28 -6 28 -5 29 -6 28 -5 28 -6 28 -6 
28 -5 28 -6 28 -5 28 -6 28 -5 29 -6 28 -6 28 -5 
28 -6 28 -5 28 -6 28 -5 28 -6 28 -5 29 -6 28 -5 
28 -13 28 -23 28 -32 28 -42 28 -51 28 -60 28 -68 29 -75 
28 -80 28 -84 28 -84 28 -81 28 -75 28 -63 28 -47 901 1665 80 MP stroke
SO
/c9 { 1.000000 0.000000 0.000000 sr} bdef
c9
29 -1 28 0 28 0 28 -1 28 0 28 0 28 0 28 -1 
29 0 28 0 28 0 28 0 28 0 28 0 28 0 28 0 
28 1 29 0 28 1 28 1 28 2 28 1 28 3 28 2 
28 4 28 4 29 4 28 6 28 7 28 7 28 9 28 10 
28 12 28 13 28 15 29 17 28 19 28 21 28 22 28 25 
28 28 28 29 28 32 28 34 29 36 28 38 28 40 28 41 
28 43 28 44 28 45 28 45 28 44 29 44 28 42 28 40 
28 38 28 33 28 29 28 24 28 18 28 11 29 4 28 -5 
28 -13 28 -23 28 -32 28 -42 28 -51 28 -60 28 -68 29 -75 
28 -80 28 -84 28 -84 28 -81 28 -75 28 -63 28 -47 901 1665 80 MP stroke
gr

18 w
c9
0 sg
1957  281 mt 
(V) s
6 w
1 sg
0 1718 2249 0 0 -1718 3832 2095 4 MP
PP
-2249 0 0 1718 2249 0 0 -1718 3832 2095 5 MP stroke
4 w
DO
6 w
SO
0 sg
3832 2095 mt 6081 2095 L
3832 2095 mt 3832  377 L
3832 2095 mt 3832 2072 L
3799 2240 mt 
(0) s
4394 2095 mt 4394 2072 L
4328 2240 mt 
(20) s
4956 2095 mt 4956 2072 L
4890 2240 mt 
(40) s
5518 2095 mt 5518 2072 L
5452 2240 mt 
(60) s
6081 2095 mt 6081 2072 L
6015 2240 mt 
(80) s
3832 2095 mt 3854 2095 L
3731 2139 mt 
(0) s
3832 1808 mt 3854 1808 L
3497 1852 mt 
(0.002) s
3832 1522 mt 3854 1522 L
3497 1566 mt 
(0.004) s
3832 1236 mt 3854 1236 L
3497 1280 mt 
(0.006) s
3832  949 mt 3854  949 L
3497  993 mt 
(0.008) s
3832  663 mt 3854  663 L
3564  707 mt 
(0.01) s
3832  377 mt 3854  377 L
3497  421 mt 
(0.012) s
gs 3832 377 2250 1719 rc
18 w
DA
c8
29 0 28 0 28 0 28 0 28 1 28 0 28 0 28 1 
29 1 28 1 28 1 28 1 28 1 28 1 28 2 28 1 
28 2 29 2 28 2 28 2 28 3 28 2 28 3 28 3 
28 3 28 3 29 4 28 4 28 4 28 4 28 5 28 4 
28 5 28 5 28 6 29 6 28 6 28 6 28 7 28 7 
28 7 28 8 28 8 28 8 29 9 28 9 28 10 28 10 
28 10 28 11 28 11 28 12 28 12 29 13 28 13 28 14 
28 14 28 14 28 16 28 15 28 17 28 17 29 10 28 92 
28 91 28 91 28 86 28 81 28 73 28 62 28 48 29 32 
28 11 28 -12 28 -39 28 -70 28 -104 28 -142 28 -1251 3860 2095 80 MP stroke
SO
c9
29 1 28 1 28 1 28 1 28 2 28 1 28 2 28 1 
29 2 28 1 28 2 28 1 28 2 28 2 28 1 28 1 
28 2 29 1 28 1 28 0 28 1 28 0 28 0 28 0 
28 -1 28 -1 29 -1 28 -2 28 -2 28 -2 28 -3 28 -2 
28 -3 28 -3 28 -3 29 -2 28 -2 28 -2 28 0 28 0 
28 1 28 3 28 5 28 7 29 10 28 12 28 15 28 20 
28 22 28 28 28 32 28 37 28 42 29 47 28 53 28 59 
28 65 28 70 28 75 28 80 28 84 28 88 29 91 28 92 
28 91 28 91 28 86 28 81 28 73 28 62 28 48 29 32 
28 11 28 -12 28 -39 28 -70 28 -104 28 -142 28 -1251 3860 2095 80 MP stroke
gr

18 w
c9
0 sg
4916  282 mt 
(Y) s
6 w
1 sg
0 1717 2249 0 0 -1717 873 4479 4 MP
PP
-2249 0 0 1717 2249 0 0 -1717 873 4479 5 MP stroke
4 w
DO
6 w
SO
0 sg
 873 4479 mt 3122 4479 L
 873 4479 mt  873 2762 L
 873 4479 mt  873 4456 L
 840 4624 mt 
(0) s
1435 4479 mt 1435 4456 L
1369 4624 mt 
(20) s
1997 4479 mt 1997 4456 L
1931 4624 mt 
(40) s
2559 4479 mt 2559 4456 L
2493 4624 mt 
(60) s
3122 4479 mt 3122 4456 L
3056 4624 mt 
(80) s
 873 4479 mt  895 4479 L
 702 4523 mt 
(-2) s
 873 4049 mt  895 4049 L
 772 4093 mt 
(0) s
 873 3620 mt  895 3620 L
 772 3664 mt 
(2) s
 873 3191 mt  895 3191 L
 772 3235 mt 
(4) s
 873 2762 mt  895 2762 L
 772 2806 mt 
(6) s
 873 2708 mt 
(x 10) s
%%IncludeResource: font Helvetica
/Helvetica /ISOLatin1Encoding 80 FMSR

1099 2634 mt 
(-3) s
gs 873 2762 2250 1718 rc
18 w
DA
c8
29 0 28 -1 28 0 28 -1 28 0 28 0 28 0 28 0 
29 1 28 0 28 1 28 1 28 1 28 1 28 1 28 2 
28 1 29 2 28 2 28 3 28 2 28 3 28 3 28 3 
28 3 28 4 29 4 28 4 28 5 28 5 28 5 28 6 
28 5 28 7 28 6 29 7 28 7 28 8 28 8 28 8 
28 9 28 10 28 9 28 11 29 10 28 12 28 11 28 13 
28 13 28 13 28 14 28 15 28 15 29 16 28 16 28 17 
28 18 28 19 28 19 28 20 28 21 28 21 29 28 28 -29 
28 -37 28 -44 28 -50 28 -56 28 -58 28 -59 28 -57 29 -51 
28 -42 28 -28 28 -8 28 17 28 49 28 89 28 -839 901 4049 80 MP stroke
SO
c9
29 2 28 2 28 2 28 2 28 2 28 2 28 2 28 3 
29 2 28 3 28 3 28 3 28 3 28 4 28 4 28 4 
28 5 29 5 28 6 28 6 28 7 28 8 28 8 28 10 
28 11 28 12 29 13 28 15 28 16 28 18 28 19 28 22 
28 24 28 25 28 28 29 30 28 33 28 34 28 37 28 39 
28 42 28 43 28 45 28 47 29 48 28 49 28 50 28 50 
28 50 28 48 28 48 28 45 28 43 29 39 28 35 28 31 
28 24 28 18 28 12 28 3 28 -4 28 -12 29 -21 28 -29 
28 -37 28 -44 28 -50 28 -56 28 -58 28 -59 28 -57 29 -51 
28 -42 28 -28 28 -8 28 17 28 49 28 89 28 -839 901 4049 80 MP stroke
gr

18 w
c9
0 sg
%%IncludeResource: font Helvetica
/Helvetica /ISOLatin1Encoding 120 FMSR

1954 2667 mt 
(C) s
6 w
1 sg
0 1717 2249 0 0 -1717 3832 4479 4 MP
PP
-2249 0 0 1717 2249 0 0 -1717 3832 4479 5 MP stroke
4 w
DO
6 w
SO
0 sg
3832 4479 mt 6081 4479 L
3832 4479 mt 3832 2762 L
3832 4479 mt 3832 4456 L
3799 4624 mt 
(0) s
4394 4479 mt 4394 4456 L
4328 4624 mt 
(20) s
4956 4479 mt 4956 4456 L
4890 4624 mt 
(40) s
5518 4479 mt 5518 4456 L
5452 4624 mt 
(60) s
6081 4479 mt 6081 4456 L
6015 4624 mt 
(80) s
3832 4479 mt 3854 4479 L
3561 4523 mt 
(-1.5) s
3832 4192 mt 3854 4192 L
3661 4236 mt 
(-1) s
3832 3906 mt 3854 3906 L
3561 3950 mt 
(-0.5) s
3832 3620 mt 3854 3620 L
3731 3664 mt 
(0) s
3832 3334 mt 3854 3334 L
3631 3378 mt 
(0.5) s
3832 3048 mt 3854 3048 L
3731 3092 mt 
(1) s
3832 2762 mt 3854 2762 L
3631 2806 mt 
(1.5) s
3832 2708 mt 
(x 10) s
%%IncludeResource: font Helvetica
/Helvetica /ISOLatin1Encoding 80 FMSR

4058 2634 mt 
(-3) s
gs 3832 2762 2250 1718 rc
18 w
DA
c8
29 0 28 -1 28 -1 28 0 28 -1 28 0 28 -1 28 -1 
29 0 28 -1 28 -1 28 -1 28 -1 28 0 28 -1 28 -1 
28 -1 29 -1 28 -1 28 -1 28 -1 28 -1 28 -2 28 -1 
28 -1 28 -1 29 -2 28 -1 28 -1 28 -2 28 -1 28 -2 
28 -2 28 -1 28 -2 29 -2 28 -2 28 -2 28 -2 28 -2 
28 -2 28 -2 28 -3 28 -2 29 -2 28 -3 28 -3 28 -2 
28 -3 28 -3 28 -3 28 -3 28 -3 29 -3 28 -3 28 -4 
28 -3 28 -4 28 -3 28 -4 28 -4 28 -4 29 -14 28 90 
28 95 28 98 28 100 28 99 28 94 28 87 28 74 29 57 
28 35 28 7 28 -27 28 -69 28 -117 28 -174 28 -328 3860 3620 80 MP stroke
SO
c9
29 0 28 -1 28 0 28 -1 28 0 28 -1 28 0 28 -1 
29 -1 28 -1 28 0 28 -2 28 -1 28 -1 28 -2 28 -2 
28 -2 29 -3 28 -4 28 -4 28 -4 28 -6 28 -6 28 -7 
28 -8 28 -9 29 -11 28 -11 28 -13 28 -15 28 -15 28 -18 
28 -18 28 -20 28 -22 29 -23 28 -24 28 -25 28 -27 28 -27 
28 -28 28 -27 28 -28 28 -27 29 -27 28 -24 28 -23 28 -20 
28 -17 28 -13 28 -9 28 -3 28 3 29 9 28 16 28 24 
28 32 28 41 28 49 28 59 28 67 28 75 29 83 28 90 
28 95 28 98 28 100 28 99 28 94 28 87 28 74 29 57 
28 35 28 7 28 -27 28 -69 28 -117 28 -174 28 -328 3860 3620 80 MP stroke
gr

18 w
c9
0 sg
%%IncludeResource: font Helvetica
/Helvetica /ISOLatin1Encoding 120 FMSR

4909 2667 mt 
(pi) s
6 w

end %%Color Dict

eplot
%%EndObject

epage
end

showpage

%%Trailer
%%EOF
