%!PS-Adobe-2.0 EPSF-2.0
%% This is a Stata generated postscript file
%%BoundingBox: 0 0 288 288
%%HiResBoundingBox: 0.000 0.000 288.000 288.000
%%DocumentNeededResources: font Helvetica
/xratio 0.009000 def
/yratio 0.009000 def
/Sbgfill {
	/y1 exch def
	/x1 exch def
	/y0 exch def
	/x0 exch def
	x0 y0 moveto
	x0 y1 lineto x1 y1 lineto x1 y0 lineto x0 y0 lineto
	fill
} def
/Spt {
	yratio mul
	/yp exch def
	xratio mul
	/xp exch def
	Slrgb setrgbcolor
	newpath
	xp yp moveto
	xp Slw add yp
	lineto
	currentlinecap
	1 setlinecap
	stroke
	setlinecap
} def
/Sln {
	yratio mul
	/y1p exch def
	xratio mul
	/x1p exch def
	yratio mul
	/y0p exch def
	xratio mul
	/x0p exch def
	Slw setlinewidth
	Slrgb setrgbcolor
	x0p y0p M x1p y1p lineto S
} def
/Scrv {
	yratio mul
	/y3p exch def
	xratio mul
	/x3p exch def
	yratio mul
	/y2p exch def
	xratio mul
	/x2p exch def
	yratio mul
	/y1p exch def
	xratio mul
	/x1p exch def
	Slw setlinewidth
	Slrgb setrgbcolor
	x1p y1p x2p y2p x3p y3p curveto
	stroke
} def
/Stxtl {
	/sp exch def
	yratio mul
	/sizep exch def
	dup
	/anglep exch def
	0 exch sub
	/angle2p exch def
	yratio mul
	/y0p exch def
	xratio mul
	/x0p exch def
	Strgb setrgbcolor
	x0p y0p M anglep rotate sizep fntsize sp show stroke angle2p rotate
} def
/Stxtc {
	/sp exch def
	yratio mul
	/sizep exch def
	dup
	/anglep exch def
	0 exch sub
	/angle2p exch def
	yratio mul
	/y0p exch def
	xratio mul
	/x0p exch def
	Strgb setrgbcolor
	x0p y0p M anglep rotate sizep fntsize sp stringwidth exch -2 div exch rm sp show stroke angle2p rotate
} def
/Stxtr {
	/sp exch def
	yratio mul
	/sizep exch def
	dup
	/anglep exch def
	0 exch sub
	/angle2p exch def
	yratio mul
	/y0p exch def
	xratio mul
	/x0p exch def
	Strgb setrgbcolor
	x0p y0p M anglep rotate sizep fntsize sp stringwidth 1 index -1 mul exch rm pop sp show stroke angle2p rotate
} def
/Srect {
	/sfill exch def
	yratio mul
	/y1 exch def
	xratio mul
	/x1 exch def
	yratio mul
	/y0 exch def
	xratio mul
	/x0 exch def
	sfill 1 eq {
		Ssrgb setrgbcolor
		x0 y0 moveto
		x0 y1 lineto x1 y1 lineto x1 y0 lineto x0 y0 lineto
		fill
	} if
	Slw setlinewidth
	Slrgb setrgbcolor
	x0 y0 moveto
	x0 y1 lineto x1 y1 lineto x1 y0 lineto x0 y0 lineto
	stroke
} def
/Sellipse {
	/sfill exch def
	yratio mul
	/yrad exch def
	xratio mul
	/xrad exch def
	yratio mul
	/y exch def
	xratio mul
	/x exch def
	sfill 1 eq {
		Ssrgb setrgbcolor
		/savematrix matrix currentmatrix def
		x y translate
		xrad yrad scale
		0 0 1 0 360 arc
		savematrix setmatrix
		fill
	} if
	Slw setlinewidth
	Slrgb setrgbcolor
		/savematrix matrix currentmatrix def
		x y translate
		xrad yrad scale
		0 0 1 0 360 arc
		savematrix setmatrix
	stroke
} def
/Stri {
	/sfill exch def
	xratio mul
	/r exch def
	yratio mul
	/y0 exch def
	xratio mul
	/x0 exch def
	/xcen x0 def
	y0 r add
	/ytop exch def
	r 2 div
	y0 exch sub
	/ybot exch def
	r 3 sqrt 2 div mul dup
	xcen exch sub
	/xleft exch def
	xcen add
	/xright exch def
	sfill 1 eq {
		Ssrgb setrgbcolor
		xcen ytop moveto xright ybot lineto xleft ybot lineto xcen ytop lineto fill
	} if
	Slw setlinewidth
	Slrgb setrgbcolor
	xcen ytop moveto xright ybot lineto xleft ybot lineto xcen ytop lineto stroke
} def
/Soldtri {
	/sfill exch def
	xratio mul
	/r exch def
	yratio mul
	/y0 exch def
	xratio mul
	/x0 exch def
	x0 r sub
	/x1 exch def
	y0 r sub
	/y1 exch def
	x0 r add
	/x2 exch def
	y0 r sub
	/y2 exch def
	/x3 x0 def
	y0 r add
	/y3 exch def
	sfill 1 eq {
		Ssrgb setrgbcolor
		x1 y1 moveto x2 y2 lineto x3 y3 lineto x1 y1 lineto fill
	} if
	Slw setlinewidth
	Slrgb setrgbcolor
	x1 y1 moveto x2 y2 lineto x3 y3 lineto x1 y1 lineto stroke
} def
/Sdia {
	/sfill exch def
	xratio mul
	/r exch def
	yratio mul
	/y exch def
	xratio mul
	/x exch def
	x r sub
	/x0 exch def
	/y0 y def
	/x1 x def
	y r sub
	/y1 exch def
	x r add
	/x2 exch def
	/y2 y def
	/x3 x def
	y r add
	/y3 exch def
	sfill 1 eq  {
		Ssrgb setrgbcolor
		x0 y0 moveto x1 y1 lineto x2 y2 lineto x3 y3 lineto x0 y0 lineto fill
	} if
	Slw setlinewidth
	Slrgb setrgbcolor
	x0 y0 moveto x1 y1 lineto x2 y2 lineto x3 y3 lineto x0 y0 lineto stroke
} def
/Scc {
	/sfill exch def
	xratio mul
	/r0 exch def
	yratio mul
	/y0 exch def
	xratio mul
	/x0 exch def
	sfill 1 eq {
		Ssrgb setrgbcolor
		x0 y0 r0 0 360 arc fill
	} if
	Slw setlinewidth
	Slrgb setrgbcolor
	x0 y0 r0 0 360 arc stroke
} def
/Spie {
	/sfill exch def
	/a1 exch def
	/a0 exch def
	xratio mul
	/r exch def
	yratio mul
	/y exch def
	xratio mul
	/x exch def
	sfill 1 eq {
		Ssrgb setrgbcolor
		newpath x y moveto x y r a0 a1 arc closepath
		fill
	} if
	Slw setlinewidth
	Slrgb setrgbcolor
	newpath x y moveto x y r a0 a1 arc closepath
	stroke
} def
/Splu {
	xratio mul
	/r exch def
	yratio mul
	/y exch def
	xratio mul
	/x exch def
	x r sub
	/x0 exch def
	x r add
	/x1 exch def
	x0 y M x1 y L
	y r sub
	/y0 exch def
	y r add
	/y1 exch def
	x y0 M x y1 L
} def
/Scro {
	xratio mul
	/r exch def
	yratio mul
	/y exch def
	xratio mul
	/x exch def
	x r sub
	/x0 exch def
	y r sub
	/y0 exch def
	x r add
	/x1 exch def
	y r add
	/y1 exch def
	x0 y0 M x1 y1 L
	x r add
	/x0 exch def
	y r sub
	/y0 exch def
	x r sub
	/x1 exch def
	y r add
	/y1 exch def
	x0 y0 M x1 y1 L
} def
/Sm {
	yratio mul
	/y exch def
	xratio mul
	/x exch def
	x y M
} def
/Sl {
	yratio mul
	/y exch def
	xratio mul
	/x exch def
	x y L
} def
/SPl {
	yratio mul
	/y exch def
	xratio mul
	/x exch def
	x y PL
} def
/Lcs {
	currentlinecap
	1 setlinecap
} def
/Lcr {
	setlinecap
} def
/Sbp {
	newpath
} def
/Sep {
	/sfill exch def
	closepath
	sfill 1 eq  {
		Ssrgb setrgbcolor
		gsave
		fill
		grestore
	} if
	Slw setlinewidth
	Slrgb setrgbcolor
	Lcs
	stroke
	Lcr
} def
/cp {currentpoint} def 
/M {moveto} def 
/rm {rmoveto} def 
/S {stroke} def 
/L {Slw setlinewidth Slrgb setrgbcolor lineto Lcs S Lcr} def 
/PL {Slw setlinewidth Slrgb setrgbcolor lineto} def 
/MF-Helvetica {
  /newfontname exch def
  /fontname exch def
  /fontdict fontname findfont def
  /newfont fontdict maxlength dict def
  fontdict {
  exch dup /FID eq {pop pop} {exch newfont 3 1 roll put} ifelse
  } forall
  newfont /FontName newfontname put
  newfont /Encoding ISOLatin1Encoding put
  newfontname newfont definefont pop
} def
/Helvetica /Helvetica-0 MF-Helvetica
/Slw 0.120 def
1.000 1.000 1.000 setrgbcolor
0 0 288.000 288.000 Sbgfill
/Slrgb {1.000 1.000 1.000} def
/Strgb {1.000 1.000 1.000} def
/Ssrgb {1.000 1.000 1.000} def
/Slw 0.576 def
0 0 32000 32000 1 Srect
4342 4342 30880 28940 1 Srect
/Slrgb {0.000 0.000 0.000} def
/Strgb {0.000 0.000 0.000} def
/Slw 0.864 def
/Slrgb {0.918 0.949 0.953} def
4342 5046 30880 5046 Sln
/Slw 0.576 def
/Slrgb {0.000 0.000 0.000} def
/Slw 0.864 def
/Slrgb {0.918 0.949 0.953} def
4342 10844 30880 10844 Sln
/Slw 0.576 def
/Slrgb {0.000 0.000 0.000} def
/Slw 0.864 def
/Slrgb {0.918 0.949 0.953} def
4342 16641 30880 16641 Sln
/Slw 0.576 def
/Slrgb {0.000 0.000 0.000} def
/Slw 0.864 def
/Slrgb {0.918 0.949 0.953} def
4342 22439 30880 22439 Sln
/Slw 0.576 def
/Slrgb {0.000 0.000 0.000} def
/Slw 0.864 def
/Slrgb {0.102 0.278 0.435} def
/Ssrgb {0.102 0.278 0.435} def
30176 23484 244 1 Scc 
27304 21047 244 1 Scc 
26344 14246 244 1 Scc 
27234 16303 244 1 Scc 
23596 18807 244 1 Scc 
24394 19294 244 1 Scc 
24024 13667 244 1 Scc 
17609 13364 244 1 Scc 
20552 18128 244 1 Scc 
17918 12340 244 1 Scc 
20947 21047 244 1 Scc 
21353 21745 244 1 Scc 
21620 24389 244 1 Scc 
22721 20993 244 1 Scc 
21368 18508 244 1 Scc 
20382 18128 244 1 Scc 
20812 17857 244 1 Scc 
21386 16931 244 1 Scc 
19811 14356 244 1 Scc 
20545 14878 244 1 Scc 
19645 14631 244 1 Scc 
19945 17340 244 1 Scc 
19828 16795 244 1 Scc 
18896 15372 244 1 Scc 
19824 18752 244 1 Scc 
19956 19213 244 1 Scc 
20460 19862 244 1 Scc 
19158 15153 244 1 Scc 
19820 13336 244 1 Scc 
16558 8772 244 1 Scc 
16796 11146 244 1 Scc 
13836 10143 244 1 Scc 
7863 12949 244 1 Scc 
5046 5500 244 1 Scc 
7002 17694 244 1 Scc 
11573 17231 244 1 Scc 
14134 16904 244 1 Scc 
16101 15098 244 1 Scc 
18860 11924 244 1 Scc 
16886 7817 244 1 Scc 
18113 14218 244 1 Scc 
19546 17503 244 1 Scc 
20086 14494 244 1 Scc 
18018 9220 244 1 Scc 
16515 10617 244 1 Scc 
16569 16685 244 1 Scc 
17179 11730 244 1 Scc 
16164 10059 244 1 Scc 
15632 8940 244 1 Scc 
15678 13391 244 1 Scc 
16712 18590 244 1 Scc 
/Slrgb {0.565 0.208 0.231} def
5046 8917 Sm
17611 14901 Sl
17611 14901 Sm
30176 20885 Sl
/Slw 0.576 def
/Slrgb {0.000 0.000 0.000} def
4342 4342 4342 28940 Sln
4342 5046 3898 5046 Sln
3343 5046 0
/Helvetica-0 findfont 1111 yratio mul scalefont setfont
(.02) stringwidth pop add
2 div xratio div
dup 4 3 roll exch 90.000 cos mul sub 3 1 roll 90.000 sin mul sub 2 copy
/fntsize {/Helvetica-0 findfont exch scalefont setfont } def
90.000 1111
(.02) Stxtl
(.02) stringwidth pop xratio div
dup 4 3 roll exch 90.000 cos mul add 3 1 roll 90.000 sin mul add 2 copy
pop pop pop pop
4342 10844 3898 10844 Sln
3343 10844 0
/Helvetica-0 findfont 1111 yratio mul scalefont setfont
(.04) stringwidth pop add
2 div xratio div
dup 4 3 roll exch 90.000 cos mul sub 3 1 roll 90.000 sin mul sub 2 copy
/fntsize {/Helvetica-0 findfont exch scalefont setfont } def
90.000 1111
(.04) Stxtl
(.04) stringwidth pop xratio div
dup 4 3 roll exch 90.000 cos mul add 3 1 roll 90.000 sin mul add 2 copy
pop pop pop pop
4342 16641 3898 16641 Sln
3343 16641 0
/Helvetica-0 findfont 1111 yratio mul scalefont setfont
(.06) stringwidth pop add
2 div xratio div
dup 4 3 roll exch 90.000 cos mul sub 3 1 roll 90.000 sin mul sub 2 copy
/fntsize {/Helvetica-0 findfont exch scalefont setfont } def
90.000 1111
(.06) Stxtl
(.06) stringwidth pop xratio div
dup 4 3 roll exch 90.000 cos mul add 3 1 roll 90.000 sin mul add 2 copy
pop pop pop pop
4342 22439 3898 22439 Sln
3343 22439 0
/Helvetica-0 findfont 1111 yratio mul scalefont setfont
(.08) stringwidth pop add
2 div xratio div
dup 4 3 roll exch 90.000 cos mul sub 3 1 roll 90.000 sin mul sub 2 copy
/fntsize {/Helvetica-0 findfont exch scalefont setfont } def
90.000 1111
(.08) Stxtl
(.08) stringwidth pop xratio div
dup 4 3 roll exch 90.000 cos mul add 3 1 roll 90.000 sin mul add 2 copy
pop pop pop pop
4342 28236 3898 28236 Sln
3343 28236 0
/Helvetica-0 findfont 1111 yratio mul scalefont setfont
(.1) stringwidth pop add
2 div xratio div
dup 4 3 roll exch 90.000 cos mul sub 3 1 roll 90.000 sin mul sub 2 copy
/fntsize {/Helvetica-0 findfont exch scalefont setfont } def
90.000 1111
(.1) Stxtl
(.1) stringwidth pop xratio div
dup 4 3 roll exch 90.000 cos mul add 3 1 roll 90.000 sin mul add 2 copy
pop pop pop pop
2120 16641 0
/Helvetica-0 findfont 1111 yratio mul scalefont setfont
(1y average forecast) stringwidth pop add
2 div xratio div
dup 4 3 roll exch 90.000 cos mul sub 3 1 roll 90.000 sin mul sub 2 copy
/fntsize {/Helvetica-0 findfont exch scalefont setfont } def
90.000 1111
(1y average forecast) Stxtl
(1y average forecast) stringwidth pop xratio div
dup 4 3 roll exch 90.000 cos mul add 3 1 roll 90.000 sin mul add 2 copy
pop pop pop pop
4342 4342 30880 4342 Sln
7626 4342 7626 3898 Sln
7626 2898 0
/Helvetica-0 findfont 1111 yratio mul scalefont setfont
(3.5) stringwidth pop add
2 div xratio div
dup 4 3 roll exch 0.000 cos mul sub 3 1 roll 0.000 sin mul sub 2 copy
/fntsize {/Helvetica-0 findfont exch scalefont setfont } def
0.000 1111
(3.5) Stxtl
(3.5) stringwidth pop xratio div
dup 4 3 roll exch 0.000 cos mul add 3 1 roll 0.000 sin mul add 2 copy
pop pop pop pop
18879 4342 18879 3898 Sln
18879 2898 0
/Helvetica-0 findfont 1111 yratio mul scalefont setfont
(4) stringwidth pop add
2 div xratio div
dup 4 3 roll exch 0.000 cos mul sub 3 1 roll 0.000 sin mul sub 2 copy
/fntsize {/Helvetica-0 findfont exch scalefont setfont } def
0.000 1111
(4) Stxtl
(4) stringwidth pop xratio div
dup 4 3 roll exch 0.000 cos mul add 3 1 roll 0.000 sin mul add 2 copy
pop pop pop pop
30132 4342 30132 3898 Sln
30132 2898 0
/Helvetica-0 findfont 1111 yratio mul scalefont setfont
(4.5) stringwidth pop add
2 div xratio div
dup 4 3 roll exch 0.000 cos mul sub 3 1 roll 0.000 sin mul sub 2 copy
/fntsize {/Helvetica-0 findfont exch scalefont setfont } def
0.000 1111
(4.5) Stxtl
(4.5) stringwidth pop xratio div
dup 4 3 roll exch 0.000 cos mul add 3 1 roll 0.000 sin mul add 2 copy
pop pop pop pop
17611 1675 0
/Helvetica-0 findfont 1111 yratio mul scalefont setfont
(log P/D ratio) stringwidth pop add
2 div xratio div
dup 4 3 roll exch 0.000 cos mul sub 3 1 roll 0.000 sin mul sub 2 copy
/fntsize {/Helvetica-0 findfont exch scalefont setfont } def
0.000 1111
(log P/D ratio) Stxtl
(log P/D ratio) stringwidth pop xratio div
dup 4 3 roll exch 0.000 cos mul add 3 1 roll 0.000 sin mul add 2 copy
pop pop pop pop
/Strgb {0.118 0.176 0.325} def
17611 29599 0
/Helvetica-0 findfont 1556 yratio mul scalefont setfont
(Return expectations) stringwidth pop add
2 div xratio div
dup 4 3 roll exch 0.000 cos mul sub 3 1 roll 0.000 sin mul sub 2 copy
/fntsize {/Helvetica-0 findfont exch scalefont setfont } def
0.000 1556
(Return expectations) Stxtl
(Return expectations) stringwidth pop xratio div
dup 4 3 roll exch 0.000 cos mul add 3 1 roll 0.000 sin mul add 2 copy
pop pop pop pop
S showpage
%%EOF
