%!PS-Adobe-3.0 EPSF-3.0
%%Creator: MATLAB, The MathWorks, Inc. Version 7.14.0.739 (R2012a). Operating System: Darwin 13.3.0 Darwin Kernel Version 13.3.0: Tue Jun  3 21:27:35 PDT 2014; root:xnu-2422.110.17~1/RELEASE_X86_64 x86_64.
%%Title: /Users/fckw/Dropbox/PhD/jmp/ferrpath.eps
%%CreationDate: 09/20/2014  12:52:12
%%DocumentNeededFonts: Helvetica
%%DocumentProcessColors: Cyan Magenta Yellow Black
%%LanguageLevel: 2
%%Pages: 1
%%BoundingBox:     0     0   694   247
%%EndComments

%%BeginProlog
% MathWorks dictionary
/MathWorks 160 dict begin
% definition operators
/bdef {bind def} bind def
/ldef {load def} bind def
/xdef {exch def} bdef
/xstore {exch store} bdef
% operator abbreviations
/c  /clip ldef
/cc /concat ldef
/cp /closepath ldef
/gr /grestore ldef
/gs /gsave ldef
/mt /moveto ldef
/np /newpath ldef
/cm /currentmatrix ldef
/sm /setmatrix ldef
/rm /rmoveto ldef
/rl /rlineto ldef
/s {show newpath} bdef
/sc {setcmykcolor} bdef
/sr /setrgbcolor ldef
/sg /setgray ldef
/w /setlinewidth ldef
/j /setlinejoin ldef
/cap /setlinecap ldef
/rc {rectclip} bdef
/rf {rectfill} bdef
% page state control
/pgsv () def
/bpage {/pgsv save def} bdef
/epage {pgsv restore} bdef
/bplot /gsave ldef
/eplot {stroke grestore} bdef
% orientation switch
/portraitMode 0 def /landscapeMode 1 def /rotateMode 2 def
% coordinate system mappings
/dpi2point 0 def
% font control
/FontSize 0 def
/FMS {/FontSize xstore findfont [FontSize 0 0 FontSize neg 0 0]
  makefont setfont} bdef
/reencode {exch dup where {pop load} {pop StandardEncoding} ifelse
  exch dup 3 1 roll findfont dup length dict begin
  { 1 index /FID ne {def}{pop pop} ifelse } forall
  /Encoding exch def currentdict end definefont pop} bdef
/isroman {findfont /CharStrings get /Agrave known} bdef
/FMSR {3 1 roll 1 index dup isroman {reencode} {pop pop} ifelse
  exch FMS} bdef
/csm {1 dpi2point div -1 dpi2point div scale neg translate
 dup landscapeMode eq {pop -90 rotate}
  {rotateMode eq {90 rotate} if} ifelse} bdef
% line types: solid, dotted, dashed, dotdash
/dom { dpi2point 1 currentlinewidth 0.08 mul add mul mul } bdef/dam { dpi2point 2 currentlinewidth 0.04 mul add mul mul } bdef/SO { [] 0 setdash 0 setlinecap } bdef/DO { [1 dom 1.2 dom] 0 setdash 0 setlinecap } bdef/DA { [4 dam 1.5 dam] 0 setdash 0 setlinecap } bdef/DD { [1 dom 1.2 dom 4 dam 1.2 dom] 0 setdash 0 setlinecap } bdef/GR { [0 dpi2point mul 4 dpi2point mul] 0 setdash 1 setlinecap } bdef% macros for lines and objects
/L {lineto stroke} bdef
/MP {3 1 roll moveto 1 sub {rlineto} repeat} bdef
/AP {{rlineto} repeat} bdef
/PDlw -1 def
/W {/PDlw currentlinewidth def setlinewidth} def
/PP {closepath eofill} bdef
/DP {closepath stroke} bdef
/MR {4 -2 roll moveto dup  0 exch rlineto exch 0 rlineto
  neg 0 exch rlineto closepath} bdef
/FR {MR stroke} bdef
/PR {MR fill} bdef
/L1i {{currentfile picstr readhexstring pop} image} bdef
/tMatrix matrix def
/MakeOval {newpath tMatrix currentmatrix pop translate scale
0 0 1 0 360 arc tMatrix setmatrix} bdef
/FO {MakeOval stroke} bdef
/PO {MakeOval fill} bdef
/PD {currentlinewidth 2 div 0 360 arc fill
   PDlw -1 eq not {PDlw w /PDlw -1 def} if} def
/FA {newpath tMatrix currentmatrix pop translate scale
  0 0 1 5 -2 roll arc tMatrix setmatrix stroke} bdef
/PA {newpath tMatrix currentmatrix pop	translate 0 0 moveto scale
  0 0 1 5 -2 roll arc closepath tMatrix setmatrix fill} bdef
/FAn {newpath tMatrix currentmatrix pop translate scale
  0 0 1 5 -2 roll arcn tMatrix setmatrix stroke} bdef
/PAn {newpath tMatrix currentmatrix pop translate 0 0 moveto scale
  0 0 1 5 -2 roll arcn closepath tMatrix setmatrix fill} bdef
/vradius 0 def /hradius 0 def /lry 0 def
/lrx 0 def /uly 0 def /ulx 0 def /rad 0 def
/MRR {/vradius xdef /hradius xdef /lry xdef /lrx xdef /uly xdef
  /ulx xdef newpath tMatrix currentmatrix pop ulx hradius add uly
  vradius add translate hradius vradius scale 0 0 1 180 270 arc 
  tMatrix setmatrix lrx hradius sub uly vradius add translate
  hradius vradius scale 0 0 1 270 360 arc tMatrix setmatrix
  lrx hradius sub lry vradius sub translate hradius vradius scale
  0 0 1 0 90 arc tMatrix setmatrix ulx hradius add lry vradius sub
  translate hradius vradius scale 0 0 1 90 180 arc tMatrix setmatrix
  closepath} bdef
/FRR {MRR stroke } bdef
/PRR {MRR fill } bdef
/MlrRR {/lry xdef /lrx xdef /uly xdef /ulx xdef /rad lry uly sub 2 div def
  newpath tMatrix currentmatrix pop ulx rad add uly rad add translate
  rad rad scale 0 0 1 90 270 arc tMatrix setmatrix lrx rad sub lry rad
  sub translate rad rad scale 0 0 1 270 90 arc tMatrix setmatrix
  closepath} bdef
/FlrRR {MlrRR stroke } bdef
/PlrRR {MlrRR fill } bdef
/MtbRR {/lry xdef /lrx xdef /uly xdef /ulx xdef /rad lrx ulx sub 2 div def
  newpath tMatrix currentmatrix pop ulx rad add uly rad add translate
  rad rad scale 0 0 1 180 360 arc tMatrix setmatrix lrx rad sub lry rad
  sub translate rad rad scale 0 0 1 0 180 arc tMatrix setmatrix
  closepath} bdef
/FtbRR {MtbRR stroke } bdef
/PtbRR {MtbRR fill } bdef
/stri 6 array def /dtri 6 array def
/smat 6 array def /dmat 6 array def
/tmat1 6 array def /tmat2 6 array def /dif 3 array def
/asub {/ind2 exch def /ind1 exch def dup dup
  ind1 get exch ind2 get sub exch } bdef
/tri_to_matrix {
  2 0 asub 3 1 asub 4 0 asub 5 1 asub
  dup 0 get exch 1 get 7 -1 roll astore } bdef
/compute_transform {
  dmat dtri tri_to_matrix tmat1 invertmatrix 
  smat stri tri_to_matrix tmat2 concatmatrix } bdef
/ds {stri astore pop} bdef
/dt {dtri astore pop} bdef
/db {2 copy /cols xdef /rows xdef mul dup 3 mul string
  currentfile 
  3 index 0 eq {/ASCIIHexDecode filter}
  {/ASCII85Decode filter 3 index 2 eq {/RunLengthDecode filter} if }
  ifelse exch readstring pop
  dup 0 3 index getinterval /rbmap xdef
  dup 2 index dup getinterval /gbmap xdef
  1 index dup 2 mul exch getinterval /bbmap xdef pop pop}bdef
/it {gs np dtri aload pop moveto lineto lineto cp c
  cols rows 8 compute_transform 
  rbmap gbmap bbmap true 3 colorimage gr}bdef
/il {newpath moveto lineto stroke}bdef
currentdict end def
%%EndProlog

%%BeginSetup
MathWorks begin

0 cap

end
%%EndSetup

%%Page: 1 1
%%BeginPageSetup
%%PageBoundingBox:     0     0   694   247
MathWorks begin
bpage
%%EndPageSetup

%%BeginObject: obj1
bplot

/dpi2point 12 def
portraitMode 0000 2964 csm

    0     0  8338  2971 rc
85 dict begin %Colortable dictionary
/c0 { 0.000000 0.000000 0.000000 sr} bdef
/c1 { 1.000000 1.000000 1.000000 sr} bdef
/c2 { 0.900000 0.000000 0.000000 sr} bdef
/c3 { 0.000000 0.820000 0.000000 sr} bdef
/c4 { 0.000000 0.000000 0.800000 sr} bdef
/c5 { 0.910000 0.820000 0.320000 sr} bdef
/c6 { 1.000000 0.260000 0.820000 sr} bdef
/c7 { 0.000000 0.820000 0.820000 sr} bdef
c0
1 j
1 sg
   0    0 8339 2972 rf
6 w
0 2376 2083 0 0 -2376 419 2660 4 MP
PP
-2083 0 0 2376 2083 0 0 -2376 419 2660 5 MP stroke
4 w
DO
6 w
SO
0 sg
 419 2660 mt 2502 2660 L
 419 2660 mt  419  284 L
 419 2660 mt  419 2636 L
%%IncludeResource: font Helvetica
/Helvetica /ISOLatin1Encoding 120 FMSR

 386 2805 mt 
(0) s
1113 2660 mt 1113 2636 L
1047 2805 mt 
(10) s
1807 2660 mt 1807 2636 L
1741 2805 mt 
(20) s
2502 2660 mt 2502 2636 L
2436 2805 mt 
(30) s
 419 2660 mt  442 2660 L
 248 2704 mt 
(-2) s
 419 2320 mt  442 2320 L
 318 2364 mt 
(0) s
 419 1981 mt  442 1981 L
 318 2025 mt 
(2) s
 419 1642 mt  442 1642 L
 318 1686 mt 
(4) s
 419 1302 mt  442 1302 L
 318 1346 mt 
(6) s
 419  963 mt  442  963 L
 318 1007 mt 
(8) s
 419  624 mt  442  624 L
 251  668 mt 
(10) s
 419  285 mt  442  285 L
 251  329 mt 
(12) s
 419  231 mt 
(x 10) s
%%IncludeResource: font Helvetica
/Helvetica /ISOLatin1Encoding 80 FMSR

 645  157 mt 
(-3) s
gs 419 285 2084 2376 rc
18 w
DO
/c8 { 0.000000 0.000000 1.000000 sr} bdef
c8
70 -14 69 -14 70 -14 69 -14 70 -13 69 -13 70 -11 69 -12 
69 -10 70 -9 69 -9 70 -7 69 -6 70 -4 69 -3 69 0 
70 1 69 4 70 6 69 11 70 15 69 25 69 -35 70 -13 
69 -22 70 107 69 -137 70 -160 69 -114 488 2320 30 MP stroke
DA
/c9 { 0.000000 0.500000 0.000000 sr} bdef
c9
70 -25 69 -24 70 -25 69 -25 70 -24 69 -25 70 -24 69 -23 
69 -23 70 -23 69 -22 70 -21 69 -20 70 -15 69 -22 69 -27 
70 -31 69 -25 70 -54 69 -83 70 -113 69 -140 69 -163 70 -173 
69 -213 70 -107 69 -137 70 -160 69 -114 488 2320 30 MP stroke
SO
/c10 { 1.000000 0.000000 0.000000 sr} bdef
c10
70 83 69 94 70 101 69 110 70 116 69 120 70 124 69 126 
69 123 70 120 69 112 70 102 69 88 70 72 69 52 69 29 
70 3 69 -25 70 -54 69 -83 70 -113 69 -140 69 -163 70 -173 
69 -213 70 -107 69 -137 70 -160 69 -114 488 2320 30 MP stroke
gr

18 w
c10
0 sg
%%IncludeResource: font Helvetica
/Helvetica /ISOLatin1Encoding 120 FMSR

1377  190 mt 
(VD) s
6 w
1 sg
0 2375 2083 0 0 -2375 3262 2660 4 MP
PP
-2083 0 0 2375 2083 0 0 -2375 3262 2660 5 MP stroke
4 w
DO
6 w
SO
0 sg
3262 2660 mt 5345 2660 L
3262 2660 mt 3262  285 L
3262 2660 mt 3262 2636 L
3229 2805 mt 
(0) s
3956 2660 mt 3956 2636 L
3890 2805 mt 
(10) s
4650 2660 mt 4650 2636 L
4584 2805 mt 
(20) s
5345 2660 mt 5345 2636 L
5279 2805 mt 
(30) s
3262 2660 mt 3285 2660 L
3161 2704 mt 
(0) s
3262 2264 mt 3285 2264 L
2927 2308 mt 
(0.002) s
3262 1868 mt 3285 1868 L
2927 1912 mt 
(0.004) s
3262 1472 mt 3285 1472 L
2927 1516 mt 
(0.006) s
3262 1076 mt 3285 1076 L
2927 1120 mt 
(0.008) s
3262  680 mt 3285  680 L
2994  724 mt 
(0.01) s
3262  285 mt 3285  285 L
2927  329 mt 
(0.012) s
gs 3262 285 2084 2376 rc
18 w
DO
c8
70 13 69 14 70 14 69 14 70 15 69 15 70 16 69 17 
69 17 70 17 69 18 70 19 69 20 70 20 69 21 69 22 
70 24 69 25 70 27 69 31 70 35 69 40 69 45 70 34 
69 -56 70 928 69 -31 70 357 69 -2118 3331 2660 30 MP stroke
DA
c9
70 14 69 15 70 15 69 16 70 16 69 17 70 17 69 18 
69 19 70 20 69 20 70 21 69 23 70 23 69 25 69 29 
70 -30 69 114 70 118 69 121 70 123 69 123 69 121 70 119 
69 112 70 88 69 -31 70 357 69 -2118 3331 2660 30 MP stroke
SO
c10
70 -10 69 -7 70 -3 69 0 70 5 69 11 70 18 69 25 
69 33 70 43 69 51 70 62 69 71 70 81 69 90 69 99 
70 106 69 114 70 118 69 121 70 123 69 123 69 121 70 119 
69 112 70 88 69 -31 70 357 69 -2118 3331 2660 30 MP stroke
gr

18 w
c10
0 sg
4263  190 mt 
(Y) s
6 w
1 sg
0 2375 2083 0 0 -2375 6104 2660 4 MP
PP
-2083 0 0 2375 2083 0 0 -2375 6104 2660 5 MP stroke
4 w
DO
6 w
SO
0 sg
6104 2660 mt 8187 2660 L
6104 2660 mt 6104  285 L
6104 2660 mt 6104 2636 L
6071 2805 mt 
(0) s
6798 2660 mt 6798 2636 L
6732 2805 mt 
(10) s
7492 2660 mt 7492 2636 L
7426 2805 mt 
(20) s
8187 2660 mt 8187 2636 L
8121 2805 mt 
(30) s
6104 2660 mt 6127 2660 L
5766 2704 mt 
(-0.01) s
6104 2185 mt 6127 2185 L
6003 2229 mt 
(0) s
6104 1710 mt 6127 1710 L
5836 1754 mt 
(0.01) s
6104 1235 mt 6127 1235 L
5836 1279 mt 
(0.02) s
6104  760 mt 6127  760 L
5836  804 mt 
(0.03) s
6104  285 mt 6127  285 L
5836  329 mt 
(0.04) s
gs 6104 285 2084 2376 rc
18 w
DO
c8
70 5 69 5 70 5 69 7 70 6 69 7 70 8 69 8 
69 9 70 9 69 11 70 11 69 12 70 12 69 15 69 15 
70 17 69 20 70 22 69 26 70 31 69 37 69 42 70 30 
69 -72 70 1082 69 -12 70 451 69 -1896 6173 2185 30 MP stroke
DA
c9
70 4 69 5 70 5 69 5 70 6 69 6 70 7 69 7 
69 8 70 8 69 10 70 10 69 12 70 13 69 14 69 19 
70 -49 69 118 70 128 69 137 70 144 69 149 69 153 70 153 
69 150 70 124 69 -12 70 451 69 -1896 6173 2185 30 MP stroke
SO
c10
70 -28 69 -26 70 -25 69 -22 70 -18 69 -13 70 -6 69 1 
69 10 70 20 69 30 70 43 69 55 70 68 69 81 69 93 
70 107 69 118 70 128 69 137 70 144 69 149 69 153 70 153 
69 150 70 124 69 -12 70 451 69 -1896 6173 2185 30 MP stroke
gr

18 w
c10
0 sg
7128  190 mt 
(I) s
6 w

end %%Color Dict

eplot
%%EndObject

epage
end

showpage

%%Trailer
%%EOF
