%!PS-Adobe-2.0 EPSF-2.0
%% This is a Stata generated postscript file
%%BoundingBox: 0 0 396 288
%%HiResBoundingBox: 0.000 0.000 396.000 288.000
%%DocumentNeededResources: font Helvetica
/xratio 0.012375 def
/yratio 0.012375 def
/Sbgfill {
	/y1 exch def
	/x1 exch def
	/y0 exch def
	/x0 exch def
	x0 y0 moveto
	x0 y1 lineto x1 y1 lineto x1 y0 lineto x0 y0 lineto
	fill
} def
/Spt {
	yratio mul
	/yp exch def
	xratio mul
	/xp exch def
	Slrgb setrgbcolor
	newpath
	xp yp moveto
	xp Slw add yp
	lineto
	currentlinecap
	1 setlinecap
	stroke
	setlinecap
} def
/Sln {
	yratio mul
	/y1p exch def
	xratio mul
	/x1p exch def
	yratio mul
	/y0p exch def
	xratio mul
	/x0p exch def
	Slw setlinewidth
	Slrgb setrgbcolor
	x0p y0p M x1p y1p lineto S
} def
/Scrv {
	yratio mul
	/y3p exch def
	xratio mul
	/x3p exch def
	yratio mul
	/y2p exch def
	xratio mul
	/x2p exch def
	yratio mul
	/y1p exch def
	xratio mul
	/x1p exch def
	Slw setlinewidth
	Slrgb setrgbcolor
	x1p y1p x2p y2p x3p y3p curveto
	stroke
} def
/Stxtl {
	/sp exch def
	yratio mul
	/sizep exch def
	dup
	/anglep exch def
	0 exch sub
	/angle2p exch def
	yratio mul
	/y0p exch def
	xratio mul
	/x0p exch def
	Strgb setrgbcolor
	x0p y0p M anglep rotate sizep fntsize sp show stroke angle2p rotate
} def
/Stxtc {
	/sp exch def
	yratio mul
	/sizep exch def
	dup
	/anglep exch def
	0 exch sub
	/angle2p exch def
	yratio mul
	/y0p exch def
	xratio mul
	/x0p exch def
	Strgb setrgbcolor
	x0p y0p M anglep rotate sizep fntsize sp stringwidth exch -2 div exch rm sp show stroke angle2p rotate
} def
/Stxtr {
	/sp exch def
	yratio mul
	/sizep exch def
	dup
	/anglep exch def
	0 exch sub
	/angle2p exch def
	yratio mul
	/y0p exch def
	xratio mul
	/x0p exch def
	Strgb setrgbcolor
	x0p y0p M anglep rotate sizep fntsize sp stringwidth 1 index -1 mul exch rm pop sp show stroke angle2p rotate
} def
/Srect {
	/sfill exch def
	yratio mul
	/y1 exch def
	xratio mul
	/x1 exch def
	yratio mul
	/y0 exch def
	xratio mul
	/x0 exch def
	sfill 1 eq {
		Ssrgb setrgbcolor
		x0 y0 moveto
		x0 y1 lineto x1 y1 lineto x1 y0 lineto x0 y0 lineto
		fill
	} if
	Slw setlinewidth
	Slrgb setrgbcolor
	x0 y0 moveto
	x0 y1 lineto x1 y1 lineto x1 y0 lineto x0 y0 lineto
	stroke
} def
/Sellipse {
	/sfill exch def
	yratio mul
	/yrad exch def
	xratio mul
	/xrad exch def
	yratio mul
	/y exch def
	xratio mul
	/x exch def
	sfill 1 eq {
		Ssrgb setrgbcolor
		/savematrix matrix currentmatrix def
		x y translate
		xrad yrad scale
		0 0 1 0 360 arc
		savematrix setmatrix
		fill
	} if
	Slw setlinewidth
	Slrgb setrgbcolor
		/savematrix matrix currentmatrix def
		x y translate
		xrad yrad scale
		0 0 1 0 360 arc
		savematrix setmatrix
	stroke
} def
/Stri {
	/sfill exch def
	xratio mul
	/r exch def
	yratio mul
	/y0 exch def
	xratio mul
	/x0 exch def
	/xcen x0 def
	y0 r add
	/ytop exch def
	r 2 div
	y0 exch sub
	/ybot exch def
	r 3 sqrt 2 div mul dup
	xcen exch sub
	/xleft exch def
	xcen add
	/xright exch def
	sfill 1 eq {
		Ssrgb setrgbcolor
		xcen ytop moveto xright ybot lineto xleft ybot lineto xcen ytop lineto fill
	} if
	Slw setlinewidth
	Slrgb setrgbcolor
	xcen ytop moveto xright ybot lineto xleft ybot lineto xcen ytop lineto stroke
} def
/Soldtri {
	/sfill exch def
	xratio mul
	/r exch def
	yratio mul
	/y0 exch def
	xratio mul
	/x0 exch def
	x0 r sub
	/x1 exch def
	y0 r sub
	/y1 exch def
	x0 r add
	/x2 exch def
	y0 r sub
	/y2 exch def
	/x3 x0 def
	y0 r add
	/y3 exch def
	sfill 1 eq {
		Ssrgb setrgbcolor
		x1 y1 moveto x2 y2 lineto x3 y3 lineto x1 y1 lineto fill
	} if
	Slw setlinewidth
	Slrgb setrgbcolor
	x1 y1 moveto x2 y2 lineto x3 y3 lineto x1 y1 lineto stroke
} def
/Sdia {
	/sfill exch def
	xratio mul
	/r exch def
	yratio mul
	/y exch def
	xratio mul
	/x exch def
	x r sub
	/x0 exch def
	/y0 y def
	/x1 x def
	y r sub
	/y1 exch def
	x r add
	/x2 exch def
	/y2 y def
	/x3 x def
	y r add
	/y3 exch def
	sfill 1 eq  {
		Ssrgb setrgbcolor
		x0 y0 moveto x1 y1 lineto x2 y2 lineto x3 y3 lineto x0 y0 lineto fill
	} if
	Slw setlinewidth
	Slrgb setrgbcolor
	x0 y0 moveto x1 y1 lineto x2 y2 lineto x3 y3 lineto x0 y0 lineto stroke
} def
/Scc {
	/sfill exch def
	xratio mul
	/r0 exch def
	yratio mul
	/y0 exch def
	xratio mul
	/x0 exch def
	sfill 1 eq {
		Ssrgb setrgbcolor
		x0 y0 r0 0 360 arc fill
	} if
	Slw setlinewidth
	Slrgb setrgbcolor
	x0 y0 r0 0 360 arc stroke
} def
/Spie {
	/sfill exch def
	/a1 exch def
	/a0 exch def
	xratio mul
	/r exch def
	yratio mul
	/y exch def
	xratio mul
	/x exch def
	sfill 1 eq {
		Ssrgb setrgbcolor
		newpath x y moveto x y r a0 a1 arc closepath
		fill
	} if
	Slw setlinewidth
	Slrgb setrgbcolor
	newpath x y moveto x y r a0 a1 arc closepath
	stroke
} def
/Splu {
	xratio mul
	/r exch def
	yratio mul
	/y exch def
	xratio mul
	/x exch def
	x r sub
	/x0 exch def
	x r add
	/x1 exch def
	x0 y M x1 y L
	y r sub
	/y0 exch def
	y r add
	/y1 exch def
	x y0 M x y1 L
} def
/Scro {
	xratio mul
	/r exch def
	yratio mul
	/y exch def
	xratio mul
	/x exch def
	x r sub
	/x0 exch def
	y r sub
	/y0 exch def
	x r add
	/x1 exch def
	y r add
	/y1 exch def
	x0 y0 M x1 y1 L
	x r add
	/x0 exch def
	y r sub
	/y0 exch def
	x r sub
	/x1 exch def
	y r add
	/y1 exch def
	x0 y0 M x1 y1 L
} def
/Sm {
	yratio mul
	/y exch def
	xratio mul
	/x exch def
	x y M
} def
/Sl {
	yratio mul
	/y exch def
	xratio mul
	/x exch def
	x y L
} def
/SPl {
	yratio mul
	/y exch def
	xratio mul
	/x exch def
	x y PL
} def
/Lcs {
	currentlinecap
	1 setlinecap
} def
/Lcr {
	setlinecap
} def
/Sbp {
	newpath
} def
/Sep {
	/sfill exch def
	closepath
	sfill 1 eq  {
		Ssrgb setrgbcolor
		gsave
		fill
		grestore
	} if
	Slw setlinewidth
	Slrgb setrgbcolor
	Lcs
	stroke
	Lcr
} def
/cp {currentpoint} def 
/M {moveto} def 
/rm {rmoveto} def 
/S {stroke} def 
/L {Slw setlinewidth Slrgb setrgbcolor lineto Lcs S Lcr} def 
/PL {Slw setlinewidth Slrgb setrgbcolor lineto} def 
/MF-Helvetica {
  /newfontname exch def
  /fontname exch def
  /fontdict fontname findfont def
  /newfont fontdict maxlength dict def
  fontdict {
  exch dup /FID eq {pop pop} {exch newfont 3 1 roll put} ifelse
  } forall
  newfont /FontName newfontname put
  newfont /Encoding ISOLatin1Encoding put
  newfontname newfont definefont pop
} def
/Helvetica /Helvetica-0 MF-Helvetica
/Slw 0.120 def
0.882 0.902 0.941 setrgbcolor
0 0 396.000 288.000 Sbgfill
/Slrgb {1.000 1.000 1.000} def
/Strgb {1.000 1.000 1.000} def
/Ssrgb {1.000 1.000 1.000} def
/Slw 2.304 def
0 0 31999 23272 1 Srect
/Slw 0.576 def
2349 5222 29730 22457 1 Srect
/Slrgb {0.000 0.000 0.000} def
/Strgb {0.000 0.000 0.000} def
/Slw 0.864 def
/Slrgb {0.851 0.902 0.922} def
2349 7146 29730 7146 Sln
/Slw 0.576 def
/Slrgb {0.000 0.000 0.000} def
/Slw 0.864 def
/Slrgb {0.851 0.902 0.922} def
2349 11745 29730 11745 Sln
/Slw 0.576 def
/Slrgb {0.000 0.000 0.000} def
/Slw 0.864 def
/Slrgb {0.851 0.902 0.922} def
2349 16345 29730 16345 Sln
/Slw 0.576 def
/Slrgb {0.000 0.000 0.000} def
/Slw 0.864 def
/Slrgb {0.851 0.902 0.922} def
2349 20944 29730 20944 Sln
/Slw 0.576 def
/Slrgb {0.000 0.000 0.000} def
/Slw 0.864 def
/Slrgb {0.565 0.208 0.231} def
3861 18689 Sm
3985 13076 Sl
3985 13076 Sm
4110 13594 Sl
4110 13594 Sm
4235 14801 Sl
4235 14801 Sm
4360 15920 Sl
4360 15920 Sm
4485 16444 Sl
4485 16444 Sm
4610 17105 Sl
4610 17105 Sm
4735 17437 Sl
4735 17437 Sm
4860 17942 Sl
4860 17942 Sm
4985 18073 Sl
4985 18073 Sm
5110 18151 Sl
5110 18151 Sm
5235 17727 Sl
5235 17727 Sm
5359 17558 Sl
5359 17558 Sm
5484 16486 Sl
5484 16486 Sm
5609 17535 Sl
5609 17535 Sm
5734 17686 Sl
5734 17686 Sm
5859 16422 Sl
5859 16422 Sm
5984 14794 Sl
5984 14794 Sm
6109 12028 Sl
6109 12028 Sm
6234 13416 Sl
6234 13416 Sm
6359 15881 Sl
6359 15881 Sm
6484 16028 Sl
6484 16028 Sm
6609 17315 Sl
6609 17315 Sm
6734 17290 Sl
6734 17290 Sm
6858 15544 Sl
6858 15544 Sm
6983 17623 Sl
6983 17623 Sm
7108 18133 Sl
7108 18133 Sm
7233 17986 Sl
7233 17986 Sm
7358 17278 Sl
7358 17278 Sm
7483 16221 Sl
7483 16221 Sm
7608 14934 Sl
7608 14934 Sm
7733 14704 Sl
7733 14704 Sm
7858 14114 Sl
7858 14114 Sm
7983 9325 Sl
7983 9325 Sm
8108 12711 Sl
8108 12711 Sm
8232 15233 Sl
8232 15233 Sm
8357 17424 Sl
8357 17424 Sm
8482 17317 Sl
8482 17317 Sm
8607 17056 Sl
8607 17056 Sm
8732 18001 Sl
8732 18001 Sm
8857 19245 Sl
8857 19245 Sm
8982 19394 Sl
8982 19394 Sm
9107 20321 Sl
9107 20321 Sm
9232 21642 Sl
9232 21642 Sm
9357 20415 Sl
9357 20415 Sm
9482 18779 Sl
9482 18779 Sm
9606 19636 Sl
9606 19636 Sm
9731 16787 Sl
9731 16787 Sm
9856 15952 Sl
9856 15952 Sm
9981 13947 Sl
9981 13947 Sm
10106 6834 Sl
10106 6834 Sm
10231 8995 Sl
10231 8995 Sm
10356 13512 Sl
10356 13512 Sm
10481 16763 Sl
10481 16763 Sm
10606 14227 Sl
10606 14227 Sm
10731 16454 Sl
10731 16454 Sm
10856 19826 Sl
10856 19826 Sm
10980 20163 Sl
10980 20163 Sm
11105 20206 Sl
11105 20206 Sm
11230 19845 Sl
11230 19845 Sm
11355 17375 Sl
11355 17375 Sm
11480 17272 Sl
11480 17272 Sm
11605 16108 Sl
11605 16108 Sm
11730 15379 Sl
11730 15379 Sm
11855 13672 Sl
11855 13672 Sm
11980 15002 Sl
11980 15002 Sm
12105 16375 Sl
12105 16375 Sm
12230 14884 Sl
12230 14884 Sm
12355 15731 Sl
12355 15731 Sm
12479 15714 Sl
12479 15714 Sm
12604 16516 Sl
12604 16516 Sm
12729 15748 Sl
12729 15748 Sm
12854 13970 Sl
12854 13970 Sm
12979 16039 Sl
12979 16039 Sm
13104 17769 Sl
13104 17769 Sm
13229 19245 Sl
13229 19245 Sm
13354 18807 Sl
13354 18807 Sm
13479 17478 Sl
13479 17478 Sm
13604 14144 Sl
13604 14144 Sm
13729 14904 Sl
13729 14904 Sm
13853 12318 Sl
13853 12318 Sm
13978 11279 Sl
13978 11279 Sm
14103 12950 Sl
14103 12950 Sm
14228 16088 Sl
14228 16088 Sm
14353 17552 Sl
14353 17552 Sm
14478 19228 Sl
14478 19228 Sm
14603 18329 Sl
14603 18329 Sm
14728 17439 Sl
14728 17439 Sm
14853 15877 Sl
14853 15877 Sm
14978 14141 Sl
14978 14141 Sm
15103 15331 Sl
15103 15331 Sm
15227 14532 Sl
15227 14532 Sm
15352 15445 Sl
15352 15445 Sm
15477 16059 Sl
15477 16059 Sm
15602 14099 Sl
15602 14099 Sm
15727 16864 Sl
15727 16864 Sm
15852 18881 Sl
15852 18881 Sm
15977 19398 Sl
15977 19398 Sm
16102 16710 Sl
16102 16710 Sm
16227 17232 Sl
16227 17232 Sm
16352 21020 Sl
16352 21020 Sm
16477 21196 Sl
16477 21196 Sm
16602 21945 Sl
16602 21945 Sm
16726 15270 Sl
16726 15270 Sm
16851 15786 Sl
16851 15786 Sm
16976 16148 Sl
16976 16148 Sm
17101 15305 Sl
17101 15305 Sm
17226 15041 Sl
17226 15041 Sm
17351 15767 Sl
17351 15767 Sm
17476 16737 Sl
17476 16737 Sm
17601 18015 Sl
17601 18015 Sm
17726 17446 Sl
17726 17446 Sm
17851 15909 Sl
17851 15909 Sm
17976 16280 Sl
17976 16280 Sm
18100 12207 Sl
18100 12207 Sm
18225 13300 Sl
18225 13300 Sm
18350 16022 Sl
18350 16022 Sm
18475 15531 Sl
18475 15531 Sm
18600 16109 Sl
18600 16109 Sm
18725 17714 Sl
18725 17714 Sm
18850 16478 Sl
18850 16478 Sm
18975 16445 Sl
18975 16445 Sm
19100 16503 Sl
19100 16503 Sm
19225 17128 Sl
19225 17128 Sm
19350 17419 Sl
19350 17419 Sm
19474 16907 Sl
19474 16907 Sm
19599 16899 Sl
19599 16899 Sm
19724 16696 Sl
19724 16696 Sm
19849 14876 Sl
19849 14876 Sm
19974 13982 Sl
19974 13982 Sm
20099 14167 Sl
20099 14167 Sm
20224 12941 Sl
20224 12941 Sm
20349 14252 Sl
20349 14252 Sm
20474 15162 Sl
20474 15162 Sm
20599 15667 Sl
20599 15667 Sm
20724 15738 Sl
20724 15738 Sm
20848 15510 Sl
20848 15510 Sm
20973 15265 Sl
20973 15265 Sm
21098 14084 Sl
21098 14084 Sm
21223 14583 Sl
21223 14583 Sm
21348 13990 Sl
21348 13990 Sm
21473 16604 Sl
21473 16604 Sm
21598 17372 Sl
21598 17372 Sm
21723 16867 Sl
21723 16867 Sm
21848 18820 Sl
21848 18820 Sm
21973 18328 Sl
21973 18328 Sm
22098 14908 Sl
22098 14908 Sm
22223 18633 Sl
22223 18633 Sm
22347 18820 Sl
22347 18820 Sm
22472 19896 Sl
22472 19896 Sm
22597 17734 Sl
22597 17734 Sm
22722 20540 Sl
22722 20540 Sm
22847 20741 Sl
22847 20741 Sm
22972 20067 Sl
22972 20067 Sm
23097 20292 Sl
23097 20292 Sm
23222 18554 Sl
23222 18554 Sm
23347 16175 Sl
23347 16175 Sm
23472 18054 Sl
23472 18054 Sm
23597 14525 Sl
23597 14525 Sm
23721 17089 Sl
23721 17089 Sm
23846 17438 Sl
23846 17438 Sm
23971 13961 Sl
23971 13961 Sm
24096 10225 Sl
24096 10225 Sm
24221 11958 Sl
24221 11958 Sm
24346 11275 Sl
24346 11275 Sm
24471 14917 Sl
24471 14917 Sm
24596 15184 Sl
24596 15184 Sm
24721 16987 Sl
24721 16987 Sm
24846 16798 Sl
24846 16798 Sm
24971 16714 Sl
24971 16714 Sm
25095 15841 Sl
25095 15841 Sm
25220 17779 Sl
25220 17779 Sm
25345 16614 Sl
25345 16614 Sm
25470 16388 Sl
25470 16388 Sm
25595 16856 Sl
25595 16856 Sm
25720 16792 Sl
25720 16792 Sm
25845 17409 Sl
25845 17409 Sm
25970 16676 Sl
25970 16676 Sm
26095 17558 Sl
26095 17558 Sm
26220 18551 Sl
26220 18551 Sm
26345 18395 Sl
26345 18395 Sm
26469 19446 Sl
26469 19446 Sm
26594 19449 Sl
26594 19449 Sm
26719 18249 Sl
26719 18249 Sm
26844 15685 Sl
26844 15685 Sm
26969 14873 Sl
26969 14873 Sm
27094 12852 Sl
27094 12852 Sm
27219 7528 Sl
27219 7528 Sm
27344 5734 Sl
27344 5734 Sm
27469 10504 Sl
27469 10504 Sm
27594 15303 Sl
27594 15303 Sm
27719 17991 Sl
27719 17991 Sm
27844 19545 Sl
27844 19545 Sm
27968 16420 Sl
27968 16420 Sm
28093 18337 Sl
28093 18337 Sm
28218 20083 Sl
28218 20083 Sm
28343 20494 Sl
28343 20494 Sm
28468 19424 Sl
28468 19424 Sm
28593 14990 Sl
28593 14990 Sm
28718 16212 Sl
28718 16212 Sm
28843 17929 Sl
28843 17929 Sm
28968 16271 Sl
28968 16271 Sm
29093 16457 Sl
29093 16457 Sm
29218 14883 Sl
/Slrgb {0.333 0.459 0.184} def
3861 16002 Sm
3985 16290 Sl
3985 16290 Sm
4110 16100 Sl
4110 16100 Sm
4235 15639 Sl
4235 15639 Sm
4360 15527 Sl
4360 15527 Sm
4485 16116 Sl
4485 16116 Sm
4610 16259 Sl
4610 16259 Sm
4735 16505 Sl
4735 16505 Sm
4860 16866 Sl
4860 16866 Sm
4985 16428 Sl
4985 16428 Sm
5110 16374 Sl
5110 16374 Sm
5235 16188 Sl
5235 16188 Sm
5359 16810 Sl
5359 16810 Sm
5484 17079 Sl
5484 17079 Sm
5609 17318 Sl
5609 17318 Sm
5734 17512 Sl
5734 17512 Sm
5859 18014 Sl
5859 18014 Sm
5984 17483 Sl
5984 17483 Sm
6109 17202 Sl
6109 17202 Sm
6234 16317 Sl
6234 16317 Sm
6359 15553 Sl
6359 15553 Sm
6484 15811 Sl
6484 15811 Sm
6609 15783 Sl
6609 15783 Sm
6734 16165 Sl
6734 16165 Sm
6858 16418 Sl
6858 16418 Sm
6983 16100 Sl
6983 16100 Sm
7108 16195 Sl
7108 16195 Sm
7233 16490 Sl
7233 16490 Sm
7358 16874 Sl
7358 16874 Sm
7483 16759 Sl
7483 16759 Sm
7608 16858 Sl
7608 16858 Sm
7733 16108 Sl
7733 16108 Sm
7858 15755 Sl
7858 15755 Sm
7983 15042 Sl
7983 15042 Sm
8108 15181 Sl
8108 15181 Sm
8232 14933 Sl
8232 14933 Sm
8357 15147 Sl
8357 15147 Sm
8482 15753 Sl
8482 15753 Sm
8607 15895 Sl
8607 15895 Sm
8732 16241 Sl
8732 16241 Sm
8857 16958 Sl
8857 16958 Sm
8982 17126 Sl
8982 17126 Sm
9107 17173 Sl
9107 17173 Sm
9232 17956 Sl
9232 17956 Sm
9357 18661 Sl
9357 18661 Sm
9482 18666 Sl
9482 18666 Sm
9606 18449 Sl
9606 18449 Sm
9731 18115 Sl
9731 18115 Sm
9856 17515 Sl
9856 17515 Sm
9981 17107 Sl
9981 17107 Sm
10106 16597 Sl
10106 16597 Sm
10231 15201 Sl
10231 15201 Sm
10356 13707 Sl
10356 13707 Sm
10481 13279 Sl
10481 13279 Sm
10606 13654 Sl
10606 13654 Sm
10731 13899 Sl
10731 13899 Sm
10856 14579 Sl
10856 14579 Sm
10980 14705 Sl
10980 14705 Sm
11105 14683 Sl
11105 14683 Sm
11230 15455 Sl
11230 15455 Sm
11355 15927 Sl
11355 15927 Sm
11480 16773 Sl
11480 16773 Sm
11605 16752 Sl
11605 16752 Sm
11730 16827 Sl
11730 16827 Sm
11855 16721 Sl
11855 16721 Sm
11980 17947 Sl
11980 17947 Sm
12105 18285 Sl
12105 18285 Sm
12230 18527 Sl
12230 18527 Sm
12355 18494 Sl
12355 18494 Sm
12479 18146 Sl
12479 18146 Sm
12604 18355 Sl
12604 18355 Sm
12729 17970 Sl
12729 17970 Sm
12854 17533 Sl
12854 17533 Sm
12979 15442 Sl
12979 15442 Sm
13104 15609 Sl
13104 15609 Sm
13229 16357 Sl
13229 16357 Sm
13354 16457 Sl
13354 16457 Sm
13479 16520 Sl
13479 16520 Sm
13604 16397 Sl
13604 16397 Sm
13729 16177 Sl
13729 16177 Sm
13853 15287 Sl
13853 15287 Sm
13978 14377 Sl
13978 14377 Sm
14103 13631 Sl
14103 13631 Sm
14228 13432 Sl
14228 13432 Sm
14353 13717 Sl
14353 13717 Sm
14478 14314 Sl
14478 14314 Sm
14603 15300 Sl
14603 15300 Sm
14728 16259 Sl
14728 16259 Sm
14853 16671 Sl
14853 16671 Sm
14978 17250 Sl
14978 17250 Sm
15103 17398 Sl
15103 17398 Sm
15227 17509 Sl
15227 17509 Sm
15352 17429 Sl
15352 17429 Sm
15477 17451 Sl
15477 17451 Sm
15602 17098 Sl
15602 17098 Sm
15727 17283 Sl
15727 17283 Sm
15852 17124 Sl
15852 17124 Sm
15977 16919 Sl
15977 16919 Sm
16102 16620 Sl
16102 16620 Sm
16227 16620 Sl
16227 16620 Sm
16352 16062 Sl
16352 16062 Sm
16477 16270 Sl
16477 16270 Sm
16602 16535 Sl
16602 16535 Sm
16726 16409 Sl
16726 16409 Sm
16851 16323 Sl
16851 16323 Sm
16976 16684 Sl
16976 16684 Sm
17101 16716 Sl
17101 16716 Sm
17226 16924 Sl
17226 16924 Sm
17351 17068 Sl
17351 17068 Sm
17476 17051 Sl
17476 17051 Sm
17601 17413 Sl
17601 17413 Sm
17726 17078 Sl
17726 17078 Sm
17851 17300 Sl
17851 17300 Sm
17976 16794 Sl
17976 16794 Sm
18100 16546 Sl
18100 16546 Sm
18225 15887 Sl
18225 15887 Sm
18350 15147 Sl
18350 15147 Sm
18475 15104 Sl
18475 15104 Sm
18600 14996 Sl
18600 14996 Sm
18725 14936 Sl
18725 14936 Sm
18850 15007 Sl
18850 15007 Sm
18975 15547 Sl
18975 15547 Sm
19100 15576 Sl
19100 15576 Sm
19225 15979 Sl
19225 15979 Sm
19350 15869 Sl
19350 15869 Sm
19474 15973 Sl
19474 15973 Sm
19599 16004 Sl
19599 16004 Sm
19724 16561 Sl
19724 16561 Sm
19849 16479 Sl
19849 16479 Sm
19974 16555 Sl
19974 16555 Sm
20099 16344 Sl
20099 16344 Sm
20224 16477 Sl
20224 16477 Sm
20349 16536 Sl
20349 16536 Sm
20474 16083 Sl
20474 16083 Sm
20599 15956 Sl
20599 15956 Sm
20724 15947 Sl
20724 15947 Sm
20848 16054 Sl
20848 16054 Sm
20973 16293 Sl
20973 16293 Sm
21098 16338 Sl
21098 16338 Sm
21223 16225 Sl
21223 16225 Sm
21348 16163 Sl
21348 16163 Sm
21473 16126 Sl
21473 16126 Sm
21598 16465 Sl
21598 16465 Sm
21723 16180 Sl
21723 16180 Sm
21848 16389 Sl
21848 16389 Sm
21973 16710 Sl
21973 16710 Sm
22098 16716 Sl
22098 16716 Sm
22223 16938 Sl
22223 16938 Sm
22347 16951 Sl
22347 16951 Sm
22472 17129 Sl
22472 17129 Sm
22597 17313 Sl
22597 17313 Sm
22722 17107 Sl
22722 17107 Sm
22847 17450 Sl
22847 17450 Sm
22972 17695 Sl
22972 17695 Sm
23097 17547 Sl
23097 17547 Sm
23222 17379 Sl
23222 17379 Sm
23347 17064 Sl
23347 17064 Sm
23472 16578 Sl
23472 16578 Sm
23597 16224 Sl
23597 16224 Sm
23721 15531 Sl
23721 15531 Sm
23846 15244 Sl
23846 15244 Sm
23971 15038 Sl
23971 15038 Sm
24096 14812 Sl
24096 14812 Sm
24221 14588 Sl
24221 14588 Sm
24346 14605 Sl
24346 14605 Sm
24471 14943 Sl
24471 14943 Sm
24596 15508 Sl
24596 15508 Sm
24721 15797 Sl
24721 15797 Sm
24846 15564 Sl
24846 15564 Sm
24971 16000 Sl
24971 16000 Sm
25095 16328 Sl
25095 16328 Sm
25220 16636 Sl
25220 16636 Sm
25345 16902 Sl
25345 16902 Sm
25470 17183 Sl
25470 17183 Sm
25595 17492 Sl
25595 17492 Sm
25720 17512 Sl
25720 17512 Sm
25845 17991 Sl
25845 17991 Sm
25970 17825 Sl
25970 17825 Sm
26095 17659 Sl
26095 17659 Sm
26220 17528 Sl
26220 17528 Sm
26345 17623 Sl
26345 17623 Sm
26469 17847 Sl
26469 17847 Sm
26594 17899 Sl
26594 17899 Sm
26719 17911 Sl
26719 17911 Sm
26844 17716 Sl
26844 17716 Sm
26969 17630 Sl
26969 17630 Sm
27094 17136 Sl
27094 17136 Sm
27219 15804 Sl
27219 15804 Sm
27344 14191 Sl
27344 14191 Sm
27469 13525 Sl
27469 13525 Sm
27594 13685 Sl
27594 13685 Sm
27719 13680 Sl
27719 13680 Sm
27844 13849 Sl
27844 13849 Sm
27968 14675 Sl
27968 14675 Sm
28093 14712 Sl
28093 14712 Sm
28218 15209 Sl
28218 15209 Sm
28343 15183 Sl
28343 15183 Sm
28468 15631 Sl
28468 15631 Sm
28593 16379 Sl
28593 16379 Sm
28718 16864 Sl
28718 16864 Sm
28843 17262 Sl
28843 17262 Sm
28968 17443 Sl
28968 17443 Sm
29093 17504 Sl
29093 17504 Sm
29218 18039 Sl
/Slrgb {0.153 0.247 0.435} def
3861 17949 Sm
3985 17338 Sl
3985 17338 Sm
4110 17269 Sl
4110 17269 Sm
4235 17219 Sl
4235 17219 Sm
4360 17119 Sl
4360 17119 Sm
4485 17489 Sl
4485 17489 Sm
4610 18021 Sl
4610 18021 Sm
4735 18254 Sl
4735 18254 Sm
4860 18578 Sl
4860 18578 Sm
4985 18583 Sl
4985 18583 Sm
5110 18760 Sl
5110 18760 Sm
5235 18985 Sl
5235 18985 Sm
5359 19078 Sl
5359 19078 Sm
5484 19015 Sl
5484 19015 Sm
5609 18927 Sl
5609 18927 Sm
5734 19299 Sl
5734 19299 Sm
5859 19389 Sl
5859 19389 Sm
5984 18478 Sl
5984 18478 Sm
6109 18155 Sl
6109 18155 Sm
6234 16722 Sl
6234 16722 Sm
6359 16805 Sl
6359 16805 Sm
6484 17300 Sl
6484 17300 Sm
6609 17508 Sl
6609 17508 Sm
6734 17824 Sl
6734 17824 Sm
6858 17952 Sl
6858 17952 Sm
6983 17631 Sl
6983 17631 Sm
7108 17673 Sl
7108 17673 Sm
7233 17885 Sl
7233 17885 Sm
7358 18889 Sl
7358 18889 Sm
7483 18898 Sl
7483 18898 Sm
7608 17932 Sl
7608 17932 Sm
7733 17727 Sl
7733 17727 Sm
7858 18235 Sl
7858 18235 Sm
7983 18597 Sl
7983 18597 Sm
8108 16131 Sl
8108 16131 Sm
8232 14900 Sl
8232 14900 Sm
8357 15366 Sl
8357 15366 Sm
8482 16819 Sl
8482 16819 Sm
8607 16807 Sl
8607 16807 Sm
8732 17103 Sl
8732 17103 Sm
8857 18004 Sl
8857 18004 Sm
8982 18462 Sl
8982 18462 Sm
9107 18390 Sl
9107 18390 Sm
9232 19241 Sl
9232 19241 Sm
9357 20135 Sl
9357 20135 Sm
9482 19915 Sl
9482 19915 Sm
9606 19320 Sl
9606 19320 Sm
9731 20111 Sl
9731 20111 Sm
9856 21265 Sl
9856 21265 Sm
9981 20997 Sl
9981 20997 Sm
10106 20226 Sl
10106 20226 Sm
10231 14979 Sl
10231 14979 Sm
10356 12209 Sl
10356 12209 Sm
10481 13630 Sl
10481 13630 Sm
10606 14307 Sl
10606 14307 Sm
10731 13582 Sl
10731 13582 Sm
10856 14060 Sl
10856 14060 Sm
10980 16503 Sl
10980 16503 Sm
11105 17988 Sl
11105 17988 Sm
11230 18868 Sl
11230 18868 Sm
11355 18513 Sl
11355 18513 Sm
11480 19168 Sl
11480 19168 Sm
11605 19916 Sl
11605 19916 Sm
11730 20287 Sl
11730 20287 Sm
11855 21070 Sl
11855 21070 Sm
11980 20798 Sl
11980 20798 Sm
12105 21345 Sl
12105 21345 Sm
12230 21449 Sl
12230 21449 Sm
12355 20929 Sl
12355 20929 Sm
12479 20165 Sl
12479 20165 Sm
12604 19708 Sl
12604 19708 Sm
12729 18871 Sl
12729 18871 Sm
12854 18860 Sl
12854 18860 Sm
12979 13249 Sl
12979 13249 Sm
13104 17604 Sl
13104 17604 Sm
13229 16244 Sl
13229 16244 Sm
13354 14827 Sl
13354 14827 Sm
13479 17218 Sl
13479 17218 Sm
13604 19094 Sl
13604 19094 Sm
13729 15674 Sl
13729 15674 Sm
13853 16130 Sl
13853 16130 Sm
13978 14420 Sl
13978 14420 Sm
14103 12744 Sl
14103 12744 Sm
14228 12306 Sl
14228 12306 Sm
14353 15919 Sl
14353 15919 Sm
14478 17970 Sl
14478 17970 Sm
14603 21427 Sl
14603 21427 Sm
14728 21169 Sl
14728 21169 Sm
14853 19107 Sl
14853 19107 Sm
14978 18811 Sl
14978 18811 Sm
15103 16948 Sl
15103 16948 Sm
15227 19960 Sl
15227 19960 Sm
15352 20601 Sl
15352 20601 Sm
15477 18539 Sl
15477 18539 Sm
15602 17927 Sl
15602 17927 Sm
15727 17972 Sl
15727 17972 Sm
15852 17366 Sl
15852 17366 Sm
15977 18381 Sl
15977 18381 Sm
16102 17586 Sl
16102 17586 Sm
16227 16889 Sl
16227 16889 Sm
16352 17575 Sl
16352 17575 Sm
16477 18211 Sl
16477 18211 Sm
16602 18364 Sl
16602 18364 Sm
16726 18097 Sl
16726 18097 Sm
16851 17653 Sl
16851 17653 Sm
16976 17697 Sl
16976 17697 Sm
17101 17982 Sl
17101 17982 Sm
17226 18571 Sl
17226 18571 Sm
17351 18774 Sl
17351 18774 Sm
17476 19181 Sl
17476 19181 Sm
17601 18724 Sl
17601 18724 Sm
17726 18568 Sl
17726 18568 Sm
17851 18612 Sl
17851 18612 Sm
17976 18433 Sl
17976 18433 Sm
18100 17586 Sl
18100 17586 Sm
18225 15339 Sl
18225 15339 Sm
18350 15429 Sl
18350 15429 Sm
18475 17203 Sl
18475 17203 Sm
18600 17894 Sl
18600 17894 Sm
18725 17317 Sl
18725 17317 Sm
18850 17387 Sl
18850 17387 Sm
18975 17762 Sl
18975 17762 Sm
19100 18567 Sl
19100 18567 Sm
19225 17515 Sl
19225 17515 Sm
19350 18677 Sl
19350 18677 Sm
19474 18058 Sl
19474 18058 Sm
19599 17934 Sl
19599 17934 Sm
19724 17965 Sl
19724 17965 Sm
19849 18048 Sl
19849 18048 Sm
19974 18261 Sl
19974 18261 Sm
20099 18062 Sl
20099 18062 Sm
20224 18228 Sl
20224 18228 Sm
20349 18450 Sl
20349 18450 Sm
20474 18550 Sl
20474 18550 Sm
20599 18157 Sl
20599 18157 Sm
20724 17865 Sl
20724 17865 Sm
20848 17808 Sl
20848 17808 Sm
20973 17637 Sl
20973 17637 Sm
21098 17525 Sl
21098 17525 Sm
21223 17657 Sl
21223 17657 Sm
21348 18027 Sl
21348 18027 Sm
21473 18306 Sl
21473 18306 Sm
21598 18549 Sl
21598 18549 Sm
21723 18810 Sl
21723 18810 Sm
21848 18685 Sl
21848 18685 Sm
21973 18553 Sl
21973 18553 Sm
22098 18500 Sl
22098 18500 Sm
22223 16494 Sl
22223 16494 Sm
22347 16114 Sl
22347 16114 Sm
22472 17591 Sl
22472 17591 Sm
22597 17985 Sl
22597 17985 Sm
22722 18268 Sl
22722 18268 Sm
22847 19425 Sl
22847 19425 Sm
22972 17997 Sl
22972 17997 Sm
23097 18964 Sl
23097 18964 Sm
23222 18364 Sl
23222 18364 Sm
23347 18526 Sl
23347 18526 Sm
23472 18585 Sl
23472 18585 Sm
23597 18473 Sl
23597 18473 Sm
23721 17398 Sl
23721 17398 Sm
23846 14976 Sl
23846 14976 Sm
23971 15237 Sl
23971 15237 Sm
24096 15514 Sl
24096 15514 Sm
24221 15225 Sl
24221 15225 Sm
24346 16757 Sl
24346 16757 Sm
24471 16360 Sl
24471 16360 Sm
24596 16803 Sl
24596 16803 Sm
24721 17585 Sl
24721 17585 Sm
24846 19019 Sl
24846 19019 Sm
24971 19668 Sl
24971 19668 Sm
25095 19153 Sl
25095 19153 Sm
25220 20004 Sl
25220 20004 Sm
25345 20475 Sl
25345 20475 Sm
25470 19192 Sl
25470 19192 Sm
25595 18856 Sl
25595 18856 Sm
25720 18492 Sl
25720 18492 Sm
25845 18970 Sl
25845 18970 Sm
25970 19755 Sl
25970 19755 Sm
26095 19431 Sl
26095 19431 Sm
26220 19801 Sl
26220 19801 Sm
26345 19749 Sl
26345 19749 Sm
26469 20153 Sl
26469 20153 Sm
26594 20735 Sl
26594 20735 Sm
26719 20201 Sl
26719 20201 Sm
26844 18074 Sl
26844 18074 Sm
26969 17584 Sl
26969 17584 Sm
27094 16550 Sl
27094 16550 Sm
27219 5734 Sl
27219 5734 Sm
27344 6337 Sl
27344 6337 Sm
27469 9929 Sl
27469 9929 Sm
27594 17970 Sl
27594 17970 Sm
27719 19919 Sl
27719 19919 Sm
27844 20843 Sl
27844 20843 Sm
27968 19641 Sl
27968 19641 Sm
28093 18985 Sl
28093 18985 Sm
28218 19927 Sl
28218 19927 Sm
28343 20529 Sl
28343 20529 Sm
28468 21485 Sl
28468 21485 Sm
28593 19862 Sl
28593 19862 Sm
28718 17161 Sl
28718 17161 Sm
28843 17179 Sl
28843 17179 Sm
28968 17086 Sl
28968 17086 Sm
29093 15941 Sl
29093 15941 Sm
29218 18738 Sl
/Slw 0.576 def
/Slrgb {0.000 0.000 0.000} def
29730 5222 29730 22457 Sln
29730 5806 30053 5806 Sln
30779 5806 0
/Helvetica-0 findfont 808 yratio mul scalefont setfont
(-.015) stringwidth pop add
2 div xratio div
dup 4 3 roll exch 90.000 cos mul sub 3 1 roll 90.000 sin mul sub 2 copy
/fntsize {/Helvetica-0 findfont exch scalefont setfont } def
90.000 808
(-.015) Stxtl
(-.015) stringwidth pop xratio div
dup 4 3 roll exch 90.000 cos mul add 3 1 roll 90.000 sin mul add 2 copy
pop pop pop pop
29730 9841 30053 9841 Sln
30779 9841 0
/Helvetica-0 findfont 808 yratio mul scalefont setfont
(-.01) stringwidth pop add
2 div xratio div
dup 4 3 roll exch 90.000 cos mul sub 3 1 roll 90.000 sin mul sub 2 copy
/fntsize {/Helvetica-0 findfont exch scalefont setfont } def
90.000 808
(-.01) Stxtl
(-.01) stringwidth pop xratio div
dup 4 3 roll exch 90.000 cos mul add 3 1 roll 90.000 sin mul add 2 copy
pop pop pop pop
29730 13875 30053 13875 Sln
30779 13875 0
/Helvetica-0 findfont 808 yratio mul scalefont setfont
(-.005) stringwidth pop add
2 div xratio div
dup 4 3 roll exch 90.000 cos mul sub 3 1 roll 90.000 sin mul sub 2 copy
/fntsize {/Helvetica-0 findfont exch scalefont setfont } def
90.000 808
(-.005) Stxtl
(-.005) stringwidth pop xratio div
dup 4 3 roll exch 90.000 cos mul add 3 1 roll 90.000 sin mul add 2 copy
pop pop pop pop
29730 17910 30053 17910 Sln
30779 17910 0
/Helvetica-0 findfont 808 yratio mul scalefont setfont
(0) stringwidth pop add
2 div xratio div
dup 4 3 roll exch 90.000 cos mul sub 3 1 roll 90.000 sin mul sub 2 copy
/fntsize {/Helvetica-0 findfont exch scalefont setfont } def
90.000 808
(0) Stxtl
(0) stringwidth pop xratio div
dup 4 3 roll exch 90.000 cos mul add 3 1 roll 90.000 sin mul add 2 copy
pop pop pop pop
29730 21945 30053 21945 Sln
30779 21945 0
/Helvetica-0 findfont 808 yratio mul scalefont setfont
(.005) stringwidth pop add
2 div xratio div
dup 4 3 roll exch 90.000 cos mul sub 3 1 roll 90.000 sin mul sub 2 copy
/fntsize {/Helvetica-0 findfont exch scalefont setfont } def
90.000 808
(.005) Stxtl
(.005) stringwidth pop xratio div
dup 4 3 roll exch 90.000 cos mul add 3 1 roll 90.000 sin mul add 2 copy
pop pop pop pop
2349 5222 2349 22457 Sln
2349 7146 2026 7146 Sln
1621 7146 0
/Helvetica-0 findfont 808 yratio mul scalefont setfont
(-.4) stringwidth pop add
2 div xratio div
dup 4 3 roll exch 90.000 cos mul sub 3 1 roll 90.000 sin mul sub 2 copy
/fntsize {/Helvetica-0 findfont exch scalefont setfont } def
90.000 808
(-.4) Stxtl
(-.4) stringwidth pop xratio div
dup 4 3 roll exch 90.000 cos mul add 3 1 roll 90.000 sin mul add 2 copy
pop pop pop pop
2349 11745 2026 11745 Sln
1621 11745 0
/Helvetica-0 findfont 808 yratio mul scalefont setfont
(-.2) stringwidth pop add
2 div xratio div
dup 4 3 roll exch 90.000 cos mul sub 3 1 roll 90.000 sin mul sub 2 copy
/fntsize {/Helvetica-0 findfont exch scalefont setfont } def
90.000 808
(-.2) Stxtl
(-.2) stringwidth pop xratio div
dup 4 3 roll exch 90.000 cos mul add 3 1 roll 90.000 sin mul add 2 copy
pop pop pop pop
2349 16345 2026 16345 Sln
1621 16345 0
/Helvetica-0 findfont 808 yratio mul scalefont setfont
(0) stringwidth pop add
2 div xratio div
dup 4 3 roll exch 90.000 cos mul sub 3 1 roll 90.000 sin mul sub 2 copy
/fntsize {/Helvetica-0 findfont exch scalefont setfont } def
90.000 808
(0) Stxtl
(0) stringwidth pop xratio div
dup 4 3 roll exch 90.000 cos mul add 3 1 roll 90.000 sin mul add 2 copy
pop pop pop pop
2349 20944 2026 20944 Sln
1621 20944 0
/Helvetica-0 findfont 808 yratio mul scalefont setfont
(.2) stringwidth pop add
2 div xratio div
dup 4 3 roll exch 90.000 cos mul sub 3 1 roll 90.000 sin mul sub 2 copy
/fntsize {/Helvetica-0 findfont exch scalefont setfont } def
90.000 808
(.2) Stxtl
(.2) stringwidth pop xratio div
dup 4 3 roll exch 90.000 cos mul add 3 1 roll 90.000 sin mul add 2 copy
pop pop pop pop
2349 5222 29730 5222 Sln
2861 5222 2861 4899 Sln
2861 4172 0
/Helvetica-0 findfont 808 yratio mul scalefont setfont
(1960q1) stringwidth pop add
2 div xratio div
dup 4 3 roll exch 0.000 cos mul sub 3 1 roll 0.000 sin mul sub 2 copy
/fntsize {/Helvetica-0 findfont exch scalefont setfont } def
0.000 808
(1960q1) Stxtl
(1960q1) stringwidth pop xratio div
dup 4 3 roll exch 0.000 cos mul add 3 1 roll 0.000 sin mul add 2 copy
pop pop pop pop
7858 5222 7858 4899 Sln
7858 4172 0
/Helvetica-0 findfont 808 yratio mul scalefont setfont
(1970q1) stringwidth pop add
2 div xratio div
dup 4 3 roll exch 0.000 cos mul sub 3 1 roll 0.000 sin mul sub 2 copy
/fntsize {/Helvetica-0 findfont exch scalefont setfont } def
0.000 808
(1970q1) Stxtl
(1970q1) stringwidth pop xratio div
dup 4 3 roll exch 0.000 cos mul add 3 1 roll 0.000 sin mul add 2 copy
pop pop pop pop
12854 5222 12854 4899 Sln
12854 4172 0
/Helvetica-0 findfont 808 yratio mul scalefont setfont
(1980q1) stringwidth pop add
2 div xratio div
dup 4 3 roll exch 0.000 cos mul sub 3 1 roll 0.000 sin mul sub 2 copy
/fntsize {/Helvetica-0 findfont exch scalefont setfont } def
0.000 808
(1980q1) Stxtl
(1980q1) stringwidth pop xratio div
dup 4 3 roll exch 0.000 cos mul add 3 1 roll 0.000 sin mul add 2 copy
pop pop pop pop
17851 5222 17851 4899 Sln
17851 4172 0
/Helvetica-0 findfont 808 yratio mul scalefont setfont
(1990q1) stringwidth pop add
2 div xratio div
dup 4 3 roll exch 0.000 cos mul sub 3 1 roll 0.000 sin mul sub 2 copy
/fntsize {/Helvetica-0 findfont exch scalefont setfont } def
0.000 808
(1990q1) Stxtl
(1990q1) stringwidth pop xratio div
dup 4 3 roll exch 0.000 cos mul add 3 1 roll 0.000 sin mul add 2 copy
pop pop pop pop
22847 5222 22847 4899 Sln
22847 4172 0
/Helvetica-0 findfont 808 yratio mul scalefont setfont
(2000q1) stringwidth pop add
2 div xratio div
dup 4 3 roll exch 0.000 cos mul sub 3 1 roll 0.000 sin mul sub 2 copy
/fntsize {/Helvetica-0 findfont exch scalefont setfont } def
0.000 808
(2000q1) Stxtl
(2000q1) stringwidth pop xratio div
dup 4 3 roll exch 0.000 cos mul add 3 1 roll 0.000 sin mul add 2 copy
pop pop pop pop
27844 5222 27844 4899 Sln
27844 4172 0
/Helvetica-0 findfont 808 yratio mul scalefont setfont
(2010q1) stringwidth pop add
2 div xratio div
dup 4 3 roll exch 0.000 cos mul sub 3 1 roll 0.000 sin mul sub 2 copy
/fntsize {/Helvetica-0 findfont exch scalefont setfont } def
0.000 808
(2010q1) Stxtl
(2010q1) stringwidth pop xratio div
dup 4 3 roll exch 0.000 cos mul add 3 1 roll 0.000 sin mul add 2 copy
pop pop pop pop
16039 3283 0
/Helvetica-0 findfont 808 yratio mul scalefont setfont
(date) stringwidth pop add
2 div xratio div
dup 4 3 roll exch 0.000 cos mul sub 3 1 roll 0.000 sin mul sub 2 copy
/fntsize {/Helvetica-0 findfont exch scalefont setfont } def
0.000 808
(date) Stxtl
(date) stringwidth pop xratio div
dup 4 3 roll exch 0.000 cos mul add 3 1 roll 0.000 sin mul add 2 copy
pop pop pop pop
3022 1093 29057 2599 1 Srect
/Slw 0.864 def
/Slrgb {0.565 0.208 0.231} def
3371 1846 6396 1846 Sln
/Slrgb {0.333 0.459 0.184} def
11313 1846 14338 1846 Sln
/Slrgb {0.153 0.247 0.435} def
20104 1846 23130 1846 Sln
6881 1563 2 copy
/fntsize {/Helvetica-0 findfont exch scalefont setfont } def
0.000 808
(P/D ratio) Stxtl
(P/D ratio) stringwidth pop xratio div
dup 4 3 roll exch 0.000 cos mul add 3 1 roll 0.000 sin mul add 2 copy
pop pop pop pop
14823 1563 2 copy
/fntsize {/Helvetica-0 findfont exch scalefont setfont } def
0.000 808
(Investment) Stxtl
(Investment) stringwidth pop xratio div
dup 4 3 roll exch 0.000 cos mul add 3 1 roll 0.000 sin mul add 2 copy
pop pop pop pop
23615 1563 2 copy
/fntsize {/Helvetica-0 findfont exch scalefont setfont } def
0.000 808
(Credit spread) Stxtl
(Credit spread) stringwidth pop xratio div
dup 4 3 roll exch 0.000 cos mul add 3 1 roll 0.000 sin mul add 2 copy
pop pop pop pop
S showpage
%%EOF
