%!PS-Adobe-3.0 EPSF-3.0
%%Creator: MATLAB, The MathWorks, Inc. Version 7.14.0.739 (R2012a). Operating System: Darwin 13.3.0 Darwin Kernel Version 13.3.0: Tue Jun  3 21:27:35 PDT 2014; root:xnu-2422.110.17~1/RELEASE_X86_64 x86_64.
%%Title: /Users/fckw/Dropbox/PhD/jmp/paper/irf.eps
%%CreationDate: 09/20/2014  00:46:17
%%DocumentNeededFonts: Helvetica
%%DocumentProcessColors: Cyan Magenta Yellow Black
%%LanguageLevel: 2
%%Pages: 1
%%BoundingBox:    -1    -1   598   397
%%EndComments

%%BeginProlog
% MathWorks dictionary
/MathWorks 160 dict begin
% definition operators
/bdef {bind def} bind def
/ldef {load def} bind def
/xdef {exch def} bdef
/xstore {exch store} bdef
% operator abbreviations
/c  /clip ldef
/cc /concat ldef
/cp /closepath ldef
/gr /grestore ldef
/gs /gsave ldef
/mt /moveto ldef
/np /newpath ldef
/cm /currentmatrix ldef
/sm /setmatrix ldef
/rm /rmoveto ldef
/rl /rlineto ldef
/s {show newpath} bdef
/sc {setcmykcolor} bdef
/sr /setrgbcolor ldef
/sg /setgray ldef
/w /setlinewidth ldef
/j /setlinejoin ldef
/cap /setlinecap ldef
/rc {rectclip} bdef
/rf {rectfill} bdef
% page state control
/pgsv () def
/bpage {/pgsv save def} bdef
/epage {pgsv restore} bdef
/bplot /gsave ldef
/eplot {stroke grestore} bdef
% orientation switch
/portraitMode 0 def /landscapeMode 1 def /rotateMode 2 def
% coordinate system mappings
/dpi2point 0 def
% font control
/FontSize 0 def
/FMS {/FontSize xstore findfont [FontSize 0 0 FontSize neg 0 0]
  makefont setfont} bdef
/reencode {exch dup where {pop load} {pop StandardEncoding} ifelse
  exch dup 3 1 roll findfont dup length dict begin
  { 1 index /FID ne {def}{pop pop} ifelse } forall
  /Encoding exch def currentdict end definefont pop} bdef
/isroman {findfont /CharStrings get /Agrave known} bdef
/FMSR {3 1 roll 1 index dup isroman {reencode} {pop pop} ifelse
  exch FMS} bdef
/csm {1 dpi2point div -1 dpi2point div scale neg translate
 dup landscapeMode eq {pop -90 rotate}
  {rotateMode eq {90 rotate} if} ifelse} bdef
% line types: solid, dotted, dashed, dotdash
/dom { dpi2point 1 currentlinewidth 0.08 mul add mul mul } bdef/dam { dpi2point 2 currentlinewidth 0.04 mul add mul mul } bdef/SO { [] 0 setdash 0 setlinecap } bdef/DO { [1 dom 1.2 dom] 0 setdash 0 setlinecap } bdef/DA { [4 dam 1.5 dam] 0 setdash 0 setlinecap } bdef/DD { [1 dom 1.2 dom 4 dam 1.2 dom] 0 setdash 0 setlinecap } bdef/GR { [0 dpi2point mul 4 dpi2point mul] 0 setdash 1 setlinecap } bdef% macros for lines and objects
/L {lineto stroke} bdef
/MP {3 1 roll moveto 1 sub {rlineto} repeat} bdef
/AP {{rlineto} repeat} bdef
/PDlw -1 def
/W {/PDlw currentlinewidth def setlinewidth} def
/PP {closepath eofill} bdef
/DP {closepath stroke} bdef
/MR {4 -2 roll moveto dup  0 exch rlineto exch 0 rlineto
  neg 0 exch rlineto closepath} bdef
/FR {MR stroke} bdef
/PR {MR fill} bdef
/L1i {{currentfile picstr readhexstring pop} image} bdef
/tMatrix matrix def
/MakeOval {newpath tMatrix currentmatrix pop translate scale
0 0 1 0 360 arc tMatrix setmatrix} bdef
/FO {MakeOval stroke} bdef
/PO {MakeOval fill} bdef
/PD {currentlinewidth 2 div 0 360 arc fill
   PDlw -1 eq not {PDlw w /PDlw -1 def} if} def
/FA {newpath tMatrix currentmatrix pop translate scale
  0 0 1 5 -2 roll arc tMatrix setmatrix stroke} bdef
/PA {newpath tMatrix currentmatrix pop	translate 0 0 moveto scale
  0 0 1 5 -2 roll arc closepath tMatrix setmatrix fill} bdef
/FAn {newpath tMatrix currentmatrix pop translate scale
  0 0 1 5 -2 roll arcn tMatrix setmatrix stroke} bdef
/PAn {newpath tMatrix currentmatrix pop translate 0 0 moveto scale
  0 0 1 5 -2 roll arcn closepath tMatrix setmatrix fill} bdef
/vradius 0 def /hradius 0 def /lry 0 def
/lrx 0 def /uly 0 def /ulx 0 def /rad 0 def
/MRR {/vradius xdef /hradius xdef /lry xdef /lrx xdef /uly xdef
  /ulx xdef newpath tMatrix currentmatrix pop ulx hradius add uly
  vradius add translate hradius vradius scale 0 0 1 180 270 arc 
  tMatrix setmatrix lrx hradius sub uly vradius add translate
  hradius vradius scale 0 0 1 270 360 arc tMatrix setmatrix
  lrx hradius sub lry vradius sub translate hradius vradius scale
  0 0 1 0 90 arc tMatrix setmatrix ulx hradius add lry vradius sub
  translate hradius vradius scale 0 0 1 90 180 arc tMatrix setmatrix
  closepath} bdef
/FRR {MRR stroke } bdef
/PRR {MRR fill } bdef
/MlrRR {/lry xdef /lrx xdef /uly xdef /ulx xdef /rad lry uly sub 2 div def
  newpath tMatrix currentmatrix pop ulx rad add uly rad add translate
  rad rad scale 0 0 1 90 270 arc tMatrix setmatrix lrx rad sub lry rad
  sub translate rad rad scale 0 0 1 270 90 arc tMatrix setmatrix
  closepath} bdef
/FlrRR {MlrRR stroke } bdef
/PlrRR {MlrRR fill } bdef
/MtbRR {/lry xdef /lrx xdef /uly xdef /ulx xdef /rad lrx ulx sub 2 div def
  newpath tMatrix currentmatrix pop ulx rad add uly rad add translate
  rad rad scale 0 0 1 180 360 arc tMatrix setmatrix lrx rad sub lry rad
  sub translate rad rad scale 0 0 1 0 180 arc tMatrix setmatrix
  closepath} bdef
/FtbRR {MtbRR stroke } bdef
/PtbRR {MtbRR fill } bdef
/stri 6 array def /dtri 6 array def
/smat 6 array def /dmat 6 array def
/tmat1 6 array def /tmat2 6 array def /dif 3 array def
/asub {/ind2 exch def /ind1 exch def dup dup
  ind1 get exch ind2 get sub exch } bdef
/tri_to_matrix {
  2 0 asub 3 1 asub 4 0 asub 5 1 asub
  dup 0 get exch 1 get 7 -1 roll astore } bdef
/compute_transform {
  dmat dtri tri_to_matrix tmat1 invertmatrix 
  smat stri tri_to_matrix tmat2 concatmatrix } bdef
/ds {stri astore pop} bdef
/dt {dtri astore pop} bdef
/db {2 copy /cols xdef /rows xdef mul dup 3 mul string
  currentfile 
  3 index 0 eq {/ASCIIHexDecode filter}
  {/ASCII85Decode filter 3 index 2 eq {/RunLengthDecode filter} if }
  ifelse exch readstring pop
  dup 0 3 index getinterval /rbmap xdef
  dup 2 index dup getinterval /gbmap xdef
  1 index dup 2 mul exch getinterval /bbmap xdef pop pop}bdef
/it {gs np dtri aload pop moveto lineto lineto cp c
  cols rows 8 compute_transform 
  rbmap gbmap bbmap true 3 colorimage gr}bdef
/il {newpath moveto lineto stroke}bdef
currentdict end def
%%EndProlog

%%BeginSetup
MathWorks begin

0 cap

end
%%EndSetup

%%Page: 1 1
%%BeginPageSetup
%%PageBoundingBox:    -1    -1   598   397
MathWorks begin
bpage
%%EndPageSetup

%%BeginObject: obj1
bplot

/dpi2point 12 def
portraitMode -0012 4764 csm

    0     0  7188  4777 rc
86 dict begin %Colortable dictionary
/c0 { 0.000000 0.000000 0.000000 sr} bdef
/c1 { 1.000000 1.000000 1.000000 sr} bdef
/c2 { 0.900000 0.000000 0.000000 sr} bdef
/c3 { 0.000000 0.820000 0.000000 sr} bdef
/c4 { 0.000000 0.000000 0.800000 sr} bdef
/c5 { 0.910000 0.820000 0.320000 sr} bdef
/c6 { 1.000000 0.260000 0.820000 sr} bdef
/c7 { 0.000000 0.820000 0.820000 sr} bdef
c0
1 j
1 sg
   0    0 7189 4778 rf
6 w
0 1844 1358 0 0 -1844 373 2062 4 MP
PP
-1358 0 0 1844 1358 0 0 -1844 373 2062 5 MP stroke
4 w
DO
6 w
SO
0 sg
 373 2062 mt 1731 2062 L
 373 2062 mt  373  218 L
 686 2062 mt  686 2043 L
%%IncludeResource: font Helvetica
/Helvetica /ISOLatin1Encoding 120 FMSR

 620 2207 mt 
(10) s
1034 2062 mt 1034 2043 L
 968 2207 mt 
(20) s
1382 2062 mt 1382 2043 L
1316 2207 mt 
(30) s
1731 2062 mt 1731 2043 L
1665 2207 mt 
(40) s
 373 1835 mt  391 1835 L
 272 1879 mt 
(0) s
 373 1339 mt  391 1339 L
 272 1383 mt 
(5) s
 373  843 mt  391  843 L
 205  887 mt 
(10) s
 373  347 mt  391  347 L
 205  391 mt 
(15) s
 373  164 mt 
(x 10) s
%%IncludeResource: font Helvetica
/Helvetica /ISOLatin1Encoding 80 FMSR

 599   90 mt 
(-3) s
gs 373 219 1359 1844 rc
14.4 w
35 0 35 0 35 0 35 0 35 0 34 0 35 0 35 0 
35 0 35 0 35 0 34 0 35 0 35 0 35 0 35 0 
34 0 35 0 35 0 35 0 35 0 35 0 34 0 35 0 
35 0 35 0 35 0 34 0 35 0 35 0 35 0 35 0 
35 0 34 0 35 0 35 0 35 0 35 0 34 0 373 1835 40 MP stroke
24 w
DA
/c8 { 0.000000 1.000000 0.000000 sr} bdef
c8
35 1 35 1 35 2 35 1 35 1 34 2 35 1 35 2 
35 1 35 2 35 1 34 2 35 1 35 2 35 2 35 1 
34 2 35 2 35 1 35 2 35 2 35 1 34 2 35 2 
35 1 35 2 35 2 34 1 35 2 35 1 35 2 35 1 
35 1 34 2 35 1 35 0 35 1 35 1 34 -93 373 1835 40 MP stroke
SO
/c9 { 1.000000 0.000000 0.000000 sr} bdef
c9
35 0 35 4 35 7 35 12 35 16 34 21 35 27 35 33 
35 39 35 47 35 53 34 60 35 67 35 73 35 79 35 83 
34 88 35 90 35 91 35 90 35 88 35 82 34 76 35 65 
35 53 35 39 35 21 34 2 35 -19 35 -42 35 -66 35 -89 
35 -114 34 -135 35 -155 35 -169 35 -179 35 -175 34 -150 373 1835 40 MP stroke
6 w
0 sg
35 0 35 0 35 0 35 0 35 0 34 0 35 0 35 0 
35 0 35 0 35 0 34 0 35 0 35 0 35 0 35 0 
34 0 35 0 35 0 35 0 35 0 35 0 34 0 35 0 
35 0 35 0 35 0 34 0 35 0 35 0 35 0 35 0 
35 0 34 0 35 0 35 0 35 0 35 0 34 0 373 1835 40 MP stroke
gr

%%IncludeResource: font Helvetica
/Helvetica /ISOLatin1Encoding 120 FMSR

1011  124 mt 
(V) s
1 sg
0 1843 1358 0 0 -1843 2160 2062 4 MP
PP
-1358 0 0 1843 1358 0 0 -1843 2160 2062 5 MP stroke
4 w
DO
6 w
SO
0 sg
2160 2062 mt 3518 2062 L
2160 2062 mt 2160  219 L
2160 2062 mt 2160 2043 L
2127 2207 mt 
(0) s
2839 2062 mt 2839 2043 L
2773 2207 mt 
(20) s
3518 2062 mt 3518 2043 L
3452 2207 mt 
(40) s
2160 2062 mt 2178 2062 L
1989 2106 mt 
(-1) s
2160 1754 mt 2178 1754 L
2059 1798 mt 
(0) s
2160 1447 mt 2178 1447 L
2059 1491 mt 
(1) s
2160 1140 mt 2178 1140 L
2059 1184 mt 
(2) s
2160  833 mt 2178  833 L
2059  877 mt 
(3) s
2160  526 mt 2178  526 L
2059  570 mt 
(4) s
2160  219 mt 2178  219 L
2059  263 mt 
(5) s
2160  165 mt 
(x 10) s
%%IncludeResource: font Helvetica
/Helvetica /ISOLatin1Encoding 80 FMSR

2386   91 mt 
(-3) s
gs 2160 219 1359 1844 rc
14.4 w
34 0 34 0 34 0 34 0 34 0 34 0 34 0 34 0 
34 0 34 0 34 0 34 0 34 0 34 0 34 0 34 0 
34 0 34 0 34 0 33 0 34 0 34 0 34 0 34 0 
34 0 34 0 34 0 34 0 34 0 34 0 34 0 34 0 
34 0 34 0 34 0 34 0 34 0 34 0 34 0 2193 1754 40 MP stroke
24 w
DA
c8
34 18 34 19 34 19 34 18 34 19 34 18 34 18 34 18 
34 18 34 17 34 17 34 16 34 15 34 15 34 14 34 12 
34 12 34 10 34 8 33 7 34 5 34 3 34 0 34 -2 
34 -5 34 -8 34 -11 34 -16 34 -20 34 -25 34 -31 34 -37 
34 -45 34 -55 34 -69 34 -94 34 -158 34 387 34 -842 2193 1754 40 MP stroke
SO
c9
34 -3 34 -3 34 -4 34 -4 34 -5 34 -3 34 -3 34 -1 
34 1 34 3 34 7 34 10 34 15 34 20 34 25 34 32 
34 37 34 43 34 50 33 55 34 61 34 66 34 70 34 73 
34 75 34 73 34 71 34 66 34 58 34 47 34 32 34 15 
34 -8 34 -36 34 -69 34 -116 34 -199 34 7 34 -1021 2193 1754 40 MP stroke
6 w
0 sg
34 0 34 0 34 0 34 0 34 0 34 0 34 0 34 0 
34 0 34 0 34 0 34 0 34 0 34 0 34 0 34 0 
34 0 34 0 34 0 33 0 34 0 34 0 34 0 34 0 
34 0 34 0 34 0 34 0 34 0 34 0 34 0 34 0 
34 0 34 0 34 0 34 0 34 0 34 0 34 0 2193 1754 40 MP stroke
gr

%%IncludeResource: font Helvetica
/Helvetica /ISOLatin1Encoding 120 FMSR

2795  124 mt 
(D) s
1 sg
0 1843 1358 0 0 -1843 3947 2062 4 MP
PP
-1358 0 0 1843 1358 0 0 -1843 3947 2062 5 MP stroke
4 w
DO
6 w
SO
0 sg
3947 2062 mt 5305 2062 L
3947 2062 mt 3947  219 L
3947 2062 mt 3947 2043 L
3914 2207 mt 
(0) s
4626 2062 mt 4626 2043 L
4560 2207 mt 
(20) s
5305 2062 mt 5305 2043 L
5239 2207 mt 
(40) s
3947 2062 mt 3965 2062 L
3776 2106 mt 
(-3) s
3947 1693 mt 3965 1693 L
3776 1737 mt 
(-2) s
3947 1324 mt 3965 1324 L
3776 1368 mt 
(-1) s
3947  956 mt 3965  956 L
3846 1000 mt 
(0) s
3947  587 mt 3965  587 L
3846  631 mt 
(1) s
3947  219 mt 3965  219 L
3846  263 mt 
(2) s
3947  165 mt 
(x 10) s
%%IncludeResource: font Helvetica
/Helvetica /ISOLatin1Encoding 80 FMSR

4173   91 mt 
(-4) s
gs 3947 219 1359 1844 rc
14.4 w
34 -8 34 -7 34 -7 34 -6 34 -5 34 -5 34 -5 34 -3 
34 -3 34 -2 34 0 34 0 34 2 34 3 34 5 34 6 
34 8 34 11 34 12 33 15 34 17 34 20 34 24 34 26 
34 30 34 34 34 38 34 42 34 46 34 52 34 56 34 61 
34 65 34 69 34 70 34 67 34 49 34 -26 34 -309 3980 956 40 MP stroke
24 w
DA
c8
34 -11 34 -12 34 -12 34 -12 34 -12 34 -12 34 -12 34 -12 
34 -12 34 -12 34 -13 34 -12 34 -12 34 -12 34 -11 34 -12 
34 -11 34 -10 34 -11 33 -10 34 -9 34 -9 34 -8 34 -7 
34 -7 34 -7 34 -7 34 -6 34 -8 34 -11 34 -15 34 -22 
34 -36 34 -57 34 -84 34 -106 34 -45 34 446 34 626 3980 956 40 MP stroke
SO
c9
34 -12 34 -15 34 -17 34 -20 34 -23 34 -26 34 -29 34 -32 
34 -35 34 -37 34 -40 34 -43 34 -43 34 -45 34 -45 34 -45 
34 -43 34 -41 34 -37 33 -33 34 -26 34 -20 34 -12 34 -3 
34 8 34 17 34 29 34 38 34 48 34 56 34 60 34 60 
34 52 34 32 34 -1 34 -45 34 -61 34 181 34 502 3980 956 40 MP stroke
6 w
0 sg
34 0 34 0 34 0 34 0 34 0 34 0 34 0 34 0 
34 0 34 0 34 0 34 0 34 0 34 0 34 0 34 0 
34 0 34 0 34 0 33 0 34 0 34 0 34 0 34 0 
34 0 34 0 34 0 34 0 34 0 34 0 34 0 34 0 
34 0 34 0 34 0 34 0 34 0 34 0 34 0 3980 956 40 MP stroke
gr

%%IncludeResource: font Helvetica
/Helvetica /ISOLatin1Encoding 120 FMSR

4612  124 mt 
(i) s
1 sg
0 1844 1358 0 0 -1844 5734 2062 4 MP
PP
-1358 0 0 1844 1358 0 0 -1844 5734 2062 5 MP stroke
4 w
DO
6 w
SO
0 sg
5734 2062 mt 7092 2062 L
5734 2062 mt 5734  218 L
5734 2062 mt 5734 2043 L
5701 2207 mt 
(0) s
6413 2062 mt 6413 2043 L
6347 2207 mt 
(20) s
7092 2062 mt 7092 2043 L
7026 2207 mt 
(40) s
5734 2062 mt 5752 2062 L
5563 2106 mt 
(-3) s
5734 1754 mt 5752 1754 L
5563 1798 mt 
(-2) s
5734 1447 mt 5752 1447 L
5563 1491 mt 
(-1) s
5734 1140 mt 5752 1140 L
5633 1184 mt 
(0) s
5734  833 mt 5752  833 L
5633  877 mt 
(1) s
5734  526 mt 5752  526 L
5633  570 mt 
(2) s
5734  218 mt 5752  218 L
5633  262 mt 
(3) s
5734  164 mt 
(x 10) s
%%IncludeResource: font Helvetica
/Helvetica /ISOLatin1Encoding 80 FMSR

5960   90 mt 
(-4) s
gs 5734 219 1359 1844 rc
14.4 w
34 -4 34 -4 34 -4 34 -4 34 -3 34 -4 34 -2 34 -3 
34 -2 34 -1 34 -1 34 -1 34 0 34 1 34 2 34 2 
34 4 34 4 34 6 33 7 34 8 34 9 34 11 34 13 
34 15 34 16 34 19 34 21 34 23 34 26 34 28 34 32 
34 34 34 37 34 41 34 48 34 68 34 143 34 -343 5767 1140 40 MP stroke
24 w
DA
c8
34 -6 34 -7 34 -6 34 -7 34 -6 34 -7 34 -7 34 -7 
34 -6 34 -7 34 -7 34 -7 34 -7 34 -6 34 -7 34 -6 
34 -7 34 -6 34 -6 33 -6 34 -5 34 -5 34 -5 34 -5 
34 -4 34 -4 34 -3 34 -3 34 -3 34 -3 34 -4 34 -6 
34 -8 34 -16 34 -35 34 -92 34 -298 34 147 34 696 5767 1140 40 MP stroke
SO
c9
34 -6 34 -7 34 -8 34 -9 34 -11 34 -13 34 -14 34 -16 
34 -18 34 -20 34 -21 34 -22 34 -24 34 -25 34 -25 34 -26 
34 -25 34 -25 34 -23 33 -21 34 -19 34 -16 34 -11 34 -7 
34 -2 34 4 34 10 34 16 34 23 34 28 34 34 34 37 
34 40 34 36 34 25 34 -17 34 -168 34 -78 34 558 5767 1140 40 MP stroke
6 w
0 sg
34 0 34 0 34 0 34 0 34 0 34 0 34 0 34 0 
34 0 34 0 34 0 34 0 34 0 34 0 34 0 34 0 
34 0 34 0 34 0 33 0 34 0 34 0 34 0 34 0 
34 0 34 0 34 0 34 0 34 0 34 0 34 0 34 0 
34 0 34 0 34 0 34 0 34 0 34 0 34 0 5767 1140 40 MP stroke
gr

%%IncludeResource: font Helvetica
/Helvetica /ISOLatin1Encoding 120 FMSR

6365  124 mt 
(pi) s
1 sg
0 1843 1358 0 0 -1843 373 4621 4 MP
PP
-1358 0 0 1843 1358 0 0 -1843 373 4621 5 MP stroke
4 w
DO
6 w
SO
0 sg
 373 4621 mt 1731 4621 L
 373 4621 mt  373 2778 L
 373 4621 mt  373 4602 L
 340 4766 mt 
(0) s
1052 4621 mt 1052 4602 L
 986 4766 mt 
(20) s
1731 4621 mt 1731 4602 L
1665 4766 mt 
(40) s
 373 4621 mt  391 4621 L
 272 4665 mt 
(0) s
 373 4313 mt  391 4313 L
  38 4357 mt 
(0.002) s
 373 4006 mt  391 4006 L
  38 4050 mt 
(0.004) s
 373 3699 mt  391 3699 L
  38 3743 mt 
(0.006) s
 373 3392 mt  391 3392 L
  38 3436 mt 
(0.008) s
 373 3085 mt  391 3085 L
 105 3129 mt 
(0.01) s
 373 2778 mt  391 2778 L
  38 2822 mt 
(0.012) s
gs 373 2778 1359 1844 rc
14.4 w
34 8 34 8 34 8 34 9 34 9 34 10 34 10 34 10 
34 11 34 11 34 12 34 12 34 13 34 13 34 14 34 14 
34 15 34 16 34 16 33 17 34 18 34 18 34 19 34 20 
34 21 34 22 34 24 34 25 34 27 34 30 34 34 34 39 
34 47 34 59 34 77 34 106 34 163 34 288 34 -1457 406 4621 40 MP stroke
24 w
DA
c8
34 7 34 7 34 7 34 8 34 8 34 8 34 9 34 9 
34 9 34 10 34 9 34 10 34 11 34 11 34 11 34 12 
34 11 34 13 34 13 33 13 34 13 34 14 34 15 34 15 
34 16 34 16 34 17 34 19 34 20 34 22 34 25 34 30 
34 36 34 44 34 53 34 43 34 -63 34 713 34 -1422 406 4621 40 MP stroke
SO
c9
34 -4 34 -5 34 -6 34 -8 34 -8 34 -9 34 -9 34 -10 
34 -9 34 -9 34 -7 34 -5 34 -3 34 0 34 4 34 9 
34 13 34 20 34 26 33 33 34 40 34 47 34 55 34 63 
34 70 34 77 34 83 34 88 34 91 34 95 34 95 34 95 
34 94 34 92 34 87 34 69 34 -25 34 277 34 -1643 406 4621 40 MP stroke
6 w
0 sg
34 0 34 0 34 0 34 0 34 0 34 0 34 0 34 0 
34 0 34 0 34 0 34 0 34 0 34 0 34 0 34 0 
34 0 34 0 34 0 33 0 34 0 34 0 34 0 34 0 
34 0 34 0 34 0 34 0 34 0 34 0 34 0 34 0 
34 0 34 0 34 0 34 0 34 0 34 0 34 0 406 4621 40 MP stroke
gr

1011 2683 mt 
(Y) s
1 sg
0 1843 1358 0 0 -1843 2160 4621 4 MP
PP
-1358 0 0 1843 1358 0 0 -1843 2160 4621 5 MP stroke
4 w
DO
6 w
SO
0 sg
2160 4621 mt 3518 4621 L
2160 4621 mt 2160 2778 L
2473 4621 mt 2473 4602 L
2407 4766 mt 
(10) s
2821 4621 mt 2821 4602 L
2755 4766 mt 
(20) s
3169 4621 mt 3169 4602 L
3103 4766 mt 
(30) s
3518 4621 mt 3518 4602 L
3452 4766 mt 
(40) s
2160 4534 mt 2178 4534 L
1822 4578 mt 
(-0.01) s
2160 4240 mt 2178 4240 L
2059 4284 mt 
(0) s
2160 3947 mt 2178 3947 L
1892 3991 mt 
(0.01) s
2160 3654 mt 2178 3654 L
1892 3698 mt 
(0.02) s
2160 3360 mt 2178 3360 L
1892 3404 mt 
(0.03) s
2160 3067 mt 2178 3067 L
1892 3111 mt 
(0.04) s
gs 2160 2778 1359 1844 rc
14.4 w
35 2 35 2 35 3 35 2 35 3 34 3 35 3 35 3 
35 4 35 4 35 4 34 4 35 5 35 6 35 5 35 6 
34 7 35 7 35 7 35 8 35 9 35 9 34 10 35 10 
35 12 35 12 35 14 34 14 35 17 35 18 35 21 35 25 
35 30 34 37 35 49 35 67 35 100 35 173 34 -728 2160 4240 40 MP stroke
24 w
DA
c8
35 2 35 1 35 2 35 2 35 2 34 2 35 3 35 2 
35 3 35 3 35 3 34 4 35 3 35 4 35 5 35 4 
34 5 35 6 35 5 35 7 35 6 35 7 34 8 35 8 
35 10 35 9 35 11 34 12 35 14 35 16 35 19 35 23 
35 29 34 36 35 44 35 33 35 -61 35 667 34 -967 2160 4240 40 MP stroke
SO
c9
35 -7 35 -7 35 -10 35 -11 35 -12 34 -14 35 -16 35 -16 
35 -17 35 -17 35 -17 34 -17 35 -15 35 -14 35 -11 35 -7 
34 -4 35 0 35 6 35 13 35 19 35 26 34 34 35 42 
35 50 35 58 35 65 34 73 35 79 35 85 35 89 35 92 
35 94 34 95 35 93 35 76 35 -7 35 278 34 -1170 2160 4240 40 MP stroke
6 w
0 sg
35 0 35 0 35 0 35 0 35 0 34 0 35 0 35 0 
35 0 35 0 35 0 34 0 35 0 35 0 35 0 35 0 
34 0 35 0 35 0 35 0 35 0 35 0 34 0 35 0 
35 0 35 0 35 0 34 0 35 0 35 0 35 0 35 0 
35 0 34 0 35 0 35 0 35 0 35 0 34 0 2160 4240 40 MP stroke
gr

2821 2683 mt 
(I) s
1 sg
0 1843 1358 0 0 -1843 3947 4621 4 MP
PP
-1358 0 0 1843 1358 0 0 -1843 3947 4621 5 MP stroke
4 w
DO
6 w
SO
0 sg
3947 4621 mt 5305 4621 L
3947 4621 mt 3947 2778 L
3947 4621 mt 3947 4602 L
3914 4766 mt 
(0) s
4626 4621 mt 4626 4602 L
4560 4766 mt 
(20) s
5305 4621 mt 5305 4602 L
5239 4766 mt 
(40) s
3947 4621 mt 3965 4621 L
3846 4665 mt 
(0) s
3947 4160 mt 3965 4160 L
3846 4204 mt 
(1) s
3947 3699 mt 3965 3699 L
3846 3743 mt 
(2) s
3947 3238 mt 3965 3238 L
3846 3282 mt 
(3) s
3947 2778 mt 3965 2778 L
3846 2822 mt 
(4) s
3947 2724 mt 
(x 10) s
%%IncludeResource: font Helvetica
/Helvetica /ISOLatin1Encoding 80 FMSR

4173 2650 mt 
(-3) s
gs 3947 2778 1359 1844 rc
14.4 w
34 20 34 20 34 20 34 21 34 21 34 21 34 20 34 21 
34 21 34 21 34 21 34 20 34 20 34 20 34 20 34 18 
34 19 34 17 34 17 33 15 34 14 34 14 34 11 34 10 
34 8 34 6 34 4 34 1 34 -1 34 -4 34 -8 34 -10 
34 -15 34 -17 34 -21 34 -23 34 -22 34 -9 34 -1040 3980 4621 40 MP stroke
24 w
DA
c8
34 19 34 19 34 20 34 21 34 21 34 21 34 22 34 22 
34 23 34 24 34 24 34 24 34 25 34 26 34 26 34 26 
34 27 34 27 34 27 33 28 34 28 34 29 34 28 34 29 
34 29 34 29 34 30 34 30 34 30 34 31 34 33 34 35 
34 38 34 44 34 53 34 60 34 52 34 -48 34 -1580 3980 4621 40 MP stroke
SO
c9
34 13 34 15 34 17 34 20 34 22 34 26 34 30 34 33 
34 37 34 42 34 46 34 50 34 55 34 59 34 63 34 66 
34 69 34 71 34 73 33 73 34 73 34 71 34 68 34 63 
34 58 34 51 34 42 34 33 34 23 34 11 34 1 34 -9 
34 -18 34 -24 34 -24 34 -19 34 -18 34 -65 34 -1572 3980 4621 40 MP stroke
6 w
0 sg
34 0 34 0 34 0 34 0 34 0 34 0 34 0 34 0 
34 0 34 0 34 0 34 0 34 0 34 0 34 0 34 0 
34 0 34 0 34 0 33 0 34 0 34 0 34 0 34 0 
34 0 34 0 34 0 34 0 34 0 34 0 34 0 34 0 
34 0 34 0 34 0 34 0 34 0 34 0 34 0 3980 4621 40 MP stroke
gr

%%IncludeResource: font Helvetica
/Helvetica /ISOLatin1Encoding 120 FMSR

4582 2683 mt 
(C) s
1 sg
0 1843 1358 0 0 -1843 5734 4621 4 MP
PP
-1358 0 0 1843 1358 0 0 -1843 5734 4621 5 MP stroke
4 w
DO
6 w
SO
0 sg
5734 4621 mt 7092 4621 L
5734 4621 mt 5734 2778 L
6047 4621 mt 6047 4602 L
5981 4766 mt 
(10) s
6395 4621 mt 6395 4602 L
6329 4766 mt 
(20) s
6743 4621 mt 6743 4602 L
6677 4766 mt 
(30) s
7092 4621 mt 7092 4602 L
7026 4766 mt 
(40) s
5734 4547 mt 5752 4547 L
5563 4591 mt 
(-5) s
5734 4066 mt 5752 4066 L
5633 4110 mt 
(0) s
5734 3585 mt 5752 3585 L
5633 3629 mt 
(5) s
5734 3104 mt 5752 3104 L
5566 3148 mt 
(10) s
5734 2724 mt 
(x 10) s
%%IncludeResource: font Helvetica
/Helvetica /ISOLatin1Encoding 80 FMSR

5960 2650 mt 
(-3) s
gs 5734 2778 1359 1844 rc
14.4 w
35 1 35 0 35 1 35 1 35 1 34 2 35 1 35 2 
35 2 35 2 35 2 34 3 35 2 35 4 35 3 35 4 
34 4 35 5 35 5 35 6 35 6 35 7 34 7 35 9 
35 9 35 10 35 11 34 14 35 15 35 18 35 21 35 28 
35 35 34 47 35 67 35 96 35 153 35 279 34 -857 5734 4066 40 MP stroke
24 w
DA
c8
35 0 35 1 35 0 35 0 35 0 34 1 35 0 35 1 
35 1 35 0 35 1 34 1 35 1 35 1 35 1 35 1 
34 1 35 2 35 2 35 1 35 2 35 2 34 3 35 3 
35 3 35 4 35 4 34 5 35 7 35 9 35 11 35 17 
35 23 34 32 35 40 35 33 35 -70 35 687 34 -824 5734 4066 40 MP stroke
SO
c9
35 -8 35 -10 35 -11 35 -14 35 -15 34 -17 35 -19 35 -20 
35 -20 35 -22 35 -21 34 -21 35 -21 35 -18 35 -17 35 -13 
34 -9 35 -5 35 0 35 7 35 13 35 21 34 28 35 37 
35 45 35 53 35 61 34 68 35 75 35 81 35 85 35 90 
35 92 34 95 35 94 35 81 35 -7 35 289 34 -1031 5734 4066 40 MP stroke
6 w
0 sg
35 0 35 0 35 0 35 0 35 0 34 0 35 0 35 0 
35 0 35 0 35 0 34 0 35 0 35 0 35 0 35 0 
34 0 35 0 35 0 35 0 35 0 35 0 34 0 35 0 
35 0 35 0 35 0 34 0 35 0 35 0 35 0 35 0 
35 0 34 0 35 0 35 0 35 0 35 0 34 0 5734 4066 40 MP stroke
gr

%%IncludeResource: font Helvetica
/Helvetica /ISOLatin1Encoding 120 FMSR

6379 2683 mt 
(L) s
5717 4664 mt 
( ) s
7076 2820 mt 
( ) s
1 sg
0 563 1116 0 0 -563 5936 3408 4 MP
PP
-1116 0 0 563 1116 0 0 -563 5936 3408 5 MP stroke
4 w
DO
6 w
SO
0 sg
5936 3408 mt 7052 3408 L
5936 2845 mt 7052 2845 L
5936 3408 mt 5936 2845 L
7052 3408 mt 7052 2845 L
5936 3408 mt 7052 3408 L
5936 3408 mt 5936 2845 L
5936 3408 mt 7052 3408 L
5936 2845 mt 7052 2845 L
5936 3408 mt 5936 2845 L
7052 3408 mt 7052 2845 L
6405 2995 mt 
(frictionless) s
gs 5936 2845 1117 564 rc
14.4 w
360 0 6008 2952 2 MP stroke
gr

14.4 w
6405 3169 mt 
(RE) s
gs 5936 2845 1117 564 rc
24 w
DA
c8
360 0 6008 3126 2 MP stroke
gr

24 w
SO
c8
0 sg
6405 3343 mt 
(learning) s
gs 5936 2845 1117 564 rc
c9
360 0 6008 3300 2 MP stroke
6 w
gr

6 w
c9

end %%Color Dict

eplot
%%EndObject

epage
end

showpage

%%Trailer
%%EOF
