%!PS-Adobe-3.0 EPSF-3.0
%%Creator: MATLAB, The Mathworks, Inc. Version 7.10.0.499 (R2010a). Operating System: Microsoft Windows 7.
%%Title: C:\Users\winklerh\Dropbox\PhD\finfric\paper\irf2_smu.eps
%%CreationDate: 09/23/2013  15:30:37
%%DocumentNeededFonts: Helvetica
%%DocumentProcessColors: Cyan Magenta Yellow Black
%%LanguageLevel: 2
%%Pages: 1
%%BoundingBox:    -4   245   601   595
%%EndComments

%%BeginProlog
% MathWorks dictionary
/MathWorks 160 dict begin
% definition operators
/bdef {bind def} bind def
/ldef {load def} bind def
/xdef {exch def} bdef
/xstore {exch store} bdef
% operator abbreviations
/c  /clip ldef
/cc /concat ldef
/cp /closepath ldef
/gr /grestore ldef
/gs /gsave ldef
/mt /moveto ldef
/np /newpath ldef
/cm /currentmatrix ldef
/sm /setmatrix ldef
/rm /rmoveto ldef
/rl /rlineto ldef
/s {show newpath} bdef
/sc {setcmykcolor} bdef
/sr /setrgbcolor ldef
/sg /setgray ldef
/w /setlinewidth ldef
/j /setlinejoin ldef
/cap /setlinecap ldef
/rc {rectclip} bdef
/rf {rectfill} bdef
% page state control
/pgsv () def
/bpage {/pgsv save def} bdef
/epage {pgsv restore} bdef
/bplot /gsave ldef
/eplot {stroke grestore} bdef
% orientation switch
/portraitMode 0 def /landscapeMode 1 def /rotateMode 2 def
% coordinate system mappings
/dpi2point 0 def
% font control
/FontSize 0 def
/FMS {/FontSize xstore findfont [FontSize 0 0 FontSize neg 0 0]
  makefont setfont} bdef
/ISOLatin1Encoding where {pop /WindowsLatin1Encoding 256 array bdef
ISOLatin1Encoding WindowsLatin1Encoding copy pop
/.notdef/.notdef/quotesinglbase/florin/quotedblbase/ellipsis/dagger
/daggerdbl/circumflex/perthousand/Scaron/guilsinglleft/OE/.notdef/.notdef
/.notdef/.notdef/quoteleft/quoteright/quotedblleft/quotedblright/bullet
/endash/emdash/tilde/trademark/scaron/guilsinglright/oe/.notdef/.notdef
/Ydieresis WindowsLatin1Encoding 128 32 getinterval astore pop}
{/WindowsLatin1Encoding StandardEncoding bdef} ifelse
/reencode {exch dup where {pop load} {pop StandardEncoding} ifelse
  exch dup 3 1 roll findfont dup length dict begin
  { 1 index /FID ne {def}{pop pop} ifelse } forall
  /Encoding exch def currentdict end definefont pop} bdef
/isroman {findfont /CharStrings get /Agrave known} bdef
/FMSR {3 1 roll 1 index dup isroman {reencode} {pop pop} ifelse
  exch FMS} bdef
/csm {1 dpi2point div -1 dpi2point div scale neg translate
 dup landscapeMode eq {pop -90 rotate}
  {rotateMode eq {90 rotate} if} ifelse} bdef
% line types: solid, dotted, dashed, dotdash
/SO { [] 0 setdash } bdef
/DO { [.5 dpi2point mul 4 dpi2point mul] 0 setdash } bdef
/DA { [6 dpi2point mul] 0 setdash } bdef
/DD { [.5 dpi2point mul 4 dpi2point mul 6 dpi2point mul 4
  dpi2point mul] 0 setdash } bdef
% macros for lines and objects
/L {lineto stroke} bdef
/MP {3 1 roll moveto 1 sub {rlineto} repeat} bdef
/AP {{rlineto} repeat} bdef
/PDlw -1 def
/W {/PDlw currentlinewidth def setlinewidth} def
/PP {closepath eofill} bdef
/DP {closepath stroke} bdef
/MR {4 -2 roll moveto dup  0 exch rlineto exch 0 rlineto
  neg 0 exch rlineto closepath} bdef
/FR {MR stroke} bdef
/PR {MR fill} bdef
/L1i {{currentfile picstr readhexstring pop} image} bdef
/tMatrix matrix def
/MakeOval {newpath tMatrix currentmatrix pop translate scale
0 0 1 0 360 arc tMatrix setmatrix} bdef
/FO {MakeOval stroke} bdef
/PO {MakeOval fill} bdef
/PD {currentlinewidth 2 div 0 360 arc fill
   PDlw -1 eq not {PDlw w /PDlw -1 def} if} def
/FA {newpath tMatrix currentmatrix pop translate scale
  0 0 1 5 -2 roll arc tMatrix setmatrix stroke} bdef
/PA {newpath tMatrix currentmatrix pop	translate 0 0 moveto scale
  0 0 1 5 -2 roll arc closepath tMatrix setmatrix fill} bdef
/FAn {newpath tMatrix currentmatrix pop translate scale
  0 0 1 5 -2 roll arcn tMatrix setmatrix stroke} bdef
/PAn {newpath tMatrix currentmatrix pop translate 0 0 moveto scale
  0 0 1 5 -2 roll arcn closepath tMatrix setmatrix fill} bdef
/vradius 0 def /hradius 0 def /lry 0 def
/lrx 0 def /uly 0 def /ulx 0 def /rad 0 def
/MRR {/vradius xdef /hradius xdef /lry xdef /lrx xdef /uly xdef
  /ulx xdef newpath tMatrix currentmatrix pop ulx hradius add uly
  vradius add translate hradius vradius scale 0 0 1 180 270 arc 
  tMatrix setmatrix lrx hradius sub uly vradius add translate
  hradius vradius scale 0 0 1 270 360 arc tMatrix setmatrix
  lrx hradius sub lry vradius sub translate hradius vradius scale
  0 0 1 0 90 arc tMatrix setmatrix ulx hradius add lry vradius sub
  translate hradius vradius scale 0 0 1 90 180 arc tMatrix setmatrix
  closepath} bdef
/FRR {MRR stroke } bdef
/PRR {MRR fill } bdef
/MlrRR {/lry xdef /lrx xdef /uly xdef /ulx xdef /rad lry uly sub 2 div def
  newpath tMatrix currentmatrix pop ulx rad add uly rad add translate
  rad rad scale 0 0 1 90 270 arc tMatrix setmatrix lrx rad sub lry rad
  sub translate rad rad scale 0 0 1 270 90 arc tMatrix setmatrix
  closepath} bdef
/FlrRR {MlrRR stroke } bdef
/PlrRR {MlrRR fill } bdef
/MtbRR {/lry xdef /lrx xdef /uly xdef /ulx xdef /rad lrx ulx sub 2 div def
  newpath tMatrix currentmatrix pop ulx rad add uly rad add translate
  rad rad scale 0 0 1 180 360 arc tMatrix setmatrix lrx rad sub lry rad
  sub translate rad rad scale 0 0 1 0 180 arc tMatrix setmatrix
  closepath} bdef
/FtbRR {MtbRR stroke } bdef
/PtbRR {MtbRR fill } bdef
/stri 6 array def /dtri 6 array def
/smat 6 array def /dmat 6 array def
/tmat1 6 array def /tmat2 6 array def /dif 3 array def
/asub {/ind2 exch def /ind1 exch def dup dup
  ind1 get exch ind2 get sub exch } bdef
/tri_to_matrix {
  2 0 asub 3 1 asub 4 0 asub 5 1 asub
  dup 0 get exch 1 get 7 -1 roll astore } bdef
/compute_transform {
  dmat dtri tri_to_matrix tmat1 invertmatrix 
  smat stri tri_to_matrix tmat2 concatmatrix } bdef
/ds {stri astore pop} bdef
/dt {dtri astore pop} bdef
/db {2 copy /cols xdef /rows xdef mul dup 3 mul string
  currentfile 
  3 index 0 eq {/ASCIIHexDecode filter}
  {/ASCII85Decode filter 3 index 2 eq {/RunLengthDecode filter} if }
  ifelse exch readstring pop
  dup 0 3 index getinterval /rbmap xdef
  dup 2 index dup getinterval /gbmap xdef
  1 index dup 2 mul exch getinterval /bbmap xdef pop pop}bdef
/it {gs np dtri aload pop moveto lineto lineto cp c
  cols rows 8 compute_transform 
  rbmap gbmap bbmap true 3 colorimage gr}bdef
/il {newpath moveto lineto stroke}bdef
currentdict end def
%%EndProlog

%%BeginSetup
MathWorks begin

0 cap

end
%%EndSetup

%%Page: 1 1
%%BeginPageSetup
%%PageBoundingBox:    -4   245   601   595
MathWorks begin
bpage
%%EndPageSetup

%%BeginObject: obj1
bplot

/dpi2point 12 def
portraitMode -0048 7140 csm

    0     0  7260  4196 rc
85 dict begin %Colortable dictionary
/c0 { 0.000000 0.000000 0.000000 sr} bdef
/c1 { 1.000000 1.000000 1.000000 sr} bdef
/c2 { 0.900000 0.000000 0.000000 sr} bdef
/c3 { 0.000000 0.820000 0.000000 sr} bdef
/c4 { 0.000000 0.000000 0.800000 sr} bdef
/c5 { 0.910000 0.820000 0.320000 sr} bdef
/c6 { 1.000000 0.260000 0.820000 sr} bdef
/c7 { 0.000000 0.820000 0.820000 sr} bdef
c0
1 j
1 sg
   0    0 7261 4197 rf
6 w
0 1424 1129 0 0 -1424 944 1746 4 MP
PP
-1129 0 0 1424 1129 0 0 -1424 944 1746 5 MP stroke
4 w
DO
SO
6 w
0 sg
 944  322 mt 2073  322 L
 944 1746 mt 2073 1746 L
2073 1746 mt 2073  322 L
 944 1746 mt  944  322 L
 944 1746 mt 2073 1746 L
 944 1746 mt  944  322 L
 944 1746 mt  944 1731 L
 944  322 mt  944  336 L
%%IncludeResource: font Helvetica
/Helvetica /WindowsLatin1Encoding 120 FMSR

 911 1891 mt 
(0) s
2073 1746 mt 2073 1731 L
2073  322 mt 2073  336 L
2007 1891 mt 
(50) s
 944 1746 mt  958 1746 L
2073 1746 mt 2058 1746 L
 773 1790 mt 
(-2) s
 944 1461 mt  958 1461 L
2073 1461 mt 2058 1461 L
 843 1505 mt 
(0) s
 944 1176 mt  958 1176 L
2073 1176 mt 2058 1176 L
 843 1220 mt 
(2) s
 944  891 mt  958  891 L
2073  891 mt 2058  891 L
 843  935 mt 
(4) s
 944  606 mt  958  606 L
2073  606 mt 2058  606 L
 843  650 mt 
(6) s
 944  322 mt  958  322 L
2073  322 mt 2058  322 L
 843  366 mt 
(8) s
 944  322 mt 2073  322 L
 944 1746 mt 2073 1746 L
2073 1746 mt 2073  322 L
 944 1746 mt  944  322 L
gs 944 322 1130 1425 rc
DO
23 6 23 5 22 5 23 6 22 5 23 6 23 5 22 6 
23 6 22 6 23 6 22 6 23 5 23 6 22 6 23 6 
22 6 23 5 23 6 22 5 23 6 22 5 23 5 22 4 
23 5 23 3 22 4 23 3 22 3 23 2 22 1 23 0 
23 0 22 -1 23 -3 22 -3 23 -5 23 -7 22 -8 23 -10 
22 -13 23 -15 22 -17 23 -20 23 -24 22 -28 23 -31 22 -36 
23 -34 966 1461 50 MP stroke
DA
/c8 { 0.000000 0.000000 1.000000 sr} bdef
c8
23 1 23 1 22 2 23 1 22 1 23 1 23 1 22 2 
23 1 22 1 23 2 22 1 23 2 23 1 22 2 23 1 
22 2 23 2 23 2 22 1 23 2 22 2 23 2 22 2 
23 2 23 1 22 2 23 2 22 2 23 2 22 2 23 2 
23 2 22 2 23 2 22 2 23 2 23 2 22 1 23 2 
22 2 23 1 22 1 23 1 23 1 22 1 23 0 22 0 
23 -85 966 1461 50 MP stroke
SO
/c9 { 1.000000 0.000000 0.000000 sr} bdef
c9
23 13 23 14 22 15 23 16 22 18 23 19 23 20 22 22 
23 23 22 24 23 26 22 27 23 28 23 30 22 31 23 33 
22 33 23 35 23 36 22 37 23 37 22 39 23 38 22 39 
23 39 23 38 22 38 23 36 22 34 23 33 22 29 23 26 
23 22 22 16 23 10 22 3 23 -5 23 -14 22 -24 23 -36 
22 -48 23 -60 22 -74 23 -87 23 -98 22 -107 23 -113 22 -111 
23 -99 966 1461 50 MP stroke
gr

c9
0 sg
1468  227 mt 
(V) s
1 sg
0 1424 1129 0 0 -1424 2440 1746 4 MP
PP
-1129 0 0 1424 1129 0 0 -1424 2440 1746 5 MP stroke
4 w
DO
SO
6 w
0 sg
2440  322 mt 3569  322 L
2440 1746 mt 3569 1746 L
3569 1746 mt 3569  322 L
2440 1746 mt 2440  322 L
2440 1746 mt 3569 1746 L
2440 1746 mt 2440  322 L
2440 1746 mt 2440 1731 L
2440  322 mt 2440  336 L
2407 1891 mt 
(0) s
3569 1746 mt 3569 1731 L
3569  322 mt 3569  336 L
3503 1891 mt 
(50) s
2440 1746 mt 2454 1746 L
3569 1746 mt 3554 1746 L
2339 1790 mt 
(0) s
2440 1271 mt 2454 1271 L
3569 1271 mt 3554 1271 L
2339 1315 mt 
(1) s
2440  796 mt 2454  796 L
3569  796 mt 3554  796 L
2339  840 mt 
(2) s
2440  322 mt 2454  322 L
3569  322 mt 3554  322 L
2339  366 mt 
(3) s
2440  322 mt 3569  322 L
2440 1746 mt 3569 1746 L
3569 1746 mt 3569  322 L
2440 1746 mt 2440  322 L
gs 2440 322 1130 1425 rc
DO
23 0 23 0 22 0 23 0 22 0 23 0 23 0 22 0 
23 0 22 0 23 0 22 0 23 0 23 0 22 0 23 0 
22 0 23 0 23 0 22 0 23 0 22 0 23 0 22 0 
23 0 23 0 22 0 23 0 22 0 23 0 22 0 23 0 
23 0 22 0 23 0 22 0 23 0 23 0 22 0 23 0 
22 0 23 0 22 0 23 0 23 0 22 0 23 0 22 0 
23 0 2462 1746 50 MP stroke
DA
c8
23 18 23 17 22 18 23 19 22 18 23 19 23 19 22 20 
23 19 22 20 23 20 22 20 23 21 23 20 22 20 23 20 
22 21 23 19 23 20 22 19 23 19 22 19 23 17 22 17 
23 16 23 14 22 13 23 12 22 10 23 8 22 5 23 3 
23 -1 22 -4 23 -8 22 -12 23 -18 23 -23 22 -30 23 -36 
22 -45 23 -54 22 -64 23 -75 23 -88 22 -102 23 -117 22 -24 
23 -300 2462 1746 50 MP stroke
SO
c9
23 16 23 17 22 19 23 20 22 21 23 23 23 24 22 26 
23 27 22 29 23 30 22 32 23 33 23 35 22 37 23 38 
22 40 23 41 23 43 22 43 23 45 22 46 23 47 22 48 
23 47 23 48 22 48 23 47 22 46 23 44 22 41 23 39 
23 35 22 31 23 25 22 18 23 10 23 1 22 -10 23 -23 
22 -38 23 -54 22 -74 23 -95 23 -119 22 -147 23 -176 22 -209 
23 -323 2462 1746 50 MP stroke
gr

c9
0 sg
2961  227 mt 
(N) s
1 sg
0 1424 1129 0 0 -1424 3937 1746 4 MP
PP
-1129 0 0 1424 1129 0 0 -1424 3937 1746 5 MP stroke
4 w
DO
SO
6 w
0 sg
3937  322 mt 5066  322 L
3937 1746 mt 5066 1746 L
5066 1746 mt 5066  322 L
3937 1746 mt 3937  322 L
3937 1746 mt 5066 1746 L
3937 1746 mt 3937  322 L
3937 1746 mt 3937 1731 L
3937  322 mt 3937  336 L
3904 1891 mt 
(0) s
5066 1746 mt 5066 1731 L
5066  322 mt 5066  336 L
5000 1891 mt 
(50) s
3937 1746 mt 3951 1746 L
5066 1746 mt 5051 1746 L
3666 1790 mt 
(-0.2) s
3937 1390 mt 3951 1390 L
5066 1390 mt 5051 1390 L
3836 1434 mt 
(0) s
3937 1034 mt 3951 1034 L
5066 1034 mt 5051 1034 L
3736 1078 mt 
(0.2) s
3937  677 mt 3951  677 L
5066  677 mt 5051  677 L
3736  721 mt 
(0.4) s
3937  322 mt 3951  322 L
5066  322 mt 5051  322 L
3736  366 mt 
(0.6) s
3937  322 mt 5066  322 L
3937 1746 mt 5066 1746 L
5066 1746 mt 5066  322 L
3937 1746 mt 3937  322 L
gs 3937 322 1130 1425 rc
DO
23 -1 23 -1 22 -1 23 -1 22 -1 23 -1 23 0 22 -1 
23 -1 22 0 23 -1 22 0 23 0 23 0 22 0 23 0 
22 0 23 1 23 1 22 1 23 1 22 2 23 2 22 3 
23 2 23 4 22 4 23 4 22 5 23 6 22 7 23 7 
23 9 22 9 23 11 22 13 23 13 23 16 22 17 23 19 
22 22 23 24 22 27 23 30 23 34 22 37 23 42 22 46 
23 -365 3959 1390 50 MP stroke
DA
c8
23 -1 23 0 22 -1 23 -1 22 -1 23 -1 23 -1 22 -1 
23 -1 22 -1 23 -1 22 -1 23 -1 23 -1 22 -1 23 -1 
22 -1 23 -1 23 -1 22 -1 23 -1 22 -1 23 -2 22 -1 
23 -1 23 -1 22 -1 23 -1 22 -2 23 -1 22 -1 23 -1 
23 -1 22 -1 23 -1 22 -1 23 -1 23 -1 22 -1 23 -1 
22 -1 23 -1 22 0 23 -1 23 0 22 0 23 0 22 509 
23 -443 3959 1390 50 MP stroke
SO
c9
23 -8 23 -9 22 -8 23 -9 22 -9 23 -10 23 -10 22 -10 
23 -10 22 -11 23 -10 22 -11 23 -11 23 -11 22 -10 23 -11 
22 -10 23 -9 23 -9 22 -9 23 -7 22 -6 23 -5 22 -3 
23 -1 23 1 22 3 23 7 22 9 23 14 22 18 23 23 
23 27 22 34 23 40 22 46 23 54 23 60 22 67 23 73 
22 78 23 81 22 79 23 74 23 60 22 35 23 -6 22 -69 
23 -516 3959 1390 50 MP stroke
gr

c9
0 sg
4458  227 mt 
(R) s
1 sg
0 1424 1129 0 0 -1424 5433 1746 4 MP
PP
-1129 0 0 1424 1129 0 0 -1424 5433 1746 5 MP stroke
4 w
DO
SO
6 w
0 sg
5433  322 mt 6562  322 L
5433 1746 mt 6562 1746 L
6562 1746 mt 6562  322 L
5433 1746 mt 5433  322 L
5433 1746 mt 6562 1746 L
5433 1746 mt 5433  322 L
5433 1746 mt 5433 1731 L
5433  322 mt 5433  336 L
5400 1891 mt 
(0) s
6562 1746 mt 6562 1731 L
6562  322 mt 6562  336 L
6496 1891 mt 
(50) s
5433 1746 mt 5447 1746 L
6562 1746 mt 6547 1746 L
5262 1790 mt 
(-1) s
5433 1390 mt 5447 1390 L
6562 1390 mt 6547 1390 L
5332 1434 mt 
(0) s
5433 1034 mt 5447 1034 L
6562 1034 mt 6547 1034 L
5332 1078 mt 
(1) s
5433  678 mt 5447  678 L
6562  678 mt 6547  678 L
5332  722 mt 
(2) s
5433  322 mt 5447  322 L
6562  322 mt 6547  322 L
5332  366 mt 
(3) s
5433  322 mt 6562  322 L
5433 1746 mt 6562 1746 L
6562 1746 mt 6562  322 L
5433 1746 mt 5433  322 L
gs 5433 322 1130 1425 rc
DO
23 0 23 0 22 0 23 0 22 0 23 1 23 0 22 1 
23 1 22 0 23 1 22 2 23 1 23 1 22 2 23 2 
22 3 23 2 23 4 22 3 23 4 22 4 23 5 22 6 
23 6 23 7 22 8 23 9 22 10 23 11 22 13 23 14 
23 15 22 18 23 19 22 21 23 24 23 27 22 30 23 33 
22 37 23 40 22 46 23 51 23 56 22 63 23 69 22 78 
23 -734 5455 1390 50 MP stroke
DA
c8
23 0 23 0 22 0 23 1 22 0 23 0 23 1 22 0 
23 1 22 1 23 0 22 1 23 1 23 2 22 1 23 2 
22 2 23 2 23 2 22 3 23 3 22 3 23 4 22 4 
23 5 23 6 22 6 23 6 22 8 23 9 22 9 23 11 
23 11 22 14 23 14 22 17 23 18 23 21 22 22 23 26 
22 28 23 31 22 35 23 39 23 44 22 48 23 54 22 128 
23 -640 5455 1390 50 MP stroke
SO
c9
23 -1 23 -1 22 -1 23 -1 22 -1 23 -1 23 -1 22 0 
23 -1 22 -1 23 0 22 -1 23 0 23 -1 22 0 23 0 
22 1 23 1 23 1 22 1 23 2 22 2 23 3 22 4 
23 4 23 6 22 6 23 8 22 8 23 10 22 12 23 13 
23 16 22 17 23 20 22 23 23 26 23 28 22 32 23 35 
22 39 23 43 22 46 23 49 23 52 22 53 23 54 22 51 
23 -649 5455 1390 50 MP stroke
gr

c9
0 sg
5950  227 mt 
(pi) s
1 sg
0 1424 1129 0 0 -1424 944 3734 4 MP
PP
-1129 0 0 1424 1129 0 0 -1424 944 3734 5 MP stroke
4 w
DO
SO
6 w
0 sg
 944 2310 mt 2073 2310 L
 944 3734 mt 2073 3734 L
2073 3734 mt 2073 2310 L
 944 3734 mt  944 2310 L
 944 3734 mt 2073 3734 L
 944 3734 mt  944 2310 L
 944 3734 mt  944 3719 L
 944 2310 mt  944 2324 L
 911 3879 mt 
(0) s
2073 3734 mt 2073 3719 L
2073 2310 mt 2073 2324 L
2007 3879 mt 
(50) s
 944 3734 mt  958 3734 L
2073 3734 mt 2058 3734 L
 773 3778 mt 
(-2) s
 944 3378 mt  958 3378 L
2073 3378 mt 2058 3378 L
 843 3422 mt 
(0) s
 944 3022 mt  958 3022 L
2073 3022 mt 2058 3022 L
 843 3066 mt 
(2) s
 944 2666 mt  958 2666 L
2073 2666 mt 2058 2666 L
 843 2710 mt 
(4) s
 944 2310 mt  958 2310 L
2073 2310 mt 2058 2310 L
 843 2354 mt 
(6) s
 944 2310 mt 2073 2310 L
 944 3734 mt 2073 3734 L
2073 3734 mt 2073 2310 L
 944 3734 mt  944 2310 L
gs 944 2310 1130 1425 rc
DO
23 5 23 4 22 4 23 5 22 5 23 5 23 5 22 5 
23 5 22 6 23 5 22 6 23 6 23 6 22 6 23 7 
22 6 23 7 23 7 22 7 23 7 22 8 23 7 22 8 
23 8 23 8 22 8 23 9 22 8 23 9 22 9 23 9 
23 10 22 9 23 10 22 10 23 10 23 11 22 10 23 11 
22 11 23 11 22 12 23 11 23 12 22 12 23 13 22 13 
23 -415 966 3378 50 MP stroke
DA
c8
23 2 23 3 22 2 23 3 22 3 23 3 23 3 22 4 
23 3 22 4 23 3 22 4 23 4 23 4 22 4 23 4 
22 4 23 5 23 5 22 4 23 5 22 5 23 6 22 5 
23 6 23 6 22 6 23 6 22 6 23 7 22 7 23 7 
23 7 22 8 23 8 22 8 23 8 23 9 22 9 23 9 
22 10 23 10 22 11 23 11 23 12 22 12 23 12 22 305 
23 -621 966 3378 50 MP stroke
SO
c9
23 2 23 1 22 3 23 3 22 3 23 4 23 4 22 6 
23 5 22 7 23 7 22 8 23 9 23 10 22 11 23 11 
22 13 23 14 23 15 22 16 23 18 22 19 23 20 22 22 
23 23 23 24 22 27 23 28 22 29 23 31 22 33 23 35 
23 36 22 38 23 39 22 41 23 41 23 42 22 42 23 41 
22 38 23 35 22 30 23 20 23 8 22 -11 23 -36 22 -71 
23 -669 966 3378 50 MP stroke
gr

c9
0 sg
1468 2215 mt 
(Y) s
1 sg
0 1424 1129 0 0 -1424 2440 3734 4 MP
PP
-1129 0 0 1424 1129 0 0 -1424 2440 3734 5 MP stroke
4 w
DO
SO
6 w
0 sg
2440 2310 mt 3569 2310 L
2440 3734 mt 3569 3734 L
3569 3734 mt 3569 2310 L
2440 3734 mt 2440 2310 L
2440 3734 mt 3569 3734 L
2440 3734 mt 2440 2310 L
2440 3734 mt 2440 3719 L
2440 2310 mt 2440 2324 L
2407 3879 mt 
(0) s
3569 3734 mt 3569 3719 L
3569 2310 mt 3569 2324 L
3503 3879 mt 
(50) s
2440 3734 mt 2454 3734 L
3569 3734 mt 3554 3734 L
2269 3778 mt 
(-1) s
2440 3378 mt 2454 3378 L
3569 3378 mt 3554 3378 L
2339 3422 mt 
(0) s
2440 3022 mt 2454 3022 L
3569 3022 mt 3554 3022 L
2339 3066 mt 
(1) s
2440 2666 mt 2454 2666 L
3569 2666 mt 3554 2666 L
2339 2710 mt 
(2) s
2440 2310 mt 2454 2310 L
3569 2310 mt 3554 2310 L
2339 2354 mt 
(3) s
2440 2310 mt 3569 2310 L
2440 3734 mt 3569 3734 L
3569 3734 mt 3569 2310 L
2440 3734 mt 2440 2310 L
gs 2440 2310 1130 1425 rc
DO
23 10 23 9 22 10 23 10 22 10 23 10 23 11 22 10 
23 11 22 11 23 11 22 11 23 11 23 12 22 11 23 11 
22 11 23 12 23 11 22 11 23 11 22 10 23 11 22 10 
23 9 23 9 22 9 23 8 22 7 23 6 22 5 23 4 
23 2 22 1 23 -1 22 -2 23 -5 23 -8 22 -10 23 -14 
22 -17 23 -21 22 -25 23 -30 23 -36 22 -42 23 -49 22 -56 
23 -127 2462 3378 50 MP stroke
DA
c8
23 5 23 5 22 5 23 5 22 6 23 5 23 6 22 6 
23 6 22 7 23 6 22 7 23 7 23 8 22 7 23 8 
22 8 23 8 23 9 22 9 23 9 22 9 23 10 22 10 
23 10 23 11 22 11 23 11 22 12 23 12 22 12 23 13 
23 13 22 14 23 14 22 14 23 15 23 15 22 16 23 17 
22 17 23 17 22 18 23 19 23 20 22 20 23 21 22 66 
23 -626 2462 3378 50 MP stroke
SO
c9
23 9 23 11 22 11 23 13 22 14 23 15 23 17 22 17 
23 20 22 20 23 22 22 24 23 25 23 26 22 28 23 30 
22 31 23 33 23 34 22 35 23 37 22 38 23 40 22 40 
23 41 23 42 22 42 23 43 22 42 23 42 22 40 23 39 
23 37 22 35 23 31 22 27 23 22 23 16 22 10 23 3 
22 -6 23 -15 22 -25 23 -35 23 -45 22 -54 23 -61 22 -65 
23 -628 2462 3378 50 MP stroke
gr

c9
0 sg
2961 2215 mt 
(C) s
1 sg
0 1424 1129 0 0 -1424 3937 3734 4 MP
PP
-1129 0 0 1424 1129 0 0 -1424 3937 3734 5 MP stroke
4 w
DO
SO
6 w
0 sg
3937 2310 mt 5066 2310 L
3937 3734 mt 5066 3734 L
5066 3734 mt 5066 2310 L
3937 3734 mt 3937 2310 L
3937 3734 mt 5066 3734 L
3937 3734 mt 3937 2310 L
3937 3734 mt 3937 3719 L
3937 2310 mt 3937 2324 L
3904 3879 mt 
(0) s
5066 3734 mt 5066 3719 L
5066 2310 mt 5066 2324 L
5000 3879 mt 
(50) s
3937 3734 mt 3951 3734 L
5066 3734 mt 5051 3734 L
3699 3778 mt 
(-10) s
3937 3378 mt 3951 3378 L
5066 3378 mt 5051 3378 L
3836 3422 mt 
(0) s
3937 3022 mt 3951 3022 L
5066 3022 mt 5051 3022 L
3769 3066 mt 
(10) s
3937 2666 mt 3951 2666 L
5066 2666 mt 5051 2666 L
3769 2710 mt 
(20) s
3937 2310 mt 3951 2310 L
5066 2310 mt 5051 2310 L
3769 2354 mt 
(30) s
3937 2310 mt 5066 2310 L
3937 3734 mt 5066 3734 L
5066 3734 mt 5066 2310 L
3937 3734 mt 3937 2310 L
gs 3937 2310 1130 1425 rc
DO
23 0 23 1 22 0 23 1 22 0 23 1 23 1 22 1 
23 1 22 1 23 1 22 2 23 1 23 2 22 2 23 2 
22 2 23 2 23 3 22 3 23 3 22 3 23 4 22 4 
23 4 23 5 22 6 23 5 22 7 23 7 22 7 23 9 
23 9 22 10 23 12 22 12 23 13 23 15 22 17 23 18 
22 20 23 22 22 24 23 27 23 30 22 32 23 36 22 40 
23 -403 3959 3378 50 MP stroke
DA
c8
23 0 23 1 22 0 23 0 22 0 23 1 23 0 22 0 
23 1 22 0 23 1 22 1 23 0 23 1 22 1 23 1 
22 1 23 2 23 1 22 2 23 2 22 2 23 2 22 2 
23 3 23 3 22 3 23 3 22 4 23 5 22 5 23 5 
23 6 22 7 23 7 22 8 23 9 23 10 22 11 23 12 
22 13 23 15 22 16 23 19 23 20 22 22 23 25 22 476 
23 -717 3959 3378 50 MP stroke
SO
c9
23 -4 23 -5 22 -5 23 -5 22 -5 23 -5 23 -5 22 -5 
23 -5 22 -4 23 -5 22 -4 23 -4 23 -3 22 -3 23 -3 
22 -1 23 -1 23 0 22 1 23 2 22 3 23 6 22 6 
23 9 23 11 22 14 23 17 22 19 23 23 22 27 23 32 
23 35 22 41 23 46 22 52 23 57 23 63 22 68 23 73 
22 76 23 79 22 77 23 71 23 59 22 38 23 3 22 -50 
23 -790 3959 3378 50 MP stroke
gr

c9
0 sg
4484 2215 mt 
(I) s
1 sg
0 1424 1129 0 0 -1424 5433 3734 4 MP
PP
-1129 0 0 1424 1129 0 0 -1424 5433 3734 5 MP stroke
4 w
DO
SO
6 w
0 sg
5433 2310 mt 6562 2310 L
5433 3734 mt 6562 3734 L
6562 3734 mt 6562 2310 L
5433 3734 mt 5433 2310 L
5433 3734 mt 6562 3734 L
5433 3734 mt 5433 2310 L
5433 3734 mt 5433 3719 L
5433 2310 mt 5433 2324 L
5400 3879 mt 
(0) s
6562 3734 mt 6562 3719 L
6562 2310 mt 6562 2324 L
6496 3879 mt 
(50) s
5433 3734 mt 5447 3734 L
6562 3734 mt 6547 3734 L
5262 3778 mt 
(-2) s
5433 3378 mt 5447 3378 L
6562 3378 mt 6547 3378 L
5332 3422 mt 
(0) s
5433 3022 mt 5447 3022 L
6562 3022 mt 6547 3022 L
5332 3066 mt 
(2) s
5433 2666 mt 5447 2666 L
6562 2666 mt 6547 2666 L
5332 2710 mt 
(4) s
5433 2310 mt 5447 2310 L
6562 2310 mt 6547 2310 L
5332 2354 mt 
(6) s
5433 2310 mt 6562 2310 L
5433 3734 mt 6562 3734 L
6562 3734 mt 6562 2310 L
5433 3734 mt 5433 2310 L
gs 5433 2310 1130 1425 rc
DO
23 3 23 3 22 4 23 3 22 4 23 3 23 4 22 5 
23 4 22 5 23 4 22 5 23 6 23 5 22 6 23 6 
22 6 23 7 23 7 22 7 23 8 22 8 23 8 22 9 
23 9 23 10 22 11 23 11 22 11 23 12 22 13 23 14 
23 15 22 16 23 16 22 18 23 19 23 20 22 22 23 24 
22 25 23 27 22 29 23 32 23 34 22 38 23 40 22 44 
23 -619 5455 3378 50 MP stroke
DA
c8
23 1 23 2 22 2 23 2 22 2 23 2 23 3 22 2 
23 3 22 3 23 2 22 4 23 3 23 3 22 4 23 4 
22 4 23 4 23 4 22 5 23 5 22 5 23 6 22 6 
23 6 23 7 22 7 23 8 22 8 23 9 22 9 23 10 
23 11 22 12 23 12 22 14 23 14 23 16 22 16 23 18 
22 20 23 21 22 24 23 25 23 27 22 30 23 32 22 499 
23 -926 5455 3378 50 MP stroke
SO
c9
23 -4 23 -3 22 -4 23 -3 22 -2 23 -3 23 -2 22 -2 
23 -1 22 -1 23 0 22 1 23 1 23 2 22 3 23 4 
22 5 23 6 23 8 22 9 23 11 22 12 23 15 22 16 
23 19 23 22 22 25 23 27 22 31 23 35 22 39 23 42 
23 48 22 52 23 57 22 62 23 67 23 71 22 77 23 79 
22 82 23 82 22 79 23 71 23 57 22 33 23 -4 22 -57 
23 -998 5455 3378 50 MP stroke
gr

c9
0 sg
5964 2215 mt 
(L) s
5416 3777 mt 
( ) s
6546 2352 mt 
( ) s
1 sg
0 480 1074 0 0 -480 5492 3675 4 MP
PP
-1074 0 0 480 1074 0 0 -480 5492 3675 5 MP stroke
4 w
DO
SO
6 w
0 sg
5492 3195 mt 6566 3195 L
5492 3675 mt 6566 3675 L
6566 3675 mt 6566 3195 L
5492 3675 mt 5492 3195 L
5492 3675 mt 6566 3675 L
5492 3675 mt 5492 3195 L
5492 3195 mt 6566 3195 L
5492 3675 mt 6566 3675 L
6566 3675 mt 6566 3195 L
5492 3675 mt 5492 3195 L
5958 3330 mt 
(frictionless) s
gs 5492 3195 1075 481 rc
DO
358 0 5563 3287 2 MP stroke
SO
gr

5958 3478 mt 
(RE) s
gs 5492 3195 1075 481 rc
DA
c8
358 0 5563 3435 2 MP stroke
SO
gr

c8
0 sg
5958 3626 mt 
(learning) s
gs 5492 3195 1075 481 rc
c9
358 0 5563 3582 2 MP stroke
gr

c9

end %%Color Dict

eplot
%%EndObject

epage
end

showpage

%%Trailer
%%EOF
