%!PS-Adobe-3.0 EPSF-3.0
%%Creator: MATLAB, The Mathworks, Inc. Version 7.10.0.499 (R2010a). Operating System: Microsoft Windows 7.
%%Title: C:\Users\winklerh\Dropbox\PhD\finfric\irf2.eps
%%CreationDate: 06/13/2013  17:43:45
%%DocumentNeededFonts: Helvetica
%%DocumentProcessColors: Cyan Magenta Yellow Black
%%LanguageLevel: 2
%%Pages: 1
%%BoundingBox:     2   243   592   598
%%EndComments

%%BeginProlog
% MathWorks dictionary
/MathWorks 160 dict begin
% definition operators
/bdef {bind def} bind def
/ldef {load def} bind def
/xdef {exch def} bdef
/xstore {exch store} bdef
% operator abbreviations
/c  /clip ldef
/cc /concat ldef
/cp /closepath ldef
/gr /grestore ldef
/gs /gsave ldef
/mt /moveto ldef
/np /newpath ldef
/cm /currentmatrix ldef
/sm /setmatrix ldef
/rm /rmoveto ldef
/rl /rlineto ldef
/s {show newpath} bdef
/sc {setcmykcolor} bdef
/sr /setrgbcolor ldef
/sg /setgray ldef
/w /setlinewidth ldef
/j /setlinejoin ldef
/cap /setlinecap ldef
/rc {rectclip} bdef
/rf {rectfill} bdef
% page state control
/pgsv () def
/bpage {/pgsv save def} bdef
/epage {pgsv restore} bdef
/bplot /gsave ldef
/eplot {stroke grestore} bdef
% orientation switch
/portraitMode 0 def /landscapeMode 1 def /rotateMode 2 def
% coordinate system mappings
/dpi2point 0 def
% font control
/FontSize 0 def
/FMS {/FontSize xstore findfont [FontSize 0 0 FontSize neg 0 0]
  makefont setfont} bdef
/ISOLatin1Encoding where {pop /WindowsLatin1Encoding 256 array bdef
ISOLatin1Encoding WindowsLatin1Encoding copy pop
/.notdef/.notdef/quotesinglbase/florin/quotedblbase/ellipsis/dagger
/daggerdbl/circumflex/perthousand/Scaron/guilsinglleft/OE/.notdef/.notdef
/.notdef/.notdef/quoteleft/quoteright/quotedblleft/quotedblright/bullet
/endash/emdash/tilde/trademark/scaron/guilsinglright/oe/.notdef/.notdef
/Ydieresis WindowsLatin1Encoding 128 32 getinterval astore pop}
{/WindowsLatin1Encoding StandardEncoding bdef} ifelse
/reencode {exch dup where {pop load} {pop StandardEncoding} ifelse
  exch dup 3 1 roll findfont dup length dict begin
  { 1 index /FID ne {def}{pop pop} ifelse } forall
  /Encoding exch def currentdict end definefont pop} bdef
/isroman {findfont /CharStrings get /Agrave known} bdef
/FMSR {3 1 roll 1 index dup isroman {reencode} {pop pop} ifelse
  exch FMS} bdef
/csm {1 dpi2point div -1 dpi2point div scale neg translate
 dup landscapeMode eq {pop -90 rotate}
  {rotateMode eq {90 rotate} if} ifelse} bdef
% line types: solid, dotted, dashed, dotdash
/dom { dpi2point 1 currentlinewidth 0.08 mul add mul mul } bdef/dam { dpi2point 2 currentlinewidth 0.04 mul add mul mul } bdef/SO { [] 0 setdash 0 setlinecap } bdef/DO { [1 dom 1.2 dom] 0 setdash 0 setlinecap } bdef/DA { [4 dam 1.5 dam] 0 setdash 0 setlinecap } bdef/DD { [1 dom 1.2 dom 4 dam 1.2 dom] 0 setdash 0 setlinecap } bdef/GR { [0 dpi2point mul 4 dpi2point mul] 0 setdash 1 setlinecap } bdef% macros for lines and objects
/L {lineto stroke} bdef
/MP {3 1 roll moveto 1 sub {rlineto} repeat} bdef
/AP {{rlineto} repeat} bdef
/PDlw -1 def
/W {/PDlw currentlinewidth def setlinewidth} def
/PP {closepath eofill} bdef
/DP {closepath stroke} bdef
/MR {4 -2 roll moveto dup  0 exch rlineto exch 0 rlineto
  neg 0 exch rlineto closepath} bdef
/FR {MR stroke} bdef
/PR {MR fill} bdef
/L1i {{currentfile picstr readhexstring pop} image} bdef
/tMatrix matrix def
/MakeOval {newpath tMatrix currentmatrix pop translate scale
0 0 1 0 360 arc tMatrix setmatrix} bdef
/FO {MakeOval stroke} bdef
/PO {MakeOval fill} bdef
/PD {currentlinewidth 2 div 0 360 arc fill
   PDlw -1 eq not {PDlw w /PDlw -1 def} if} def
/FA {newpath tMatrix currentmatrix pop translate scale
  0 0 1 5 -2 roll arc tMatrix setmatrix stroke} bdef
/PA {newpath tMatrix currentmatrix pop	translate 0 0 moveto scale
  0 0 1 5 -2 roll arc closepath tMatrix setmatrix fill} bdef
/FAn {newpath tMatrix currentmatrix pop translate scale
  0 0 1 5 -2 roll arcn tMatrix setmatrix stroke} bdef
/PAn {newpath tMatrix currentmatrix pop translate 0 0 moveto scale
  0 0 1 5 -2 roll arcn closepath tMatrix setmatrix fill} bdef
/vradius 0 def /hradius 0 def /lry 0 def
/lrx 0 def /uly 0 def /ulx 0 def /rad 0 def
/MRR {/vradius xdef /hradius xdef /lry xdef /lrx xdef /uly xdef
  /ulx xdef newpath tMatrix currentmatrix pop ulx hradius add uly
  vradius add translate hradius vradius scale 0 0 1 180 270 arc 
  tMatrix setmatrix lrx hradius sub uly vradius add translate
  hradius vradius scale 0 0 1 270 360 arc tMatrix setmatrix
  lrx hradius sub lry vradius sub translate hradius vradius scale
  0 0 1 0 90 arc tMatrix setmatrix ulx hradius add lry vradius sub
  translate hradius vradius scale 0 0 1 90 180 arc tMatrix setmatrix
  closepath} bdef
/FRR {MRR stroke } bdef
/PRR {MRR fill } bdef
/MlrRR {/lry xdef /lrx xdef /uly xdef /ulx xdef /rad lry uly sub 2 div def
  newpath tMatrix currentmatrix pop ulx rad add uly rad add translate
  rad rad scale 0 0 1 90 270 arc tMatrix setmatrix lrx rad sub lry rad
  sub translate rad rad scale 0 0 1 270 90 arc tMatrix setmatrix
  closepath} bdef
/FlrRR {MlrRR stroke } bdef
/PlrRR {MlrRR fill } bdef
/MtbRR {/lry xdef /lrx xdef /uly xdef /ulx xdef /rad lrx ulx sub 2 div def
  newpath tMatrix currentmatrix pop ulx rad add uly rad add translate
  rad rad scale 0 0 1 180 360 arc tMatrix setmatrix lrx rad sub lry rad
  sub translate rad rad scale 0 0 1 0 180 arc tMatrix setmatrix
  closepath} bdef
/FtbRR {MtbRR stroke } bdef
/PtbRR {MtbRR fill } bdef
/stri 6 array def /dtri 6 array def
/smat 6 array def /dmat 6 array def
/tmat1 6 array def /tmat2 6 array def /dif 3 array def
/asub {/ind2 exch def /ind1 exch def dup dup
  ind1 get exch ind2 get sub exch } bdef
/tri_to_matrix {
  2 0 asub 3 1 asub 4 0 asub 5 1 asub
  dup 0 get exch 1 get 7 -1 roll astore } bdef
/compute_transform {
  dmat dtri tri_to_matrix tmat1 invertmatrix 
  smat stri tri_to_matrix tmat2 concatmatrix } bdef
/ds {stri astore pop} bdef
/dt {dtri astore pop} bdef
/db {2 copy /cols xdef /rows xdef mul dup 3 mul string
  currentfile 
  3 index 0 eq {/ASCIIHexDecode filter}
  {/ASCII85Decode filter 3 index 2 eq {/RunLengthDecode filter} if }
  ifelse exch readstring pop
  dup 0 3 index getinterval /rbmap xdef
  dup 2 index dup getinterval /gbmap xdef
  1 index dup 2 mul exch getinterval /bbmap xdef pop pop}bdef
/it {gs np dtri aload pop moveto lineto lineto cp c
  cols rows 8 compute_transform 
  rbmap gbmap bbmap true 3 colorimage gr}bdef
/il {newpath moveto lineto stroke}bdef
currentdict end def
%%EndProlog

%%BeginSetup
MathWorks begin

0 cap

end
%%EndSetup

%%Page: 1 1
%%BeginPageSetup
%%PageBoundingBox:     2   243   592   598
MathWorks begin
bpage
%%EndPageSetup

%%BeginObject: obj1
bplot

/dpi2point 12 def
portraitMode 0024 7176 csm

    0     0  7089  4259 rc
85 dict begin %Colortable dictionary
/c0 { 0.000000 0.000000 0.000000 sr} bdef
/c1 { 1.000000 1.000000 1.000000 sr} bdef
/c2 { 0.900000 0.000000 0.000000 sr} bdef
/c3 { 0.000000 0.820000 0.000000 sr} bdef
/c4 { 0.000000 0.000000 0.800000 sr} bdef
/c5 { 0.910000 0.820000 0.320000 sr} bdef
/c6 { 1.000000 0.260000 0.820000 sr} bdef
/c7 { 0.000000 0.820000 0.820000 sr} bdef
c0
1 j
1 sg
   0    0 7090 4260 rf
6 w
0 1448 1101 0 0 -1448 922 1772 4 MP
PP
-1101 0 0 1448 1101 0 0 -1448 922 1772 5 MP stroke
4 w
DO

6 wSO
0 sg
 922  324 mt 2023  324 L
 922 1772 mt 2023 1772 L
2023 1772 mt 2023  324 L
 922 1772 mt  922  324 L
 922 1772 mt 2023 1772 L
 922 1772 mt  922  324 L
 922 1772 mt  922 1757 L
 922  324 mt  922  338 L
%%IncludeResource: font Helvetica
/Helvetica /WindowsLatin1Encoding 120 FMSR

 889 1917 mt 
(0) s
2023 1772 mt 2023 1757 L
2023  324 mt 2023  338 L
1957 1917 mt 
(50) s
 922 1772 mt  936 1772 L
2023 1772 mt 2008 1772 L
 821 1816 mt 
(0) s
 922 1410 mt  936 1410 L
2023 1410 mt 2008 1410 L
 654 1454 mt 
(0.05) s
 922 1048 mt  936 1048 L
2023 1048 mt 2008 1048 L
 721 1092 mt 
(0.1) s
 922  685 mt  936  685 L
2023  685 mt 2008  685 L
 654  729 mt 
(0.15) s
 922  324 mt  936  324 L
2023  324 mt 2008  324 L
 721  368 mt 
(0.2) s
 922  324 mt 2023  324 L
 922 1772 mt 2023 1772 L
2023 1772 mt 2023  324 L
 922 1772 mt  922  324 L
gs 922 324 1102 1449 rc
DA
/c8 { 0.000000 0.000000 1.000000 sr} bdef
c8
23 12 22 11 22 12 22 12 22 12 22 13 22 13 22 14 
22 13 22 15 22 14 22 15 22 15 22 16 22 16 22 16 
22 17 22 18 22 17 22 19 22 18 22 20 22 19 22 20 
22 21 22 21 22 22 22 23 22 23 22 23 22 24 22 25 
22 26 22 26 22 26 22 28 22 28 22 28 22 29 22 29 
22 28 22 26 22 21 22 10 22 -13 22 -59 22 -154 22 -343 
22 -719 944 1772 50 MP stroke
SO
/c9 { 1.000000 0.000000 0.000000 sr} bdef
c9
23 10 22 11 22 10 22 10 22 10 22 10 22 10 22 10 
22 10 22 10 22 10 22 9 22 10 22 9 22 10 22 9 
22 10 22 9 22 9 22 9 22 9 22 9 22 9 22 8 
22 9 22 8 22 8 22 9 22 8 22 8 22 7 22 8 
22 8 22 7 22 7 22 7 22 7 22 7 22 6 22 6 
22 5 22 2 22 -2 22 -12 22 -33 22 -76 22 -164 22 -346 
22 -719 944 1772 50 MP stroke
gr

c9
0 sg
1429  229 mt 
(N) s
 860 1860 mt 
( ) s
1962  411 mt 
( ) s
1 sg
0 1448 1101 0 0 -1448 2383 1772 4 MP
PP
-1101 0 0 1448 1101 0 0 -1448 2383 1772 5 MP stroke
4 w
DO

6 wSO
0 sg
2383  324 mt 3484  324 L
2383 1772 mt 3484 1772 L
3484 1772 mt 3484  324 L
2383 1772 mt 2383  324 L
2383 1772 mt 3484 1772 L
2383 1772 mt 2383  324 L
2383 1772 mt 2383 1757 L
2383  324 mt 2383  338 L
2350 1917 mt 
(0) s
3484 1772 mt 3484 1757 L
3484  324 mt 3484  338 L
3418 1917 mt 
(50) s
2383 1772 mt 2397 1772 L
3484 1772 mt 3469 1772 L
2282 1816 mt 
(0) s
2383 1410 mt 2397 1410 L
3484 1410 mt 3469 1410 L
2182 1454 mt 
(0.2) s
2383 1048 mt 2397 1048 L
3484 1048 mt 3469 1048 L
2182 1092 mt 
(0.4) s
2383  685 mt 2397  685 L
3484  685 mt 3469  685 L
2182  729 mt 
(0.6) s
2383  324 mt 2397  324 L
3484  324 mt 3469  324 L
2182  368 mt 
(0.8) s
2383  324 mt 3484  324 L
2383 1772 mt 3484 1772 L
3484 1772 mt 3484  324 L
2383 1772 mt 2383  324 L
gs 2383 324 1102 1449 rc
DA
c8
23 1 22 1 22 1 22 1 22 0 22 1 22 1 22 1 
22 1 22 1 22 1 22 1 22 1 22 1 22 1 22 1 
22 2 22 1 22 1 22 1 22 1 22 2 22 1 22 2 
22 1 22 1 22 2 22 1 22 2 22 2 22 1 22 2 
22 2 22 2 22 1 22 2 22 2 22 2 22 2 22 2 
22 3 22 2 22 2 22 3 22 3 22 4 22 5 22 8 
22 -113 2405 1772 50 MP stroke
SO
c9
23 11 22 11 22 12 22 11 22 11 22 12 22 11 22 12 
22 11 22 12 22 11 22 12 22 12 22 12 22 11 22 12 
22 12 22 12 22 11 22 12 22 12 22 12 22 12 22 12 
22 12 22 12 22 12 22 12 22 11 22 12 22 12 22 12 
22 12 22 11 22 11 22 10 22 10 22 8 22 5 22 1 
22 -6 22 -17 22 -33 22 -58 22 -94 22 -142 22 -200 22 -247 
22 -229 2405 1772 50 MP stroke
gr

c9
0 sg
2893  229 mt 
(B) s
1 sg
0 1448 1101 0 0 -1448 3844 1772 4 MP
PP
-1101 0 0 1448 1101 0 0 -1448 3844 1772 5 MP stroke
4 w
DO

6 wSO
0 sg
3844  324 mt 4945  324 L
3844 1772 mt 4945 1772 L
4945 1772 mt 4945  324 L
3844 1772 mt 3844  324 L
3844 1772 mt 4945 1772 L
3844 1772 mt 3844  324 L
3844 1772 mt 3844 1757 L
3844  324 mt 3844  338 L
3811 1917 mt 
(0) s
4945 1772 mt 4945 1757 L
4945  324 mt 4945  338 L
4879 1917 mt 
(50) s
3844 1772 mt 3858 1772 L
4945 1772 mt 4930 1772 L
3743 1816 mt 
(0) s
3844 1410 mt 3858 1410 L
4945 1410 mt 4930 1410 L
3643 1454 mt 
(0.1) s
3844 1048 mt 3858 1048 L
4945 1048 mt 4930 1048 L
3643 1092 mt 
(0.2) s
3844  685 mt 3858  685 L
4945  685 mt 4930  685 L
3643  729 mt 
(0.3) s
3844  324 mt 3858  324 L
4945  324 mt 4930  324 L
3643  368 mt 
(0.4) s
3844  324 mt 4945  324 L
3844 1772 mt 4945 1772 L
4945 1772 mt 4945  324 L
3844 1772 mt 3844  324 L
gs 3844 324 1102 1449 rc
DA
c8
23 3 22 4 22 4 22 3 22 4 22 4 22 5 22 4 
22 4 22 5 22 4 22 5 22 5 22 5 22 5 22 5 
22 6 22 5 22 6 22 6 22 6 22 6 22 6 22 6 
22 7 22 7 22 7 22 7 22 7 22 8 22 7 22 8 
22 8 22 9 22 8 22 9 22 9 22 9 22 9 22 9 
22 10 22 8 22 8 22 5 22 0 22 -11 22 -33 22 -78 
22 -292 3866 1772 50 MP stroke
SO
c9
23 14 22 14 22 13 22 14 22 14 22 14 22 14 22 14 
22 14 22 14 22 14 22 14 22 14 22 14 22 15 22 14 
22 14 22 14 22 14 22 14 22 14 22 14 22 14 22 15 
22 14 22 14 22 14 22 14 22 13 22 14 22 14 22 14 
22 13 22 13 22 13 22 12 22 12 22 9 22 7 22 2 
22 -4 22 -16 22 -34 22 -61 22 -102 22 -162 22 -240 22 -334 
22 -408 3866 1772 50 MP stroke
gr

c9
0 sg
4354  229 mt 
(K) s
1 sg
0 1448 1101 0 0 -1448 5305 1772 4 MP
PP
-1101 0 0 1448 1101 0 0 -1448 5305 1772 5 MP stroke
4 w
DO

6 wSO
0 sg
5305  324 mt 6406  324 L
5305 1772 mt 6406 1772 L
6406 1772 mt 6406  324 L
5305 1772 mt 5305  324 L
5305 1772 mt 6406 1772 L
5305 1772 mt 5305  324 L
5305 1772 mt 5305 1757 L
5305  324 mt 5305  338 L
5272 1917 mt 
(0) s
6406 1772 mt 6406 1757 L
6406  324 mt 6406  338 L
6340 1917 mt 
(50) s
5305 1772 mt 5319 1772 L
6406 1772 mt 6391 1772 L
5204 1816 mt 
(0) s
5305 1410 mt 5319 1410 L
6406 1410 mt 6391 1410 L
5104 1454 mt 
(0.2) s
5305 1048 mt 5319 1048 L
6406 1048 mt 6391 1048 L
5104 1092 mt 
(0.4) s
5305  685 mt 5319  685 L
6406  685 mt 6391  685 L
5104  729 mt 
(0.6) s
5305  324 mt 5319  324 L
6406  324 mt 6391  324 L
5104  368 mt 
(0.8) s
5305  324 mt 6406  324 L
5305 1772 mt 6406 1772 L
6406 1772 mt 6406  324 L
5305 1772 mt 5305  324 L
gs 5305 324 1102 1449 rc
DA
c8
23 1 22 1 22 1 22 0 22 1 22 1 22 1 22 1 
22 1 22 1 22 1 22 1 22 1 22 1 22 1 22 2 
22 1 22 1 22 1 22 1 22 2 22 1 22 2 22 1 
22 1 22 2 22 1 22 2 22 2 22 1 22 2 22 2 
22 2 22 1 22 2 22 2 22 2 22 2 22 2 22 3 
22 2 22 2 22 3 22 3 22 4 22 5 22 8 22 14 
22 -127 5327 1772 50 MP stroke
SO
c9
23 11 22 11 22 11 22 12 22 11 22 11 22 12 22 11 
22 12 22 11 22 12 22 11 22 12 22 12 22 11 22 12 
22 12 22 12 22 11 22 12 22 12 22 12 22 12 22 12 
22 11 22 12 22 12 22 12 22 12 22 12 22 11 22 12 
22 12 22 11 22 11 22 10 22 10 22 7 22 5 22 1 
22 -5 22 -17 22 -33 22 -57 22 -94 22 -141 22 -199 22 -246 
22 -229 5327 1772 50 MP stroke
gr

c9
0 sg
5815  229 mt 
(P) s
1 sg
0 1449 1101 0 0 -1449 922 3791 4 MP
PP
-1101 0 0 1449 1101 0 0 -1449 922 3791 5 MP stroke
4 w
DO

6 wSO
0 sg
 922 2342 mt 2023 2342 L
 922 3791 mt 2023 3791 L
2023 3791 mt 2023 2342 L
 922 3791 mt  922 2342 L
 922 3791 mt 2023 3791 L
 922 3791 mt  922 2342 L
 922 3791 mt  922 3776 L
 922 2342 mt  922 2356 L
 889 3936 mt 
(0) s
2023 3791 mt 2023 3776 L
2023 2342 mt 2023 2356 L
1957 3936 mt 
(50) s
 922 3791 mt  936 3791 L
2023 3791 mt 2008 3791 L
 751 3835 mt 
(-1) s
 922 3428 mt  936 3428 L
2023 3428 mt 2008 3428 L
 651 3472 mt 
(-0.5) s
 922 3066 mt  936 3066 L
2023 3066 mt 2008 3066 L
 821 3110 mt 
(0) s
 922 2704 mt  936 2704 L
2023 2704 mt 2008 2704 L
 721 2748 mt 
(0.5) s
 922 2342 mt  936 2342 L
2023 2342 mt 2008 2342 L
 821 2386 mt 
(1) s
 922 2342 mt 2023 2342 L
 922 3791 mt 2023 3791 L
2023 3791 mt 2023 2342 L
 922 3791 mt  922 2342 L
gs 922 2342 1102 1450 rc
DA
c8
23 0 22 0 22 0 22 0 22 0 22 0 22 0 22 0 
22 0 22 0 22 0 22 0 22 0 22 0 22 0 22 0 
22 0 22 0 22 0 22 0 22 0 22 0 22 0 22 0 
22 0 22 0 22 0 22 0 22 0 22 0 22 0 22 0 
22 0 22 0 22 0 22 0 22 0 22 0 22 0 22 0 
22 0 22 0 22 0 22 0 22 0 22 0 22 0 22 0 
22 0 944 3066 50 MP stroke
SO
c9
23 0 22 0 22 0 22 0 22 0 22 0 22 0 22 0 
22 0 22 0 22 0 22 0 22 0 22 0 22 0 22 0 
22 0 22 0 22 0 22 0 22 0 22 0 22 0 22 0 
22 0 22 0 22 0 22 0 22 0 22 0 22 0 22 0 
22 0 22 0 22 0 22 0 22 0 22 0 22 0 22 0 
22 0 22 0 22 0 22 0 22 0 22 0 22 0 22 0 
22 0 944 3066 50 MP stroke
gr

c9
0 sg
1432 2247 mt 
(A) s
1 sg
0 1449 1101 0 0 -1449 2383 3791 4 MP
PP
-1101 0 0 1449 1101 0 0 -1449 2383 3791 5 MP stroke
4 w
DO

6 wSO
0 sg
2383 2342 mt 3484 2342 L
2383 3791 mt 3484 3791 L
3484 3791 mt 3484 2342 L
2383 3791 mt 2383 2342 L
2383 3791 mt 3484 3791 L
2383 3791 mt 2383 2342 L
2383 3791 mt 2383 3776 L
2383 2342 mt 2383 2356 L
2350 3936 mt 
(0) s
3484 3791 mt 3484 3776 L
3484 2342 mt 3484 2356 L
3418 3936 mt 
(50) s
2383 3791 mt 2397 3791 L
3484 3791 mt 3469 3791 L
2282 3835 mt 
(0) s
2383 3428 mt 2397 3428 L
3484 3428 mt 3469 3428 L
2182 3472 mt 
(0.1) s
2383 3066 mt 2397 3066 L
3484 3066 mt 3469 3066 L
2182 3110 mt 
(0.2) s
2383 2704 mt 2397 2704 L
3484 2704 mt 3469 2704 L
2182 2748 mt 
(0.3) s
2383 2342 mt 2397 2342 L
3484 2342 mt 3469 2342 L
2182 2386 mt 
(0.4) s
2383 2342 mt 3484 2342 L
2383 3791 mt 3484 3791 L
3484 3791 mt 3484 2342 L
2383 3791 mt 2383 2342 L
gs 2383 2342 1102 1450 rc
DA
c8
23 3 22 3 22 4 22 3 22 3 22 3 22 4 22 4 
22 3 22 4 22 4 22 4 22 4 22 4 22 4 22 5 
22 4 22 5 22 5 22 5 22 5 22 5 22 5 22 5 
22 6 22 6 22 5 22 6 22 6 22 7 22 6 22 7 
22 7 22 7 22 7 22 7 22 7 22 8 22 8 22 7 
22 7 22 7 22 4 22 0 22 -9 22 -27 22 -64 22 -238 
22 -1 2405 3791 50 MP stroke
SO
c9
23 11 22 11 22 12 22 11 22 11 22 12 22 11 22 12 
22 11 22 12 22 11 22 12 22 11 22 12 22 11 22 12 
22 11 22 12 22 12 22 11 22 12 22 11 22 12 22 11 
22 12 22 11 22 11 22 12 22 11 22 11 22 11 22 12 
22 10 22 11 22 10 22 9 22 8 22 5 22 2 22 -4 
22 -13 22 -27 22 -50 22 -84 22 -132 22 -196 22 -273 22 -334 
22 0 2405 3791 50 MP stroke
gr

c9
0 sg
2893 2247 mt 
(Y) s
1 sg
0 1449 1101 0 0 -1449 3844 3791 4 MP
PP
-1101 0 0 1449 1101 0 0 -1449 3844 3791 5 MP stroke
4 w
DO

6 wSO
0 sg
3844 2342 mt 4945 2342 L
3844 3791 mt 4945 3791 L
4945 3791 mt 4945 2342 L
3844 3791 mt 3844 2342 L
3844 3791 mt 4945 3791 L
3844 3791 mt 3844 2342 L
3844 3791 mt 3844 3776 L
3844 2342 mt 3844 2356 L
3811 3936 mt 
(0) s
4945 3791 mt 4945 3776 L
4945 2342 mt 4945 2356 L
4879 3936 mt 
(50) s
3844 3791 mt 3858 3791 L
4945 3791 mt 4930 3791 L
3743 3835 mt 
(0) s
3844 3428 mt 3858 3428 L
4945 3428 mt 4930 3428 L
3643 3472 mt 
(0.1) s
3844 3066 mt 3858 3066 L
4945 3066 mt 4930 3066 L
3643 3110 mt 
(0.2) s
3844 2704 mt 3858 2704 L
4945 2704 mt 4930 2704 L
3643 2748 mt 
(0.3) s
3844 2342 mt 3858 2342 L
4945 2342 mt 4930 2342 L
3643 2386 mt 
(0.4) s
3844 2342 mt 4945 2342 L
3844 3791 mt 4945 3791 L
4945 3791 mt 4945 2342 L
3844 3791 mt 3844 2342 L
gs 3844 2342 1102 1450 rc
DA
c8
23 3 22 3 22 2 22 3 22 3 22 3 22 3 22 3 
22 4 22 3 22 3 22 4 22 3 22 4 22 4 22 4 
22 4 22 4 22 4 22 4 22 5 22 4 22 5 22 5 
22 4 22 5 22 6 22 5 22 5 22 6 22 5 22 6 
22 6 22 6 22 7 22 6 22 7 22 6 22 7 22 7 
22 6 22 5 22 4 22 0 22 -8 22 -24 22 -56 22 -209 
22 -1 3866 3791 50 MP stroke
SO
c9
23 10 22 10 22 10 22 10 22 10 22 10 22 10 22 10 
22 11 22 10 22 10 22 10 22 10 22 10 22 10 22 11 
22 10 22 10 22 10 22 10 22 10 22 10 22 11 22 10 
22 10 22 10 22 10 22 10 22 10 22 10 22 9 22 10 
22 10 22 9 22 9 22 8 22 6 22 5 22 2 22 -3 
22 -12 22 -24 22 -44 22 -73 22 -116 22 -173 22 -240 22 -294 
22 0 3866 3791 50 MP stroke
gr

c9
0 sg
4361 2247 mt 
(L) s
1 sg
0 1449 1101 0 0 -1449 5305 3791 4 MP
PP
-1101 0 0 1449 1101 0 0 -1449 5305 3791 5 MP stroke
4 w
DO

6 wSO
0 sg
5305 2342 mt 6406 2342 L
5305 3791 mt 6406 3791 L
6406 3791 mt 6406 2342 L
5305 3791 mt 5305 2342 L
5305 3791 mt 6406 3791 L
5305 3791 mt 5305 2342 L
5305 3791 mt 5305 3776 L
5305 2342 mt 5305 2356 L
5272 3936 mt 
(0) s
6406 3791 mt 6406 3776 L
6406 2342 mt 6406 2356 L
6340 3936 mt 
(50) s
5305 3791 mt 5319 3791 L
6406 3791 mt 6391 3791 L
5204 3835 mt 
(0) s
5305 3428 mt 5319 3428 L
6406 3428 mt 6391 3428 L
5204 3472 mt 
(1) s
5305 3066 mt 5319 3066 L
6406 3066 mt 6391 3066 L
5204 3110 mt 
(2) s
5305 2704 mt 5319 2704 L
6406 2704 mt 6391 2704 L
5204 2748 mt 
(3) s
5305 2342 mt 5319 2342 L
6406 2342 mt 6391 2342 L
5204 2386 mt 
(4) s
5305 2342 mt 6406 2342 L
5305 3791 mt 6406 3791 L
6406 3791 mt 6406 2342 L
5305 3791 mt 5305 2342 L
gs 5305 2342 1102 1450 rc
DA
c8
23 0 22 0 22 0 22 0 22 0 22 0 22 0 22 0 
22 0 22 0 22 0 22 0 22 0 22 0 22 0 22 1 
22 0 22 0 22 0 22 0 22 0 22 0 22 0 22 0 
22 0 22 0 22 1 22 0 22 0 22 0 22 0 22 0 
22 0 22 0 22 1 22 0 22 0 22 0 22 1 22 1 
22 3 22 4 22 9 22 18 22 36 22 72 22 143 22 699 
22 -992 5327 3791 50 MP stroke
SO
c9
23 2 22 1 22 1 22 1 22 2 22 1 22 1 22 2 
22 1 22 1 22 2 22 1 22 1 22 2 22 1 22 2 
22 1 22 1 22 2 22 1 22 2 22 1 22 2 22 1 
22 2 22 1 22 2 22 1 22 2 22 1 22 2 22 2 
22 2 22 3 22 3 22 5 22 7 22 9 22 15 22 24 
22 37 22 56 22 87 22 130 22 185 22 246 22 282 22 210 
22 -1385 5327 3791 50 MP stroke
gr

c9
0 sg
5838 2247 mt 
(I) s
1 sg
0 378 935 0 0 -378 1006 1720 4 MP
PP
-935 0 0 378 935 0 0 -378 1006 1720 5 MP stroke
4 w
DO

6 wSO
0 sg
1006 1342 mt 1941 1342 L
1006 1720 mt 1941 1720 L
1941 1720 mt 1941 1342 L
1006 1720 mt 1006 1342 L
1006 1720 mt 1941 1720 L
1006 1720 mt 1006 1342 L
1006 1342 mt 1941 1342 L
1006 1720 mt 1941 1720 L
1941 1720 mt 1941 1342 L
1006 1720 mt 1006 1342 L
1479 1489 mt 
(RE) s
gs 1006 1342 936 379 rc
DA
c8
363 0 1078 1447 2 MP stroke
SO
gr

c8
0 sg
1479 1658 mt 
(learning) s
gs 1006 1342 936 379 rc
c9
363 0 1078 1615 2 MP stroke
gr

c9

end %%Color Dict

eplot
%%EndObject

epage
end

showpage

%%Trailer
%%EOF
