%!PS-Adobe-3.0 EPSF-3.0
%%Creator: MATLAB, The MathWorks, Inc. Version 7.14.0.739 (R2012a). Operating System: Darwin 13.3.0 Darwin Kernel Version 13.3.0: Tue Jun  3 21:27:35 PDT 2014; root:xnu-2422.110.17~1/RELEASE_X86_64 x86_64.
%%Title: /Users/fckw/Dropbox/PhD/jmp/paper/irf2.eps
%%CreationDate: 09/20/2014  00:47:46
%%DocumentNeededFonts: Helvetica
%%DocumentProcessColors: Cyan Magenta Yellow Black
%%LanguageLevel: 2
%%Pages: 1
%%BoundingBox:    -1    -1   598   397
%%EndComments

%%BeginProlog
% MathWorks dictionary
/MathWorks 160 dict begin
% definition operators
/bdef {bind def} bind def
/ldef {load def} bind def
/xdef {exch def} bdef
/xstore {exch store} bdef
% operator abbreviations
/c  /clip ldef
/cc /concat ldef
/cp /closepath ldef
/gr /grestore ldef
/gs /gsave ldef
/mt /moveto ldef
/np /newpath ldef
/cm /currentmatrix ldef
/sm /setmatrix ldef
/rm /rmoveto ldef
/rl /rlineto ldef
/s {show newpath} bdef
/sc {setcmykcolor} bdef
/sr /setrgbcolor ldef
/sg /setgray ldef
/w /setlinewidth ldef
/j /setlinejoin ldef
/cap /setlinecap ldef
/rc {rectclip} bdef
/rf {rectfill} bdef
% page state control
/pgsv () def
/bpage {/pgsv save def} bdef
/epage {pgsv restore} bdef
/bplot /gsave ldef
/eplot {stroke grestore} bdef
% orientation switch
/portraitMode 0 def /landscapeMode 1 def /rotateMode 2 def
% coordinate system mappings
/dpi2point 0 def
% font control
/FontSize 0 def
/FMS {/FontSize xstore findfont [FontSize 0 0 FontSize neg 0 0]
  makefont setfont} bdef
/reencode {exch dup where {pop load} {pop StandardEncoding} ifelse
  exch dup 3 1 roll findfont dup length dict begin
  { 1 index /FID ne {def}{pop pop} ifelse } forall
  /Encoding exch def currentdict end definefont pop} bdef
/isroman {findfont /CharStrings get /Agrave known} bdef
/FMSR {3 1 roll 1 index dup isroman {reencode} {pop pop} ifelse
  exch FMS} bdef
/csm {1 dpi2point div -1 dpi2point div scale neg translate
 dup landscapeMode eq {pop -90 rotate}
  {rotateMode eq {90 rotate} if} ifelse} bdef
% line types: solid, dotted, dashed, dotdash
/dom { dpi2point 1 currentlinewidth 0.08 mul add mul mul } bdef/dam { dpi2point 2 currentlinewidth 0.04 mul add mul mul } bdef/SO { [] 0 setdash 0 setlinecap } bdef/DO { [1 dom 1.2 dom] 0 setdash 0 setlinecap } bdef/DA { [4 dam 1.5 dam] 0 setdash 0 setlinecap } bdef/DD { [1 dom 1.2 dom 4 dam 1.2 dom] 0 setdash 0 setlinecap } bdef/GR { [0 dpi2point mul 4 dpi2point mul] 0 setdash 1 setlinecap } bdef% macros for lines and objects
/L {lineto stroke} bdef
/MP {3 1 roll moveto 1 sub {rlineto} repeat} bdef
/AP {{rlineto} repeat} bdef
/PDlw -1 def
/W {/PDlw currentlinewidth def setlinewidth} def
/PP {closepath eofill} bdef
/DP {closepath stroke} bdef
/MR {4 -2 roll moveto dup  0 exch rlineto exch 0 rlineto
  neg 0 exch rlineto closepath} bdef
/FR {MR stroke} bdef
/PR {MR fill} bdef
/L1i {{currentfile picstr readhexstring pop} image} bdef
/tMatrix matrix def
/MakeOval {newpath tMatrix currentmatrix pop translate scale
0 0 1 0 360 arc tMatrix setmatrix} bdef
/FO {MakeOval stroke} bdef
/PO {MakeOval fill} bdef
/PD {currentlinewidth 2 div 0 360 arc fill
   PDlw -1 eq not {PDlw w /PDlw -1 def} if} def
/FA {newpath tMatrix currentmatrix pop translate scale
  0 0 1 5 -2 roll arc tMatrix setmatrix stroke} bdef
/PA {newpath tMatrix currentmatrix pop	translate 0 0 moveto scale
  0 0 1 5 -2 roll arc closepath tMatrix setmatrix fill} bdef
/FAn {newpath tMatrix currentmatrix pop translate scale
  0 0 1 5 -2 roll arcn tMatrix setmatrix stroke} bdef
/PAn {newpath tMatrix currentmatrix pop translate 0 0 moveto scale
  0 0 1 5 -2 roll arcn closepath tMatrix setmatrix fill} bdef
/vradius 0 def /hradius 0 def /lry 0 def
/lrx 0 def /uly 0 def /ulx 0 def /rad 0 def
/MRR {/vradius xdef /hradius xdef /lry xdef /lrx xdef /uly xdef
  /ulx xdef newpath tMatrix currentmatrix pop ulx hradius add uly
  vradius add translate hradius vradius scale 0 0 1 180 270 arc 
  tMatrix setmatrix lrx hradius sub uly vradius add translate
  hradius vradius scale 0 0 1 270 360 arc tMatrix setmatrix
  lrx hradius sub lry vradius sub translate hradius vradius scale
  0 0 1 0 90 arc tMatrix setmatrix ulx hradius add lry vradius sub
  translate hradius vradius scale 0 0 1 90 180 arc tMatrix setmatrix
  closepath} bdef
/FRR {MRR stroke } bdef
/PRR {MRR fill } bdef
/MlrRR {/lry xdef /lrx xdef /uly xdef /ulx xdef /rad lry uly sub 2 div def
  newpath tMatrix currentmatrix pop ulx rad add uly rad add translate
  rad rad scale 0 0 1 90 270 arc tMatrix setmatrix lrx rad sub lry rad
  sub translate rad rad scale 0 0 1 270 90 arc tMatrix setmatrix
  closepath} bdef
/FlrRR {MlrRR stroke } bdef
/PlrRR {MlrRR fill } bdef
/MtbRR {/lry xdef /lrx xdef /uly xdef /ulx xdef /rad lrx ulx sub 2 div def
  newpath tMatrix currentmatrix pop ulx rad add uly rad add translate
  rad rad scale 0 0 1 180 360 arc tMatrix setmatrix lrx rad sub lry rad
  sub translate rad rad scale 0 0 1 0 180 arc tMatrix setmatrix
  closepath} bdef
/FtbRR {MtbRR stroke } bdef
/PtbRR {MtbRR fill } bdef
/stri 6 array def /dtri 6 array def
/smat 6 array def /dmat 6 array def
/tmat1 6 array def /tmat2 6 array def /dif 3 array def
/asub {/ind2 exch def /ind1 exch def dup dup
  ind1 get exch ind2 get sub exch } bdef
/tri_to_matrix {
  2 0 asub 3 1 asub 4 0 asub 5 1 asub
  dup 0 get exch 1 get 7 -1 roll astore } bdef
/compute_transform {
  dmat dtri tri_to_matrix tmat1 invertmatrix 
  smat stri tri_to_matrix tmat2 concatmatrix } bdef
/ds {stri astore pop} bdef
/dt {dtri astore pop} bdef
/db {2 copy /cols xdef /rows xdef mul dup 3 mul string
  currentfile 
  3 index 0 eq {/ASCIIHexDecode filter}
  {/ASCII85Decode filter 3 index 2 eq {/RunLengthDecode filter} if }
  ifelse exch readstring pop
  dup 0 3 index getinterval /rbmap xdef
  dup 2 index dup getinterval /gbmap xdef
  1 index dup 2 mul exch getinterval /bbmap xdef pop pop}bdef
/it {gs np dtri aload pop moveto lineto lineto cp c
  cols rows 8 compute_transform 
  rbmap gbmap bbmap true 3 colorimage gr}bdef
/il {newpath moveto lineto stroke}bdef
currentdict end def
%%EndProlog

%%BeginSetup
MathWorks begin

0 cap

end
%%EndSetup

%%Page: 1 1
%%BeginPageSetup
%%PageBoundingBox:    -1    -1   598   397
MathWorks begin
bpage
%%EndPageSetup

%%BeginObject: obj1
bplot

/dpi2point 12 def
portraitMode -0012 4764 csm

    0     0  7188  4777 rc
86 dict begin %Colortable dictionary
/c0 { 0.000000 0.000000 0.000000 sr} bdef
/c1 { 1.000000 1.000000 1.000000 sr} bdef
/c2 { 0.900000 0.000000 0.000000 sr} bdef
/c3 { 0.000000 0.820000 0.000000 sr} bdef
/c4 { 0.000000 0.000000 0.800000 sr} bdef
/c5 { 0.910000 0.820000 0.320000 sr} bdef
/c6 { 1.000000 0.260000 0.820000 sr} bdef
/c7 { 0.000000 0.820000 0.820000 sr} bdef
c0
1 j
1 sg
   0    0 7189 4778 rf
6 w
0 1843 1358 0 0 -1843 373 2062 4 MP
PP
-1358 0 0 1843 1358 0 0 -1843 373 2062 5 MP stroke
4 w
DO
6 w
SO
0 sg
 373 2062 mt 1731 2062 L
 373 2062 mt  373  219 L
 686 2062 mt  686 2043 L
%%IncludeResource: font Helvetica
/Helvetica /ISOLatin1Encoding 120 FMSR

 620 2207 mt 
(10) s
1034 2062 mt 1034 2043 L
 968 2207 mt 
(20) s
1382 2062 mt 1382 2043 L
1316 2207 mt 
(30) s
1731 2062 mt 1731 2043 L
1665 2207 mt 
(40) s
 373 1930 mt  391 1930 L
 202 1974 mt 
(-5) s
 373 1441 mt  391 1441 L
 272 1485 mt 
(0) s
 373  952 mt  391  952 L
 272  996 mt 
(5) s
 373  463 mt  391  463 L
 205  507 mt 
(10) s
 373  165 mt 
(x 10) s
%%IncludeResource: font Helvetica
/Helvetica /ISOLatin1Encoding 80 FMSR

 599   91 mt 
(-3) s
gs 373 219 1359 1844 rc
14.4 w
35 0 35 0 35 0 35 0 35 0 34 0 35 0 35 0 
35 0 35 0 35 0 34 0 35 0 35 0 35 0 35 0 
34 0 35 0 35 0 35 0 35 0 35 0 34 0 35 0 
35 0 35 0 35 0 34 0 35 0 35 0 35 0 35 0 
35 0 34 0 35 0 35 0 35 0 35 0 34 0 373 1441 40 MP stroke
24 w
DA
/c8 { 0.000000 1.000000 0.000000 sr} bdef
c8
35 0 35 0 35 0 35 1 35 0 34 0 35 1 35 0 
35 1 35 0 35 0 34 1 35 0 35 1 35 0 35 1 
34 1 35 0 35 1 35 1 35 0 35 1 34 1 35 1 
35 0 35 1 35 1 34 1 35 1 35 1 35 2 35 1 
35 1 34 1 35 2 35 1 35 2 35 1 34 -34 373 1441 40 MP stroke
SO
/c9 { 1.000000 0.000000 0.000000 sr} bdef
c9
35 -21 35 -23 35 -22 35 -23 35 -23 34 -21 35 -20 35 -17 
35 -13 35 -9 35 -3 34 2 35 10 35 18 35 26 35 36 
34 45 35 55 35 64 35 74 35 82 35 90 34 96 35 100 
35 102 35 101 35 97 34 90 35 78 35 62 35 42 35 18 
35 -12 34 -46 35 -84 35 -127 35 -174 35 -228 34 -307 373 1441 40 MP stroke
6 w
0 sg
35 0 35 0 35 0 35 0 35 0 34 0 35 0 35 0 
35 0 35 0 35 0 34 0 35 0 35 0 35 0 35 0 
34 0 35 0 35 0 35 0 35 0 35 0 34 0 35 0 
35 0 35 0 35 0 34 0 35 0 35 0 35 0 35 0 
35 0 34 0 35 0 35 0 35 0 35 0 34 0 373 1441 40 MP stroke
gr

%%IncludeResource: font Helvetica
/Helvetica /ISOLatin1Encoding 120 FMSR

1011  124 mt 
(V) s
1 sg
0 1843 1358 0 0 -1843 2160 2062 4 MP
PP
-1358 0 0 1843 1358 0 0 -1843 2160 2062 5 MP stroke
4 w
DO
6 w
SO
0 sg
2160 2062 mt 3518 2062 L
2160 2062 mt 2160  219 L
2473 2062 mt 2473 2043 L
2407 2207 mt 
(10) s
2821 2062 mt 2821 2043 L
2755 2207 mt 
(20) s
3169 2062 mt 3169 2043 L
3103 2207 mt 
(30) s
3518 2062 mt 3518 2043 L
3452 2207 mt 
(40) s
2160 2000 mt 2178 2000 L
2059 2044 mt 
(0) s
2160 1711 mt 2178 1711 L
2059 1755 mt 
(2) s
2160 1423 mt 2178 1423 L
2059 1467 mt 
(4) s
2160 1134 mt 2178 1134 L
2059 1178 mt 
(6) s
2160  845 mt 2178  845 L
2059  889 mt 
(8) s
2160  556 mt 2178  556 L
1992  600 mt 
(10) s
2160  267 mt 2178  267 L
1992  311 mt 
(12) s
2160  165 mt 
(x 10) s
%%IncludeResource: font Helvetica
/Helvetica /ISOLatin1Encoding 80 FMSR

2386   91 mt 
(-3) s
gs 2160 219 1359 1844 rc
14.4 w
35 0 35 0 35 0 35 0 35 0 34 0 35 0 35 0 
35 0 35 0 35 0 34 0 35 0 35 0 35 0 35 0 
34 0 35 0 35 0 35 0 35 0 35 0 34 0 35 0 
35 0 35 0 35 0 34 0 35 0 35 0 35 0 35 0 
35 0 34 0 35 0 35 0 35 0 35 0 34 0 2160 2000 40 MP stroke
24 w
DA
c8
35 4 35 3 35 4 35 4 35 4 34 5 35 4 35 5 
35 5 35 5 35 6 34 6 35 6 35 6 35 7 35 7 
34 7 35 8 35 8 35 9 35 8 35 10 34 9 35 11 
35 10 35 12 35 11 34 13 35 13 35 13 35 14 35 15 
35 15 34 16 35 18 35 22 35 38 35 584 34 -1016 2160 2000 40 MP stroke
SO
c9
35 -1 35 -3 35 -3 35 -4 35 -6 34 -6 35 -7 35 -8 
35 -9 35 -9 35 -10 34 -9 35 -9 35 -8 35 -7 35 -5 
34 -3 35 0 35 3 35 7 35 11 35 16 34 20 35 27 
35 31 35 38 35 43 34 48 35 53 35 58 35 61 35 63 
35 64 34 65 35 63 35 66 35 89 35 630 34 -1425 2160 2000 40 MP stroke
6 w
0 sg
35 0 35 0 35 0 35 0 35 0 34 0 35 0 35 0 
35 0 35 0 35 0 34 0 35 0 35 0 35 0 35 0 
34 0 35 0 35 0 35 0 35 0 35 0 34 0 35 0 
35 0 35 0 35 0 34 0 35 0 35 0 35 0 35 0 
35 0 34 0 35 0 35 0 35 0 35 0 34 0 2160 2000 40 MP stroke
gr

%%IncludeResource: font Helvetica
/Helvetica /ISOLatin1Encoding 120 FMSR

2795  124 mt 
(D) s
1 sg
0 1844 1358 0 0 -1844 3947 2062 4 MP
PP
-1358 0 0 1844 1358 0 0 -1844 3947 2062 5 MP stroke
4 w
DO
6 w
SO
0 sg
3947 2062 mt 5305 2062 L
3947 2062 mt 3947  218 L
4260 2062 mt 4260 2043 L
4194 2207 mt 
(10) s
4608 2062 mt 4608 2043 L
4542 2207 mt 
(20) s
4956 2062 mt 4956 2043 L
4890 2207 mt 
(30) s
5305 2062 mt 5305 2043 L
5239 2207 mt 
(40) s
3947 2038 mt 3965 2038 L
3776 2082 mt 
(-8) s
3947 1593 mt 3965 1593 L
3776 1637 mt 
(-6) s
3947 1148 mt 3965 1148 L
3776 1192 mt 
(-4) s
3947  703 mt 3965  703 L
3776  747 mt 
(-2) s
3947  258 mt 3965  258 L
3846  302 mt 
(0) s
3947  165 mt 
(x 10) s
%%IncludeResource: font Helvetica
/Helvetica /ISOLatin1Encoding 80 FMSR

4173   91 mt 
(-4) s
gs 3947 219 1359 1844 rc
14.4 w
35 -1 35 -1 35 -2 35 -1 35 -2 34 -2 35 -2 35 -2 
35 -1 35 -3 35 -2 34 -2 35 -2 35 -3 35 -2 35 -3 
34 -3 35 -3 35 -3 35 -3 35 -4 35 -3 34 -4 35 -4 
35 -4 35 -4 35 -5 34 -5 35 -5 35 -5 35 -5 35 -6 
35 -7 34 -9 35 -17 35 -53 35 -196 35 -791 34 1199 3947 258 40 MP stroke
24 w
DA
c8
35 -2 35 -2 35 -3 35 -2 35 -3 34 -3 35 -3 35 -3 
35 -3 35 -3 35 -4 34 -3 35 -4 35 -4 35 -4 35 -5 
34 -4 35 -5 35 -5 35 -5 35 -6 35 -6 34 -6 35 -6 
35 -7 35 -7 35 -8 34 -8 35 -9 35 -9 35 -11 35 -12 
35 -14 34 -17 35 -26 35 -49 35 -133 35 -453 34 902 3947 258 40 MP stroke
SO
c9
35 5 35 5 35 4 35 3 35 3 34 1 35 -1 35 -2 
35 -4 35 -7 35 -9 34 -11 35 -14 35 -17 35 -20 35 -22 
34 -25 35 -27 35 -29 35 -30 35 -31 35 -31 34 -30 35 -28 
35 -26 35 -21 35 -15 34 -9 35 -1 35 8 35 19 35 30 
35 43 34 56 35 66 35 61 35 -19 35 -427 34 541 3947 258 40 MP stroke
6 w
0 sg
35 0 35 0 35 0 35 0 35 0 34 0 35 0 35 0 
35 0 35 0 35 0 34 0 35 0 35 0 35 0 35 0 
34 0 35 0 35 0 35 0 35 0 35 0 34 0 35 0 
35 0 35 0 35 0 34 0 35 0 35 0 35 0 35 0 
35 0 34 0 35 0 35 0 35 0 35 0 34 0 3947 258 40 MP stroke
gr

%%IncludeResource: font Helvetica
/Helvetica /ISOLatin1Encoding 120 FMSR

4612  124 mt 
(i) s
1 sg
0 1843 1358 0 0 -1843 5734 2062 4 MP
PP
-1358 0 0 1843 1358 0 0 -1843 5734 2062 5 MP stroke
4 w
DO
6 w
SO
0 sg
5734 2062 mt 7092 2062 L
5734 2062 mt 5734  219 L
6047 2062 mt 6047 2043 L
5981 2207 mt 
(10) s
6395 2062 mt 6395 2043 L
6329 2207 mt 
(20) s
6743 2062 mt 6743 2043 L
6677 2207 mt 
(30) s
7092 2062 mt 7092 2043 L
7026 2207 mt 
(40) s
5734 2021 mt 5752 2021 L
5563 2065 mt 
(-2) s
5734 1774 mt 5752 1774 L
5633 1818 mt 
(0) s
5734 1527 mt 5752 1527 L
5633 1571 mt 
(2) s
5734 1281 mt 5752 1281 L
5633 1325 mt 
(4) s
5734 1034 mt 5752 1034 L
5633 1078 mt 
(6) s
5734  787 mt 5752  787 L
5633  831 mt 
(8) s
5734  541 mt 5752  541 L
5566  585 mt 
(10) s
5734  294 mt 5752  294 L
5566  338 mt 
(12) s
5734  165 mt 
(x 10) s
%%IncludeResource: font Helvetica
/Helvetica /ISOLatin1Encoding 80 FMSR

5960   91 mt 
(-4) s
gs 5734 219 1359 1844 rc
14.4 w
35 -1 35 0 35 -1 35 0 35 -1 34 0 35 -1 35 -1 
35 0 35 -1 35 -1 34 -1 35 0 35 -1 35 -1 35 -1 
34 -1 35 -1 35 -1 35 -1 35 -2 35 -1 34 -1 35 -2 
35 -1 35 -2 35 -1 34 -2 35 -2 35 -1 35 -2 35 -2 
35 -2 34 0 35 7 35 33 35 147 35 617 34 -758 5734 1774 40 MP stroke
24 w
DA
c8
35 -1 35 0 35 -1 35 -1 35 -1 34 -1 35 -1 35 -1 
35 -1 35 -1 35 -2 34 -1 35 -1 35 -2 35 -1 35 -2 
34 -1 35 -2 35 -2 35 -2 35 -2 35 -2 34 -2 35 -2 
35 -2 35 -3 35 -3 34 -2 35 -3 35 -3 35 -4 35 -3 
35 -4 34 -4 35 0 35 12 35 69 35 977 34 -978 5734 1774 40 MP stroke
SO
c9
35 2 35 2 35 2 35 2 35 1 34 1 35 0 35 0 
35 0 35 -2 35 -2 34 -3 35 -5 35 -5 35 -6 35 -8 
34 -8 35 -9 35 -11 35 -10 35 -12 35 -12 34 -11 35 -12 
35 -11 35 -10 35 -8 34 -6 35 -4 35 -1 35 3 35 6 
35 12 34 17 35 26 35 52 35 144 35 1128 34 -1244 5734 1774 40 MP stroke
6 w
0 sg
35 0 35 0 35 0 35 0 35 0 34 0 35 0 35 0 
35 0 35 0 35 0 34 0 35 0 35 0 35 0 35 0 
34 0 35 0 35 0 35 0 35 0 35 0 34 0 35 0 
35 0 35 0 35 0 34 0 35 0 35 0 35 0 35 0 
35 0 34 0 35 0 35 0 35 0 35 0 34 0 5734 1774 40 MP stroke
gr

%%IncludeResource: font Helvetica
/Helvetica /ISOLatin1Encoding 120 FMSR

6365  124 mt 
(pi) s
1 sg
0 1843 1358 0 0 -1843 373 4621 4 MP
PP
-1358 0 0 1843 1358 0 0 -1843 373 4621 5 MP stroke
4 w
DO
6 w
SO
0 sg
 373 4621 mt 1731 4621 L
 373 4621 mt  373 2778 L
 686 4621 mt  686 4602 L
 620 4766 mt 
(10) s
1034 4621 mt 1034 4602 L
 968 4766 mt 
(20) s
1382 4621 mt 1382 4602 L
1316 4766 mt 
(30) s
1731 4621 mt 1731 4602 L
1665 4766 mt 
(40) s
 373 4443 mt  391 4443 L
 272 4487 mt 
(0) s
 373 4177 mt  391 4177 L
  38 4221 mt 
(0.005) s
 373 3912 mt  391 3912 L
 105 3956 mt 
(0.01) s
 373 3647 mt  391 3647 L
  38 3691 mt 
(0.015) s
 373 3381 mt  391 3381 L
 105 3425 mt 
(0.02) s
 373 3116 mt  391 3116 L
  38 3160 mt 
(0.025) s
 373 2851 mt  391 2851 L
 105 2895 mt 
(0.03) s
gs 373 2778 1359 1844 rc
14.4 w
35 0 35 0 35 1 35 0 35 0 34 0 35 0 35 0 
35 0 35 0 35 0 34 1 35 0 35 0 35 0 35 0 
34 0 35 1 35 0 35 0 35 0 35 1 34 0 35 0 
35 0 35 1 35 0 34 0 35 1 35 0 35 0 35 1 
35 1 34 2 35 6 35 27 35 109 35 450 34 -604 373 4443 40 MP stroke
24 w
DA
c8
35 0 35 1 35 0 35 0 35 1 34 0 35 1 35 0 
35 0 35 1 35 0 34 1 35 1 35 0 35 1 35 0 
34 1 35 1 35 1 35 0 35 1 35 1 34 1 35 1 
35 1 35 1 35 1 34 1 35 2 35 1 35 2 35 2 
35 2 34 4 35 7 35 18 35 59 35 838 34 -960 373 4443 40 MP stroke
SO
c9
35 1 35 0 35 -1 35 -1 35 -2 34 -3 35 -4 35 -4 
35 -6 35 -6 35 -7 34 -8 35 -8 35 -9 35 -9 35 -9 
34 -9 35 -8 35 -7 35 -7 35 -4 35 -3 34 0 35 3 
35 6 35 10 35 13 34 18 35 22 35 26 35 31 35 34 
35 39 34 43 35 48 35 64 35 126 35 938 34 -1332 373 4443 40 MP stroke
6 w
0 sg
35 0 35 0 35 0 35 0 35 0 34 0 35 0 35 0 
35 0 35 0 35 0 34 0 35 0 35 0 35 0 35 0 
34 0 35 0 35 0 35 0 35 0 35 0 34 0 35 0 
35 0 35 0 35 0 34 0 35 0 35 0 35 0 35 0 
35 0 34 0 35 0 35 0 35 0 35 0 34 0 373 4443 40 MP stroke
gr

1011 2683 mt 
(Y) s
1 sg
0 1843 1358 0 0 -1843 2160 4621 4 MP
PP
-1358 0 0 1843 1358 0 0 -1843 2160 4621 5 MP stroke
4 w
DO
6 w
SO
0 sg
2160 4621 mt 3518 4621 L
2160 4621 mt 2160 2778 L
2473 4621 mt 2473 4602 L
2407 4766 mt 
(10) s
2821 4621 mt 2821 4602 L
2755 4766 mt 
(20) s
3169 4621 mt 3169 4602 L
3103 4766 mt 
(30) s
3518 4621 mt 3518 4602 L
3452 4766 mt 
(40) s
2160 4374 mt 2178 4374 L
2059 4418 mt 
(0) s
2160 3814 mt 2178 3814 L
1892 3858 mt 
(0.05) s
2160 3255 mt 2178 3255 L
1959 3299 mt 
(0.1) s
gs 2160 2778 1359 1844 rc
14.4 w
35 0 35 0 35 0 35 0 35 0 34 0 35 0 35 0 
35 0 35 0 35 -1 34 0 35 0 35 0 35 0 35 0 
34 0 35 0 35 -1 35 0 35 0 35 0 34 0 35 0 
35 -1 35 0 35 0 34 0 35 -1 35 0 35 0 35 0 
35 0 34 0 35 4 35 16 35 68 35 280 34 -362 2160 4374 40 MP stroke
24 w
DA
c8
35 0 35 -1 35 0 35 0 35 0 34 0 35 0 35 -1 
35 0 35 0 35 0 34 -1 35 0 35 0 35 0 35 -1 
34 0 35 0 35 -1 35 0 35 0 35 -1 34 0 35 -1 
35 0 35 -1 35 0 34 0 35 -1 35 0 35 -1 35 0 
35 1 34 1 35 4 35 15 35 56 35 840 34 -904 2160 4374 40 MP stroke
SO
c9
35 1 35 1 35 0 35 0 35 -1 34 -2 35 -3 35 -4 
35 -5 35 -6 35 -7 34 -8 35 -9 35 -9 35 -11 35 -11 
34 -11 35 -12 35 -11 35 -10 35 -10 35 -8 34 -6 35 -3 
35 0 35 3 35 7 34 11 35 16 35 22 35 26 35 32 
35 37 34 43 35 51 35 68 35 132 35 952 34 -1277 2160 4374 40 MP stroke
6 w
0 sg
35 0 35 0 35 0 35 0 35 0 34 0 35 0 35 0 
35 0 35 0 35 0 34 0 35 0 35 0 35 0 35 0 
34 0 35 0 35 0 35 0 35 0 35 0 34 0 35 0 
35 0 35 0 35 0 34 0 35 0 35 0 35 0 35 0 
35 0 34 0 35 0 35 0 35 0 35 0 34 0 2160 4374 40 MP stroke
gr

2821 2683 mt 
(I) s
1 sg
0 1844 1358 0 0 -1844 3947 4621 4 MP
PP
-1358 0 0 1844 1358 0 0 -1844 3947 4621 5 MP stroke
4 w
DO
6 w
SO
0 sg
3947 4621 mt 5305 4621 L
3947 4621 mt 3947 2777 L
4260 4621 mt 4260 4602 L
4194 4766 mt 
(10) s
4608 4621 mt 4608 4602 L
4542 4766 mt 
(20) s
4956 4621 mt 4956 4602 L
4890 4766 mt 
(30) s
5305 4621 mt 5305 4602 L
5239 4766 mt 
(40) s
3947 4371 mt 3965 4371 L
3846 4415 mt 
(0) s
3947 3986 mt 3965 3986 L
3846 4030 mt 
(5) s
3947 3601 mt 3965 3601 L
3779 3645 mt 
(10) s
3947 3216 mt 3965 3216 L
3779 3260 mt 
(15) s
3947 2832 mt 3965 2832 L
3779 2876 mt 
(20) s
3947 2724 mt 
(x 10) s
%%IncludeResource: font Helvetica
/Helvetica /ISOLatin1Encoding 80 FMSR

4173 2650 mt 
(-4) s
gs 3947 2778 1359 1844 rc
14.4 w
35 4 35 5 35 4 35 5 35 5 34 5 35 5 35 6 
35 6 35 6 35 7 34 6 35 7 35 8 35 8 35 8 
34 8 35 9 35 10 35 10 35 10 35 11 34 11 35 12 
35 12 35 13 35 14 34 14 35 15 35 16 35 16 35 17 
35 19 34 20 35 27 35 48 35 138 35 503 34 -1134 3947 4371 40 MP stroke
24 w
DA
c8
35 6 35 7 35 7 35 7 35 8 34 8 35 9 35 9 
35 9 35 10 35 10 34 11 35 11 35 12 35 12 35 14 
34 13 35 15 35 15 35 15 35 17 35 17 34 18 35 19 
35 20 35 21 35 23 34 23 35 24 35 26 35 28 35 30 
35 32 34 36 35 42 35 60 35 113 35 312 34 -1203 3947 4371 40 MP stroke
SO
c9
35 -16 35 -17 35 -18 35 -18 35 -18 34 -16 35 -15 35 -12 
35 -10 35 -5 35 0 34 6 35 13 35 20 35 28 35 37 
34 47 35 56 35 66 35 75 35 83 35 92 34 98 35 103 
35 106 35 106 35 103 34 98 35 88 35 75 35 57 35 35 
35 8 34 -23 35 -56 35 -83 35 -71 35 137 34 -1179 3947 4371 40 MP stroke
6 w
0 sg
35 0 35 0 35 0 35 0 35 0 34 0 35 0 35 0 
35 0 35 0 35 0 34 0 35 0 35 0 35 0 35 0 
34 0 35 0 35 0 35 0 35 0 35 0 34 0 35 0 
35 0 35 0 35 0 34 0 35 0 35 0 35 0 35 0 
35 0 34 0 35 0 35 0 35 0 35 0 34 0 3947 4371 40 MP stroke
gr

%%IncludeResource: font Helvetica
/Helvetica /ISOLatin1Encoding 120 FMSR

4582 2683 mt 
(C) s
1 sg
0 1843 1358 0 0 -1843 5734 4621 4 MP
PP
-1358 0 0 1843 1358 0 0 -1843 5734 4621 5 MP stroke
4 w
DO
6 w
SO
0 sg
5734 4621 mt 7092 4621 L
5734 4621 mt 5734 2778 L
6047 4621 mt 6047 4602 L
5981 4766 mt 
(10) s
6395 4621 mt 6395 4602 L
6329 4766 mt 
(20) s
6743 4621 mt 6743 4602 L
6677 4766 mt 
(30) s
7092 4621 mt 7092 4602 L
7026 4766 mt 
(40) s
5734 4382 mt 5752 4382 L
5633 4426 mt 
(0) s
5734 4040 mt 5752 4040 L
5466 4084 mt 
(0.01) s
5734 3697 mt 5752 3697 L
5466 3741 mt 
(0.02) s
5734 3354 mt 5752 3354 L
5466 3398 mt 
(0.03) s
5734 3012 mt 5752 3012 L
5466 3056 mt 
(0.04) s
gs 5734 2778 1359 1844 rc
14.4 w
35 0 35 -1 35 0 35 0 35 0 34 0 35 0 35 0 
35 0 35 -1 35 0 34 0 35 0 35 0 35 0 35 -1 
34 0 35 0 35 0 35 0 35 -1 35 0 34 0 35 0 
35 -1 35 0 35 0 34 -1 35 0 35 0 35 -1 35 0 
35 0 34 1 35 6 35 26 35 108 35 449 34 -581 5734 4382 40 MP stroke
24 w
DA
c8
35 0 35 0 35 0 35 0 35 0 34 0 35 -1 35 0 
35 0 35 0 35 0 34 0 35 0 35 0 35 -1 35 0 
34 0 35 0 35 0 35 0 35 -1 35 0 34 0 35 0 
35 0 35 -1 35 0 34 0 35 0 35 0 35 0 35 0 
35 1 34 2 35 5 35 16 35 60 35 847 34 -925 5734 4382 40 MP stroke
SO
c9
35 1 35 1 35 1 35 0 35 -1 34 -2 35 -3 35 -3 
35 -5 35 -5 35 -7 34 -8 35 -9 35 -9 35 -10 35 -11 
34 -12 35 -11 35 -11 35 -10 35 -10 35 -8 34 -6 35 -4 
35 0 35 2 35 7 34 10 35 16 35 20 35 26 35 31 
35 36 34 42 35 50 35 68 35 134 35 961 34 -1284 5734 4382 40 MP stroke
6 w
0 sg
35 0 35 0 35 0 35 0 35 0 34 0 35 0 35 0 
35 0 35 0 35 0 34 0 35 0 35 0 35 0 35 0 
34 0 35 0 35 0 35 0 35 0 35 0 34 0 35 0 
35 0 35 0 35 0 34 0 35 0 35 0 35 0 35 0 
35 0 34 0 35 0 35 0 35 0 35 0 34 0 5734 4382 40 MP stroke
gr

6379 2683 mt 
(L) s
5717 4664 mt 
( ) s
7076 2820 mt 
( ) s
1 sg
0 563 1116 0 0 -563 5936 3408 4 MP
PP
-1116 0 0 563 1116 0 0 -563 5936 3408 5 MP stroke
4 w
DO
6 w
SO
0 sg
5936 3408 mt 7052 3408 L
5936 2845 mt 7052 2845 L
5936 3408 mt 5936 2845 L
7052 3408 mt 7052 2845 L
5936 3408 mt 7052 3408 L
5936 3408 mt 5936 2845 L
5936 3408 mt 7052 3408 L
5936 2845 mt 7052 2845 L
5936 3408 mt 5936 2845 L
7052 3408 mt 7052 2845 L
6405 2995 mt 
(frictionless) s
gs 5936 2845 1117 564 rc
14.4 w
360 0 6008 2952 2 MP stroke
gr

14.4 w
6405 3169 mt 
(RE) s
gs 5936 2845 1117 564 rc
24 w
DA
c8
360 0 6008 3126 2 MP stroke
gr

24 w
SO
c8
0 sg
6405 3343 mt 
(learning) s
gs 5936 2845 1117 564 rc
c9
360 0 6008 3300 2 MP stroke
6 w
gr

6 w
c9

end %%Color Dict

eplot
%%EndObject

epage
end

showpage

%%Trailer
%%EOF
