%!PS-Adobe-3.0 EPSF-3.0
%%Creator: MATLAB, The MathWorks, Inc. Version 7.14.0.739 (R2012a). Operating System: Darwin 12.4.0 Darwin Kernel Version 12.4.0: Wed May  1 17:57:12 PDT 2013; root:xnu-2050.24.15~1/RELEASE_X86_64 x86_64.
%%Title: /Users/fckw/Dropbox/PhD/finfric/paper/irf3.eps
%%CreationDate: 09/26/2013  16:45:01
%%DocumentNeededFonts: Helvetica
%%DocumentProcessColors: Cyan Magenta Yellow Black
%%LanguageLevel: 2
%%Pages: 1
%%BoundingBox:   -67   186   678   606
%%EndComments

%%BeginProlog
% MathWorks dictionary
/MathWorks 160 dict begin
% definition operators
/bdef {bind def} bind def
/ldef {load def} bind def
/xdef {exch def} bdef
/xstore {exch store} bdef
% operator abbreviations
/c  /clip ldef
/cc /concat ldef
/cp /closepath ldef
/gr /grestore ldef
/gs /gsave ldef
/mt /moveto ldef
/np /newpath ldef
/cm /currentmatrix ldef
/sm /setmatrix ldef
/rm /rmoveto ldef
/rl /rlineto ldef
/s {show newpath} bdef
/sc {setcmykcolor} bdef
/sr /setrgbcolor ldef
/sg /setgray ldef
/w /setlinewidth ldef
/j /setlinejoin ldef
/cap /setlinecap ldef
/rc {rectclip} bdef
/rf {rectfill} bdef
% page state control
/pgsv () def
/bpage {/pgsv save def} bdef
/epage {pgsv restore} bdef
/bplot /gsave ldef
/eplot {stroke grestore} bdef
% orientation switch
/portraitMode 0 def /landscapeMode 1 def /rotateMode 2 def
% coordinate system mappings
/dpi2point 0 def
% font control
/FontSize 0 def
/FMS {/FontSize xstore findfont [FontSize 0 0 FontSize neg 0 0]
  makefont setfont} bdef
/reencode {exch dup where {pop load} {pop StandardEncoding} ifelse
  exch dup 3 1 roll findfont dup length dict begin
  { 1 index /FID ne {def}{pop pop} ifelse } forall
  /Encoding exch def currentdict end definefont pop} bdef
/isroman {findfont /CharStrings get /Agrave known} bdef
/FMSR {3 1 roll 1 index dup isroman {reencode} {pop pop} ifelse
  exch FMS} bdef
/csm {1 dpi2point div -1 dpi2point div scale neg translate
 dup landscapeMode eq {pop -90 rotate}
  {rotateMode eq {90 rotate} if} ifelse} bdef
% line types: solid, dotted, dashed, dotdash
/dom { dpi2point 1 currentlinewidth 0.08 mul add mul mul } bdef/dam { dpi2point 2 currentlinewidth 0.04 mul add mul mul } bdef/SO { [] 0 setdash 0 setlinecap } bdef/DO { [1 dom 1.2 dom] 0 setdash 0 setlinecap } bdef/DA { [4 dam 1.5 dam] 0 setdash 0 setlinecap } bdef/DD { [1 dom 1.2 dom 4 dam 1.2 dom] 0 setdash 0 setlinecap } bdef/GR { [0 dpi2point mul 4 dpi2point mul] 0 setdash 1 setlinecap } bdef% macros for lines and objects
/L {lineto stroke} bdef
/MP {3 1 roll moveto 1 sub {rlineto} repeat} bdef
/AP {{rlineto} repeat} bdef
/PDlw -1 def
/W {/PDlw currentlinewidth def setlinewidth} def
/PP {closepath eofill} bdef
/DP {closepath stroke} bdef
/MR {4 -2 roll moveto dup  0 exch rlineto exch 0 rlineto
  neg 0 exch rlineto closepath} bdef
/FR {MR stroke} bdef
/PR {MR fill} bdef
/L1i {{currentfile picstr readhexstring pop} image} bdef
/tMatrix matrix def
/MakeOval {newpath tMatrix currentmatrix pop translate scale
0 0 1 0 360 arc tMatrix setmatrix} bdef
/FO {MakeOval stroke} bdef
/PO {MakeOval fill} bdef
/PD {currentlinewidth 2 div 0 360 arc fill
   PDlw -1 eq not {PDlw w /PDlw -1 def} if} def
/FA {newpath tMatrix currentmatrix pop translate scale
  0 0 1 5 -2 roll arc tMatrix setmatrix stroke} bdef
/PA {newpath tMatrix currentmatrix pop	translate 0 0 moveto scale
  0 0 1 5 -2 roll arc closepath tMatrix setmatrix fill} bdef
/FAn {newpath tMatrix currentmatrix pop translate scale
  0 0 1 5 -2 roll arcn tMatrix setmatrix stroke} bdef
/PAn {newpath tMatrix currentmatrix pop translate 0 0 moveto scale
  0 0 1 5 -2 roll arcn closepath tMatrix setmatrix fill} bdef
/vradius 0 def /hradius 0 def /lry 0 def
/lrx 0 def /uly 0 def /ulx 0 def /rad 0 def
/MRR {/vradius xdef /hradius xdef /lry xdef /lrx xdef /uly xdef
  /ulx xdef newpath tMatrix currentmatrix pop ulx hradius add uly
  vradius add translate hradius vradius scale 0 0 1 180 270 arc 
  tMatrix setmatrix lrx hradius sub uly vradius add translate
  hradius vradius scale 0 0 1 270 360 arc tMatrix setmatrix
  lrx hradius sub lry vradius sub translate hradius vradius scale
  0 0 1 0 90 arc tMatrix setmatrix ulx hradius add lry vradius sub
  translate hradius vradius scale 0 0 1 90 180 arc tMatrix setmatrix
  closepath} bdef
/FRR {MRR stroke } bdef
/PRR {MRR fill } bdef
/MlrRR {/lry xdef /lrx xdef /uly xdef /ulx xdef /rad lry uly sub 2 div def
  newpath tMatrix currentmatrix pop ulx rad add uly rad add translate
  rad rad scale 0 0 1 90 270 arc tMatrix setmatrix lrx rad sub lry rad
  sub translate rad rad scale 0 0 1 270 90 arc tMatrix setmatrix
  closepath} bdef
/FlrRR {MlrRR stroke } bdef
/PlrRR {MlrRR fill } bdef
/MtbRR {/lry xdef /lrx xdef /uly xdef /ulx xdef /rad lrx ulx sub 2 div def
  newpath tMatrix currentmatrix pop ulx rad add uly rad add translate
  rad rad scale 0 0 1 180 360 arc tMatrix setmatrix lrx rad sub lry rad
  sub translate rad rad scale 0 0 1 0 180 arc tMatrix setmatrix
  closepath} bdef
/FtbRR {MtbRR stroke } bdef
/PtbRR {MtbRR fill } bdef
/stri 6 array def /dtri 6 array def
/smat 6 array def /dmat 6 array def
/tmat1 6 array def /tmat2 6 array def /dif 3 array def
/asub {/ind2 exch def /ind1 exch def dup dup
  ind1 get exch ind2 get sub exch } bdef
/tri_to_matrix {
  2 0 asub 3 1 asub 4 0 asub 5 1 asub
  dup 0 get exch 1 get 7 -1 roll astore } bdef
/compute_transform {
  dmat dtri tri_to_matrix tmat1 invertmatrix 
  smat stri tri_to_matrix tmat2 concatmatrix } bdef
/ds {stri astore pop} bdef
/dt {dtri astore pop} bdef
/db {2 copy /cols xdef /rows xdef mul dup 3 mul string
  currentfile 
  3 index 0 eq {/ASCIIHexDecode filter}
  {/ASCII85Decode filter 3 index 2 eq {/RunLengthDecode filter} if }
  ifelse exch readstring pop
  dup 0 3 index getinterval /rbmap xdef
  dup 2 index dup getinterval /gbmap xdef
  1 index dup 2 mul exch getinterval /bbmap xdef pop pop}bdef
/it {gs np dtri aload pop moveto lineto lineto cp c
  cols rows 8 compute_transform 
  rbmap gbmap bbmap true 3 colorimage gr}bdef
/il {newpath moveto lineto stroke}bdef
currentdict end def
%%EndProlog

%%BeginSetup
MathWorks begin

0 cap

end
%%EndSetup

%%Page: 1 1
%%BeginPageSetup
%%PageBoundingBox:   -67   186   678   606
MathWorks begin
bpage
%%EndPageSetup

%%BeginObject: obj1
bplot

/dpi2point 12 def
portraitMode -0804 7272 csm

    0     0  8951  5033 rc
85 dict begin %Colortable dictionary
/c0 { 0.000000 0.000000 0.000000 sr} bdef
/c1 { 1.000000 1.000000 1.000000 sr} bdef
/c2 { 0.900000 0.000000 0.000000 sr} bdef
/c3 { 0.000000 0.820000 0.000000 sr} bdef
/c4 { 0.000000 0.000000 0.800000 sr} bdef
/c5 { 0.910000 0.820000 0.320000 sr} bdef
/c6 { 1.000000 0.260000 0.820000 sr} bdef
/c7 { 0.000000 0.820000 0.820000 sr} bdef
c0
1 j
1 sg
   0    0 8952 5034 rf
6 w
0 1718 1402 0 0 -1718 1164 2095 4 MP
PP
-1402 0 0 1718 1402 0 0 -1718 1164 2095 5 MP stroke
4 w
DO
6 w
SO
0 sg
1164 2095 mt 2566 2095 L
1164  377 mt 2566  377 L
1164 2095 mt 1164  377 L
2566 2095 mt 2566  377 L
1164 2095 mt 2566 2095 L
1164 2095 mt 1164  377 L
1164 2095 mt 1164 2077 L
1164  377 mt 1164  394 L
%%IncludeResource: font Helvetica
/Helvetica /ISOLatin1Encoding 120 FMSR

1131 2240 mt 
(0) s
1724 2095 mt 1724 2077 L
1724  377 mt 1724  394 L
1658 2240 mt 
(20) s
2285 2095 mt 2285 2077 L
2285  377 mt 2285  394 L
2219 2240 mt 
(40) s
1164 2095 mt 1181 2095 L
2566 2095 mt 2548 2095 L
 893 2139 mt 
(-0.2) s
1164 1751 mt 1181 1751 L
2566 1751 mt 2548 1751 L
1063 1795 mt 
(0) s
1164 1407 mt 1181 1407 L
2566 1407 mt 2548 1407 L
 963 1451 mt 
(0.2) s
1164 1064 mt 1181 1064 L
2566 1064 mt 2548 1064 L
 963 1108 mt 
(0.4) s
1164  720 mt 1181  720 L
2566  720 mt 2548  720 L
 963  764 mt 
(0.6) s
1164  377 mt 1181  377 L
2566  377 mt 2548  377 L
 963  421 mt 
(0.8) s
1164 2095 mt 2566 2095 L
1164  377 mt 2566  377 L
1164 2095 mt 1164  377 L
2566 2095 mt 2566  377 L
gs 1164 377 1403 1719 rc
DO
29 0 28 0 28 0 28 0 28 0 28 0 28 0 28 0 
28 0 28 0 28 0 28 0 28 0 28 0 28 0 28 0 
28 0 28 0 28 0 28 0 28 0 28 0 28 0 28 0 
28 0 29 0 28 0 28 0 28 0 28 0 28 0 28 0 
28 0 28 0 28 0 28 0 28 0 28 0 28 0 28 0 
28 1 28 0 28 2 28 2 28 5 28 10 28 20 28 40 
28 -80 1192 1751 50 MP stroke
DA
/c8 { 0.000000 0.000000 1.000000 sr} bdef
c8
29 0 28 0 28 0 28 0 28 0 28 0 28 0 28 0 
28 0 28 0 28 0 28 0 28 0 28 0 28 0 28 0 
28 0 28 0 28 0 28 0 28 0 28 0 28 0 28 0 
28 0 29 0 28 0 28 0 28 0 28 0 28 1 28 0 
28 0 28 0 28 0 28 0 28 0 28 0 28 0 28 0 
28 0 28 0 28 1 28 1 28 1 28 4 28 7 28 13 
28 -28 1192 1751 50 MP stroke
SO
/c9 { 1.000000 0.000000 0.000000 sr} bdef
c9
29 -4 28 -3 28 -3 28 -4 28 -4 28 -4 28 -4 28 -4 
28 -5 28 -4 28 -5 28 -5 28 -5 28 -6 28 -5 28 -6 
28 -6 28 -6 28 -6 28 -6 28 -6 28 -7 28 -6 28 -6 
28 -6 29 -6 28 -5 28 -5 28 -5 28 -3 28 -1 28 1 
28 3 28 7 28 12 28 20 28 28 28 41 28 57 28 78 
28 105 28 138 28 177 28 217 28 246 28 237 28 125 28 -222 
28 -1085 1192 1751 50 MP stroke
gr

c9
0 sg
1824  282 mt 
(V) s
1 sg
0 1718 1402 0 0 -1718 3009 2095 4 MP
PP
-1402 0 0 1718 1402 0 0 -1718 3009 2095 5 MP stroke
4 w
DO
6 w
SO
0 sg
3009 2095 mt 4411 2095 L
3009  377 mt 4411  377 L
3009 2095 mt 3009  377 L
4411 2095 mt 4411  377 L
3009 2095 mt 4411 2095 L
3009 2095 mt 3009  377 L
3009 2095 mt 3009 2077 L
3009  377 mt 3009  394 L
2976 2240 mt 
(0) s
3569 2095 mt 3569 2077 L
3569  377 mt 3569  394 L
3503 2240 mt 
(20) s
4130 2095 mt 4130 2077 L
4130  377 mt 4130  394 L
4064 2240 mt 
(40) s
3009 2095 mt 3026 2095 L
4411 2095 mt 4393 2095 L
2738 2139 mt 
(-0.1) s
3009 1751 mt 3026 1751 L
4411 1751 mt 4393 1751 L
2908 1795 mt 
(0) s
3009 1407 mt 3026 1407 L
4411 1407 mt 4393 1407 L
2808 1451 mt 
(0.1) s
3009 1064 mt 3026 1064 L
4411 1064 mt 4393 1064 L
2808 1108 mt 
(0.2) s
3009  720 mt 3026  720 L
4411  720 mt 4393  720 L
2808  764 mt 
(0.3) s
3009  377 mt 3026  377 L
4411  377 mt 4393  377 L
2808  421 mt 
(0.4) s
3009 2095 mt 4411 2095 L
3009  377 mt 4411  377 L
3009 2095 mt 3009  377 L
4411 2095 mt 4411  377 L
gs 3009 377 1403 1719 rc
DO
29 0 28 0 28 0 28 0 28 0 28 0 28 0 28 0 
28 0 28 0 28 0 28 0 28 0 28 0 28 0 28 0 
28 0 28 0 28 0 28 0 28 0 28 0 28 0 28 0 
28 0 29 0 28 0 28 0 28 0 28 0 28 0 28 0 
28 0 28 0 28 0 28 0 28 0 28 0 28 0 28 0 
28 0 28 0 28 0 28 0 28 0 28 0 28 0 28 0 
28 0 3037 1751 50 MP stroke
DA
c8
29 0 28 0 28 0 28 0 28 0 28 0 28 1 28 0 
28 0 28 0 28 0 28 1 28 0 28 0 28 0 28 0 
28 1 28 0 28 0 28 0 28 1 28 0 28 0 28 0 
28 1 29 0 28 0 28 1 28 0 28 0 28 1 28 0 
28 0 28 1 28 0 28 0 28 1 28 0 28 1 28 0 
28 1 28 0 28 0 28 0 28 -1 28 -2 28 -5 28 35 
28 -40 3037 1751 50 MP stroke
SO
c9
29 -2 28 -3 28 -2 28 -3 28 -2 28 -3 28 -3 28 -3 
28 -3 28 -4 28 -3 28 -4 28 -3 28 -4 28 -4 28 -4 
28 -5 28 -4 28 -4 28 -5 28 -4 28 -5 28 -5 28 -5 
28 -5 29 -4 28 -5 28 -5 28 -5 28 -4 28 -4 28 -4 
28 -3 28 -3 28 -2 28 0 28 2 28 4 28 8 28 12 
28 20 28 31 28 48 28 76 28 121 28 201 28 346 28 611 
28 -1330 3037 1751 50 MP stroke
gr

c9
0 sg
3666  282 mt 
(N) s
1 sg
0 1718 1402 0 0 -1718 4854 2095 4 MP
PP
-1402 0 0 1718 1402 0 0 -1718 4854 2095 5 MP stroke
4 w
DO
6 w
SO
0 sg
4854 2095 mt 6256 2095 L
4854  377 mt 6256  377 L
4854 2095 mt 4854  377 L
6256 2095 mt 6256  377 L
4854 2095 mt 6256 2095 L
4854 2095 mt 4854  377 L
4854 2095 mt 4854 2077 L
4854  377 mt 4854  394 L
4821 2240 mt 
(0) s
5414 2095 mt 5414 2077 L
5414  377 mt 5414  394 L
5348 2240 mt 
(20) s
5975 2095 mt 5975 2077 L
5975  377 mt 5975  394 L
5909 2240 mt 
(40) s
4854 2095 mt 4871 2095 L
6256 2095 mt 6238 2095 L
4583 2139 mt 
(-0.1) s
4854 1665 mt 4871 1665 L
6256 1665 mt 6238 1665 L
4753 1709 mt 
(0) s
4854 1236 mt 4871 1236 L
6256 1236 mt 6238 1236 L
4653 1280 mt 
(0.1) s
4854  806 mt 4871  806 L
6256  806 mt 6238  806 L
4653  850 mt 
(0.2) s
4854  377 mt 4871  377 L
6256  377 mt 6238  377 L
4653  421 mt 
(0.3) s
4854 2095 mt 6256 2095 L
4854  377 mt 6256  377 L
4854 2095 mt 4854  377 L
6256 2095 mt 6256  377 L
gs 4854 377 1403 1719 rc
DO
29 0 28 0 28 0 28 0 28 0 28 0 28 0 28 0 
28 0 28 0 28 0 28 0 28 0 28 0 28 0 28 0 
28 0 28 0 28 0 28 0 28 0 28 0 28 0 28 0 
28 0 29 0 28 0 28 0 28 0 28 0 28 0 28 0 
28 0 28 0 28 0 28 0 28 0 28 0 28 0 28 0 
28 0 28 0 28 0 28 0 28 0 28 0 28 0 28 0 
28 0 4882 1665 50 MP stroke
DA
c8
29 0 28 0 28 0 28 0 28 0 28 0 28 0 28 0 
28 0 28 0 28 0 28 0 28 0 28 0 28 0 28 0 
28 0 28 0 28 0 28 0 28 0 28 0 28 0 28 0 
28 0 29 0 28 0 28 0 28 0 28 0 28 0 28 0 
28 0 28 0 28 0 28 0 28 0 28 0 28 0 28 0 
28 0 28 -1 28 0 28 -1 28 -2 28 -4 28 -7 28 40 
28 -25 4882 1665 50 MP stroke
SO
c9
29 0 28 0 28 0 28 1 28 0 28 0 28 0 28 0 
28 1 28 0 28 0 28 0 28 1 28 0 28 0 28 0 
28 1 28 0 28 0 28 0 28 0 28 0 28 0 28 0 
28 0 29 0 28 -1 28 0 28 -1 28 -2 28 -2 28 -3 
28 -4 28 -5 28 -7 28 -9 28 -13 28 -17 28 -21 28 -28 
28 -35 28 -41 28 -42 28 -32 28 7 28 109 28 348 28 870 
28 -1079 4882 1665 50 MP stroke
gr

c9
0 sg
5511  282 mt 
(R) s
1 sg
0 1718 1403 0 0 -1718 6698 2095 4 MP
PP
-1403 0 0 1718 1403 0 0 -1718 6698 2095 5 MP stroke
4 w
DO
6 w
SO
0 sg
6698 2095 mt 8101 2095 L
6698  377 mt 8101  377 L
6698 2095 mt 6698  377 L
8101 2095 mt 8101  377 L
6698 2095 mt 8101 2095 L
6698 2095 mt 6698  377 L
6698 2095 mt 6698 2077 L
6698  377 mt 6698  394 L
6665 2240 mt 
(0) s
7259 2095 mt 7259 2077 L
7259  377 mt 7259  394 L
7193 2240 mt 
(20) s
7820 2095 mt 7820 2077 L
7820  377 mt 7820  394 L
7754 2240 mt 
(40) s
6698 2095 mt 6715 2095 L
8101 2095 mt 8083 2095 L
6360 2139 mt 
(-0.05) s
6698 1751 mt 6715 1751 L
8101 1751 mt 8083 1751 L
6597 1795 mt 
(0) s
6698 1407 mt 6715 1407 L
8101 1407 mt 8083 1407 L
6430 1451 mt 
(0.05) s
6698 1064 mt 6715 1064 L
8101 1064 mt 8083 1064 L
6497 1108 mt 
(0.1) s
6698  720 mt 6715  720 L
8101  720 mt 8083  720 L
6430  764 mt 
(0.15) s
6698  377 mt 6715  377 L
8101  377 mt 8083  377 L
6497  421 mt 
(0.2) s
6698 2095 mt 8101 2095 L
6698  377 mt 8101  377 L
6698 2095 mt 6698  377 L
8101 2095 mt 8101  377 L
gs 6698 377 1404 1719 rc
DO
29 0 28 0 28 0 28 0 28 0 28 0 28 0 28 0 
28 0 28 0 28 0 28 0 28 0 28 0 28 0 28 0 
29 0 28 0 28 0 28 0 28 0 28 0 28 0 28 0 
28 0 28 0 28 0 28 0 28 0 28 0 28 0 28 0 
28 0 29 0 28 0 28 0 28 0 28 0 28 0 28 0 
28 0 28 0 28 0 28 0 28 0 28 0 28 0 28 0 
28 0 6726 1751 50 MP stroke
DA
c8
29 0 28 0 28 0 28 0 28 0 28 0 28 0 28 0 
28 0 28 0 28 0 28 0 28 0 28 0 28 0 28 0 
29 0 28 0 28 0 28 0 28 0 28 0 28 0 28 0 
28 0 28 0 28 0 28 0 28 0 28 0 28 0 28 0 
28 0 29 0 28 0 28 0 28 -1 28 0 28 0 28 0 
28 0 28 0 28 -1 28 -2 28 -3 28 -6 28 -12 28 35 
28 -10 6726 1751 50 MP stroke
SO
c9
29 0 28 0 28 1 28 0 28 0 28 1 28 0 28 0 
28 1 28 0 28 0 28 1 28 0 28 1 28 0 28 0 
29 1 28 0 28 0 28 1 28 0 28 0 28 0 28 0 
28 0 28 0 28 0 28 -1 28 -1 28 -2 28 -2 28 -3 
28 -4 29 -6 28 -7 28 -11 28 -14 28 -18 28 -24 28 -31 
28 -39 28 -46 28 -47 28 -38 28 4 28 113 28 371 28 935 
28 -1141 6726 1751 50 MP stroke
gr

c9
0 sg
7352  282 mt 
(pi) s
1 sg
0 1717 1402 0 0 -1717 1164 4479 4 MP
PP
-1402 0 0 1717 1402 0 0 -1717 1164 4479 5 MP stroke
4 w
DO
6 w
SO
0 sg
1164 4479 mt 2566 4479 L
1164 2762 mt 2566 2762 L
1164 4479 mt 1164 2762 L
2566 4479 mt 2566 2762 L
1164 4479 mt 2566 4479 L
1164 4479 mt 1164 2762 L
1164 4479 mt 1164 4461 L
1164 2762 mt 1164 2779 L
1131 4624 mt 
(0) s
1724 4479 mt 1724 4461 L
1724 2762 mt 1724 2779 L
1658 4624 mt 
(20) s
2285 4479 mt 2285 4461 L
2285 2762 mt 2285 2779 L
2219 4624 mt 
(40) s
1164 4479 mt 1181 4479 L
2566 4479 mt 2548 4479 L
 893 4523 mt 
(-0.5) s
1164 4135 mt 1181 4135 L
2566 4135 mt 2548 4135 L
1063 4179 mt 
(0) s
1164 3792 mt 1181 3792 L
2566 3792 mt 2548 3792 L
 963 3836 mt 
(0.5) s
1164 3448 mt 1181 3448 L
2566 3448 mt 2548 3448 L
1063 3492 mt 
(1) s
1164 3105 mt 1181 3105 L
2566 3105 mt 2548 3105 L
 963 3149 mt 
(1.5) s
1164 2762 mt 1181 2762 L
2566 2762 mt 2548 2762 L
1063 2806 mt 
(2) s
1164 4479 mt 2566 4479 L
1164 2762 mt 2566 2762 L
1164 4479 mt 1164 2762 L
2566 4479 mt 2566 2762 L
gs 1164 2762 1403 1718 rc
DO
29 0 28 0 28 0 28 0 28 0 28 0 28 0 28 0 
28 0 28 0 28 0 28 0 28 0 28 0 28 0 28 0 
28 0 28 0 28 0 28 0 28 0 28 0 28 0 28 0 
28 0 29 0 28 0 28 0 28 0 28 0 28 0 28 0 
28 0 28 0 28 0 28 0 28 0 28 0 28 0 28 0 
28 0 28 0 28 0 28 0 28 0 28 0 28 0 28 0 
28 0 1192 4135 50 MP stroke
DA
c8
29 0 28 0 28 0 28 0 28 0 28 0 28 0 28 0 
28 0 28 0 28 0 28 0 28 0 28 0 28 0 28 0 
28 0 28 0 28 0 28 0 28 0 28 0 28 0 28 0 
28 0 29 0 28 0 28 0 28 0 28 0 28 0 28 0 
28 0 28 0 28 0 28 0 28 0 28 1 28 0 28 0 
28 0 28 -1 28 0 28 0 28 -1 28 -3 28 -4 28 44 
28 -36 1192 4135 50 MP stroke
SO
c9
29 0 28 -1 28 0 28 -1 28 0 28 -1 28 0 28 -1 
28 0 28 -1 28 -1 28 -1 28 0 28 -1 28 -1 28 -1 
28 -1 28 -1 28 -1 28 -1 28 -1 28 -2 28 -1 28 -1 
28 -2 29 -1 28 -2 28 -2 28 -2 28 -2 28 -3 28 -3 
28 -4 28 -4 28 -5 28 -7 28 -8 28 -9 28 -13 28 -14 
28 -17 28 -16 28 -12 28 4 28 46 28 143 28 353 28 798 
28 -1197 1192 4135 50 MP stroke
gr

c9
0 sg
1824 2667 mt 
(Y) s
1 sg
0 1717 1402 0 0 -1717 3009 4479 4 MP
PP
-1402 0 0 1717 1402 0 0 -1717 3009 4479 5 MP stroke
4 w
DO
6 w
SO
0 sg
3009 4479 mt 4411 4479 L
3009 2762 mt 4411 2762 L
3009 4479 mt 3009 2762 L
4411 4479 mt 4411 2762 L
3009 4479 mt 4411 4479 L
3009 4479 mt 3009 2762 L
3009 4479 mt 3009 4461 L
3009 2762 mt 3009 2779 L
2976 4624 mt 
(0) s
3569 4479 mt 3569 4461 L
3569 2762 mt 3569 2779 L
3503 4624 mt 
(20) s
4130 4479 mt 4130 4461 L
4130 2762 mt 4130 2779 L
4064 4624 mt 
(40) s
3009 4479 mt 3026 4479 L
4411 4479 mt 4393 4479 L
2738 4523 mt 
(-0.1) s
3009 4049 mt 3026 4049 L
4411 4049 mt 4393 4049 L
2908 4093 mt 
(0) s
3009 3620 mt 3026 3620 L
4411 3620 mt 4393 3620 L
2808 3664 mt 
(0.1) s
3009 3191 mt 3026 3191 L
4411 3191 mt 4393 3191 L
2808 3235 mt 
(0.2) s
3009 2762 mt 3026 2762 L
4411 2762 mt 4393 2762 L
2808 2806 mt 
(0.3) s
3009 4479 mt 4411 4479 L
3009 2762 mt 4411 2762 L
3009 4479 mt 3009 2762 L
4411 4479 mt 4411 2762 L
gs 3009 2762 1403 1718 rc
DO
29 0 28 0 28 0 28 0 28 0 28 0 28 0 28 0 
28 0 28 0 28 0 28 0 28 0 28 0 28 0 28 0 
28 0 28 0 28 0 28 0 28 0 28 0 28 0 28 0 
28 0 29 0 28 0 28 0 28 0 28 0 28 0 28 0 
28 0 28 0 28 0 28 0 28 0 28 0 28 0 28 0 
28 0 28 0 28 0 28 0 28 0 28 0 28 0 28 0 
28 0 3037 4049 50 MP stroke
DA
c8
29 0 28 0 28 0 28 1 28 0 28 0 28 0 28 0 
28 0 28 0 28 0 28 0 28 0 28 0 28 0 28 0 
28 0 28 0 28 1 28 0 28 0 28 0 28 0 28 0 
28 0 29 0 28 0 28 1 28 0 28 0 28 0 28 0 
28 0 28 1 28 0 28 0 28 0 28 0 28 1 28 0 
28 0 28 1 28 1 28 2 28 4 28 7 28 15 28 -18 
28 -16 3037 4049 50 MP stroke
SO
c9
29 -3 28 -4 28 -3 28 -4 28 -4 28 -5 28 -4 28 -5 
28 -5 28 -5 28 -6 28 -5 28 -6 28 -6 28 -6 28 -7 
28 -7 28 -7 28 -7 28 -7 28 -7 28 -7 28 -8 28 -7 
28 -7 29 -7 28 -7 28 -6 28 -5 28 -4 28 -2 28 0 
28 4 28 8 28 14 28 22 28 33 28 47 28 66 28 90 
28 119 28 154 28 190 28 217 28 212 28 120 28 -176 28 -916 
28 -1 3037 4049 50 MP stroke
gr

c9
0 sg
3666 2667 mt 
(C) s
1 sg
0 1717 1402 0 0 -1717 4854 4479 4 MP
PP
-1402 0 0 1717 1402 0 0 -1717 4854 4479 5 MP stroke
4 w
DO
6 w
SO
0 sg
4854 4479 mt 6256 4479 L
4854 2762 mt 6256 2762 L
4854 4479 mt 4854 2762 L
6256 4479 mt 6256 2762 L
4854 4479 mt 6256 4479 L
4854 4479 mt 4854 2762 L
4854 4479 mt 4854 4461 L
4854 2762 mt 4854 2779 L
4821 4624 mt 
(0) s
5414 4479 mt 5414 4461 L
5414 2762 mt 5414 2779 L
5348 4624 mt 
(20) s
5975 4479 mt 5975 4461 L
5975 2762 mt 5975 2779 L
5909 4624 mt 
(40) s
4854 4479 mt 4871 4479 L
6256 4479 mt 6238 4479 L
4683 4523 mt 
(-5) s
4854 4049 mt 4871 4049 L
6256 4049 mt 6238 4049 L
4753 4093 mt 
(0) s
4854 3620 mt 4871 3620 L
6256 3620 mt 6238 3620 L
4753 3664 mt 
(5) s
4854 3191 mt 4871 3191 L
6256 3191 mt 6238 3191 L
4686 3235 mt 
(10) s
4854 2762 mt 4871 2762 L
6256 2762 mt 6238 2762 L
4686 2806 mt 
(15) s
4854 4479 mt 6256 4479 L
4854 2762 mt 6256 2762 L
4854 4479 mt 4854 2762 L
6256 4479 mt 6256 2762 L
gs 4854 2762 1403 1718 rc
DO
29 0 28 0 28 0 28 0 28 0 28 0 28 0 28 0 
28 0 28 0 28 0 28 0 28 0 28 0 28 0 28 0 
28 0 28 0 28 0 28 0 28 0 28 0 28 0 28 0 
28 0 29 0 28 0 28 0 28 0 28 0 28 0 28 0 
28 0 28 0 28 0 28 0 28 0 28 0 28 0 28 0 
28 0 28 0 28 0 28 0 28 0 28 0 28 0 28 0 
28 0 4882 4049 50 MP stroke
DA
c8
29 0 28 0 28 0 28 0 28 0 28 0 28 0 28 0 
28 0 28 0 28 0 28 0 28 0 28 0 28 0 28 0 
28 0 28 0 28 0 28 0 28 0 28 0 28 0 28 0 
28 0 29 0 28 0 28 0 28 0 28 0 28 0 28 0 
28 0 28 0 28 0 28 0 28 0 28 0 28 0 28 0 
28 0 28 -1 28 0 28 -1 28 -1 28 -3 28 -6 28 44 
28 -32 4882 4049 50 MP stroke
SO
c9
29 0 28 0 28 0 28 0 28 1 28 0 28 0 28 0 
28 0 28 0 28 0 28 0 28 0 28 0 28 0 28 0 
28 0 28 0 28 0 28 -1 28 0 28 0 28 0 28 -1 
28 0 29 -1 28 0 28 -1 28 -2 28 -1 28 -2 28 -3 
28 -4 28 -5 28 -7 28 -9 28 -11 28 -16 28 -20 28 -25 
28 -30 28 -36 28 -35 28 -24 28 16 28 119 28 354 28 865 
28 -1123 4882 4049 50 MP stroke
gr

c9
0 sg
5537 2667 mt 
(I) s
1 sg
0 1717 1403 0 0 -1717 6698 4479 4 MP
PP
-1403 0 0 1717 1403 0 0 -1717 6698 4479 5 MP stroke
4 w
DO
6 w
SO
0 sg
6698 4479 mt 8101 4479 L
6698 2762 mt 8101 2762 L
6698 4479 mt 6698 2762 L
8101 4479 mt 8101 2762 L
6698 4479 mt 8101 4479 L
6698 4479 mt 6698 2762 L
6698 4479 mt 6698 4461 L
6698 2762 mt 6698 2779 L
6665 4624 mt 
(0) s
7259 4479 mt 7259 4461 L
7259 2762 mt 7259 2779 L
7193 4624 mt 
(20) s
7820 4479 mt 7820 4461 L
7820 2762 mt 7820 2779 L
7754 4624 mt 
(40) s
6698 4479 mt 6715 4479 L
8101 4479 mt 8083 4479 L
6527 4523 mt 
(-1) s
6698 4049 mt 6715 4049 L
8101 4049 mt 8083 4049 L
6597 4093 mt 
(0) s
6698 3620 mt 6715 3620 L
8101 3620 mt 8083 3620 L
6597 3664 mt 
(1) s
6698 3191 mt 6715 3191 L
8101 3191 mt 8083 3191 L
6597 3235 mt 
(2) s
6698 2762 mt 6715 2762 L
8101 2762 mt 8083 2762 L
6597 2806 mt 
(3) s
6698 4479 mt 8101 4479 L
6698 2762 mt 8101 2762 L
6698 4479 mt 6698 2762 L
8101 4479 mt 8101 2762 L
gs 6698 2762 1404 1718 rc
DO
29 0 28 0 28 0 28 0 28 0 28 0 28 0 28 0 
28 0 28 0 28 0 28 0 28 0 28 0 28 0 28 0 
29 0 28 0 28 0 28 0 28 0 28 0 28 0 28 0 
28 0 28 0 28 0 28 0 28 0 28 0 28 0 28 0 
28 0 29 0 28 0 28 0 28 0 28 0 28 0 28 0 
28 0 28 0 28 0 28 0 28 0 28 0 28 0 28 0 
28 0 6726 4049 50 MP stroke
DA
c8
29 0 28 0 28 0 28 0 28 0 28 0 28 0 28 0 
28 0 28 0 28 0 28 0 28 0 28 0 28 0 28 0 
29 0 28 0 28 0 28 0 28 0 28 0 28 0 28 0 
28 0 28 0 28 0 28 0 28 0 28 0 28 0 28 0 
28 0 29 0 28 0 28 0 28 0 28 0 28 0 28 0 
28 0 28 0 28 -1 28 0 28 -1 28 -3 28 -5 28 43 
28 -33 6726 4049 50 MP stroke
SO
c9
29 0 28 0 28 0 28 0 28 0 28 0 28 -1 28 0 
28 0 28 0 28 -1 28 0 28 0 28 0 28 -1 28 0 
29 -1 28 0 28 0 28 -1 28 -1 28 0 28 -1 28 -1 
28 -1 28 -1 28 -1 28 -1 28 -2 28 -2 28 -2 28 -3 
28 -4 29 -5 28 -6 28 -8 28 -11 28 -13 28 -17 28 -22 
28 -26 28 -29 28 -27 28 -15 28 25 28 123 28 346 28 825 
28 -1116 6726 4049 50 MP stroke
gr

c9
0 sg
7366 2667 mt 
(L) s
6681 4522 mt 
( ) s
8085 2804 mt 
( ) s
1 sg
0 480 1074 0 0 -480 6758 4420 4 MP
PP
-1074 0 0 480 1074 0 0 -480 6758 4420 5 MP stroke
4 w
DO
6 w
SO
0 sg
6758 4420 mt 7832 4420 L
6758 3940 mt 7832 3940 L
6758 4420 mt 6758 3940 L
7832 4420 mt 7832 3940 L
6758 4420 mt 7832 4420 L
6758 4420 mt 6758 3940 L
6758 4420 mt 7832 4420 L
6758 3940 mt 7832 3940 L
6758 4420 mt 6758 3940 L
7832 4420 mt 7832 3940 L
7209 4074 mt 
(frictionless) s
gs 6758 3940 1075 481 rc
DO
347 0 6827 4031 2 MP stroke
SO
gr

7209 4223 mt 
(RE) s
gs 6758 3940 1075 481 rc
DA
c8
347 0 6827 4180 2 MP stroke
SO
gr

c8
0 sg
7209 4371 mt 
(learning) s
gs 6758 3940 1075 481 rc
c9
347 0 6827 4328 2 MP stroke
gr

c9

end %%Color Dict

eplot
%%EndObject

epage
end

showpage

%%Trailer
%%EOF
