%!PS-Adobe-3.0 EPSF-3.0
%%Creator: MATLAB, The Mathworks, Inc. Version 7.10.0.499 (R2010a). Operating System: Microsoft Windows 7.
%%Title: C:\Users\winklerh\Dropbox\PhD\finfric\paper\irf_smu.eps
%%CreationDate: 09/23/2013  15:30:22
%%DocumentNeededFonts: Helvetica
%%DocumentProcessColors: Cyan Magenta Yellow Black
%%LanguageLevel: 2
%%Pages: 1
%%BoundingBox:    -4   245   601   595
%%EndComments

%%BeginProlog
% MathWorks dictionary
/MathWorks 160 dict begin
% definition operators
/bdef {bind def} bind def
/ldef {load def} bind def
/xdef {exch def} bdef
/xstore {exch store} bdef
% operator abbreviations
/c  /clip ldef
/cc /concat ldef
/cp /closepath ldef
/gr /grestore ldef
/gs /gsave ldef
/mt /moveto ldef
/np /newpath ldef
/cm /currentmatrix ldef
/sm /setmatrix ldef
/rm /rmoveto ldef
/rl /rlineto ldef
/s {show newpath} bdef
/sc {setcmykcolor} bdef
/sr /setrgbcolor ldef
/sg /setgray ldef
/w /setlinewidth ldef
/j /setlinejoin ldef
/cap /setlinecap ldef
/rc {rectclip} bdef
/rf {rectfill} bdef
% page state control
/pgsv () def
/bpage {/pgsv save def} bdef
/epage {pgsv restore} bdef
/bplot /gsave ldef
/eplot {stroke grestore} bdef
% orientation switch
/portraitMode 0 def /landscapeMode 1 def /rotateMode 2 def
% coordinate system mappings
/dpi2point 0 def
% font control
/FontSize 0 def
/FMS {/FontSize xstore findfont [FontSize 0 0 FontSize neg 0 0]
  makefont setfont} bdef
/ISOLatin1Encoding where {pop /WindowsLatin1Encoding 256 array bdef
ISOLatin1Encoding WindowsLatin1Encoding copy pop
/.notdef/.notdef/quotesinglbase/florin/quotedblbase/ellipsis/dagger
/daggerdbl/circumflex/perthousand/Scaron/guilsinglleft/OE/.notdef/.notdef
/.notdef/.notdef/quoteleft/quoteright/quotedblleft/quotedblright/bullet
/endash/emdash/tilde/trademark/scaron/guilsinglright/oe/.notdef/.notdef
/Ydieresis WindowsLatin1Encoding 128 32 getinterval astore pop}
{/WindowsLatin1Encoding StandardEncoding bdef} ifelse
/reencode {exch dup where {pop load} {pop StandardEncoding} ifelse
  exch dup 3 1 roll findfont dup length dict begin
  { 1 index /FID ne {def}{pop pop} ifelse } forall
  /Encoding exch def currentdict end definefont pop} bdef
/isroman {findfont /CharStrings get /Agrave known} bdef
/FMSR {3 1 roll 1 index dup isroman {reencode} {pop pop} ifelse
  exch FMS} bdef
/csm {1 dpi2point div -1 dpi2point div scale neg translate
 dup landscapeMode eq {pop -90 rotate}
  {rotateMode eq {90 rotate} if} ifelse} bdef
% line types: solid, dotted, dashed, dotdash
/SO { [] 0 setdash } bdef
/DO { [.5 dpi2point mul 4 dpi2point mul] 0 setdash } bdef
/DA { [6 dpi2point mul] 0 setdash } bdef
/DD { [.5 dpi2point mul 4 dpi2point mul 6 dpi2point mul 4
  dpi2point mul] 0 setdash } bdef
% macros for lines and objects
/L {lineto stroke} bdef
/MP {3 1 roll moveto 1 sub {rlineto} repeat} bdef
/AP {{rlineto} repeat} bdef
/PDlw -1 def
/W {/PDlw currentlinewidth def setlinewidth} def
/PP {closepath eofill} bdef
/DP {closepath stroke} bdef
/MR {4 -2 roll moveto dup  0 exch rlineto exch 0 rlineto
  neg 0 exch rlineto closepath} bdef
/FR {MR stroke} bdef
/PR {MR fill} bdef
/L1i {{currentfile picstr readhexstring pop} image} bdef
/tMatrix matrix def
/MakeOval {newpath tMatrix currentmatrix pop translate scale
0 0 1 0 360 arc tMatrix setmatrix} bdef
/FO {MakeOval stroke} bdef
/PO {MakeOval fill} bdef
/PD {currentlinewidth 2 div 0 360 arc fill
   PDlw -1 eq not {PDlw w /PDlw -1 def} if} def
/FA {newpath tMatrix currentmatrix pop translate scale
  0 0 1 5 -2 roll arc tMatrix setmatrix stroke} bdef
/PA {newpath tMatrix currentmatrix pop	translate 0 0 moveto scale
  0 0 1 5 -2 roll arc closepath tMatrix setmatrix fill} bdef
/FAn {newpath tMatrix currentmatrix pop translate scale
  0 0 1 5 -2 roll arcn tMatrix setmatrix stroke} bdef
/PAn {newpath tMatrix currentmatrix pop translate 0 0 moveto scale
  0 0 1 5 -2 roll arcn closepath tMatrix setmatrix fill} bdef
/vradius 0 def /hradius 0 def /lry 0 def
/lrx 0 def /uly 0 def /ulx 0 def /rad 0 def
/MRR {/vradius xdef /hradius xdef /lry xdef /lrx xdef /uly xdef
  /ulx xdef newpath tMatrix currentmatrix pop ulx hradius add uly
  vradius add translate hradius vradius scale 0 0 1 180 270 arc 
  tMatrix setmatrix lrx hradius sub uly vradius add translate
  hradius vradius scale 0 0 1 270 360 arc tMatrix setmatrix
  lrx hradius sub lry vradius sub translate hradius vradius scale
  0 0 1 0 90 arc tMatrix setmatrix ulx hradius add lry vradius sub
  translate hradius vradius scale 0 0 1 90 180 arc tMatrix setmatrix
  closepath} bdef
/FRR {MRR stroke } bdef
/PRR {MRR fill } bdef
/MlrRR {/lry xdef /lrx xdef /uly xdef /ulx xdef /rad lry uly sub 2 div def
  newpath tMatrix currentmatrix pop ulx rad add uly rad add translate
  rad rad scale 0 0 1 90 270 arc tMatrix setmatrix lrx rad sub lry rad
  sub translate rad rad scale 0 0 1 270 90 arc tMatrix setmatrix
  closepath} bdef
/FlrRR {MlrRR stroke } bdef
/PlrRR {MlrRR fill } bdef
/MtbRR {/lry xdef /lrx xdef /uly xdef /ulx xdef /rad lrx ulx sub 2 div def
  newpath tMatrix currentmatrix pop ulx rad add uly rad add translate
  rad rad scale 0 0 1 180 360 arc tMatrix setmatrix lrx rad sub lry rad
  sub translate rad rad scale 0 0 1 0 180 arc tMatrix setmatrix
  closepath} bdef
/FtbRR {MtbRR stroke } bdef
/PtbRR {MtbRR fill } bdef
/stri 6 array def /dtri 6 array def
/smat 6 array def /dmat 6 array def
/tmat1 6 array def /tmat2 6 array def /dif 3 array def
/asub {/ind2 exch def /ind1 exch def dup dup
  ind1 get exch ind2 get sub exch } bdef
/tri_to_matrix {
  2 0 asub 3 1 asub 4 0 asub 5 1 asub
  dup 0 get exch 1 get 7 -1 roll astore } bdef
/compute_transform {
  dmat dtri tri_to_matrix tmat1 invertmatrix 
  smat stri tri_to_matrix tmat2 concatmatrix } bdef
/ds {stri astore pop} bdef
/dt {dtri astore pop} bdef
/db {2 copy /cols xdef /rows xdef mul dup 3 mul string
  currentfile 
  3 index 0 eq {/ASCIIHexDecode filter}
  {/ASCII85Decode filter 3 index 2 eq {/RunLengthDecode filter} if }
  ifelse exch readstring pop
  dup 0 3 index getinterval /rbmap xdef
  dup 2 index dup getinterval /gbmap xdef
  1 index dup 2 mul exch getinterval /bbmap xdef pop pop}bdef
/it {gs np dtri aload pop moveto lineto lineto cp c
  cols rows 8 compute_transform 
  rbmap gbmap bbmap true 3 colorimage gr}bdef
/il {newpath moveto lineto stroke}bdef
currentdict end def
%%EndProlog

%%BeginSetup
MathWorks begin

0 cap

end
%%EndSetup

%%Page: 1 1
%%BeginPageSetup
%%PageBoundingBox:    -4   245   601   595
MathWorks begin
bpage
%%EndPageSetup

%%BeginObject: obj1
bplot

/dpi2point 12 def
portraitMode -0048 7140 csm

    0     0  7260  4196 rc
85 dict begin %Colortable dictionary
/c0 { 0.000000 0.000000 0.000000 sr} bdef
/c1 { 1.000000 1.000000 1.000000 sr} bdef
/c2 { 0.900000 0.000000 0.000000 sr} bdef
/c3 { 0.000000 0.820000 0.000000 sr} bdef
/c4 { 0.000000 0.000000 0.800000 sr} bdef
/c5 { 0.910000 0.820000 0.320000 sr} bdef
/c6 { 1.000000 0.260000 0.820000 sr} bdef
/c7 { 0.000000 0.820000 0.820000 sr} bdef
c0
1 j
1 sg
   0    0 7261 4197 rf
6 w
0 1424 1090 0 0 -1424 983 1746 4 MP
PP
-1090 0 0 1424 1090 0 0 -1424 983 1746 5 MP stroke
4 w
DO
SO
6 w
0 sg
 983  322 mt 2073  322 L
 983 1746 mt 2073 1746 L
2073 1746 mt 2073  322 L
 983 1746 mt  983  322 L
 983 1746 mt 2073 1746 L
 983 1746 mt  983  322 L
 983 1746 mt  983 1731 L
 983  322 mt  983  336 L
%%IncludeResource: font Helvetica
/Helvetica /WindowsLatin1Encoding 120 FMSR

 950 1891 mt 
(0) s
2073 1746 mt 2073 1731 L
2073  322 mt 2073  336 L
2007 1891 mt 
(50) s
 983 1746 mt  997 1746 L
2073 1746 mt 2058 1746 L
 882 1790 mt 
(0) s
 983 1271 mt  997 1271 L
2073 1271 mt 2058 1271 L
 882 1315 mt 
(1) s
 983  796 mt  997  796 L
2073  796 mt 2058  796 L
 882  840 mt 
(2) s
 983  322 mt  997  322 L
2073  322 mt 2058  322 L
 882  366 mt 
(3) s
 983  322 mt 2073  322 L
 983 1746 mt 2073 1746 L
2073 1746 mt 2073  322 L
 983 1746 mt  983  322 L
gs 983 322 1091 1425 rc
DO
22 11 22 12 22 11 22 12 21 11 22 11 22 11 22 11 
22 10 21 10 22 10 22 10 22 9 22 9 21 8 22 8 
22 8 22 6 22 6 21 6 22 4 22 4 22 3 22 2 
21 0 22 0 22 -1 22 -3 22 -4 21 -6 22 -7 22 -9 
22 -11 22 -12 21 -15 22 -17 22 -19 22 -21 22 -24 21 -27 
22 -29 22 -33 22 -36 22 -39 21 -42 22 -47 22 -51 22 -54 
22 -32 1004 1746 50 MP stroke
DA
/c8 { 0.000000 0.000000 1.000000 sr} bdef
c8
22 2 22 3 22 3 22 2 21 3 22 3 22 3 22 3 
22 3 21 3 22 3 22 3 22 4 22 3 21 3 22 3 
22 4 22 3 22 3 21 4 22 3 22 4 22 3 22 4 
21 3 22 3 22 4 22 3 22 3 21 4 22 3 22 3 
22 3 22 3 21 3 22 2 22 3 22 2 22 3 21 2 
22 1 22 2 22 1 22 1 21 1 22 0 22 0 22 0 
22 -164 1004 1746 50 MP stroke
SO
/c9 { 1.000000 0.000000 0.000000 sr} bdef
c9
22 35 22 36 22 37 22 40 21 40 22 42 22 44 22 45 
22 47 21 47 22 49 22 50 22 50 22 52 21 52 22 52 
22 53 22 52 22 52 21 52 22 50 22 50 22 47 22 46 
21 43 22 40 22 36 22 32 22 27 21 22 22 15 22 9 
22 0 22 -8 21 -18 22 -28 22 -40 22 -51 22 -64 21 -78 
22 -91 22 -105 22 -118 22 -130 21 -139 22 -145 22 -144 22 -136 
22 -115 1004 1746 50 MP stroke
gr

c9
0 sg
1487  227 mt 
(V) s
1 sg
0 1424 1090 0 0 -1424 2479 1746 4 MP
PP
-1090 0 0 1424 1090 0 0 -1424 2479 1746 5 MP stroke
4 w
DO
SO
6 w
0 sg
2479  322 mt 3569  322 L
2479 1746 mt 3569 1746 L
3569 1746 mt 3569  322 L
2479 1746 mt 2479  322 L
2479 1746 mt 3569 1746 L
2479 1746 mt 2479  322 L
2479 1746 mt 2479 1731 L
2479  322 mt 2479  336 L
2446 1891 mt 
(0) s
3569 1746 mt 3569 1731 L
3569  322 mt 3569  336 L
3503 1891 mt 
(50) s
2479 1746 mt 2493 1746 L
3569 1746 mt 3554 1746 L
2378 1790 mt 
(0) s
2479 1271 mt 2493 1271 L
3569 1271 mt 3554 1271 L
2278 1315 mt 
(0.5) s
2479  796 mt 2493  796 L
3569  796 mt 3554  796 L
2378  840 mt 
(1) s
2479  322 mt 2493  322 L
3569  322 mt 3554  322 L
2278  366 mt 
(1.5) s
2479  322 mt 3569  322 L
2479 1746 mt 3569 1746 L
3569 1746 mt 3569  322 L
2479 1746 mt 2479  322 L
gs 2479 322 1091 1425 rc
DO
22 0 22 0 22 0 22 0 21 0 22 0 22 0 22 0 
22 0 21 0 22 0 22 0 22 0 22 0 21 0 22 0 
22 0 22 0 22 0 21 0 22 0 22 0 22 0 22 0 
21 0 22 0 22 0 22 0 22 0 21 0 22 0 22 0 
22 0 22 0 21 0 22 0 22 0 22 0 22 0 21 0 
22 0 22 0 22 0 22 0 21 0 22 0 22 0 22 0 
22 0 2500 1746 50 MP stroke
DA
c8
22 20 22 19 22 19 22 20 21 19 22 19 22 18 22 19 
22 18 21 17 22 18 22 16 22 17 22 15 21 15 22 14 
22 13 22 12 22 11 21 10 22 9 22 7 22 6 22 4 
21 2 22 1 22 -2 22 -4 22 -6 21 -9 22 -11 22 -15 
22 -18 22 -21 21 -25 22 -29 22 -32 22 -38 22 -42 21 -47 
22 -52 22 -59 22 -64 22 -71 21 -77 22 -85 22 -93 22 27 
22 -272 2500 1746 50 MP stroke
SO
c9
22 25 22 27 22 28 22 28 21 30 22 30 22 32 22 33 
22 33 21 34 22 35 22 36 22 37 22 37 21 37 22 38 
22 38 22 38 22 38 21 37 22 37 22 37 22 35 22 34 
21 33 22 31 22 28 22 26 22 23 21 20 22 16 22 11 
22 6 22 1 21 -5 22 -12 22 -20 22 -29 22 -37 21 -48 
22 -58 22 -71 22 -83 22 -98 21 -112 22 -127 22 -145 22 -161 
22 -217 2500 1746 50 MP stroke
gr

c9
0 sg
2980  227 mt 
(N) s
1 sg
0 1424 1091 0 0 -1424 3975 1746 4 MP
PP
-1091 0 0 1424 1091 0 0 -1424 3975 1746 5 MP stroke
4 w
DO
SO
6 w
0 sg
3975  322 mt 5066  322 L
3975 1746 mt 5066 1746 L
5066 1746 mt 5066  322 L
3975 1746 mt 3975  322 L
3975 1746 mt 5066 1746 L
3975 1746 mt 3975  322 L
3975 1746 mt 3975 1731 L
3975  322 mt 3975  336 L
3942 1891 mt 
(0) s
5066 1746 mt 5066 1731 L
5066  322 mt 5066  336 L
5000 1891 mt 
(50) s
3975 1746 mt 3989 1746 L
5066 1746 mt 5051 1746 L
3704 1790 mt 
(-0.1) s
3975 1461 mt 3989 1461 L
5066 1461 mt 5051 1461 L
3637 1505 mt 
(-0.05) s
3975 1176 mt 3989 1176 L
5066 1176 mt 5051 1176 L
3874 1220 mt 
(0) s
3975  891 mt 3989  891 L
5066  891 mt 5051  891 L
3707  935 mt 
(0.05) s
3975  606 mt 3989  606 L
5066  606 mt 5051  606 L
3774  650 mt 
(0.1) s
3975  322 mt 3989  322 L
5066  322 mt 5051  322 L
3707  366 mt 
(0.15) s
3975  322 mt 5066  322 L
3975 1746 mt 5066 1746 L
5066 1746 mt 5066  322 L
3975 1746 mt 3975  322 L
gs 3975 322 1092 1425 rc
DO
22 -1 22 0 22 -1 22 0 22 0 21 0 22 0 22 0 
22 1 22 1 22 1 21 1 22 2 22 2 22 2 22 3 
21 3 22 3 22 4 22 4 22 5 22 5 21 6 22 6 
22 7 22 7 22 8 21 9 22 9 22 10 22 11 22 11 
22 13 21 13 22 14 22 15 22 16 22 18 21 18 22 20 
22 21 22 22 22 23 22 25 21 27 22 28 22 30 22 31 
22 -340 3996 1176 50 MP stroke
DA
c8
22 -2 22 -2 22 -2 22 -2 22 -2 21 -2 22 -3 22 -2 
22 -2 22 -2 22 -2 21 -3 22 -2 22 -2 22 -2 22 -3 
21 -2 22 -2 22 -3 22 -2 22 -2 22 -2 21 -3 22 -2 
22 -2 22 -2 22 -3 21 -2 22 -2 22 -2 22 -2 22 -2 
22 -2 21 -1 22 -2 22 -2 22 -1 22 -2 21 -1 22 -1 
22 -1 22 -1 22 -1 22 -1 21 0 22 0 22 0 22 939 
22 -788 3996 1176 50 MP stroke
SO
c9
22 -13 22 -13 22 -12 22 -13 22 -13 21 -13 22 -12 22 -13 
22 -12 22 -11 22 -11 21 -11 22 -9 22 -9 22 -8 22 -7 
21 -5 22 -4 22 -3 22 0 22 2 22 3 21 7 22 9 
22 12 22 15 22 19 21 23 22 27 22 32 22 36 22 41 
22 47 21 52 22 58 22 63 22 69 22 73 21 78 22 80 
22 81 22 79 22 72 22 59 21 38 22 5 22 -45 22 -116 
22 -496 3996 1176 50 MP stroke
gr

c9
0 sg
4477  227 mt 
(R) s
1 sg
0 1424 1090 0 0 -1424 5472 1746 4 MP
PP
-1090 0 0 1424 1090 0 0 -1424 5472 1746 5 MP stroke
4 w
DO
SO
6 w
0 sg
5472  322 mt 6562  322 L
5472 1746 mt 6562 1746 L
6562 1746 mt 6562  322 L
5472 1746 mt 5472  322 L
5472 1746 mt 6562 1746 L
5472 1746 mt 5472  322 L
5472 1746 mt 5472 1731 L
5472  322 mt 5472  336 L
5439 1891 mt 
(0) s
6562 1746 mt 6562 1731 L
6562  322 mt 6562  336 L
6496 1891 mt 
(50) s
5472 1746 mt 5486 1746 L
6562 1746 mt 6547 1746 L
5201 1790 mt 
(-0.1) s
5472 1461 mt 5486 1461 L
6562 1461 mt 6547 1461 L
5134 1505 mt 
(-0.05) s
5472 1176 mt 5486 1176 L
6562 1176 mt 6547 1176 L
5371 1220 mt 
(0) s
5472  891 mt 5486  891 L
6562  891 mt 6547  891 L
5204  935 mt 
(0.05) s
5472  606 mt 5486  606 L
6562  606 mt 6547  606 L
5271  650 mt 
(0.1) s
5472  322 mt 5486  322 L
6562  322 mt 6547  322 L
5204  366 mt 
(0.15) s
5472  322 mt 6562  322 L
5472 1746 mt 6562 1746 L
6562 1746 mt 6562  322 L
5472 1746 mt 5472  322 L
gs 5472 322 1091 1425 rc
DO
22 -2 22 -2 22 -2 22 -1 21 -2 22 0 22 -1 22 0 
22 1 21 1 22 1 22 2 22 2 22 3 21 4 22 4 
22 5 22 6 22 6 21 8 22 8 22 9 22 10 22 11 
21 12 22 13 22 14 22 16 22 17 21 18 22 20 22 21 
22 23 22 25 21 27 22 28 22 30 22 33 22 34 21 37 
22 39 22 42 22 45 22 47 21 50 22 54 22 56 22 60 
22 -597 5493 1176 50 MP stroke
DA
c8
22 -4 22 -4 22 -4 22 -4 21 -4 22 -5 22 -4 22 -4 
22 -5 21 -4 22 -4 22 -5 22 -4 22 -5 21 -4 22 -5 
22 -5 22 -4 22 -5 21 -5 22 -4 22 -5 22 -4 22 -5 
21 -5 22 -4 22 -5 22 -4 22 -5 21 -4 22 -4 22 -4 
22 -4 22 -4 21 -4 22 -4 22 -3 22 -3 22 -3 21 -3 
22 -3 22 -2 22 -2 22 -2 21 -2 22 -1 22 -1 22 629 
22 -323 5493 1176 50 MP stroke
SO
c9
22 -12 22 -12 22 -12 22 -13 21 -12 22 -13 22 -12 22 -13 
22 -12 21 -13 22 -12 22 -12 22 -11 22 -11 21 -11 22 -10 
22 -9 22 -8 22 -7 21 -6 22 -5 22 -3 22 -1 22 0 
21 2 22 5 22 7 22 10 22 13 21 16 22 20 22 23 
22 27 22 31 21 35 22 39 22 43 22 47 22 51 21 52 
22 54 22 53 22 49 22 42 21 27 22 6 22 -27 22 -76 
22 -122 5493 1176 50 MP stroke
gr

c9
0 sg
5969  227 mt 
(pi) s
1 sg
0 1424 1090 0 0 -1424 983 3734 4 MP
PP
-1090 0 0 1424 1090 0 0 -1424 983 3734 5 MP stroke
4 w
DO
SO
6 w
0 sg
 983 2310 mt 2073 2310 L
 983 3734 mt 2073 3734 L
2073 3734 mt 2073 2310 L
 983 3734 mt  983 2310 L
 983 3734 mt 2073 3734 L
 983 3734 mt  983 2310 L
 983 3734 mt  983 3719 L
 983 2310 mt  983 2324 L
 950 3879 mt 
(0) s
2073 3734 mt 2073 3719 L
2073 2310 mt 2073 2324 L
2007 3879 mt 
(50) s
 983 3734 mt  997 3734 L
2073 3734 mt 2058 3734 L
 812 3778 mt 
(-1) s
 983 3378 mt  997 3378 L
2073 3378 mt 2058 3378 L
 882 3422 mt 
(0) s
 983 3022 mt  997 3022 L
2073 3022 mt 2058 3022 L
 882 3066 mt 
(1) s
 983 2666 mt  997 2666 L
2073 2666 mt 2058 2666 L
 882 2710 mt 
(2) s
 983 2310 mt  997 2310 L
2073 2310 mt 2058 2310 L
 882 2354 mt 
(3) s
 983 2310 mt 2073 2310 L
 983 3734 mt 2073 3734 L
2073 3734 mt 2073 2310 L
 983 3734 mt  983 2310 L
gs 983 2310 1091 1425 rc
DO
22 8 22 7 22 8 22 8 21 9 22 8 22 8 22 9 
22 9 21 9 22 9 22 9 22 9 22 9 21 9 22 10 
22 9 22 10 22 9 21 10 22 9 22 10 22 9 22 10 
21 9 22 10 22 9 22 9 22 9 21 9 22 8 22 9 
22 8 22 8 21 8 22 7 22 7 22 6 22 7 21 5 
22 5 22 5 22 4 22 3 21 3 22 1 22 1 22 0 
22 -470 1004 3378 50 MP stroke
DA
c8
22 4 22 5 22 5 22 5 21 6 22 5 22 5 22 6 
22 6 21 6 22 6 22 7 22 6 22 7 21 6 22 7 
22 8 22 7 22 7 21 8 22 8 22 8 22 8 22 8 
21 9 22 8 22 9 22 9 22 9 21 10 22 9 22 10 
22 9 22 10 21 10 22 10 22 11 22 10 22 11 21 11 
22 10 22 11 22 11 22 11 21 12 22 11 22 11 22 347 
22 -802 1004 3378 50 MP stroke
SO
c9
22 7 22 8 22 9 22 10 21 10 22 10 22 12 22 12 
22 13 21 14 22 15 22 15 22 17 22 17 21 18 22 19 
22 19 22 21 22 22 21 22 22 23 22 25 22 25 22 26 
21 26 22 28 22 28 22 29 22 29 21 30 22 31 22 30 
22 31 22 31 21 31 22 30 22 29 22 28 22 26 21 24 
22 20 22 16 22 11 22 2 21 -8 22 -22 22 -39 22 -64 
22 -687 1004 3378 50 MP stroke
gr

c9
0 sg
1487 2215 mt 
(Y) s
1 sg
0 1424 1090 0 0 -1424 2479 3734 4 MP
PP
-1090 0 0 1424 1090 0 0 -1424 2479 3734 5 MP stroke
4 w
DO
SO
6 w
0 sg
2479 2310 mt 3569 2310 L
2479 3734 mt 3569 3734 L
3569 3734 mt 3569 2310 L
2479 3734 mt 2479 2310 L
2479 3734 mt 3569 3734 L
2479 3734 mt 2479 2310 L
2479 3734 mt 2479 3719 L
2479 2310 mt 2479 2324 L
2446 3879 mt 
(0) s
3569 3734 mt 3569 3719 L
3569 2310 mt 3569 2324 L
3503 3879 mt 
(50) s
2479 3734 mt 2493 3734 L
3569 3734 mt 3554 3734 L
2208 3778 mt 
(-0.5) s
2479 3449 mt 2493 3449 L
3569 3449 mt 3554 3449 L
2378 3493 mt 
(0) s
2479 3164 mt 2493 3164 L
3569 3164 mt 3554 3164 L
2278 3208 mt 
(0.5) s
2479 2879 mt 2493 2879 L
3569 2879 mt 3554 2879 L
2378 2923 mt 
(1) s
2479 2594 mt 2493 2594 L
3569 2594 mt 3554 2594 L
2278 2638 mt 
(1.5) s
2479 2310 mt 2493 2310 L
3569 2310 mt 3554 2310 L
2378 2354 mt 
(2) s
2479 2310 mt 3569 2310 L
2479 3734 mt 3569 3734 L
3569 3734 mt 3569 2310 L
2479 3734 mt 2479 2310 L
gs 2479 2310 1091 1425 rc
DO
22 11 22 12 22 12 22 11 21 12 22 12 22 11 22 12 
22 12 21 11 22 12 22 11 22 12 22 11 21 11 22 10 
22 11 22 10 22 10 21 9 22 9 22 8 22 8 22 8 
21 7 22 6 22 5 22 5 22 4 21 2 22 2 22 1 
22 -1 22 -1 21 -3 22 -5 22 -6 22 -7 22 -9 21 -12 
22 -13 22 -15 22 -17 22 -20 21 -23 22 -25 22 -27 22 -31 
22 -311 2500 3449 50 MP stroke
DA
c8
22 7 22 7 22 7 22 7 21 8 22 8 22 8 22 8 
22 8 21 9 22 9 22 9 22 10 22 9 21 10 22 10 
22 10 22 11 22 11 21 11 22 11 22 12 22 11 22 12 
21 12 22 13 22 12 22 13 22 13 21 14 22 13 22 14 
22 14 22 14 21 14 22 14 22 15 22 15 22 14 21 15 
22 16 22 15 22 15 22 15 21 16 22 15 22 16 22 56 
22 -698 2500 3449 50 MP stroke
SO
c9
22 16 22 16 22 18 22 18 21 19 22 21 22 21 22 22 
22 23 21 24 22 25 22 26 22 26 22 28 21 28 22 29 
22 29 22 30 22 31 21 31 22 31 22 31 22 32 22 31 
21 31 22 31 22 30 22 29 22 28 21 27 22 25 22 23 
22 20 22 19 21 15 22 12 22 8 22 4 22 0 21 -5 
22 -10 22 -15 22 -20 22 -26 21 -30 22 -34 22 -37 22 -37 
22 -659 2500 3449 50 MP stroke
gr

c9
0 sg
2980 2215 mt 
(C) s
1 sg
0 1424 1091 0 0 -1424 3975 3734 4 MP
PP
-1091 0 0 1424 1091 0 0 -1424 3975 3734 5 MP stroke
4 w
DO
SO
6 w
0 sg
3975 2310 mt 5066 2310 L
3975 3734 mt 5066 3734 L
5066 3734 mt 5066 2310 L
3975 3734 mt 3975 2310 L
3975 3734 mt 5066 3734 L
3975 3734 mt 3975 2310 L
3975 3734 mt 3975 3719 L
3975 2310 mt 3975 2324 L
3942 3879 mt 
(0) s
5066 3734 mt 5066 3719 L
5066 2310 mt 5066 2324 L
5000 3879 mt 
(50) s
3975 3734 mt 3989 3734 L
5066 3734 mt 5051 3734 L
3804 3778 mt 
(-5) s
3975 3378 mt 3989 3378 L
5066 3378 mt 5051 3378 L
3874 3422 mt 
(0) s
3975 3022 mt 3989 3022 L
5066 3022 mt 5051 3022 L
3874 3066 mt 
(5) s
3975 2666 mt 3989 2666 L
5066 2666 mt 5051 2666 L
3807 2710 mt 
(10) s
3975 2310 mt 3989 2310 L
5066 2310 mt 5051 2310 L
3807 2354 mt 
(15) s
3975 2310 mt 5066 2310 L
3975 3734 mt 5066 3734 L
5066 3734 mt 5066 2310 L
3975 3734 mt 3975 2310 L
gs 3975 2310 1092 1425 rc
DO
22 2 22 2 22 3 22 2 22 2 21 3 22 3 22 3 
22 3 22 3 22 3 21 4 22 4 22 4 22 4 22 4 
21 5 22 4 22 5 22 6 22 5 22 6 21 6 22 6 
22 7 22 7 22 7 21 7 22 8 22 9 22 8 22 9 
22 9 21 10 22 10 22 11 22 11 22 12 21 12 22 12 
22 14 22 13 22 15 22 14 21 16 22 16 22 17 22 18 
22 -346 3996 3378 50 MP stroke
DA
c8
22 1 22 1 22 1 22 1 22 1 21 1 22 2 22 1 
22 1 22 2 22 2 21 1 22 2 22 2 22 2 22 2 
21 2 22 3 22 2 22 3 22 3 22 3 21 3 22 3 
22 4 22 3 22 4 21 4 22 5 22 4 22 5 22 5 
22 5 21 6 22 5 22 7 22 6 22 7 21 7 22 7 
22 8 22 8 22 9 22 9 21 9 22 10 22 11 22 528 
22 -714 3996 3378 50 MP stroke
SO
c9
22 -2 22 -2 22 -2 22 -2 22 -1 21 -2 22 0 22 -1 
22 0 22 1 22 1 21 2 22 2 22 3 22 4 22 4 
21 6 22 6 22 8 22 9 22 10 22 11 21 13 22 14 
22 16 22 18 22 20 21 21 22 24 22 26 22 28 22 31 
22 33 21 35 22 38 22 40 22 43 22 44 21 46 22 46 
22 46 22 43 22 38 22 31 21 19 22 0 22 -27 22 -66 
22 -555 3996 3378 50 MP stroke
gr

c9
0 sg
4503 2215 mt 
(I) s
1 sg
0 1424 1090 0 0 -1424 5472 3734 4 MP
PP
-1090 0 0 1424 1090 0 0 -1424 5472 3734 5 MP stroke
4 w
DO
SO
6 w
0 sg
5472 2310 mt 6562 2310 L
5472 3734 mt 6562 3734 L
6562 3734 mt 6562 2310 L
5472 3734 mt 5472 2310 L
5472 3734 mt 6562 3734 L
5472 3734 mt 5472 2310 L
5472 3734 mt 5472 3719 L
5472 2310 mt 5472 2324 L
5439 3879 mt 
(0) s
6562 3734 mt 6562 3719 L
6562 2310 mt 6562 2324 L
6496 3879 mt 
(50) s
5472 3734 mt 5486 3734 L
6562 3734 mt 6547 3734 L
5301 3778 mt 
(-1) s
5472 3378 mt 5486 3378 L
6562 3378 mt 6547 3378 L
5371 3422 mt 
(0) s
5472 3022 mt 5486 3022 L
6562 3022 mt 6547 3022 L
5371 3066 mt 
(1) s
5472 2666 mt 5486 2666 L
6562 2666 mt 6547 2666 L
5371 2710 mt 
(2) s
5472 2310 mt 5486 2310 L
6562 2310 mt 6547 2310 L
5371 2354 mt 
(3) s
5472 2310 mt 6562 2310 L
5472 3734 mt 6562 3734 L
6562 3734 mt 6562 2310 L
5472 3734 mt 5472 2310 L
gs 5472 2310 1091 1425 rc
DO
22 6 22 5 22 6 22 6 21 6 22 7 22 6 22 7 
22 6 21 7 22 7 22 8 22 7 22 8 21 7 22 8 
22 8 22 8 22 8 21 8 22 8 22 9 22 8 22 9 
21 8 22 9 22 8 22 9 22 8 21 9 22 8 22 9 
22 8 22 8 21 8 22 8 22 8 22 8 22 7 21 7 
22 7 22 6 22 6 22 6 21 5 22 5 22 4 22 4 
22 -346 5493 3378 50 MP stroke
DA
c8
22 3 22 3 22 3 22 4 21 3 22 4 22 3 22 4 
22 4 21 4 22 5 22 4 22 5 22 4 21 5 22 5 
22 5 22 6 22 5 21 6 22 6 22 6 22 6 22 6 
21 7 22 7 22 7 22 7 22 7 21 7 22 8 22 8 
22 8 22 8 21 8 22 8 22 9 22 9 22 9 21 9 
22 9 22 10 22 10 22 10 21 9 22 11 22 10 22 544 
22 -841 5493 3378 50 MP stroke
SO
c9
22 1 22 1 22 1 22 3 21 2 22 4 22 4 22 5 
22 5 21 7 22 7 22 8 22 9 22 10 21 11 22 12 
22 13 22 14 22 16 21 17 22 19 22 20 22 21 22 24 
21 24 22 27 22 28 22 30 22 33 21 34 22 36 22 37 
22 40 22 42 21 43 22 45 22 46 22 47 22 47 21 46 
22 43 22 40 22 34 22 24 21 10 22 -10 22 -39 22 -78 
22 -670 5493 3378 50 MP stroke
gr

c9
0 sg
5983 2215 mt 
(L) s
5455 3777 mt 
( ) s
6546 2352 mt 
( ) s
1 sg
0 480 1074 0 0 -480 5532 3675 4 MP
PP
-1074 0 0 480 1074 0 0 -480 5532 3675 5 MP stroke
4 w
DO
SO
6 w
0 sg
5532 3195 mt 6606 3195 L
5532 3675 mt 6606 3675 L
6606 3675 mt 6606 3195 L
5532 3675 mt 5532 3195 L
5532 3675 mt 6606 3675 L
5532 3675 mt 5532 3195 L
5532 3195 mt 6606 3195 L
5532 3675 mt 6606 3675 L
6606 3675 mt 6606 3195 L
5532 3675 mt 5532 3195 L
5998 3330 mt 
(frictionless) s
gs 5532 3195 1075 481 rc
DO
358 0 5603 3287 2 MP stroke
SO
gr

5998 3478 mt 
(RE) s
gs 5532 3195 1075 481 rc
DA
c8
358 0 5603 3435 2 MP stroke
SO
gr

c8
0 sg
5998 3626 mt 
(learning) s
gs 5532 3195 1075 481 rc
c9
358 0 5603 3582 2 MP stroke
gr

c9

end %%Color Dict

eplot
%%EndObject

epage
end

showpage

%%Trailer
%%EOF
