%!PS-Adobe-3.0 EPSF-3.0
%%Creator: MATLAB, The MathWorks, Inc. Version 7.14.0.739 (R2012a). Operating System: Darwin 12.4.0 Darwin Kernel Version 12.4.0: Wed May  1 17:57:12 PDT 2013; root:xnu-2050.24.15~1/RELEASE_X86_64 x86_64.
%%Title: /Users/fckw/Dropbox/PhD/finfric/irf.eps
%%CreationDate: 07/14/2013  19:01:06
%%DocumentNeededFonts: Helvetica
%%DocumentProcessColors: Cyan Magenta Yellow Black
%%LanguageLevel: 2
%%Pages: 1
%%BoundingBox:   -69   184   680   608
%%EndComments

%%BeginProlog
% MathWorks dictionary
/MathWorks 160 dict begin
% definition operators
/bdef {bind def} bind def
/ldef {load def} bind def
/xdef {exch def} bdef
/xstore {exch store} bdef
% operator abbreviations
/c  /clip ldef
/cc /concat ldef
/cp /closepath ldef
/gr /grestore ldef
/gs /gsave ldef
/mt /moveto ldef
/np /newpath ldef
/cm /currentmatrix ldef
/sm /setmatrix ldef
/rm /rmoveto ldef
/rl /rlineto ldef
/s {show newpath} bdef
/sc {setcmykcolor} bdef
/sr /setrgbcolor ldef
/sg /setgray ldef
/w /setlinewidth ldef
/j /setlinejoin ldef
/cap /setlinecap ldef
/rc {rectclip} bdef
/rf {rectfill} bdef
% page state control
/pgsv () def
/bpage {/pgsv save def} bdef
/epage {pgsv restore} bdef
/bplot /gsave ldef
/eplot {stroke grestore} bdef
% orientation switch
/portraitMode 0 def /landscapeMode 1 def /rotateMode 2 def
% coordinate system mappings
/dpi2point 0 def
% font control
/FontSize 0 def
/FMS {/FontSize xstore findfont [FontSize 0 0 FontSize neg 0 0]
  makefont setfont} bdef
/reencode {exch dup where {pop load} {pop StandardEncoding} ifelse
  exch dup 3 1 roll findfont dup length dict begin
  { 1 index /FID ne {def}{pop pop} ifelse } forall
  /Encoding exch def currentdict end definefont pop} bdef
/isroman {findfont /CharStrings get /Agrave known} bdef
/FMSR {3 1 roll 1 index dup isroman {reencode} {pop pop} ifelse
  exch FMS} bdef
/csm {1 dpi2point div -1 dpi2point div scale neg translate
 dup landscapeMode eq {pop -90 rotate}
  {rotateMode eq {90 rotate} if} ifelse} bdef
% line types: solid, dotted, dashed, dotdash
/SO { [] 0 setdash } bdef
/DO { [.5 dpi2point mul 4 dpi2point mul] 0 setdash } bdef
/DA { [6 dpi2point mul] 0 setdash } bdef
/DD { [.5 dpi2point mul 4 dpi2point mul 6 dpi2point mul 4
  dpi2point mul] 0 setdash } bdef
% macros for lines and objects
/L {lineto stroke} bdef
/MP {3 1 roll moveto 1 sub {rlineto} repeat} bdef
/AP {{rlineto} repeat} bdef
/PDlw -1 def
/W {/PDlw currentlinewidth def setlinewidth} def
/PP {closepath eofill} bdef
/DP {closepath stroke} bdef
/MR {4 -2 roll moveto dup  0 exch rlineto exch 0 rlineto
  neg 0 exch rlineto closepath} bdef
/FR {MR stroke} bdef
/PR {MR fill} bdef
/L1i {{currentfile picstr readhexstring pop} image} bdef
/tMatrix matrix def
/MakeOval {newpath tMatrix currentmatrix pop translate scale
0 0 1 0 360 arc tMatrix setmatrix} bdef
/FO {MakeOval stroke} bdef
/PO {MakeOval fill} bdef
/PD {currentlinewidth 2 div 0 360 arc fill
   PDlw -1 eq not {PDlw w /PDlw -1 def} if} def
/FA {newpath tMatrix currentmatrix pop translate scale
  0 0 1 5 -2 roll arc tMatrix setmatrix stroke} bdef
/PA {newpath tMatrix currentmatrix pop	translate 0 0 moveto scale
  0 0 1 5 -2 roll arc closepath tMatrix setmatrix fill} bdef
/FAn {newpath tMatrix currentmatrix pop translate scale
  0 0 1 5 -2 roll arcn tMatrix setmatrix stroke} bdef
/PAn {newpath tMatrix currentmatrix pop translate 0 0 moveto scale
  0 0 1 5 -2 roll arcn closepath tMatrix setmatrix fill} bdef
/vradius 0 def /hradius 0 def /lry 0 def
/lrx 0 def /uly 0 def /ulx 0 def /rad 0 def
/MRR {/vradius xdef /hradius xdef /lry xdef /lrx xdef /uly xdef
  /ulx xdef newpath tMatrix currentmatrix pop ulx hradius add uly
  vradius add translate hradius vradius scale 0 0 1 180 270 arc 
  tMatrix setmatrix lrx hradius sub uly vradius add translate
  hradius vradius scale 0 0 1 270 360 arc tMatrix setmatrix
  lrx hradius sub lry vradius sub translate hradius vradius scale
  0 0 1 0 90 arc tMatrix setmatrix ulx hradius add lry vradius sub
  translate hradius vradius scale 0 0 1 90 180 arc tMatrix setmatrix
  closepath} bdef
/FRR {MRR stroke } bdef
/PRR {MRR fill } bdef
/MlrRR {/lry xdef /lrx xdef /uly xdef /ulx xdef /rad lry uly sub 2 div def
  newpath tMatrix currentmatrix pop ulx rad add uly rad add translate
  rad rad scale 0 0 1 90 270 arc tMatrix setmatrix lrx rad sub lry rad
  sub translate rad rad scale 0 0 1 270 90 arc tMatrix setmatrix
  closepath} bdef
/FlrRR {MlrRR stroke } bdef
/PlrRR {MlrRR fill } bdef
/MtbRR {/lry xdef /lrx xdef /uly xdef /ulx xdef /rad lrx ulx sub 2 div def
  newpath tMatrix currentmatrix pop ulx rad add uly rad add translate
  rad rad scale 0 0 1 180 360 arc tMatrix setmatrix lrx rad sub lry rad
  sub translate rad rad scale 0 0 1 0 180 arc tMatrix setmatrix
  closepath} bdef
/FtbRR {MtbRR stroke } bdef
/PtbRR {MtbRR fill } bdef
/stri 6 array def /dtri 6 array def
/smat 6 array def /dmat 6 array def
/tmat1 6 array def /tmat2 6 array def /dif 3 array def
/asub {/ind2 exch def /ind1 exch def dup dup
  ind1 get exch ind2 get sub exch } bdef
/tri_to_matrix {
  2 0 asub 3 1 asub 4 0 asub 5 1 asub
  dup 0 get exch 1 get 7 -1 roll astore } bdef
/compute_transform {
  dmat dtri tri_to_matrix tmat1 invertmatrix 
  smat stri tri_to_matrix tmat2 concatmatrix } bdef
/ds {stri astore pop} bdef
/dt {dtri astore pop} bdef
/db {2 copy /cols xdef /rows xdef mul dup 3 mul string
  currentfile 
  3 index 0 eq {/ASCIIHexDecode filter}
  {/ASCII85Decode filter 3 index 2 eq {/RunLengthDecode filter} if }
  ifelse exch readstring pop
  dup 0 3 index getinterval /rbmap xdef
  dup 2 index dup getinterval /gbmap xdef
  1 index dup 2 mul exch getinterval /bbmap xdef pop pop}bdef
/it {gs np dtri aload pop moveto lineto lineto cp c
  cols rows 8 compute_transform 
  rbmap gbmap bbmap true 3 colorimage gr}bdef
/il {newpath moveto lineto stroke}bdef
currentdict end def
%%EndProlog

%%BeginSetup
MathWorks begin

0 cap

end
%%EndSetup

%%Page: 1 1
%%BeginPageSetup
%%PageBoundingBox:   -69   184   680   608
MathWorks begin
bpage
%%EndPageSetup

%%BeginObject: obj1
bplot

/dpi2point 12 def
portraitMode -0828 7296 csm

    0     0  8998  5081 rc
85 dict begin %Colortable dictionary
/c0 { 0.000000 0.000000 0.000000 sr} bdef
/c1 { 1.000000 1.000000 1.000000 sr} bdef
/c2 { 0.900000 0.000000 0.000000 sr} bdef
/c3 { 0.000000 0.820000 0.000000 sr} bdef
/c4 { 0.000000 0.000000 0.800000 sr} bdef
/c5 { 0.910000 0.820000 0.320000 sr} bdef
/c6 { 1.000000 0.260000 0.820000 sr} bdef
/c7 { 0.000000 0.820000 0.820000 sr} bdef
c0
1 j
1 sg
   0    0 8999 5082 rf
6 w
0 1734 1382 0 0 -1734 1170 2115 4 MP
PP
-1382 0 0 1734 1382 0 0 -1734 1170 2115 5 MP stroke
4 w
DO
SO
6 w
0 sg
1170 2115 mt 2552 2115 L
1170  381 mt 2552  381 L
1170 2115 mt 1170  381 L
2552 2115 mt 2552  381 L
1170 2115 mt 2552 2115 L
1170 2115 mt 1170  381 L
1170 2115 mt 1170 2097 L
1170  381 mt 1170  398 L
%%IncludeResource: font Helvetica
/Helvetica /ISOLatin1Encoding 120 FMSR

1137 2260 mt 
(0) s
1861 2115 mt 1861 2097 L
1861  381 mt 1861  398 L
1795 2260 mt 
(50) s
2552 2115 mt 2552 2097 L
2552  381 mt 2552  398 L
2452 2260 mt 
(100) s
1170 2115 mt 1187 2115 L
2552 2115 mt 2534 2115 L
 999 2159 mt 
(-4) s
1170 1826 mt 1187 1826 L
2552 1826 mt 2534 1826 L
 999 1870 mt 
(-2) s
1170 1537 mt 1187 1537 L
2552 1537 mt 2534 1537 L
1069 1581 mt 
(0) s
1170 1248 mt 1187 1248 L
2552 1248 mt 2534 1248 L
1069 1292 mt 
(2) s
1170  959 mt 1187  959 L
2552  959 mt 2534  959 L
1069 1003 mt 
(4) s
1170  670 mt 1187  670 L
2552  670 mt 2534  670 L
1069  714 mt 
(6) s
1170  381 mt 1187  381 L
2552  381 mt 2534  381 L
1069  425 mt 
(8) s
1170 2115 mt 2552 2115 L
1170  381 mt 2552  381 L
1170 2115 mt 1170  381 L
2552 2115 mt 2552  381 L
gs 1170 381 1383 1735 rc
DO
14 1 14 0 14 1 14 0 14 1 13 0 14 1 14 0 
14 1 14 0 14 1 13 0 14 1 14 0 14 1 14 0 
13 1 14 1 14 0 14 1 14 0 14 1 13 0 14 1 
14 0 14 1 14 0 13 0 14 1 14 0 14 1 14 0 
14 1 13 0 14 1 14 0 14 0 14 1 13 0 14 0 
14 1 14 0 14 0 14 0 13 1 14 0 14 0 14 0 
14 0 13 0 14 1 14 0 14 0 14 0 14 -1 13 0 
14 0 14 0 14 0 14 -1 14 0 13 0 14 -1 14 0 
14 -1 14 -1 13 -1 14 0 14 -1 14 -1 14 -2 14 -1 
13 -1 14 -2 14 -1 14 -2 14 -2 13 -2 14 -2 14 -2 
14 -3 14 -2 14 -3 13 -3 14 -3 14 -4 14 -4 14 -3 
13 -5 14 -4 14 -5 14 -5 14 -5 14 -6 13 -6 14 -6 
14 -7 14 -7 14 -8 1183 1537 100 MP stroke
DA
/c8 { 0.000000 0.000000 1.000000 sr} bdef
c8
14 0 14 0 14 1 14 0 14 0 13 1 14 0 14 0 
14 1 14 0 14 0 13 1 14 0 14 1 14 0 14 0 
13 1 14 0 14 1 14 0 14 1 14 0 13 0 14 1 
14 0 14 1 14 0 13 1 14 0 14 1 14 0 14 1 
14 0 13 1 14 0 14 1 14 0 14 1 13 1 14 0 
14 1 14 0 14 1 14 0 13 1 14 1 14 0 14 1 
14 0 13 1 14 1 14 0 14 1 14 0 14 1 13 1 
14 0 14 1 14 1 14 0 14 1 13 0 14 1 14 1 
14 0 14 1 13 0 14 1 14 1 14 0 14 1 14 0 
13 1 14 0 14 1 14 0 14 1 13 0 14 1 14 0 
14 1 14 0 14 0 13 1 14 0 14 0 14 0 14 0 
13 0 14 0 14 0 14 0 14 0 14 0 13 -1 14 0 
14 -1 14 0 14 -59 1183 1537 100 MP stroke
SO
/c9 { 1.000000 0.000000 0.000000 sr} bdef
c9
14 5 14 6 14 7 14 6 14 8 13 7 14 9 14 9 
14 9 14 10 14 10 13 11 14 12 14 12 14 12 14 13 
13 14 14 15 14 15 14 15 14 16 14 17 13 17 14 18 
14 18 14 19 14 19 13 20 14 21 14 21 14 21 14 22 
14 23 13 23 14 23 14 24 14 24 14 24 13 25 14 25 
14 25 14 26 14 26 14 25 13 26 14 26 14 26 14 26 
14 25 13 26 14 25 14 25 14 24 14 24 14 23 13 22 
14 22 14 21 14 20 14 19 14 18 13 16 14 15 14 14 
14 12 14 10 13 8 14 6 14 5 14 1 14 0 14 -3 
13 -5 14 -9 14 -11 14 -14 14 -17 13 -20 14 -23 14 -26 
14 -30 14 -32 14 -36 13 -39 14 -42 14 -44 14 -47 14 -48 
13 -51 14 -51 14 -53 14 -51 14 -51 14 -49 13 -45 14 -40 
14 -34 14 -24 14 -14 1183 1537 100 MP stroke
gr

c9
0 sg
1820  286 mt 
(P) s
1 sg
0 1734 1383 0 0 -1734 3024 2115 4 MP
PP
-1383 0 0 1734 1383 0 0 -1734 3024 2115 5 MP stroke
4 w
DO
SO
6 w
0 sg
3024 2115 mt 4407 2115 L
3024  381 mt 4407  381 L
3024 2115 mt 3024  381 L
4407 2115 mt 4407  381 L
3024 2115 mt 4407 2115 L
3024 2115 mt 3024  381 L
3024 2115 mt 3024 2097 L
3024  381 mt 3024  398 L
2991 2260 mt 
(0) s
3715 2115 mt 3715 2097 L
3715  381 mt 3715  398 L
3649 2260 mt 
(50) s
4407 2115 mt 4407 2097 L
4407  381 mt 4407  398 L
4307 2260 mt 
(100) s
3024 2115 mt 3041 2115 L
4407 2115 mt 4389 2115 L
2853 2159 mt 
(-5) s
3024 1681 mt 3041 1681 L
4407 1681 mt 4389 1681 L
2923 1725 mt 
(0) s
3024 1248 mt 3041 1248 L
4407 1248 mt 4389 1248 L
2923 1292 mt 
(5) s
3024  814 mt 3041  814 L
4407  814 mt 4389  814 L
2856  858 mt 
(10) s
3024  381 mt 3041  381 L
4407  381 mt 4389  381 L
2856  425 mt 
(15) s
3024 2115 mt 4407 2115 L
3024  381 mt 4407  381 L
3024 2115 mt 3024  381 L
4407 2115 mt 4407  381 L
gs 3024 381 1384 1735 rc
DO
14 1 14 0 14 0 14 1 14 0 13 0 14 1 14 0 
14 0 14 1 14 0 13 0 14 1 14 0 14 0 14 1 
14 0 13 1 14 0 14 0 14 1 14 0 14 1 13 0 
14 0 14 1 14 0 14 1 14 0 13 1 14 0 14 1 
14 0 14 1 14 0 13 1 14 0 14 1 14 1 14 0 
14 1 13 0 14 1 14 1 14 0 14 1 14 1 13 1 
14 0 14 1 14 1 14 1 13 1 14 1 14 1 14 1 
14 1 14 1 13 1 14 1 14 1 14 1 14 2 14 1 
13 1 14 2 14 1 14 2 14 1 14 2 13 2 14 1 
14 2 14 2 14 2 14 2 13 2 14 3 14 2 14 3 
14 2 14 3 13 3 14 3 14 3 14 3 14 4 14 3 
13 4 14 4 14 4 14 4 14 5 14 4 13 5 14 6 
14 5 14 6 14 -182 3037 1681 100 MP stroke
DA
c8
14 0 14 0 14 1 14 0 14 0 13 1 14 0 14 0 
14 1 14 0 14 0 13 1 14 0 14 0 14 1 14 0 
14 1 13 0 14 0 14 1 14 0 14 1 14 0 13 1 
14 1 14 0 14 1 14 0 14 1 13 1 14 0 14 1 
14 1 14 0 14 1 13 1 14 1 14 1 14 1 14 1 
14 1 13 1 14 1 14 1 14 1 14 1 14 1 13 2 
14 1 14 1 14 2 14 1 13 2 14 2 14 1 14 2 
14 2 14 2 13 2 14 2 14 2 14 3 14 2 14 3 
13 2 14 3 14 3 14 3 14 3 14 3 13 4 14 3 
14 4 14 4 14 4 14 4 13 5 14 4 14 5 14 5 
14 6 14 6 13 5 14 7 14 6 14 7 14 7 14 8 
13 7 14 9 14 8 14 9 14 10 14 10 13 10 14 11 
14 12 14 -9 14 -260 3037 1681 100 MP stroke
SO
c9
14 -3 14 -4 14 -3 14 -4 14 -3 13 -3 14 -3 14 -3 
14 -3 14 -3 14 -2 13 -3 14 -2 14 -2 14 -2 14 -2 
14 -2 13 -1 14 -1 14 -1 14 -1 14 -1 14 0 13 0 
14 0 14 1 14 1 14 1 14 2 13 2 14 2 14 3 
14 3 14 4 14 4 13 4 14 5 14 6 14 6 14 7 
14 7 13 8 14 9 14 9 14 10 14 10 14 11 13 12 
14 13 14 14 14 14 14 15 13 16 14 17 14 18 14 19 
14 19 14 21 13 21 14 23 14 23 14 25 14 25 14 27 
13 27 14 29 14 29 14 31 14 31 14 32 13 33 14 34 
14 34 14 35 14 36 14 35 13 36 14 36 14 35 14 35 
14 35 14 32 13 32 14 29 14 27 14 23 14 20 14 15 
13 9 14 3 14 -5 14 -14 14 -24 14 -37 13 -52 14 -67 
14 -80 14 29 14 -716 3037 1681 100 MP stroke
gr

c9
0 sg
3698  286 mt 
(I) s
1 sg
0 1734 1383 0 0 -1734 4879 2115 4 MP
PP
-1383 0 0 1734 1383 0 0 -1734 4879 2115 5 MP stroke
4 w
DO
SO
6 w
0 sg
4879 2115 mt 6262 2115 L
4879  381 mt 6262  381 L
4879 2115 mt 4879  381 L
6262 2115 mt 6262  381 L
4879 2115 mt 6262 2115 L
4879 2115 mt 4879  381 L
4879 2115 mt 4879 2097 L
4879  381 mt 4879  398 L
4846 2260 mt 
(0) s
5570 2115 mt 5570 2097 L
5570  381 mt 5570  398 L
5504 2260 mt 
(50) s
6262 2115 mt 6262 2097 L
6262  381 mt 6262  398 L
6162 2260 mt 
(100) s
4879 2115 mt 4896 2115 L
6262 2115 mt 6244 2115 L
4708 2159 mt 
(-1) s
4879 1768 mt 4896 1768 L
6262 1768 mt 6244 1768 L
4778 1812 mt 
(0) s
4879 1421 mt 4896 1421 L
6262 1421 mt 6244 1421 L
4778 1465 mt 
(1) s
4879 1074 mt 4896 1074 L
6262 1074 mt 6244 1074 L
4778 1118 mt 
(2) s
4879  727 mt 4896  727 L
6262  727 mt 6244  727 L
4778  771 mt 
(3) s
4879  381 mt 4896  381 L
6262  381 mt 6244  381 L
4778  425 mt 
(4) s
4879 2115 mt 6262 2115 L
4879  381 mt 6262  381 L
4879 2115 mt 4879  381 L
6262 2115 mt 6262  381 L
gs 4879 381 1384 1735 rc
DO
14 1 14 2 14 1 14 1 14 1 13 2 14 1 14 1 
14 2 14 1 14 1 13 2 14 1 14 1 14 2 14 1 
14 2 13 1 14 2 14 1 14 2 14 1 14 2 13 1 
14 2 14 1 14 2 14 2 14 1 13 2 14 2 14 1 
14 2 14 2 14 2 13 1 14 2 14 2 14 2 14 2 
14 2 13 2 14 2 14 2 14 3 14 2 14 2 13 2 
14 3 14 2 14 2 14 3 13 2 14 3 14 3 14 2 
14 3 14 3 13 3 14 3 14 3 14 3 14 3 14 4 
13 3 14 4 14 4 14 3 14 4 14 4 13 4 14 5 
14 4 14 5 14 4 14 5 13 5 14 6 14 5 14 6 
14 5 14 6 13 7 14 6 14 7 14 7 14 7 14 8 
13 8 14 8 14 9 14 9 14 9 14 9 13 11 14 10 
14 11 14 12 14 -527 4892 1768 100 MP stroke
DA
c8
14 2 14 2 14 2 14 3 14 2 13 2 14 3 14 2 
14 3 14 2 14 3 13 2 14 3 14 3 14 2 14 3 
14 3 13 3 14 3 14 3 14 3 14 3 14 3 13 3 
14 3 14 3 14 4 14 3 14 3 13 4 14 3 14 4 
14 3 14 4 14 4 13 4 14 3 14 4 14 4 14 4 
14 4 13 4 14 5 14 4 14 4 14 5 14 4 13 4 
14 5 14 4 14 5 14 5 13 5 14 4 14 5 14 5 
14 5 14 5 13 5 14 5 14 5 14 5 14 6 14 5 
13 5 14 6 14 5 14 5 14 6 14 5 13 6 14 5 
14 6 14 5 14 6 14 6 13 5 14 6 14 5 14 6 
14 5 14 5 13 6 14 5 14 5 14 6 14 5 14 5 
13 5 14 4 14 5 14 5 14 4 14 4 13 4 14 4 
14 4 14 5 14 -527 4892 1768 100 MP stroke
SO
c9
14 9 14 11 14 10 14 12 14 11 13 13 14 13 14 13 
14 14 14 15 14 16 13 16 14 16 14 17 14 18 14 19 
14 19 13 19 14 21 14 21 14 21 14 22 14 23 13 23 
14 24 14 25 14 25 14 26 14 26 13 26 14 28 14 27 
14 29 14 28 14 29 13 30 14 29 14 31 14 30 14 31 
14 31 13 31 14 31 14 31 14 31 14 31 14 32 13 31 
14 30 14 31 14 30 14 29 13 30 14 28 14 28 14 27 
14 26 14 26 13 24 14 23 14 22 14 20 14 19 14 17 
13 15 14 14 14 12 14 9 14 8 14 5 13 2 14 0 
14 -3 14 -5 14 -9 14 -11 13 -15 14 -18 14 -21 14 -24 
14 -27 14 -30 13 -34 14 -36 14 -40 14 -42 14 -44 14 -46 
13 -48 14 -49 14 -49 14 -49 14 -47 14 -45 13 -41 14 -36 
14 -30 14 -32 14 -527 4892 1768 100 MP stroke
gr

c9
0 sg
5530  286 mt 
(Y) s
1 sg
0 1734 1382 0 0 -1734 6734 2115 4 MP
PP
-1382 0 0 1734 1382 0 0 -1734 6734 2115 5 MP stroke
4 w
DO
SO
6 w
0 sg
6734 2115 mt 8116 2115 L
6734  381 mt 8116  381 L
6734 2115 mt 6734  381 L
8116 2115 mt 8116  381 L
6734 2115 mt 8116 2115 L
6734 2115 mt 6734  381 L
6734 2115 mt 6734 2097 L
6734  381 mt 6734  398 L
6701 2260 mt 
(0) s
7425 2115 mt 7425 2097 L
7425  381 mt 7425  398 L
7359 2260 mt 
(50) s
8116 2115 mt 8116 2097 L
8116  381 mt 8116  398 L
8016 2260 mt 
(100) s
6734 2115 mt 6751 2115 L
8116 2115 mt 8098 2115 L
6563 2159 mt 
(-1) s
6734 1768 mt 6751 1768 L
8116 1768 mt 8098 1768 L
6633 1812 mt 
(0) s
6734 1421 mt 6751 1421 L
8116 1421 mt 8098 1421 L
6633 1465 mt 
(1) s
6734 1074 mt 6751 1074 L
8116 1074 mt 8098 1074 L
6633 1118 mt 
(2) s
6734  727 mt 6751  727 L
8116  727 mt 8098  727 L
6633  771 mt 
(3) s
6734  381 mt 6751  381 L
8116  381 mt 8098  381 L
6633  425 mt 
(4) s
6734 2115 mt 8116 2115 L
6734  381 mt 8116  381 L
6734 2115 mt 6734  381 L
8116 2115 mt 8116  381 L
gs 6734 381 1383 1735 rc
DO
14 1 14 1 14 1 14 1 14 2 13 1 14 1 14 1 
14 1 14 1 14 1 13 2 14 1 14 1 14 1 14 2 
13 1 14 1 14 1 14 2 14 1 14 1 13 2 14 1 
14 1 14 2 14 1 13 2 14 1 14 2 14 1 14 2 
14 1 13 2 14 1 14 2 14 2 14 1 13 2 14 2 
14 1 14 2 14 2 14 2 13 2 14 2 14 2 14 2 
14 2 13 2 14 2 14 2 14 2 14 3 14 2 13 2 
14 3 14 2 14 3 14 3 14 2 13 3 14 3 14 3 
14 3 14 3 13 3 14 4 14 3 14 4 14 3 14 4 
13 4 14 4 14 4 14 4 14 5 13 4 14 5 14 5 
14 5 14 6 14 5 13 6 14 6 14 6 14 6 14 7 
13 7 14 7 14 8 14 8 14 8 14 8 13 9 14 9 
14 10 14 10 14 -463 6747 1768 100 MP stroke
DA
c8
14 1 14 2 14 2 14 2 14 2 13 2 14 2 14 3 
14 2 14 2 14 2 13 2 14 3 14 2 14 2 14 3 
13 2 14 3 14 2 14 3 14 3 14 2 13 3 14 3 
14 3 14 3 14 2 13 3 14 3 14 3 14 3 14 4 
14 3 13 3 14 3 14 4 14 3 14 3 13 4 14 3 
14 4 14 4 14 3 14 4 13 4 14 4 14 3 14 4 
14 4 13 4 14 4 14 5 14 4 14 4 14 4 13 4 
14 5 14 4 14 5 14 4 14 5 13 4 14 5 14 4 
14 5 14 5 13 5 14 4 14 5 14 5 14 5 14 5 
13 5 14 4 14 5 14 5 14 5 13 5 14 5 14 5 
14 4 14 5 14 5 13 5 14 4 14 5 14 4 14 5 
13 4 14 4 14 4 14 4 14 4 14 4 13 3 14 4 
14 3 14 4 14 -463 6747 1768 100 MP stroke
SO
c9
14 9 14 9 14 9 14 10 14 10 13 11 14 12 14 12 
14 12 14 13 14 13 13 15 14 14 14 15 14 16 14 16 
13 17 14 17 14 18 14 18 14 19 14 20 13 20 14 20 
14 21 14 22 14 22 13 23 14 23 14 23 14 24 14 25 
14 24 13 26 14 25 14 26 14 26 14 27 13 26 14 27 
14 27 14 28 14 27 14 28 13 27 14 28 14 27 14 27 
14 27 13 27 14 27 14 26 14 25 14 25 14 25 13 24 
14 23 14 22 14 21 14 20 14 20 13 18 14 16 14 15 
14 14 14 12 13 10 14 8 14 7 14 4 14 2 14 0 
13 -2 14 -5 14 -8 14 -10 14 -12 13 -16 14 -18 14 -21 
14 -24 14 -27 14 -30 13 -32 14 -34 14 -37 14 -39 14 -41 
13 -42 14 -43 14 -43 14 -43 14 -42 14 -39 13 -37 14 -31 
14 -26 14 -29 14 -463 6747 1768 100 MP stroke
gr

c9
0 sg
7391  286 mt 
(L) s
1 sg
0 1733 1382 0 0 -1733 1170 4522 4 MP
PP
-1382 0 0 1733 1382 0 0 -1733 1170 4522 5 MP stroke
4 w
DO
SO
6 w
0 sg
1170 4522 mt 2552 4522 L
1170 2789 mt 2552 2789 L
1170 4522 mt 1170 2789 L
2552 4522 mt 2552 2789 L
1170 4522 mt 2552 4522 L
1170 4522 mt 1170 2789 L
1170 4522 mt 1170 4504 L
1170 2789 mt 1170 2806 L
1137 4667 mt 
(0) s
1861 4522 mt 1861 4504 L
1861 2789 mt 1861 2806 L
1795 4667 mt 
(50) s
2552 4522 mt 2552 4504 L
2552 2789 mt 2552 2806 L
2452 4667 mt 
(100) s
1170 4522 mt 1187 4522 L
2552 4522 mt 2534 4522 L
 899 4566 mt 
(-0.5) s
1170 4233 mt 1187 4233 L
2552 4233 mt 2534 4233 L
1069 4277 mt 
(0) s
1170 3944 mt 1187 3944 L
2552 3944 mt 2534 3944 L
 969 3988 mt 
(0.5) s
1170 3655 mt 1187 3655 L
2552 3655 mt 2534 3655 L
1069 3699 mt 
(1) s
1170 3366 mt 1187 3366 L
2552 3366 mt 2534 3366 L
 969 3410 mt 
(1.5) s
1170 3077 mt 1187 3077 L
2552 3077 mt 2534 3077 L
1069 3121 mt 
(2) s
1170 2789 mt 1187 2789 L
2552 2789 mt 2534 2789 L
 969 2833 mt 
(2.5) s
1170 4522 mt 2552 4522 L
1170 2789 mt 2552 2789 L
1170 4522 mt 1170 2789 L
2552 4522 mt 2552 2789 L
gs 1170 2789 1383 1734 rc
DO
14 0 14 0 14 0 14 0 14 0 13 0 14 0 14 0 
14 0 14 0 14 0 13 0 14 0 14 0 14 0 14 0 
13 0 14 0 14 0 14 0 14 0 14 0 13 0 14 0 
14 0 14 0 14 0 13 0 14 0 14 0 14 0 14 0 
14 0 13 0 14 0 14 0 14 0 14 0 13 0 14 0 
14 0 14 0 14 0 14 0 13 0 14 0 14 0 14 0 
14 0 13 0 14 0 14 0 14 0 14 0 14 0 13 0 
14 0 14 0 14 0 14 0 14 0 13 0 14 0 14 0 
14 0 14 0 13 0 14 0 14 0 14 0 14 0 14 0 
13 0 14 0 14 0 14 0 14 0 13 0 14 0 14 0 
14 0 14 0 14 0 13 0 14 0 14 0 14 0 14 0 
13 0 14 0 14 0 14 0 14 0 14 0 13 0 14 0 
14 0 14 0 14 0 1183 4233 100 MP stroke
DA
c8
14 7 14 7 14 6 14 7 14 7 13 7 14 7 14 8 
14 7 14 7 14 8 13 8 14 7 14 8 14 8 14 8 
13 8 14 8 14 8 14 8 14 8 14 9 13 8 14 9 
14 8 14 9 14 8 13 9 14 9 14 9 14 8 14 9 
14 9 13 9 14 9 14 8 14 9 14 9 13 9 14 8 
14 9 14 8 14 9 14 8 13 8 14 8 14 8 14 8 
14 7 13 7 14 8 14 6 14 7 14 6 14 6 13 5 
14 5 14 5 14 4 14 3 14 3 13 3 14 2 14 1 
14 0 14 -1 13 -1 14 -2 14 -4 14 -4 14 -5 14 -7 
13 -8 14 -9 14 -11 14 -12 14 -14 13 -16 14 -18 14 -19 
14 -22 14 -24 14 -26 13 -29 14 -32 14 -34 14 -37 14 -41 
13 -44 14 -47 14 -51 14 -56 14 -59 14 -64 13 -69 14 -74 
14 -79 14 148 14 -87 1183 4233 100 MP stroke
SO
c9
14 16 14 18 14 17 14 18 14 17 13 19 14 18 14 19 
14 19 14 19 14 20 13 20 14 20 14 20 14 21 14 21 
13 20 14 22 14 21 14 21 14 22 14 21 13 22 14 22 
14 22 14 22 14 22 13 22 14 22 14 21 14 22 14 22 
14 21 13 22 14 21 14 21 14 21 14 20 13 20 14 20 
14 20 14 19 14 18 14 18 13 18 14 17 14 16 14 16 
14 15 13 14 14 13 14 13 14 12 14 11 14 9 13 9 
14 8 14 6 14 6 14 4 14 3 13 1 14 0 14 -1 
14 -3 14 -5 13 -6 14 -8 14 -10 14 -11 14 -14 14 -15 
13 -18 14 -20 14 -21 14 -24 14 -27 13 -28 14 -31 14 -34 
14 -36 14 -38 14 -42 13 -44 14 -46 14 -50 14 -52 14 -55 
13 -58 14 -61 14 -64 14 -67 14 -69 14 -73 13 -75 14 -79 
14 -84 14 -81 14 -87 1183 4233 100 MP stroke
gr

c9
0 sg
1817 2694 mt 
(N) s
1153 4565 mt 
( ) s
2536 2831 mt 
( ) s
1 sg
0 480 1075 0 0 -480 1418 4463 4 MP
PP
-1075 0 0 480 1075 0 0 -480 1418 4463 5 MP stroke
4 w
DO
SO
6 w
0 sg
1418 4463 mt 2493 4463 L
1418 3983 mt 2493 3983 L
1418 4463 mt 1418 3983 L
2493 4463 mt 2493 3983 L
1418 4463 mt 2493 4463 L
1418 4463 mt 1418 3983 L
1418 4463 mt 2493 4463 L
1418 3983 mt 2493 3983 L
1418 4463 mt 1418 3983 L
2493 4463 mt 2493 3983 L
1870 4117 mt 
(frictionless) s
gs 1418 3983 1076 481 rc
DO
347 0 1487 4074 2 MP stroke
SO
gr

1870 4266 mt 
(RE) s
gs 1418 3983 1076 481 rc
DA
c8
347 0 1487 4223 2 MP stroke
SO
gr

c8
0 sg
1870 4414 mt 
(learning) s
gs 1418 3983 1076 481 rc
c9
347 0 1487 4371 2 MP stroke
gr

c9
1 sg
0 1733 1383 0 0 -1733 3024 4522 4 MP
PP
-1383 0 0 1733 1383 0 0 -1733 3024 4522 5 MP stroke
4 w
DO
SO
6 w
0 sg
3024 4522 mt 4407 4522 L
3024 2789 mt 4407 2789 L
3024 4522 mt 3024 2789 L
4407 4522 mt 4407 2789 L
3024 4522 mt 4407 4522 L
3024 4522 mt 3024 2789 L
3024 4522 mt 3024 4504 L
3024 2789 mt 3024 2806 L
2991 4667 mt 
(0) s
3715 4522 mt 3715 4504 L
3715 2789 mt 3715 2806 L
3649 4667 mt 
(50) s
4407 4522 mt 4407 4504 L
4407 2789 mt 4407 2806 L
4307 4667 mt 
(100) s
3024 4522 mt 3041 4522 L
4407 4522 mt 4389 4522 L
2753 4566 mt 
(-0.2) s
3024 4088 mt 3041 4088 L
4407 4088 mt 4389 4088 L
2923 4132 mt 
(0) s
3024 3655 mt 3041 3655 L
4407 3655 mt 4389 3655 L
2823 3699 mt 
(0.2) s
3024 3222 mt 3041 3222 L
4407 3222 mt 4389 3222 L
2823 3266 mt 
(0.4) s
3024 2789 mt 3041 2789 L
4407 2789 mt 4389 2789 L
2823 2833 mt 
(0.6) s
3024 4522 mt 4407 4522 L
3024 2789 mt 4407 2789 L
3024 4522 mt 3024 2789 L
4407 4522 mt 4407 2789 L
gs 3024 2789 1384 1734 rc
DO
14 0 14 0 14 0 14 0 14 0 13 0 14 0 14 0 
14 0 14 0 14 0 13 0 14 0 14 0 14 0 14 0 
14 0 13 0 14 0 14 0 14 0 14 0 14 0 13 0 
14 0 14 0 14 1 14 0 14 0 13 0 14 0 14 0 
14 0 14 1 14 0 13 0 14 0 14 0 14 1 14 0 
14 0 13 0 14 1 14 0 14 0 14 1 14 0 13 0 
14 1 14 0 14 1 14 0 13 1 14 0 14 1 14 1 
14 0 14 1 13 1 14 1 14 0 14 1 14 1 14 1 
13 1 14 1 14 2 14 1 14 1 14 1 13 2 14 1 
14 2 14 2 14 2 14 1 13 3 14 2 14 2 14 2 
14 3 14 2 13 3 14 3 14 3 14 3 14 4 14 3 
13 4 14 4 14 4 14 5 14 4 14 5 13 6 14 5 
14 6 14 6 14 -107 3037 4088 100 MP stroke
DA
c8
14 0 14 0 14 0 14 0 14 0 13 0 14 -1 14 0 
14 0 14 0 14 0 13 0 14 0 14 0 14 0 14 0 
14 0 13 -1 14 0 14 0 14 0 14 0 14 0 13 0 
14 0 14 0 14 0 14 0 14 -1 13 0 14 0 14 0 
14 0 14 0 14 0 13 0 14 0 14 0 14 -1 14 0 
14 0 13 0 14 0 14 0 14 0 14 0 14 0 13 0 
14 0 14 0 14 0 14 0 13 0 14 -1 14 0 14 0 
14 0 14 0 13 0 14 0 14 0 14 0 14 0 14 1 
13 0 14 0 14 0 14 0 14 0 14 0 13 0 14 0 
14 1 14 0 14 0 14 0 13 1 14 0 14 0 14 1 
14 0 14 1 13 0 14 1 14 0 14 1 14 0 14 1 
13 1 14 1 14 1 14 0 14 1 14 2 13 1 14 1 
14 1 14 877 14 -884 3037 4088 100 MP stroke
SO
c9
14 1 14 0 14 1 14 0 14 1 13 0 14 1 14 0 
14 1 14 0 14 1 13 0 14 1 14 0 14 1 14 0 
14 1 13 1 14 0 14 1 14 0 14 1 14 1 13 0 
14 1 14 0 14 1 14 1 14 0 13 1 14 0 14 1 
14 0 14 1 14 0 13 1 14 0 14 1 14 0 14 1 
14 0 13 0 14 1 14 0 14 0 14 1 14 0 13 0 
14 0 14 0 14 0 14 0 13 -1 14 0 14 0 14 -1 
14 0 14 -1 13 -1 14 0 14 -1 14 -1 14 -1 14 -2 
13 -1 14 -1 14 -2 14 -2 14 -1 14 -2 13 -2 14 -2 
14 -3 14 -2 14 -2 14 -3 13 -3 14 -2 14 -3 14 -3 
14 -3 14 -2 13 -3 14 -3 14 -2 14 -3 14 -2 14 -1 
13 -2 14 0 14 -1 14 1 14 1 14 3 13 3 14 5 
14 -2 14 29 14 0 3037 4088 100 MP stroke
gr

c9
0 sg
3672 2694 mt 
(R) s
1 sg
0 1733 1383 0 0 -1733 4879 4522 4 MP
PP
-1383 0 0 1733 1383 0 0 -1733 4879 4522 5 MP stroke
4 w
DO
SO
6 w
0 sg
4879 4522 mt 6262 4522 L
4879 2789 mt 6262 2789 L
4879 4522 mt 4879 2789 L
6262 4522 mt 6262 2789 L
4879 4522 mt 6262 4522 L
4879 4522 mt 4879 2789 L
4879 4522 mt 4879 4504 L
4879 2789 mt 4879 2806 L
4846 4667 mt 
(0) s
5570 4522 mt 5570 4504 L
5570 2789 mt 5570 2806 L
5504 4667 mt 
(50) s
6262 4522 mt 6262 4504 L
6262 2789 mt 6262 2806 L
6162 4667 mt 
(100) s
4879 4522 mt 4896 4522 L
6262 4522 mt 6244 4522 L
4708 4566 mt 
(-1) s
4879 4233 mt 4896 4233 L
6262 4233 mt 6244 4233 L
4778 4277 mt 
(0) s
4879 3944 mt 4896 3944 L
6262 3944 mt 6244 3944 L
4778 3988 mt 
(1) s
4879 3655 mt 4896 3655 L
6262 3655 mt 6244 3655 L
4778 3699 mt 
(2) s
4879 3366 mt 4896 3366 L
6262 3366 mt 6244 3366 L
4778 3410 mt 
(3) s
4879 3077 mt 4896 3077 L
6262 3077 mt 6244 3077 L
4778 3121 mt 
(4) s
4879 2789 mt 4896 2789 L
6262 2789 mt 6244 2789 L
4778 2833 mt 
(5) s
4879 4522 mt 6262 4522 L
4879 2789 mt 6262 2789 L
4879 4522 mt 4879 2789 L
6262 4522 mt 6262 2789 L
gs 4879 2789 1384 1734 rc
DO
14 1 14 1 14 2 14 1 14 1 13 1 14 1 14 1 
14 1 14 1 14 1 13 1 14 1 14 2 14 1 14 1 
14 1 13 1 14 1 14 2 14 1 14 1 14 1 13 2 
14 1 14 1 14 1 14 2 14 1 13 1 14 2 14 1 
14 1 14 2 14 1 13 2 14 1 14 2 14 1 14 2 
14 1 13 2 14 1 14 2 14 1 14 2 14 2 13 1 
14 2 14 2 14 2 14 1 13 2 14 2 14 2 14 2 
14 2 14 2 13 2 14 2 14 2 14 2 14 3 14 2 
13 2 14 3 14 2 14 3 14 2 14 3 13 3 14 2 
14 3 14 3 14 3 14 3 13 3 14 4 14 3 14 3 
14 4 14 4 13 3 14 4 14 4 14 4 14 5 14 4 
13 5 14 5 14 5 14 5 14 5 14 6 13 5 14 6 
14 6 14 7 14 -383 4892 4233 100 MP stroke
DA
c8
14 2 14 1 14 2 14 2 14 2 13 2 14 2 14 2 
14 2 14 2 14 2 13 2 14 2 14 2 14 2 14 2 
14 3 13 2 14 2 14 3 14 2 14 3 14 2 13 3 
14 2 14 3 14 2 14 3 14 3 13 3 14 3 14 2 
14 3 14 3 14 3 13 3 14 3 14 4 14 3 14 3 
14 3 13 4 14 3 14 3 14 4 14 3 14 4 13 3 
14 4 14 4 14 3 14 4 13 4 14 4 14 4 14 4 
14 4 14 4 13 4 14 4 14 4 14 4 14 4 14 5 
13 4 14 4 14 4 14 5 14 4 14 5 13 4 14 4 
14 5 14 4 14 5 14 4 13 5 14 4 14 4 14 5 
14 4 14 4 13 5 14 4 14 4 14 4 14 4 14 4 
13 4 14 4 14 4 14 3 14 4 14 3 13 3 14 3 
14 3 14 -2 14 -417 4892 4233 100 MP stroke
SO
c9
14 13 14 14 14 14 14 14 14 16 13 16 14 16 14 17 
14 18 14 18 14 19 13 20 14 20 14 20 14 22 14 22 
14 22 13 23 14 24 14 24 14 25 14 25 14 26 13 26 
14 27 14 27 14 28 14 28 14 28 13 29 14 29 14 29 
14 30 14 29 14 30 13 30 14 30 14 30 14 30 14 30 
14 29 13 30 14 29 14 28 14 29 14 27 14 27 13 26 
14 26 14 24 14 24 14 22 13 21 14 20 14 18 14 17 
14 15 14 13 13 11 14 9 14 6 14 5 14 1 14 0 
13 -4 14 -7 14 -9 14 -13 14 -16 14 -19 13 -23 14 -27 
14 -30 14 -34 14 -37 14 -41 13 -45 14 -48 14 -52 14 -55 
14 -58 14 -60 13 -63 14 -64 14 -66 14 -65 14 -65 14 -64 
13 -60 14 -55 14 -50 14 -41 14 -30 14 -17 13 0 14 19 
14 38 14 -55 14 -39 4892 4233 100 MP stroke
gr

c9
0 sg
5527 2694 mt 
(C) s
1 sg
0 1733 1382 0 0 -1733 6734 4522 4 MP
PP
-1382 0 0 1733 1382 0 0 -1733 6734 4522 5 MP stroke
4 w
DO
SO
6 w
0 sg
6734 4522 mt 8116 4522 L
6734 2789 mt 8116 2789 L
6734 4522 mt 6734 2789 L
8116 4522 mt 8116 2789 L
6734 4522 mt 8116 4522 L
6734 4522 mt 6734 2789 L
6734 4522 mt 6734 4504 L
6734 2789 mt 6734 2806 L
6701 4667 mt 
(0) s
7425 4522 mt 7425 4504 L
7425 2789 mt 7425 2806 L
7359 4667 mt 
(50) s
8116 4522 mt 8116 4504 L
8116 2789 mt 8116 2806 L
8016 4667 mt 
(100) s
6734 4522 mt 6751 4522 L
8116 4522 mt 8098 4522 L
6633 4566 mt 
(0) s
6734 3944 mt 6751 3944 L
8116 3944 mt 8098 3944 L
6533 3988 mt 
(0.5) s
6734 3366 mt 6751 3366 L
8116 3366 mt 8098 3366 L
6633 3410 mt 
(1) s
6734 2789 mt 6751 2789 L
8116 2789 mt 8098 2789 L
6533 2833 mt 
(1.5) s
6734 4522 mt 8116 4522 L
6734 2789 mt 8116 2789 L
6734 4522 mt 6734 2789 L
8116 4522 mt 8116 2789 L
gs 6734 2789 1383 1734 rc
DO
14 0 14 1 14 0 14 1 14 0 13 1 14 0 14 1 
14 1 14 0 14 1 13 1 14 0 14 1 14 1 14 1 
13 1 14 1 14 1 14 1 14 1 14 1 13 1 14 1 
14 2 14 1 14 2 13 1 14 2 14 2 14 2 14 2 
14 2 13 2 14 2 14 3 14 2 14 3 13 3 14 2 
14 4 14 3 14 3 14 4 13 4 14 4 14 4 14 4 
14 5 13 5 14 5 14 6 14 5 14 6 14 7 13 6 
14 8 14 7 14 8 14 8 14 9 13 9 14 9 14 10 
14 11 14 11 13 12 14 12 14 14 14 13 14 15 14 15 
13 16 14 17 14 18 14 18 14 20 13 21 14 21 14 23 
14 25 14 25 14 27 13 28 14 30 14 31 14 33 14 34 
13 37 14 38 14 40 14 43 14 44 14 48 13 49 14 52 
14 55 14 58 14 -1156 6747 4522 100 MP stroke
DA
c8
14 0 14 1 14 0 14 1 14 0 13 1 14 0 14 1 
14 1 14 0 14 1 13 1 14 0 14 1 14 1 14 1 
13 1 14 1 14 1 14 1 14 1 14 1 13 1 14 1 
14 2 14 1 14 2 13 1 14 2 14 2 14 2 14 2 
14 2 13 2 14 2 14 3 14 2 14 3 13 3 14 2 
14 4 14 3 14 3 14 4 13 4 14 4 14 4 14 4 
14 5 13 5 14 5 14 6 14 5 14 6 14 7 13 6 
14 8 14 7 14 8 14 8 14 9 13 9 14 9 14 10 
14 11 14 11 13 12 14 12 14 14 14 13 14 15 14 15 
13 16 14 17 14 18 14 18 14 20 13 21 14 21 14 23 
14 25 14 25 14 27 13 28 14 30 14 31 14 33 14 34 
13 37 14 38 14 40 14 43 14 44 14 48 13 49 14 52 
14 55 14 58 14 -1156 6747 4522 100 MP stroke
SO
c9
14 0 14 1 14 0 14 1 14 0 13 1 14 0 14 1 
14 1 14 0 14 1 13 1 14 0 14 1 14 1 14 1 
13 1 14 1 14 1 14 1 14 1 14 1 13 1 14 1 
14 2 14 1 14 2 13 1 14 2 14 2 14 2 14 2 
14 2 13 2 14 2 14 3 14 2 14 3 13 3 14 2 
14 4 14 3 14 3 14 4 13 4 14 4 14 4 14 4 
14 5 13 5 14 5 14 6 14 5 14 6 14 7 13 6 
14 8 14 7 14 8 14 8 14 9 13 9 14 9 14 10 
14 11 14 11 13 12 14 12 14 14 14 13 14 15 14 15 
13 16 14 17 14 18 14 18 14 20 13 21 14 21 14 23 
14 25 14 25 14 27 13 28 14 30 14 31 14 33 14 34 
13 37 14 38 14 40 14 43 14 44 14 48 13 49 14 52 
14 55 14 58 14 -1156 6747 4522 100 MP stroke
gr

c9
0 sg
7384 2694 mt 
(A) s

end %%Color Dict

eplot
%%EndObject

epage
end

showpage

%%Trailer
%%EOF
