%!PS-Adobe-3.0 EPSF-3.0
%%Creator: MATLAB, The MathWorks, Inc. Version 8.3.0.532 (R2014a). Operating System: Microsoft Windows 7 Enterprise .
%%Title: C:\Users\winklerh\Dropbox\PhD\jmp\paper\irf_eps2_uncover.eps
%%CreationDate: 01/12/2015  20:10:09
%%DocumentNeededFonts: Helvetica
%%DocumentProcessColors: Cyan Magenta Yellow Black
%%LanguageLevel: 2
%%Pages: 1
%%BoundingBox:     0     0   496   323
%%EndComments

%%BeginProlog
% MathWorks dictionary
/MathWorks 160 dict begin
% definition operators
/bdef {bind def} bind def
/ldef {load def} bind def
/xdef {exch def} bdef
/xstore {exch store} bdef
% operator abbreviations
/c  /clip ldef
/cc /concat ldef
/cp /closepath ldef
/gr /grestore ldef
/gs /gsave ldef
/mt /moveto ldef
/np /newpath ldef
/cm /currentmatrix ldef
/sm /setmatrix ldef
/rm /rmoveto ldef
/rl /rlineto ldef
/s {show newpath} bdef
/sc {setcmykcolor} bdef
/sr /setrgbcolor ldef
/sg /setgray ldef
/w /setlinewidth ldef
/j /setlinejoin ldef
/cap /setlinecap ldef
/rc {rectclip} bdef
/rf {rectfill} bdef
% page state control
/pgsv () def
/bpage {/pgsv save def} bdef
/epage {pgsv restore} bdef
/bplot /gsave ldef
/eplot {stroke grestore} bdef
% orientation switch
/portraitMode 0 def /landscapeMode 1 def /rotateMode 2 def
% coordinate system mappings
/dpi2point 0 def
% font control
/FontSize 0 def
/FMS {/FontSize xstore findfont [FontSize 0 0 FontSize neg 0 0]
  makefont setfont} bdef
/ISOLatin1Encoding where {pop /WindowsLatin1Encoding 256 array bdef
ISOLatin1Encoding WindowsLatin1Encoding copy pop
/.notdef/.notdef/quotesinglbase/florin/quotedblbase/ellipsis/dagger
/daggerdbl/circumflex/perthousand/Scaron/guilsinglleft/OE/.notdef/.notdef
/.notdef/.notdef/quoteleft/quoteright/quotedblleft/quotedblright/bullet
/endash/emdash/tilde/trademark/scaron/guilsinglright/oe/.notdef/.notdef
/Ydieresis WindowsLatin1Encoding 128 32 getinterval astore pop}
{/WindowsLatin1Encoding StandardEncoding bdef} ifelse
/reencode {exch dup where {pop load} {pop StandardEncoding} ifelse
  exch dup 3 1 roll findfont dup length dict begin
  { 1 index /FID ne {def}{pop pop} ifelse } forall
  /Encoding exch def currentdict end definefont pop} bdef
/isroman {findfont /CharStrings get /Agrave known} bdef
/FMSR {3 1 roll 1 index dup isroman {reencode} {pop pop} ifelse
  exch FMS} bdef
/csm {1 dpi2point div -1 dpi2point div scale neg translate
 dup landscapeMode eq {pop -90 rotate}
  {rotateMode eq {90 rotate} if} ifelse} bdef
% line types: solid, dotted, dashed, dotdash
/dom { dpi2point 1 currentlinewidth 0.08 mul add mul mul } bdef/dam { dpi2point 2 currentlinewidth 0.04 mul add mul mul } bdef/SO { [] 0 setdash 0 setlinecap } bdef/DO { [1 dom 1.2 dom] 0 setdash 0 setlinecap } bdef/DA { [4 dam 1.5 dam] 0 setdash 0 setlinecap } bdef/DD { [1 dom 1.2 dom 4 dam 1.2 dom] 0 setdash 0 setlinecap } bdef/GR { [0 dpi2point mul 4 dpi2point mul] 0 setdash 1 setlinecap } bdef% macros for lines and objects
/L {lineto stroke} bdef
/MP {3 1 roll moveto 1 sub {rlineto} repeat} bdef
/AP {{rlineto} repeat} bdef
/PDlw -1 def
/W {/PDlw currentlinewidth def setlinewidth} def
/PP {closepath eofill} bdef
/DP {closepath stroke} bdef
/MR {4 -2 roll moveto dup  0 exch rlineto exch 0 rlineto
  neg 0 exch rlineto closepath} bdef
/FR {MR stroke} bdef
/PR {MR fill} bdef
/L1i {{currentfile picstr readhexstring pop} image} bdef
/tMatrix matrix def
/MakeOval {newpath tMatrix currentmatrix pop translate scale
0 0 1 0 360 arc tMatrix setmatrix} bdef
/FO {MakeOval stroke} bdef
/PO {MakeOval fill} bdef
/PD {currentlinewidth 2 div 0 360 arc fill
   PDlw -1 eq not {PDlw w /PDlw -1 def} if} def
/FA {newpath tMatrix currentmatrix pop translate scale
  0 0 1 5 -2 roll arc tMatrix setmatrix stroke} bdef
/PA {newpath tMatrix currentmatrix pop	translate 0 0 moveto scale
  0 0 1 5 -2 roll arc closepath tMatrix setmatrix fill} bdef
/FAn {newpath tMatrix currentmatrix pop translate scale
  0 0 1 5 -2 roll arcn tMatrix setmatrix stroke} bdef
/PAn {newpath tMatrix currentmatrix pop translate 0 0 moveto scale
  0 0 1 5 -2 roll arcn closepath tMatrix setmatrix fill} bdef
/vradius 0 def /hradius 0 def /lry 0 def
/lrx 0 def /uly 0 def /ulx 0 def /rad 0 def
/MRR {/vradius xdef /hradius xdef /lry xdef /lrx xdef /uly xdef
  /ulx xdef newpath tMatrix currentmatrix pop ulx hradius add uly
  vradius add translate hradius vradius scale 0 0 1 180 270 arc 
  tMatrix setmatrix lrx hradius sub uly vradius add translate
  hradius vradius scale 0 0 1 270 360 arc tMatrix setmatrix
  lrx hradius sub lry vradius sub translate hradius vradius scale
  0 0 1 0 90 arc tMatrix setmatrix ulx hradius add lry vradius sub
  translate hradius vradius scale 0 0 1 90 180 arc tMatrix setmatrix
  closepath} bdef
/FRR {MRR stroke } bdef
/PRR {MRR fill } bdef
/MlrRR {/lry xdef /lrx xdef /uly xdef /ulx xdef /rad lry uly sub 2 div def
  newpath tMatrix currentmatrix pop ulx rad add uly rad add translate
  rad rad scale 0 0 1 90 270 arc tMatrix setmatrix lrx rad sub lry rad
  sub translate rad rad scale 0 0 1 270 90 arc tMatrix setmatrix
  closepath} bdef
/FlrRR {MlrRR stroke } bdef
/PlrRR {MlrRR fill } bdef
/MtbRR {/lry xdef /lrx xdef /uly xdef /ulx xdef /rad lrx ulx sub 2 div def
  newpath tMatrix currentmatrix pop ulx rad add uly rad add translate
  rad rad scale 0 0 1 180 360 arc tMatrix setmatrix lrx rad sub lry rad
  sub translate rad rad scale 0 0 1 0 180 arc tMatrix setmatrix
  closepath} bdef
/FtbRR {MtbRR stroke } bdef
/PtbRR {MtbRR fill } bdef
/stri 6 array def /dtri 6 array def
/smat 6 array def /dmat 6 array def
/tmat1 6 array def /tmat2 6 array def /dif 3 array def
/asub {/ind2 exch def /ind1 exch def dup dup
  ind1 get exch ind2 get sub exch } bdef
/tri_to_matrix {
  2 0 asub 3 1 asub 4 0 asub 5 1 asub
  dup 0 get exch 1 get 7 -1 roll astore } bdef
/compute_transform {
  dmat dtri tri_to_matrix tmat1 invertmatrix 
  smat stri tri_to_matrix tmat2 concatmatrix } bdef
/ds {stri astore pop} bdef
/dt {dtri astore pop} bdef
/db {2 copy /cols xdef /rows xdef mul dup 3 mul string
  currentfile 
  3 index 0 eq {/ASCIIHexDecode filter}
  {/ASCII85Decode filter 3 index 2 eq {/RunLengthDecode filter} if }
  ifelse exch readstring pop
  dup 0 3 index getinterval /rbmap xdef
  dup 2 index dup getinterval /gbmap xdef
  1 index dup 2 mul exch getinterval /bbmap xdef pop pop}bdef
/it {gs np dtri aload pop moveto lineto lineto cp c
  cols rows 8 compute_transform 
  rbmap gbmap bbmap true 3 colorimage gr}bdef
/il {newpath moveto lineto stroke}bdef
currentdict end def
%%EndProlog

%%BeginSetup
MathWorks begin

0 cap

end
%%EndSetup

%%Page: 1 1
%%BeginPageSetup
%%PageBoundingBox:     0     0   496   323
MathWorks begin
bpage
%%EndPageSetup

%%BeginObject: obj1
bplot

/dpi2point 12 def
portraitMode 0000 3876 csm

    0     0  5963  3887 rc
85 dict begin %Colortable dictionary
/c0 { 0.000000 0.000000 0.000000 sr} bdef
/c1 { 1.000000 1.000000 1.000000 sr} bdef
/c2 { 0.900000 0.000000 0.000000 sr} bdef
/c3 { 0.000000 0.820000 0.000000 sr} bdef
/c4 { 0.000000 0.000000 0.800000 sr} bdef
/c5 { 0.910000 0.820000 0.320000 sr} bdef
/c6 { 1.000000 0.260000 0.820000 sr} bdef
/c7 { 0.000000 0.820000 0.820000 sr} bdef
c0
1 j
1 sg
   0    0 5964 3888 rf
6 w
0 1474 1059 0 0 -1474 234 1682 4 MP
PP
-1059 0 0 1474 1059 0 0 -1474 234 1682 5 MP stroke
4 w
DO

6 wSO
0 sg
 234  208 mt 1293  208 L
 234 1682 mt 1293 1682 L
1293 1682 mt 1293  208 L
 234 1682 mt  234  208 L
 234 1682 mt 1293 1682 L
 234 1682 mt  234  208 L
 234 1682 mt  234 1667 L
 234  208 mt  234  222 L
%%IncludeResource: font Helvetica
/Helvetica /WindowsLatin1Encoding 120 FMSR

 201 1827 mt 
(0) s
 763 1682 mt  763 1667 L
 763  208 mt  763  222 L
 697 1827 mt 
(20) s
1293 1682 mt 1293 1667 L
1293  208 mt 1293  222 L
1227 1827 mt 
(40) s
 234 1682 mt  248 1682 L
1293 1682 mt 1278 1682 L
  63 1726 mt 
(-1) s
 234 1387 mt  248 1387 L
1293 1387 mt 1278 1387 L
 133 1431 mt 
(0) s
 234 1092 mt  248 1092 L
1293 1092 mt 1278 1092 L
 133 1136 mt 
(1) s
 234  797 mt  248  797 L
1293  797 mt 1278  797 L
 133  841 mt 
(2) s
 234  502 mt  248  502 L
1293  502 mt 1278  502 L
 133  546 mt 
(3) s
 234  208 mt  248  208 L
1293  208 mt 1278  208 L
 133  252 mt 
(4) s
 234  208 mt 1293  208 L
 234 1682 mt 1293 1682 L
1293 1682 mt 1293  208 L
 234 1682 mt  234  208 L
gs 234 208 1060 1475 rc
27 0 26 0 27 0 26 0 27 0 26 0 27 0 26 0 
27 0 26 0 27 0 26 0 27 0 26 0 27 0 26 0 
27 0 26 0 27 0 26 0 26 0 27 0 26 0 27 0 
26 0 27 0 26 0 27 0 26 0 27 0 26 0 27 0 
26 0 27 0 26 0 27 0 26 0 27 0 26 0 260 1387 40 MP stroke
12 w
27 0 26 0 27 0 26 0 27 0 26 0 27 0 26 0 
27 0 26 0 27 0 26 0 27 0 26 0 27 0 26 0 
27 0 26 0 27 0 26 0 26 0 27 0 26 0 27 0 
26 0 27 0 26 0 27 0 26 0 27 0 26 0 27 0 
26 0 27 0 26 0 27 0 26 0 27 0 26 0 260 1387 40 MP stroke

24 wDA
/c8 { 0.000000 0.000000 1.000000 sr} bdef
c8
27 0 26 0 27 0 26 0 27 1 26 0 27 0 26 0 
27 0 26 0 27 0 26 1 27 0 26 0 27 0 26 1 
27 0 26 0 27 1 26 0 26 0 27 1 26 0 27 1 
26 0 27 1 26 1 27 1 26 1 27 1 26 1 27 1 
26 2 27 2 26 1 27 2 26 0 27 -23 26 0 260 1387 40 MP stroke
SO
/c9 { 1.000000 0.000000 0.000000 sr} bdef
c9
27 -12 26 -13 27 -12 26 -13 27 -13 26 -13 27 -11 26 -11 
27 -9 26 -7 27 -4 26 -1 27 3 26 8 27 13 26 19 
27 25 26 33 27 42 26 50 26 60 27 70 26 81 27 93 
26 103 27 113 26 120 27 123 26 119 27 102 26 71 27 18 
26 -57 27 -150 26 -247 27 -312 26 -274 27 -15 26 0 260 1387 40 MP stroke
gr

24 w
c9
0 sg
 437  113 mt 
(Stock prices) s
6 w
1 sg
0 1475 1059 0 0 -1475 234 3734 4 MP
PP
-1059 0 0 1475 1059 0 0 -1475 234 3734 5 MP stroke
4 w
DO

6 wSO
0 sg
 234 2259 mt 1293 2259 L
 234 3734 mt 1293 3734 L
1293 3734 mt 1293 2259 L
 234 3734 mt  234 2259 L
 234 3734 mt 1293 3734 L
 234 3734 mt  234 2259 L
 234 3734 mt  234 3719 L
 234 2259 mt  234 2273 L
 201 3879 mt 
(0) s
 763 3734 mt  763 3719 L
 763 2259 mt  763 2273 L
 697 3879 mt 
(20) s
1293 3734 mt 1293 3719 L
1293 2259 mt 1293 2273 L
1227 3879 mt 
(40) s
 234 3734 mt  248 3734 L
1293 3734 mt 1278 3734 L
 -37 3778 mt 
(-0.2) s
 234 3439 mt  248 3439 L
1293 3439 mt 1278 3439 L
 133 3483 mt 
(0) s
 234 3144 mt  248 3144 L
1293 3144 mt 1278 3144 L
  33 3188 mt 
(0.2) s
 234 2849 mt  248 2849 L
1293 2849 mt 1278 2849 L
  33 2893 mt 
(0.4) s
 234 2554 mt  248 2554 L
1293 2554 mt 1278 2554 L
  33 2598 mt 
(0.6) s
 234 2259 mt  248 2259 L
1293 2259 mt 1278 2259 L
  33 2303 mt 
(0.8) s
 234 2259 mt 1293 2259 L
 234 3734 mt 1293 3734 L
1293 3734 mt 1293 2259 L
 234 3734 mt  234 2259 L
gs 234 2259 1060 1476 rc
27 0 26 0 27 0 26 0 27 0 26 0 27 0 26 0 
27 0 26 0 27 0 26 0 27 0 26 0 27 0 26 0 
27 0 26 0 27 0 26 0 26 0 27 0 26 0 27 0 
26 0 27 0 26 0 27 0 26 0 27 0 26 0 27 0 
26 0 27 0 26 0 27 0 26 0 27 0 26 0 260 3439 40 MP stroke
12 w
27 2 26 2 27 2 26 2 27 2 26 2 27 3 26 2 
27 2 26 2 27 2 26 2 27 3 26 2 27 2 26 3 
27 3 26 3 27 4 26 4 26 4 27 5 26 6 27 7 
26 9 27 9 26 12 27 14 26 17 27 21 26 24 27 28 
26 33 27 34 26 33 27 18 26 -20 27 -465 26 0 260 3439 40 MP stroke

24 wDA
c8
27 2 26 2 27 2 26 2 27 3 26 2 27 3 26 3 
27 3 26 3 27 3 26 4 27 4 26 5 27 5 26 5 
27 6 26 6 27 8 26 8 26 9 27 11 26 12 27 14 
26 16 27 18 26 21 27 25 26 28 27 34 26 39 27 44 
26 50 27 54 26 52 27 37 26 -8 27 -603 26 0 260 3439 40 MP stroke
SO
c9
27 -7 26 -7 27 -6 26 -7 27 -6 26 -6 27 -5 26 -4 
27 -3 26 -1 27 2 26 3 27 7 26 11 27 14 26 18 
27 23 26 28 27 34 26 40 26 46 27 53 26 60 27 66 
26 73 27 79 26 84 27 88 26 87 27 83 26 72 27 51 
26 19 27 -24 26 -76 27 -126 26 -155 27 -603 26 0 260 3439 40 MP stroke
gr

24 w
c9
0 sg
 583 2164 mt 
(Output) s
 217 3777 mt 
( ) s
1277 2301 mt 
( ) s
6 w
1 sg
0 1475 1059 0 0 -1475 1661 3734 4 MP
PP
-1059 0 0 1475 1059 0 0 -1475 1661 3734 5 MP stroke
4 w
DO

6 wSO
0 sg
1661 2259 mt 2720 2259 L
1661 3734 mt 2720 3734 L
2720 3734 mt 2720 2259 L
1661 3734 mt 1661 2259 L
1661 3734 mt 2720 3734 L
1661 3734 mt 1661 2259 L
1661 3734 mt 1661 3719 L
1661 2259 mt 1661 2273 L
1628 3879 mt 
(0) s
2190 3734 mt 2190 3719 L
2190 2259 mt 2190 2273 L
2124 3879 mt 
(20) s
2720 3734 mt 2720 3719 L
2720 2259 mt 2720 2273 L
2654 3879 mt 
(40) s
1661 3734 mt 1675 3734 L
2720 3734 mt 2705 3734 L
1390 3778 mt 
(-0.5) s
1661 3439 mt 1675 3439 L
2720 3439 mt 2705 3439 L
1560 3483 mt 
(0) s
1661 3144 mt 1675 3144 L
2720 3144 mt 2705 3144 L
1460 3188 mt 
(0.5) s
1661 2849 mt 1675 2849 L
2720 2849 mt 2705 2849 L
1560 2893 mt 
(1) s
1661 2554 mt 1675 2554 L
2720 2554 mt 2705 2554 L
1460 2598 mt 
(1.5) s
1661 2259 mt 1675 2259 L
2720 2259 mt 2705 2259 L
1560 2303 mt 
(2) s
1661 2259 mt 2720 2259 L
1661 3734 mt 2720 3734 L
2720 3734 mt 2720 2259 L
1661 3734 mt 1661 2259 L
gs 1661 2259 1060 1476 rc
27 0 26 0 27 0 26 0 27 0 26 0 27 0 26 0 
27 0 26 0 27 0 26 0 27 0 26 0 27 0 26 0 
27 0 26 0 27 0 26 0 26 0 27 0 26 0 27 0 
26 0 27 0 26 0 27 0 26 0 27 0 26 0 27 0 
26 0 27 0 26 0 27 0 26 0 27 0 26 0 1687 3439 40 MP stroke
12 w
27 2 26 2 27 2 26 2 27 2 26 2 27 2 26 2 
27 1 26 2 27 1 26 2 27 1 26 1 27 1 26 1 
27 0 26 0 27 1 26 -1 26 0 27 -1 26 -1 27 -2 
26 -2 27 -3 26 -3 27 -4 26 -6 27 -6 26 -8 27 -10 
26 -11 27 -14 26 -16 27 -18 26 -19 27 -19 26 0 1687 3439 40 MP stroke

24 wDA
c8
27 1 26 0 27 1 26 1 27 1 26 1 27 0 26 1 
27 1 26 1 27 1 26 1 27 1 26 1 27 1 26 2 
27 1 26 1 27 1 26 2 26 1 27 1 26 2 27 1 
26 2 27 1 26 2 27 2 26 1 27 2 26 1 27 2 
26 1 27 1 26 1 27 0 26 -2 27 -78 26 0 1687 3439 40 MP stroke
SO
c9
27 -16 26 -17 27 -18 26 -20 27 -20 26 -21 27 -21 26 -21 
27 -20 26 -19 27 -17 26 -14 27 -11 26 -7 27 -2 26 5 
27 12 26 21 27 30 26 41 26 53 27 66 26 82 27 97 
26 113 27 128 26 142 27 151 26 152 27 139 26 109 27 54 
26 -28 27 -135 26 -248 27 -325 26 -286 27 -80 26 0 1687 3439 40 MP stroke
gr

24 w
c9
0 sg
1899 2164 mt 
(Investment) s
1644 3777 mt 
( ) s
2704 2301 mt 
( ) s
6 w
1 sg
0 1474 1059 0 0 -1474 1661 1682 4 MP
PP
-1059 0 0 1474 1059 0 0 -1474 1661 1682 5 MP stroke
4 w
DO

6 wSO
0 sg
1661  208 mt 2720  208 L
1661 1682 mt 2720 1682 L
2720 1682 mt 2720  208 L
1661 1682 mt 1661  208 L
1661 1682 mt 2720 1682 L
1661 1682 mt 1661  208 L
1661 1682 mt 1661 1667 L
1661  208 mt 1661  222 L
1628 1827 mt 
(0) s
2190 1682 mt 2190 1667 L
2190  208 mt 2190  222 L
2124 1827 mt 
(20) s
2720 1682 mt 2720 1667 L
2720  208 mt 2720  222 L
2654 1827 mt 
(40) s
1661 1682 mt 1675 1682 L
2720 1682 mt 2705 1682 L
1390 1726 mt 
(-0.5) s
1661 1313 mt 1675 1313 L
2720 1313 mt 2705 1313 L
1560 1357 mt 
(0) s
1661  945 mt 1675  945 L
2720  945 mt 2705  945 L
1460  989 mt 
(0.5) s
1661  576 mt 1675  576 L
2720  576 mt 2705  576 L
1560  620 mt 
(1) s
1661  208 mt 1675  208 L
2720  208 mt 2705  208 L
1460  252 mt 
(1.5) s
1661  208 mt 2720  208 L
1661 1682 mt 2720 1682 L
2720 1682 mt 2720  208 L
1661 1682 mt 1661  208 L
gs 1661 208 1060 1475 rc
27 0 26 0 27 0 26 0 27 0 26 0 27 0 26 0 
27 0 26 0 27 0 26 0 27 0 26 0 27 0 26 0 
27 0 26 0 27 0 26 0 26 0 27 0 26 0 27 0 
26 0 27 0 26 0 27 0 26 0 27 0 26 0 27 0 
26 0 27 0 26 0 27 0 26 0 27 0 26 0 1687 1313 40 MP stroke
12 w
27 0 26 0 27 0 26 0 27 0 26 0 27 0 26 0 
27 0 26 0 27 0 26 0 27 0 26 0 27 0 26 0 
27 0 26 0 27 0 26 0 26 0 27 0 26 0 27 0 
26 0 27 0 26 0 27 0 26 0 27 0 26 0 27 0 
26 0 27 0 26 0 27 0 26 0 27 0 26 0 1687 1313 40 MP stroke

24 wDA
c8
27 2 26 3 27 2 26 3 27 3 26 3 27 4 26 3 
27 4 26 5 27 5 26 5 27 5 26 7 27 7 26 8 
27 9 26 9 27 12 26 12 26 15 27 16 26 20 27 22 
26 25 27 30 26 35 27 40 26 47 27 54 26 61 27 64 
26 62 27 43 26 -14 27 -157 26 -480 27 -39 26 0 1687 1313 40 MP stroke
SO
c9
27 -6 26 -7 27 -7 26 -8 27 -8 26 -8 27 -8 26 -9 
27 -8 26 -7 27 -6 26 -5 27 -4 26 -1 27 1 26 3 
27 7 26 11 27 15 26 19 26 25 27 31 26 37 27 44 
26 54 27 63 26 76 27 90 26 106 27 121 26 135 27 136 
26 117 27 57 26 -70 27 -296 26 -659 27 -37 26 0 1687 1313 40 MP stroke
gr

24 w
c9
0 sg
1806  113 mt 
(Exp. dividends) s
6 w
1 sg
0 546 935 0 0 -546 2184 2961 4 MP
PP
-935 0 0 546 935 0 0 -546 2184 2961 5 MP stroke
4 w
DO

6 wSO
0 sg
2184 2415 mt 3119 2415 L
2184 2961 mt 3119 2961 L
3119 2961 mt 3119 2415 L
2184 2961 mt 2184 2415 L
2184 2961 mt 3119 2961 L
2184 2961 mt 2184 2415 L
2184 2415 mt 3119 2415 L
2184 2961 mt 3119 2961 L
3119 2961 mt 3119 2415 L
2184 2961 mt 2184 2415 L
2657 2562 mt 
(fric.less) s
gs 2184 2415 936 547 rc
12 w
363 0 2256 2520 2 MP stroke
gr

12 w
2657 2731 mt 
(RE) s
gs 2184 2415 936 547 rc

24 wDA
c8
363 0 2256 2688 2 MP stroke
SO
gr

24 w
c8
0 sg
2657 2899 mt 
(learning) s
gs 2184 2415 936 547 rc
c9
363 0 2256 2856 2 MP stroke
6 w
gr

6 w
c9

end %%Color Dict

eplot
%%EndObject

epage
end

showpage

%%Trailer
%%EOF
