%!PS-Adobe-3.0 EPSF-3.0
%%Creator: MATLAB, The MathWorks, Inc. Version 7.14.0.739 (R2012a). Operating System: Darwin 12.4.0 Darwin Kernel Version 12.4.0: Wed May  1 17:57:12 PDT 2013; root:xnu-2050.24.15~1/RELEASE_X86_64 x86_64.
%%Title: /Users/fckw/Dropbox/PhD/finfric/paper/irflong.eps
%%CreationDate: 09/26/2013  22:14:17
%%DocumentNeededFonts: Helvetica
%%DocumentProcessColors: Cyan Magenta Yellow Black
%%LanguageLevel: 2
%%Pages: 1
%%BoundingBox:  -116   186   729   606
%%EndComments

%%BeginProlog
% MathWorks dictionary
/MathWorks 160 dict begin
% definition operators
/bdef {bind def} bind def
/ldef {load def} bind def
/xdef {exch def} bdef
/xstore {exch store} bdef
% operator abbreviations
/c  /clip ldef
/cc /concat ldef
/cp /closepath ldef
/gr /grestore ldef
/gs /gsave ldef
/mt /moveto ldef
/np /newpath ldef
/cm /currentmatrix ldef
/sm /setmatrix ldef
/rm /rmoveto ldef
/rl /rlineto ldef
/s {show newpath} bdef
/sc {setcmykcolor} bdef
/sr /setrgbcolor ldef
/sg /setgray ldef
/w /setlinewidth ldef
/j /setlinejoin ldef
/cap /setlinecap ldef
/rc {rectclip} bdef
/rf {rectfill} bdef
% page state control
/pgsv () def
/bpage {/pgsv save def} bdef
/epage {pgsv restore} bdef
/bplot /gsave ldef
/eplot {stroke grestore} bdef
% orientation switch
/portraitMode 0 def /landscapeMode 1 def /rotateMode 2 def
% coordinate system mappings
/dpi2point 0 def
% font control
/FontSize 0 def
/FMS {/FontSize xstore findfont [FontSize 0 0 FontSize neg 0 0]
  makefont setfont} bdef
/reencode {exch dup where {pop load} {pop StandardEncoding} ifelse
  exch dup 3 1 roll findfont dup length dict begin
  { 1 index /FID ne {def}{pop pop} ifelse } forall
  /Encoding exch def currentdict end definefont pop} bdef
/isroman {findfont /CharStrings get /Agrave known} bdef
/FMSR {3 1 roll 1 index dup isroman {reencode} {pop pop} ifelse
  exch FMS} bdef
/csm {1 dpi2point div -1 dpi2point div scale neg translate
 dup landscapeMode eq {pop -90 rotate}
  {rotateMode eq {90 rotate} if} ifelse} bdef
% line types: solid, dotted, dashed, dotdash
/dom { dpi2point 1 currentlinewidth 0.08 mul add mul mul } bdef/dam { dpi2point 2 currentlinewidth 0.04 mul add mul mul } bdef/SO { [] 0 setdash 0 setlinecap } bdef/DO { [1 dom 1.2 dom] 0 setdash 0 setlinecap } bdef/DA { [4 dam 1.5 dam] 0 setdash 0 setlinecap } bdef/DD { [1 dom 1.2 dom 4 dam 1.2 dom] 0 setdash 0 setlinecap } bdef/GR { [0 dpi2point mul 4 dpi2point mul] 0 setdash 1 setlinecap } bdef% macros for lines and objects
/L {lineto stroke} bdef
/MP {3 1 roll moveto 1 sub {rlineto} repeat} bdef
/AP {{rlineto} repeat} bdef
/PDlw -1 def
/W {/PDlw currentlinewidth def setlinewidth} def
/PP {closepath eofill} bdef
/DP {closepath stroke} bdef
/MR {4 -2 roll moveto dup  0 exch rlineto exch 0 rlineto
  neg 0 exch rlineto closepath} bdef
/FR {MR stroke} bdef
/PR {MR fill} bdef
/L1i {{currentfile picstr readhexstring pop} image} bdef
/tMatrix matrix def
/MakeOval {newpath tMatrix currentmatrix pop translate scale
0 0 1 0 360 arc tMatrix setmatrix} bdef
/FO {MakeOval stroke} bdef
/PO {MakeOval fill} bdef
/PD {currentlinewidth 2 div 0 360 arc fill
   PDlw -1 eq not {PDlw w /PDlw -1 def} if} def
/FA {newpath tMatrix currentmatrix pop translate scale
  0 0 1 5 -2 roll arc tMatrix setmatrix stroke} bdef
/PA {newpath tMatrix currentmatrix pop	translate 0 0 moveto scale
  0 0 1 5 -2 roll arc closepath tMatrix setmatrix fill} bdef
/FAn {newpath tMatrix currentmatrix pop translate scale
  0 0 1 5 -2 roll arcn tMatrix setmatrix stroke} bdef
/PAn {newpath tMatrix currentmatrix pop translate 0 0 moveto scale
  0 0 1 5 -2 roll arcn closepath tMatrix setmatrix fill} bdef
/vradius 0 def /hradius 0 def /lry 0 def
/lrx 0 def /uly 0 def /ulx 0 def /rad 0 def
/MRR {/vradius xdef /hradius xdef /lry xdef /lrx xdef /uly xdef
  /ulx xdef newpath tMatrix currentmatrix pop ulx hradius add uly
  vradius add translate hradius vradius scale 0 0 1 180 270 arc 
  tMatrix setmatrix lrx hradius sub uly vradius add translate
  hradius vradius scale 0 0 1 270 360 arc tMatrix setmatrix
  lrx hradius sub lry vradius sub translate hradius vradius scale
  0 0 1 0 90 arc tMatrix setmatrix ulx hradius add lry vradius sub
  translate hradius vradius scale 0 0 1 90 180 arc tMatrix setmatrix
  closepath} bdef
/FRR {MRR stroke } bdef
/PRR {MRR fill } bdef
/MlrRR {/lry xdef /lrx xdef /uly xdef /ulx xdef /rad lry uly sub 2 div def
  newpath tMatrix currentmatrix pop ulx rad add uly rad add translate
  rad rad scale 0 0 1 90 270 arc tMatrix setmatrix lrx rad sub lry rad
  sub translate rad rad scale 0 0 1 270 90 arc tMatrix setmatrix
  closepath} bdef
/FlrRR {MlrRR stroke } bdef
/PlrRR {MlrRR fill } bdef
/MtbRR {/lry xdef /lrx xdef /uly xdef /ulx xdef /rad lrx ulx sub 2 div def
  newpath tMatrix currentmatrix pop ulx rad add uly rad add translate
  rad rad scale 0 0 1 180 360 arc tMatrix setmatrix lrx rad sub lry rad
  sub translate rad rad scale 0 0 1 0 180 arc tMatrix setmatrix
  closepath} bdef
/FtbRR {MtbRR stroke } bdef
/PtbRR {MtbRR fill } bdef
/stri 6 array def /dtri 6 array def
/smat 6 array def /dmat 6 array def
/tmat1 6 array def /tmat2 6 array def /dif 3 array def
/asub {/ind2 exch def /ind1 exch def dup dup
  ind1 get exch ind2 get sub exch } bdef
/tri_to_matrix {
  2 0 asub 3 1 asub 4 0 asub 5 1 asub
  dup 0 get exch 1 get 7 -1 roll astore } bdef
/compute_transform {
  dmat dtri tri_to_matrix tmat1 invertmatrix 
  smat stri tri_to_matrix tmat2 concatmatrix } bdef
/ds {stri astore pop} bdef
/dt {dtri astore pop} bdef
/db {2 copy /cols xdef /rows xdef mul dup 3 mul string
  currentfile 
  3 index 0 eq {/ASCIIHexDecode filter}
  {/ASCII85Decode filter 3 index 2 eq {/RunLengthDecode filter} if }
  ifelse exch readstring pop
  dup 0 3 index getinterval /rbmap xdef
  dup 2 index dup getinterval /gbmap xdef
  1 index dup 2 mul exch getinterval /bbmap xdef pop pop}bdef
/it {gs np dtri aload pop moveto lineto lineto cp c
  cols rows 8 compute_transform 
  rbmap gbmap bbmap true 3 colorimage gr}bdef
/il {newpath moveto lineto stroke}bdef
currentdict end def
%%EndProlog

%%BeginSetup
MathWorks begin

0 cap

end
%%EndSetup

%%Page: 1 1
%%BeginPageSetup
%%PageBoundingBox:  -116   186   729   606
MathWorks begin
bpage
%%EndPageSetup

%%BeginObject: obj1
bplot

/dpi2point 12 def
portraitMode -1392 7272 csm

    0     0 10140  5033 rc
85 dict begin %Colortable dictionary
/c0 { 0.000000 0.000000 0.000000 sr} bdef
/c1 { 1.000000 1.000000 1.000000 sr} bdef
/c2 { 0.900000 0.000000 0.000000 sr} bdef
/c3 { 0.000000 0.820000 0.000000 sr} bdef
/c4 { 0.000000 0.000000 0.800000 sr} bdef
/c5 { 0.910000 0.820000 0.320000 sr} bdef
/c6 { 1.000000 0.260000 0.820000 sr} bdef
/c7 { 0.000000 0.820000 0.820000 sr} bdef
c0
1 j
1 sg
   0    0 10141 5034 rf
6 w
0 1718 1571 0 0 -1718 1318 2095 4 MP
PP
-1571 0 0 1718 1571 0 0 -1718 1318 2095 5 MP stroke
4 w
DO
6 w
SO
0 sg
1318 2095 mt 2889 2095 L
1318  377 mt 2889  377 L
1318 2095 mt 1318  377 L
2889 2095 mt 2889  377 L
1318 2095 mt 2889 2095 L
1318 2095 mt 1318  377 L
1318 2095 mt 1318 2077 L
1318  377 mt 1318  394 L
%%IncludeResource: font Helvetica
/Helvetica /ISOLatin1Encoding 120 FMSR

1285 2240 mt 
(0) s
2103 2095 mt 2103 2077 L
2103  377 mt 2103  394 L
2037 2240 mt 
(50) s
2889 2095 mt 2889 2077 L
2889  377 mt 2889  394 L
2789 2240 mt 
(100) s
1318 2095 mt 1335 2095 L
2889 2095 mt 2871 2095 L
1147 2139 mt 
(-2) s
1318 1665 mt 1335 1665 L
2889 1665 mt 2871 1665 L
1217 1709 mt 
(0) s
1318 1236 mt 1335 1236 L
2889 1236 mt 2871 1236 L
1217 1280 mt 
(2) s
1318  806 mt 1335  806 L
2889  806 mt 2871  806 L
1217  850 mt 
(4) s
1318  377 mt 1335  377 L
2889  377 mt 2871  377 L
1217  421 mt 
(6) s
1318 2095 mt 2889 2095 L
1318  377 mt 2889  377 L
1318 2095 mt 1318  377 L
2889 2095 mt 2889  377 L
gs 1318 377 1572 1719 rc
DO
16 2 16 3 16 2 15 2 16 3 16 2 15 3 16 3 
16 3 16 3 15 3 16 3 16 4 15 3 16 4 16 4 
16 3 15 4 16 4 16 5 15 4 16 4 16 5 16 5 
15 4 16 5 16 5 15 5 16 5 16 6 16 5 15 6 
16 5 16 6 15 6 16 5 16 6 15 6 16 6 16 6 
16 6 15 7 16 6 16 6 15 6 16 7 16 6 16 6 
15 6 16 7 16 6 15 6 16 6 16 6 16 6 15 6 
16 6 16 5 15 6 16 5 16 5 16 5 15 4 16 5 
16 4 15 4 16 3 16 4 15 2 16 3 16 2 16 1 
15 1 16 1 16 0 15 -1 16 -1 16 -2 16 -3 15 -3 
16 -4 16 -5 15 -6 16 -7 16 -8 16 -10 15 -10 16 -11 
16 -13 15 -14 16 -15 16 -17 16 -19 15 -20 16 -22 16 -23 
15 -26 16 -28 16 -15 1333 1665 100 MP stroke
DA
/c8 { 0.000000 0.000000 1.000000 sr} bdef
c8
16 0 16 0 16 0 15 1 16 0 16 0 15 0 16 0 
16 0 16 0 15 1 16 0 16 0 15 0 16 1 16 0 
16 0 15 1 16 0 16 0 15 1 16 0 16 0 16 1 
15 0 16 1 16 0 15 1 16 1 16 0 16 1 15 0 
16 1 16 1 15 1 16 0 16 1 15 1 16 1 16 1 
16 1 15 1 16 1 16 1 15 1 16 1 16 1 16 1 
15 1 16 1 16 1 15 2 16 1 16 1 16 2 15 1 
16 1 16 2 15 1 16 2 16 1 16 2 15 1 16 2 
16 1 15 2 16 2 16 1 15 2 16 1 16 2 16 2 
15 1 16 2 16 2 15 1 16 2 16 2 16 1 15 2 
16 2 16 1 15 2 16 1 16 1 16 2 15 1 16 1 
16 1 15 1 16 1 16 1 16 1 15 0 16 1 16 0 
15 0 16 0 16 -76 1333 1665 100 MP stroke
SO
/c9 { 1.000000 0.000000 0.000000 sr} bdef
c9
16 -7 16 -6 16 -7 15 -7 16 -7 16 -6 15 -7 16 -7 
16 -6 16 -7 15 -6 16 -6 16 -6 15 -6 16 -5 16 -6 
16 -5 15 -4 16 -5 16 -4 15 -3 16 -3 16 -3 16 -2 
15 -1 16 -1 16 0 15 0 16 1 16 2 16 3 15 3 
16 5 16 5 15 6 16 8 16 8 15 9 16 11 16 11 
16 13 15 14 16 15 16 16 15 18 16 18 16 20 16 22 
15 22 16 24 16 25 15 27 16 27 16 29 16 30 15 31 
16 32 16 33 15 34 16 35 16 36 16 36 15 37 16 37 
16 37 15 38 16 37 16 37 15 37 16 36 16 34 16 34 
15 32 16 30 16 28 15 25 16 23 16 19 16 16 15 11 
16 7 16 2 15 -3 16 -10 16 -16 16 -22 15 -30 16 -37 
16 -44 15 -53 16 -60 16 -67 16 -74 15 -79 16 -83 16 -84 
15 -82 16 -75 16 -61 1333 1665 100 MP stroke
gr

c9
0 sg
2063  282 mt 
(V) s
1 sg
0 1718 1571 0 0 -1718 3408 2095 4 MP
PP
-1571 0 0 1718 1571 0 0 -1718 3408 2095 5 MP stroke
4 w
DO
6 w
SO
0 sg
3408 2095 mt 4979 2095 L
3408  377 mt 4979  377 L
3408 2095 mt 3408  377 L
4979 2095 mt 4979  377 L
3408 2095 mt 4979 2095 L
3408 2095 mt 3408  377 L
3408 2095 mt 3408 2077 L
3408  377 mt 3408  394 L
3375 2240 mt 
(0) s
4193 2095 mt 4193 2077 L
4193  377 mt 4193  394 L
4127 2240 mt 
(50) s
4979 2095 mt 4979 2077 L
4979  377 mt 4979  394 L
4879 2240 mt 
(100) s
3408 2095 mt 3425 2095 L
4979 2095 mt 4961 2095 L
3137 2139 mt 
(-0.5) s
3408 1751 mt 3425 1751 L
4979 1751 mt 4961 1751 L
3307 1795 mt 
(0) s
3408 1407 mt 3425 1407 L
4979 1407 mt 4961 1407 L
3207 1451 mt 
(0.5) s
3408 1064 mt 3425 1064 L
4979 1064 mt 4961 1064 L
3307 1108 mt 
(1) s
3408  720 mt 3425  720 L
4979  720 mt 4961  720 L
3207  764 mt 
(1.5) s
3408  377 mt 3425  377 L
4979  377 mt 4961  377 L
3307  421 mt 
(2) s
3408 2095 mt 4979 2095 L
3408  377 mt 4979  377 L
3408 2095 mt 3408  377 L
4979 2095 mt 4979  377 L
gs 3408 377 1572 1719 rc
DO
16 0 16 0 16 0 15 0 16 0 16 0 15 0 16 0 
16 0 16 0 15 0 16 0 16 0 15 0 16 0 16 0 
16 0 15 0 16 0 16 0 15 0 16 0 16 0 16 0 
15 0 16 0 16 0 15 0 16 0 16 0 16 0 15 0 
16 0 16 0 15 0 16 0 16 0 15 0 16 0 16 0 
16 0 15 0 16 0 16 0 15 0 16 0 16 0 16 0 
15 0 16 0 16 0 15 0 16 0 16 0 16 0 15 0 
16 0 16 0 15 0 16 0 16 0 16 0 15 0 16 0 
16 0 15 0 16 0 16 0 15 0 16 0 16 0 16 0 
15 0 16 0 16 0 15 0 16 0 16 0 16 0 15 0 
16 0 16 0 15 0 16 0 16 0 16 0 15 0 16 0 
16 0 15 0 16 0 16 0 16 0 15 0 16 0 16 0 
15 0 16 0 16 0 3423 1751 100 MP stroke
DA
c8
16 5 16 6 16 6 15 7 16 6 16 7 15 7 16 7 
16 8 16 8 15 8 16 8 16 9 15 8 16 10 16 9 
16 10 15 10 16 10 16 11 15 10 16 12 16 11 16 12 
15 12 16 12 16 13 15 13 16 13 16 13 16 14 15 14 
16 14 16 15 15 15 16 15 16 15 15 16 16 16 16 16 
16 16 15 16 16 17 16 17 15 16 16 17 16 18 16 17 
15 17 16 17 16 18 15 17 16 17 16 17 16 17 15 17 
16 17 16 16 15 16 16 16 16 16 16 15 15 14 16 14 
16 13 15 13 16 12 16 11 15 10 16 8 16 8 16 7 
15 5 16 4 16 2 15 1 16 -2 16 -3 16 -5 15 -8 
16 -10 16 -13 15 -16 16 -18 16 -22 16 -25 15 -29 16 -33 
16 -37 15 -41 16 -46 16 -51 16 -56 15 -62 16 -68 16 -74 
15 -81 16 14 16 -217 3423 1751 100 MP stroke
SO
c9
16 -6 16 -6 16 -5 15 -6 16 -6 16 -5 15 -6 16 -5 
16 -6 16 -5 15 -5 16 -5 16 -4 15 -5 16 -4 16 -4 
16 -4 15 -3 16 -3 16 -2 15 -2 16 -2 16 -1 16 0 
15 0 16 0 16 2 15 2 16 2 16 4 16 4 15 5 
16 6 16 7 15 8 16 9 16 10 15 11 16 12 16 13 
16 14 15 15 16 17 16 18 15 19 16 20 16 22 16 23 
15 24 16 26 16 26 15 28 16 30 16 30 16 32 15 33 
16 34 16 35 15 36 16 36 16 38 16 39 15 39 16 39 
16 40 15 40 16 41 16 40 15 40 16 39 16 39 16 37 
15 37 16 35 16 33 15 31 16 28 16 26 16 22 15 19 
16 14 16 10 15 5 16 -1 16 -7 16 -13 15 -21 16 -29 
16 -37 15 -46 16 -57 16 -66 16 -78 15 -90 16 -102 16 -115 
15 -129 16 -143 16 -188 3423 1751 100 MP stroke
gr

c9
0 sg
4150  282 mt 
(N) s
1 sg
0 1718 1571 0 0 -1718 5498 2095 4 MP
PP
-1571 0 0 1718 1571 0 0 -1718 5498 2095 5 MP stroke
4 w
DO
6 w
SO
0 sg
5498 2095 mt 7069 2095 L
5498  377 mt 7069  377 L
5498 2095 mt 5498  377 L
7069 2095 mt 7069  377 L
5498 2095 mt 7069 2095 L
5498 2095 mt 5498  377 L
5498 2095 mt 5498 2077 L
5498  377 mt 5498  394 L
5465 2240 mt 
(0) s
6283 2095 mt 6283 2077 L
6283  377 mt 6283  394 L
6217 2240 mt 
(50) s
7069 2095 mt 7069 2077 L
7069  377 mt 7069  394 L
6969 2240 mt 
(100) s
5498 2095 mt 5515 2095 L
7069 2095 mt 7051 2095 L
5227 2139 mt 
(-0.1) s
5498 1751 mt 5515 1751 L
7069 1751 mt 7051 1751 L
5160 1795 mt 
(-0.05) s
5498 1407 mt 5515 1407 L
7069 1407 mt 7051 1407 L
5397 1451 mt 
(0) s
5498 1064 mt 5515 1064 L
7069 1064 mt 7051 1064 L
5230 1108 mt 
(0.05) s
5498  720 mt 5515  720 L
7069  720 mt 7051  720 L
5297  764 mt 
(0.1) s
5498  377 mt 5515  377 L
7069  377 mt 7051  377 L
5230  421 mt 
(0.15) s
5498 2095 mt 7069 2095 L
5498  377 mt 7069  377 L
5498 2095 mt 5498  377 L
7069 2095 mt 7069  377 L
gs 5498 377 1572 1719 rc
DO
16 -2 16 -3 16 -2 15 -3 16 -3 16 -2 15 -3 16 -3 
16 -3 16 -3 15 -2 16 -3 16 -3 15 -3 16 -3 16 -3 
16 -3 15 -3 16 -4 16 -3 15 -3 16 -3 16 -3 16 -3 
15 -3 16 -4 16 -3 15 -3 16 -3 16 -3 16 -3 15 -3 
16 -3 16 -3 15 -3 16 -3 16 -2 15 -3 16 -3 16 -2 
16 -2 15 -3 16 -2 16 -2 15 -2 16 -1 16 -2 16 -2 
15 -1 16 -1 16 -1 15 0 16 -1 16 0 16 0 15 1 
16 0 16 1 15 2 16 1 16 2 16 3 15 2 16 4 
16 3 15 5 16 4 16 5 15 6 16 6 16 7 16 8 
15 8 16 9 16 9 15 11 16 11 16 12 16 13 15 13 
16 15 16 16 15 17 16 18 16 19 16 20 15 22 16 23 
16 24 15 26 16 27 16 29 16 30 15 33 16 34 16 36 
15 38 16 40 16 -446 5513 1407 100 MP stroke
DA
c8
16 0 16 -1 16 -1 15 -1 16 -1 16 -1 15 -1 16 -1 
16 -1 16 -1 15 -1 16 -1 16 -1 15 -1 16 -2 16 -1 
16 -1 15 -2 16 -1 16 -1 15 -2 16 -1 16 -2 16 -2 
15 -1 16 -2 16 -2 15 -2 16 -1 16 -2 16 -2 15 -2 
16 -2 16 -2 15 -2 16 -2 16 -3 15 -2 16 -2 16 -3 
16 -2 15 -2 16 -3 16 -2 15 -3 16 -2 16 -3 16 -3 
15 -2 16 -3 16 -3 15 -3 16 -3 16 -3 16 -2 15 -3 
16 -3 16 -3 15 -3 16 -3 16 -3 16 -3 15 -4 16 -3 
16 -3 15 -3 16 -3 16 -3 15 -3 16 -3 16 -3 16 -3 
15 -3 16 -3 16 -3 15 -2 16 -3 16 -3 16 -2 15 -3 
16 -2 16 -2 15 -2 16 -2 16 -2 16 -2 15 -1 16 -2 
16 -1 15 -1 16 0 16 -1 16 0 15 0 16 1 16 1 
15 1 16 1024 16 -832 5513 1407 100 MP stroke
SO
c9
16 2 16 1 16 1 15 1 16 1 16 0 15 0 16 0 
16 0 16 -1 15 -2 16 -1 16 -2 15 -3 16 -3 16 -3 
16 -4 15 -4 16 -5 16 -6 15 -6 16 -6 16 -7 16 -8 
15 -9 16 -9 16 -10 15 -10 16 -11 16 -12 16 -12 15 -14 
16 -14 16 -14 15 -16 16 -16 16 -16 15 -18 16 -18 16 -18 
16 -20 15 -20 16 -20 16 -21 15 -21 16 -22 16 -22 16 -23 
15 -22 16 -23 16 -23 15 -23 16 -23 16 -22 16 -23 15 -21 
16 -22 16 -20 15 -19 16 -19 16 -17 16 -15 15 -14 16 -12 
16 -10 15 -8 16 -5 16 -2 15 0 16 5 16 8 16 12 
15 16 16 21 16 26 15 32 16 37 16 43 16 49 15 55 
16 63 16 69 15 76 16 83 16 90 16 95 15 101 16 105 
16 108 15 107 16 104 16 96 16 82 15 60 16 27 16 -21 
15 -87 16 -178 16 -618 5513 1407 100 MP stroke
gr

c9
0 sg
6240  282 mt 
(R) s
1 sg
0 1718 1571 0 0 -1718 7588 2095 4 MP
PP
-1571 0 0 1718 1571 0 0 -1718 7588 2095 5 MP stroke
4 w
DO
6 w
SO
0 sg
7588 2095 mt 9159 2095 L
7588  377 mt 9159  377 L
7588 2095 mt 7588  377 L
9159 2095 mt 9159  377 L
7588 2095 mt 9159 2095 L
7588 2095 mt 7588  377 L
7588 2095 mt 7588 2077 L
7588  377 mt 7588  394 L
7555 2240 mt 
(0) s
8373 2095 mt 8373 2077 L
8373  377 mt 8373  394 L
8307 2240 mt 
(50) s
9159 2095 mt 9159 2077 L
9159  377 mt 9159  394 L
9059 2240 mt 
(100) s
7588 2095 mt 7605 2095 L
9159 2095 mt 9141 2095 L
7317 2139 mt 
(-0.1) s
7588 1751 mt 7605 1751 L
9159 1751 mt 9141 1751 L
7250 1795 mt 
(-0.05) s
7588 1407 mt 7605 1407 L
9159 1407 mt 9141 1407 L
7487 1451 mt 
(0) s
7588 1064 mt 7605 1064 L
9159 1064 mt 9141 1064 L
7320 1108 mt 
(0.05) s
7588  720 mt 7605  720 L
9159  720 mt 9141  720 L
7387  764 mt 
(0.1) s
7588  377 mt 7605  377 L
9159  377 mt 9141  377 L
7320  421 mt 
(0.15) s
7588 2095 mt 9159 2095 L
7588  377 mt 9159  377 L
7588 2095 mt 7588  377 L
9159 2095 mt 9159  377 L
gs 7588 377 1572 1719 rc
DO
16 -5 16 -5 16 -6 15 -5 16 -5 16 -6 15 -5 16 -6 
16 -6 16 -6 15 -6 16 -6 16 -6 15 -6 16 -6 16 -7 
16 -6 15 -7 16 -6 16 -7 15 -6 16 -7 16 -6 16 -7 
15 -7 16 -6 16 -7 15 -7 16 -6 16 -7 16 -7 15 -6 
16 -7 16 -6 15 -6 16 -6 16 -7 15 -5 16 -6 16 -6 
16 -5 15 -6 16 -5 16 -4 15 -5 16 -4 16 -4 16 -4 
15 -3 16 -3 16 -3 15 -2 16 -2 16 -1 16 -1 15 0 
16 0 16 1 15 1 16 2 16 3 16 4 15 4 16 5 
16 6 15 7 16 8 16 9 15 10 16 11 16 12 16 13 
15 15 16 16 16 17 15 19 16 21 16 22 16 24 15 25 
16 28 16 29 15 31 16 34 16 36 16 38 15 41 16 43 
16 46 15 49 16 52 16 55 16 58 15 61 16 66 16 68 
15 73 16 77 16 -787 7603 1407 100 MP stroke
DA
c8
16 -1 16 -2 16 -2 15 -1 16 -2 16 -2 15 -1 16 -2 
16 -2 16 -2 15 -2 16 -3 16 -2 15 -2 16 -3 16 -2 
16 -3 15 -2 16 -3 16 -3 15 -3 16 -3 16 -3 16 -3 
15 -3 16 -3 16 -4 15 -3 16 -4 16 -3 16 -4 15 -4 
16 -4 16 -4 15 -4 16 -4 16 -4 15 -4 16 -5 16 -4 
16 -5 15 -5 16 -5 16 -5 15 -5 16 -5 16 -5 16 -5 
15 -5 16 -6 16 -5 15 -6 16 -5 16 -6 16 -6 15 -6 
16 -6 16 -6 15 -6 16 -6 16 -6 16 -6 15 -6 16 -6 
16 -6 15 -7 16 -6 16 -6 15 -6 16 -7 16 -6 16 -6 
15 -6 16 -6 16 -6 15 -6 16 -5 16 -6 16 -5 15 -6 
16 -5 16 -5 15 -4 16 -5 16 -4 16 -4 15 -4 16 -3 
16 -3 15 -2 16 -3 16 -1 16 -1 15 -1 16 0 16 0 
15 1 16 687 16 -295 7603 1407 100 MP stroke
SO
c9
16 2 16 2 16 1 15 2 16 1 16 1 15 1 16 0 
16 0 16 1 15 -1 16 0 16 -1 15 -1 16 -2 16 -2 
16 -2 15 -3 16 -3 16 -4 15 -4 16 -5 16 -5 16 -5 
15 -7 16 -6 16 -8 15 -8 16 -8 16 -9 16 -10 15 -10 
16 -12 16 -11 15 -13 16 -13 16 -13 15 -15 16 -15 16 -16 
16 -16 15 -17 16 -17 16 -19 15 -18 16 -20 16 -19 16 -20 
15 -21 16 -21 16 -21 15 -22 16 -21 16 -22 16 -22 15 -22 
16 -21 16 -21 15 -21 16 -20 16 -20 16 -19 15 -18 16 -17 
16 -15 15 -14 16 -13 16 -10 15 -9 16 -6 16 -3 16 -1 
15 2 16 5 16 9 15 13 16 17 16 21 16 26 15 31 
16 36 16 41 15 46 16 52 16 56 16 62 15 66 16 70 
16 72 15 74 16 72 16 68 16 59 15 45 16 24 16 -7 
15 -52 16 -114 16 -147 7603 1407 100 MP stroke
gr

c9
0 sg
8326  282 mt 
(pi) s
1 sg
0 1717 1571 0 0 -1717 1318 4479 4 MP
PP
-1571 0 0 1717 1571 0 0 -1717 1318 4479 5 MP stroke
4 w
DO
6 w
SO
0 sg
1318 4479 mt 2889 4479 L
1318 2762 mt 2889 2762 L
1318 4479 mt 1318 2762 L
2889 4479 mt 2889 2762 L
1318 4479 mt 2889 4479 L
1318 4479 mt 1318 2762 L
1318 4479 mt 1318 4461 L
1318 2762 mt 1318 2779 L
1285 4624 mt 
(0) s
2103 4479 mt 2103 4461 L
2103 2762 mt 2103 2779 L
2037 4624 mt 
(50) s
2889 4479 mt 2889 4461 L
2889 2762 mt 2889 2779 L
2789 4624 mt 
(100) s
1318 4479 mt 1335 4479 L
2889 4479 mt 2871 4479 L
1147 4523 mt 
(-1) s
1318 4049 mt 1335 4049 L
2889 4049 mt 2871 4049 L
1217 4093 mt 
(0) s
1318 3620 mt 1335 3620 L
2889 3620 mt 2871 3620 L
1217 3664 mt 
(1) s
1318 3191 mt 1335 3191 L
2889 3191 mt 2871 3191 L
1217 3235 mt 
(2) s
1318 2762 mt 1335 2762 L
2889 2762 mt 2871 2762 L
1217 2806 mt 
(3) s
1318 4479 mt 2889 4479 L
1318 2762 mt 2889 2762 L
1318 4479 mt 1318 2762 L
2889 4479 mt 2889 2762 L
gs 1318 2762 1572 1718 rc
DO
16 1 16 1 16 1 15 1 16 2 16 2 15 2 16 2 
16 2 16 2 15 3 16 3 16 3 15 3 16 3 16 4 
16 3 15 4 16 4 16 5 15 4 16 5 16 5 16 5 
15 6 16 6 16 5 15 7 16 6 16 6 16 7 15 7 
16 8 16 7 15 8 16 8 16 8 15 9 16 8 16 9 
16 10 15 9 16 10 16 9 15 10 16 11 16 10 16 11 
15 11 16 11 16 11 15 12 16 12 16 11 16 13 15 12 
16 12 16 13 15 12 16 13 16 13 16 13 15 13 16 13 
16 13 15 13 16 13 16 13 15 13 16 13 16 13 16 13 
15 13 16 13 16 12 15 12 16 12 16 12 16 12 15 11 
16 10 16 11 15 10 16 9 16 9 16 8 15 8 16 7 
16 7 15 5 16 5 16 4 16 2 15 2 16 1 16 0 
15 -2 16 -3 16 -615 1333 4049 100 MP stroke
DA
c8
16 0 16 1 16 0 15 1 16 0 16 1 15 1 16 1 
16 1 16 0 15 2 16 1 16 1 15 1 16 2 16 1 
16 2 15 1 16 2 16 2 15 2 16 2 16 2 16 2 
15 3 16 2 16 3 15 3 16 3 16 3 16 3 15 3 
16 3 16 4 15 4 16 3 16 4 15 5 16 4 16 4 
16 5 15 5 16 5 16 5 15 5 16 6 16 5 16 6 
15 6 16 7 16 6 15 7 16 7 16 7 16 7 15 7 
16 8 16 8 15 8 16 8 16 8 16 9 15 9 16 9 
16 9 15 10 16 10 16 10 15 10 16 10 16 11 16 10 
15 11 16 12 16 11 15 12 16 12 16 12 16 12 15 12 
16 13 16 12 15 13 16 13 16 13 16 14 15 13 16 14 
16 13 15 14 16 14 16 14 16 14 15 14 16 14 16 13 
15 14 16 432 16 -1026 1333 4049 100 MP stroke
SO
c9
16 -6 16 -6 16 -7 15 -7 16 -7 16 -7 15 -7 16 -7 
16 -8 16 -7 15 -8 16 -7 16 -8 15 -8 16 -7 16 -8 
16 -8 15 -8 16 -7 16 -8 15 -7 16 -8 16 -7 16 -7 
15 -6 16 -7 16 -6 15 -5 16 -6 16 -5 16 -4 15 -4 
16 -4 16 -3 15 -2 16 -2 16 -1 15 0 16 1 16 1 
16 2 15 4 16 4 16 5 15 7 16 8 16 8 16 10 
15 12 16 13 16 14 15 15 16 17 16 19 16 20 15 21 
16 23 16 25 15 27 16 28 16 30 16 31 15 33 16 35 
16 37 15 38 16 39 16 41 15 43 16 44 16 46 16 46 
15 48 16 49 16 50 15 50 16 51 16 51 16 52 15 51 
16 51 16 50 15 48 16 48 16 45 16 42 15 39 16 34 
16 30 15 23 16 15 16 6 16 -5 15 -19 16 -37 16 -57 
15 -84 16 -116 16 -929 1333 4049 100 MP stroke
gr

c9
0 sg
2063 2667 mt 
(Y) s
1 sg
0 1717 1571 0 0 -1717 3408 4479 4 MP
PP
-1571 0 0 1717 1571 0 0 -1717 3408 4479 5 MP stroke
4 w
DO
6 w
SO
0 sg
3408 4479 mt 4979 4479 L
3408 2762 mt 4979 2762 L
3408 4479 mt 3408 2762 L
4979 4479 mt 4979 2762 L
3408 4479 mt 4979 4479 L
3408 4479 mt 3408 2762 L
3408 4479 mt 3408 4461 L
3408 2762 mt 3408 2779 L
3375 4624 mt 
(0) s
4193 4479 mt 4193 4461 L
4193 2762 mt 4193 2779 L
4127 4624 mt 
(50) s
4979 4479 mt 4979 4461 L
4979 2762 mt 4979 2779 L
4879 4624 mt 
(100) s
3408 4479 mt 3425 4479 L
4979 4479 mt 4961 4479 L
3237 4523 mt 
(-1) s
3408 4192 mt 3425 4192 L
4979 4192 mt 4961 4192 L
3137 4236 mt 
(-0.5) s
3408 3906 mt 3425 3906 L
4979 3906 mt 4961 3906 L
3307 3950 mt 
(0) s
3408 3620 mt 3425 3620 L
4979 3620 mt 4961 3620 L
3207 3664 mt 
(0.5) s
3408 3334 mt 3425 3334 L
4979 3334 mt 4961 3334 L
3307 3378 mt 
(1) s
3408 3048 mt 3425 3048 L
4979 3048 mt 4961 3048 L
3207 3092 mt 
(1.5) s
3408 2762 mt 3425 2762 L
4979 2762 mt 4961 2762 L
3307 2806 mt 
(2) s
3408 4479 mt 4979 4479 L
3408 2762 mt 4979 2762 L
3408 4479 mt 3408 2762 L
4979 4479 mt 4979 2762 L
gs 3408 2762 1572 1718 rc
DO
16 3 16 3 16 3 15 3 16 4 16 4 15 4 16 4 
16 4 16 5 15 5 16 5 16 6 15 6 16 6 16 6 
16 6 15 7 16 7 16 7 15 8 16 8 16 8 16 8 
15 9 16 8 16 10 15 9 16 10 16 9 16 11 15 10 
16 11 16 10 15 12 16 11 16 11 15 12 16 12 16 12 
16 13 15 12 16 13 16 13 15 13 16 14 16 13 16 14 
15 13 16 14 16 14 15 13 16 14 16 14 16 14 15 14 
16 14 16 14 15 13 16 14 16 13 16 13 15 13 16 13 
16 12 15 12 16 11 16 12 15 10 16 10 16 10 16 9 
15 8 16 8 16 7 15 6 16 5 16 4 16 3 15 2 
16 0 16 -1 15 -2 16 -3 16 -6 16 -6 15 -9 16 -11 
16 -12 15 -15 16 -17 16 -19 16 -22 15 -25 16 -27 16 -30 
15 -34 16 -37 16 -322 3423 3906 100 MP stroke
DA
c8
16 0 16 1 16 0 15 1 16 0 16 1 15 1 16 1 
16 1 16 1 15 1 16 1 16 1 15 2 16 1 16 2 
16 2 15 2 16 2 16 2 15 2 16 2 16 3 16 2 
15 3 16 3 16 3 15 3 16 4 16 3 16 4 15 4 
16 4 16 4 15 4 16 5 16 4 15 5 16 5 16 5 
16 6 15 6 16 5 16 7 15 6 16 6 16 7 16 7 
15 7 16 8 16 7 15 8 16 8 16 9 16 8 15 9 
16 9 16 10 15 9 16 10 16 10 16 10 15 11 16 11 
16 11 15 11 16 12 16 12 15 12 16 12 16 13 16 13 
15 13 16 13 16 14 15 14 16 14 16 14 16 15 15 14 
16 15 16 15 15 16 16 15 16 16 16 15 15 16 16 16 
16 16 15 16 16 17 16 16 16 16 15 16 16 16 16 16 
15 16 16 -56 16 -636 3423 3906 100 MP stroke
SO
c9
16 -8 16 -9 16 -8 15 -9 16 -9 16 -9 15 -8 16 -9 
16 -9 16 -9 15 -9 16 -8 16 -8 15 -9 16 -8 16 -8 
16 -7 15 -7 16 -7 16 -7 15 -6 16 -6 16 -5 16 -4 
15 -4 16 -4 16 -3 15 -2 16 -1 16 0 16 0 15 2 
16 2 16 4 15 4 16 6 16 7 15 8 16 9 16 11 
16 12 15 13 16 15 16 17 15 17 16 20 16 21 16 22 
15 25 16 26 16 27 15 29 16 31 16 33 16 34 15 35 
16 37 16 39 15 40 16 41 16 43 16 44 15 45 16 45 
16 47 15 47 16 48 16 48 15 47 16 48 16 47 16 47 
15 45 16 44 16 43 15 40 16 38 16 35 16 32 15 27 
16 24 16 19 15 14 16 8 16 2 16 -5 15 -11 16 -19 
16 -26 15 -34 16 -40 16 -48 16 -53 15 -57 16 -59 16 -57 
15 -52 16 -39 16 -626 3423 3906 100 MP stroke
gr

c9
0 sg
4150 2667 mt 
(C) s
1 sg
0 1717 1571 0 0 -1717 5498 4479 4 MP
PP
-1571 0 0 1717 1571 0 0 -1717 5498 4479 5 MP stroke
4 w
DO
6 w
SO
0 sg
5498 4479 mt 7069 4479 L
5498 2762 mt 7069 2762 L
5498 4479 mt 5498 2762 L
7069 4479 mt 7069 2762 L
5498 4479 mt 7069 4479 L
5498 4479 mt 5498 2762 L
5498 4479 mt 5498 4461 L
5498 2762 mt 5498 2779 L
5465 4624 mt 
(0) s
6283 4479 mt 6283 4461 L
6283 2762 mt 6283 2779 L
6217 4624 mt 
(50) s
7069 4479 mt 7069 4461 L
7069 2762 mt 7069 2779 L
6969 4624 mt 
(100) s
5498 4479 mt 5515 4479 L
7069 4479 mt 7051 4479 L
5327 4523 mt 
(-5) s
5498 4049 mt 5515 4049 L
7069 4049 mt 7051 4049 L
5397 4093 mt 
(0) s
5498 3620 mt 5515 3620 L
7069 3620 mt 7051 3620 L
5397 3664 mt 
(5) s
5498 3191 mt 5515 3191 L
7069 3191 mt 7051 3191 L
5330 3235 mt 
(10) s
5498 2762 mt 5515 2762 L
7069 2762 mt 7051 2762 L
5330 2806 mt 
(15) s
5498 4479 mt 7069 4479 L
5498 2762 mt 7069 2762 L
5498 4479 mt 5498 2762 L
7069 4479 mt 7069 2762 L
gs 5498 2762 1572 1718 rc
DO
16 -1 16 -1 16 -1 15 0 16 -1 16 -1 15 0 16 -1 
16 -1 16 0 15 -1 16 0 16 -1 15 0 16 -1 16 0 
16 0 15 0 16 -1 16 0 15 0 16 0 16 0 16 0 
15 1 16 0 16 0 15 1 16 0 16 1 16 0 15 1 
16 1 16 1 15 1 16 1 16 1 15 2 16 1 16 2 
16 1 15 2 16 2 16 2 15 2 16 3 16 2 16 3 
15 3 16 3 16 3 15 3 16 4 16 4 16 4 15 4 
16 4 16 4 15 5 16 5 16 5 16 6 15 5 16 6 
16 6 15 7 16 6 16 7 15 7 16 8 16 8 16 8 
15 9 16 8 16 10 15 9 16 10 16 10 16 11 15 11 
16 12 16 12 15 12 16 13 16 14 16 14 15 14 16 15 
16 16 15 16 16 17 16 17 16 18 15 19 16 20 16 20 
15 21 16 22 16 -463 5513 4049 100 MP stroke
DA
c8
16 -1 16 0 16 0 15 0 16 -1 16 0 15 0 16 -1 
16 0 16 0 15 0 16 -1 16 0 15 0 16 0 16 0 
16 -1 15 0 16 0 16 0 15 0 16 0 16 0 16 0 
15 0 16 0 16 0 15 0 16 0 16 0 16 0 15 0 
16 0 16 0 15 1 16 0 16 0 15 0 16 1 16 0 
16 1 15 0 16 1 16 1 15 0 16 1 16 1 16 1 
15 1 16 1 16 1 15 1 16 2 16 1 16 2 15 1 
16 2 16 2 15 2 16 2 16 2 16 2 15 3 16 2 
16 3 15 3 16 3 16 3 15 4 16 3 16 4 16 4 
15 4 16 5 16 4 15 5 16 6 16 5 16 6 15 6 
16 6 16 7 15 7 16 7 16 8 16 8 15 9 16 9 
16 9 15 10 16 11 16 10 16 12 15 12 16 12 16 14 
15 14 16 696 16 -941 5513 4049 100 MP stroke
SO
c9
16 -1 16 -2 16 -1 15 -2 16 -2 16 -3 15 -2 16 -3 
16 -3 16 -3 15 -3 16 -4 16 -3 15 -4 16 -5 16 -4 
16 -5 15 -5 16 -5 16 -5 15 -6 16 -6 16 -6 16 -6 
15 -7 16 -6 16 -7 15 -8 16 -7 16 -8 16 -7 15 -8 
16 -9 16 -8 15 -8 16 -9 16 -8 15 -9 16 -9 16 -8 
16 -9 15 -8 16 -9 16 -8 15 -8 16 -8 16 -8 16 -7 
15 -7 16 -6 16 -6 15 -6 16 -5 16 -4 16 -3 15 -2 
16 -2 16 0 15 0 16 2 16 3 16 5 15 6 16 8 
16 9 15 12 16 13 16 16 15 17 16 20 16 23 16 25 
15 28 16 30 16 34 15 37 16 40 16 43 16 47 15 50 
16 54 16 57 15 60 16 64 16 66 16 68 15 71 16 71 
16 70 15 69 16 64 16 57 16 46 15 29 16 7 16 -25 
15 -68 16 -127 16 -803 5513 4049 100 MP stroke
gr

c9
0 sg
6266 2667 mt 
(I) s
1 sg
0 1717 1571 0 0 -1717 7588 4479 4 MP
PP
-1571 0 0 1717 1571 0 0 -1717 7588 4479 5 MP stroke
4 w
DO
6 w
SO
0 sg
7588 4479 mt 9159 4479 L
7588 2762 mt 9159 2762 L
7588 4479 mt 7588 2762 L
9159 4479 mt 9159 2762 L
7588 4479 mt 9159 4479 L
7588 4479 mt 7588 2762 L
7588 4479 mt 7588 4461 L
7588 2762 mt 7588 2779 L
7555 4624 mt 
(0) s
8373 4479 mt 8373 4461 L
8373 2762 mt 8373 2779 L
8307 4624 mt 
(50) s
9159 4479 mt 9159 4461 L
9159 2762 mt 9159 2779 L
9059 4624 mt 
(100) s
7588 4479 mt 7605 4479 L
9159 4479 mt 9141 4479 L
7417 4523 mt 
(-2) s
7588 4135 mt 7605 4135 L
9159 4135 mt 9141 4135 L
7417 4179 mt 
(-1) s
7588 3792 mt 7605 3792 L
9159 3792 mt 9141 3792 L
7487 3836 mt 
(0) s
7588 3448 mt 7605 3448 L
9159 3448 mt 9141 3448 L
7487 3492 mt 
(1) s
7588 3105 mt 7605 3105 L
9159 3105 mt 9141 3105 L
7487 3149 mt 
(2) s
7588 2762 mt 7605 2762 L
9159 2762 mt 9141 2762 L
7487 2806 mt 
(3) s
7588 4479 mt 9159 4479 L
7588 2762 mt 9159 2762 L
7588 4479 mt 7588 2762 L
9159 4479 mt 9159 2762 L
gs 7588 2762 1572 1718 rc
DO
16 0 16 -1 16 0 15 -1 16 0 16 0 15 0 16 0 
16 0 16 0 15 0 16 1 16 0 15 1 16 1 16 1 
16 1 15 1 16 1 16 2 15 1 16 2 16 2 16 2 
15 3 16 2 16 3 15 2 16 3 16 3 16 4 15 3 
16 4 16 4 15 4 16 4 16 4 15 5 16 5 16 5 
16 5 15 5 16 6 16 5 15 6 16 6 16 7 16 6 
15 7 16 7 16 7 15 7 16 8 16 7 16 8 15 8 
16 8 16 9 15 8 16 9 16 9 16 8 15 10 16 9 
16 9 15 9 16 10 16 10 15 9 16 10 16 10 16 10 
15 10 16 10 16 9 15 10 16 10 16 10 16 9 15 10 
16 9 16 10 15 9 16 9 16 8 16 9 15 8 16 7 
16 8 15 7 16 6 16 6 16 6 15 5 16 4 16 4 
15 2 16 3 16 -392 7603 3792 100 MP stroke
DA
c8
16 0 16 -1 16 0 15 0 16 -1 16 0 15 0 16 0 
16 0 16 0 15 -1 16 0 16 0 15 1 16 0 16 0 
16 0 15 0 16 1 16 0 15 0 16 1 16 1 16 0 
15 1 16 1 16 1 15 1 16 1 16 1 16 1 15 1 
16 2 16 1 15 2 16 1 16 2 15 2 16 2 16 2 
16 2 15 2 16 3 16 2 15 3 16 3 16 3 16 3 
15 3 16 3 16 4 15 4 16 3 16 4 16 4 15 5 
16 4 16 4 15 5 16 5 16 5 16 5 15 6 16 5 
16 6 15 6 16 6 16 6 15 7 16 6 16 7 16 7 
15 8 16 7 16 8 15 7 16 8 16 9 16 8 15 8 
16 9 16 9 15 9 16 10 16 9 16 10 15 9 16 10 
16 11 15 10 16 10 16 11 16 11 15 10 16 11 16 12 
15 11 16 545 16 -883 7603 3792 100 MP stroke
SO
c9
16 -5 16 -4 16 -5 15 -4 16 -6 16 -5 15 -5 16 -6 
16 -6 16 -6 15 -6 16 -6 16 -7 15 -7 16 -7 16 -7 
16 -7 15 -8 16 -7 16 -8 15 -8 16 -8 16 -8 16 -8 
15 -8 16 -9 16 -8 15 -8 16 -9 16 -8 16 -8 15 -8 
16 -8 16 -8 15 -7 16 -8 16 -7 15 -7 16 -6 16 -6 
16 -6 15 -5 16 -5 16 -4 15 -4 16 -2 16 -3 16 -1 
15 -1 16 0 16 2 15 2 16 3 16 4 16 6 15 6 
16 8 16 10 15 11 16 12 16 14 16 15 15 17 16 19 
16 21 15 22 16 24 16 26 15 29 16 30 16 32 16 34 
15 37 16 38 16 41 15 43 16 45 16 46 16 49 15 51 
16 52 16 54 15 55 16 56 16 57 16 56 15 56 16 55 
16 52 15 48 16 42 16 34 16 24 15 8 16 -11 16 -37 
15 -72 16 -116 16 -766 7603 3792 100 MP stroke
gr

c9
0 sg
8340 2667 mt 
(L) s
7571 4522 mt 
( ) s
9143 2804 mt 
( ) s
1 sg
0 480 1074 0 0 -480 7648 4420 4 MP
PP
-1074 0 0 480 1074 0 0 -480 7648 4420 5 MP stroke
4 w
DO
6 w
SO
0 sg
7648 4420 mt 8722 4420 L
7648 3940 mt 8722 3940 L
7648 4420 mt 7648 3940 L
8722 4420 mt 8722 3940 L
7648 4420 mt 8722 4420 L
7648 4420 mt 7648 3940 L
7648 4420 mt 8722 4420 L
7648 3940 mt 8722 3940 L
7648 4420 mt 7648 3940 L
8722 4420 mt 8722 3940 L
8099 4074 mt 
(frictionless) s
gs 7648 3940 1075 481 rc
DO
347 0 7717 4031 2 MP stroke
SO
gr

8099 4223 mt 
(RE) s
gs 7648 3940 1075 481 rc
DA
c8
347 0 7717 4180 2 MP stroke
SO
gr

c8
0 sg
8099 4371 mt 
(learning) s
gs 7648 3940 1075 481 rc
c9
347 0 7717 4328 2 MP stroke
gr

c9

end %%Color Dict

eplot
%%EndObject

epage
end

showpage

%%Trailer
%%EOF
