%!PS-Adobe-3.0 EPSF-3.0
%%Creator: MATLAB, The MathWorks, Inc. Version 7.14.0.739 (R2012a). Operating System: Darwin 13.1.0 Darwin Kernel Version 13.1.0: Thu Jan 16 19:40:37 PST 2014; root:xnu-2422.90.20~2/RELEASE_X86_64 x86_64.
%%Title: /Users/fckw/Dropbox/PhD/finfric/paper/loss_learn.eps
%%CreationDate: 05/04/2014  17:36:00
%%DocumentNeededFonts: Helvetica
%%DocumentProcessColors: Cyan Magenta Yellow Black
%%LanguageLevel: 2
%%Pages: 1
%%BoundingBox:    26   186   585   606
%%EndComments

%%BeginProlog
% MathWorks dictionary
/MathWorks 160 dict begin
% definition operators
/bdef {bind def} bind def
/ldef {load def} bind def
/xdef {exch def} bdef
/xstore {exch store} bdef
% operator abbreviations
/c  /clip ldef
/cc /concat ldef
/cp /closepath ldef
/gr /grestore ldef
/gs /gsave ldef
/mt /moveto ldef
/np /newpath ldef
/cm /currentmatrix ldef
/sm /setmatrix ldef
/rm /rmoveto ldef
/rl /rlineto ldef
/s {show newpath} bdef
/sc {setcmykcolor} bdef
/sr /setrgbcolor ldef
/sg /setgray ldef
/w /setlinewidth ldef
/j /setlinejoin ldef
/cap /setlinecap ldef
/rc {rectclip} bdef
/rf {rectfill} bdef
% page state control
/pgsv () def
/bpage {/pgsv save def} bdef
/epage {pgsv restore} bdef
/bplot /gsave ldef
/eplot {stroke grestore} bdef
% orientation switch
/portraitMode 0 def /landscapeMode 1 def /rotateMode 2 def
% coordinate system mappings
/dpi2point 0 def
% font control
/FontSize 0 def
/FMS {/FontSize xstore findfont [FontSize 0 0 FontSize neg 0 0]
  makefont setfont} bdef
/reencode {exch dup where {pop load} {pop StandardEncoding} ifelse
  exch dup 3 1 roll findfont dup length dict begin
  { 1 index /FID ne {def}{pop pop} ifelse } forall
  /Encoding exch def currentdict end definefont pop} bdef
/isroman {findfont /CharStrings get /Agrave known} bdef
/FMSR {3 1 roll 1 index dup isroman {reencode} {pop pop} ifelse
  exch FMS} bdef
/csm {1 dpi2point div -1 dpi2point div scale neg translate
 dup landscapeMode eq {pop -90 rotate}
  {rotateMode eq {90 rotate} if} ifelse} bdef
% line types: solid, dotted, dashed, dotdash
/SO { [] 0 setdash } bdef
/DO { [.5 dpi2point mul 4 dpi2point mul] 0 setdash } bdef
/DA { [6 dpi2point mul] 0 setdash } bdef
/DD { [.5 dpi2point mul 4 dpi2point mul 6 dpi2point mul 4
  dpi2point mul] 0 setdash } bdef
% macros for lines and objects
/L {lineto stroke} bdef
/MP {3 1 roll moveto 1 sub {rlineto} repeat} bdef
/AP {{rlineto} repeat} bdef
/PDlw -1 def
/W {/PDlw currentlinewidth def setlinewidth} def
/PP {closepath eofill} bdef
/DP {closepath stroke} bdef
/MR {4 -2 roll moveto dup  0 exch rlineto exch 0 rlineto
  neg 0 exch rlineto closepath} bdef
/FR {MR stroke} bdef
/PR {MR fill} bdef
/L1i {{currentfile picstr readhexstring pop} image} bdef
/tMatrix matrix def
/MakeOval {newpath tMatrix currentmatrix pop translate scale
0 0 1 0 360 arc tMatrix setmatrix} bdef
/FO {MakeOval stroke} bdef
/PO {MakeOval fill} bdef
/PD {currentlinewidth 2 div 0 360 arc fill
   PDlw -1 eq not {PDlw w /PDlw -1 def} if} def
/FA {newpath tMatrix currentmatrix pop translate scale
  0 0 1 5 -2 roll arc tMatrix setmatrix stroke} bdef
/PA {newpath tMatrix currentmatrix pop	translate 0 0 moveto scale
  0 0 1 5 -2 roll arc closepath tMatrix setmatrix fill} bdef
/FAn {newpath tMatrix currentmatrix pop translate scale
  0 0 1 5 -2 roll arcn tMatrix setmatrix stroke} bdef
/PAn {newpath tMatrix currentmatrix pop translate 0 0 moveto scale
  0 0 1 5 -2 roll arcn closepath tMatrix setmatrix fill} bdef
/vradius 0 def /hradius 0 def /lry 0 def
/lrx 0 def /uly 0 def /ulx 0 def /rad 0 def
/MRR {/vradius xdef /hradius xdef /lry xdef /lrx xdef /uly xdef
  /ulx xdef newpath tMatrix currentmatrix pop ulx hradius add uly
  vradius add translate hradius vradius scale 0 0 1 180 270 arc 
  tMatrix setmatrix lrx hradius sub uly vradius add translate
  hradius vradius scale 0 0 1 270 360 arc tMatrix setmatrix
  lrx hradius sub lry vradius sub translate hradius vradius scale
  0 0 1 0 90 arc tMatrix setmatrix ulx hradius add lry vradius sub
  translate hradius vradius scale 0 0 1 90 180 arc tMatrix setmatrix
  closepath} bdef
/FRR {MRR stroke } bdef
/PRR {MRR fill } bdef
/MlrRR {/lry xdef /lrx xdef /uly xdef /ulx xdef /rad lry uly sub 2 div def
  newpath tMatrix currentmatrix pop ulx rad add uly rad add translate
  rad rad scale 0 0 1 90 270 arc tMatrix setmatrix lrx rad sub lry rad
  sub translate rad rad scale 0 0 1 270 90 arc tMatrix setmatrix
  closepath} bdef
/FlrRR {MlrRR stroke } bdef
/PlrRR {MlrRR fill } bdef
/MtbRR {/lry xdef /lrx xdef /uly xdef /ulx xdef /rad lrx ulx sub 2 div def
  newpath tMatrix currentmatrix pop ulx rad add uly rad add translate
  rad rad scale 0 0 1 180 360 arc tMatrix setmatrix lrx rad sub lry rad
  sub translate rad rad scale 0 0 1 0 180 arc tMatrix setmatrix
  closepath} bdef
/FtbRR {MtbRR stroke } bdef
/PtbRR {MtbRR fill } bdef
/stri 6 array def /dtri 6 array def
/smat 6 array def /dmat 6 array def
/tmat1 6 array def /tmat2 6 array def /dif 3 array def
/asub {/ind2 exch def /ind1 exch def dup dup
  ind1 get exch ind2 get sub exch } bdef
/tri_to_matrix {
  2 0 asub 3 1 asub 4 0 asub 5 1 asub
  dup 0 get exch 1 get 7 -1 roll astore } bdef
/compute_transform {
  dmat dtri tri_to_matrix tmat1 invertmatrix 
  smat stri tri_to_matrix tmat2 concatmatrix } bdef
/ds {stri astore pop} bdef
/dt {dtri astore pop} bdef
/db {2 copy /cols xdef /rows xdef mul dup 3 mul string
  currentfile 
  3 index 0 eq {/ASCIIHexDecode filter}
  {/ASCII85Decode filter 3 index 2 eq {/RunLengthDecode filter} if }
  ifelse exch readstring pop
  dup 0 3 index getinterval /rbmap xdef
  dup 2 index dup getinterval /gbmap xdef
  1 index dup 2 mul exch getinterval /bbmap xdef pop pop}bdef
/it {gs np dtri aload pop moveto lineto lineto cp c
  cols rows 8 compute_transform 
  rbmap gbmap bbmap true 3 colorimage gr}bdef
/il {newpath moveto lineto stroke}bdef
currentdict end def
%%EndProlog

%%BeginSetup
MathWorks begin

0 cap

end
%%EndSetup

%%Page: 1 1
%%BeginPageSetup
%%PageBoundingBox:    26   186   585   606
MathWorks begin
bpage
%%EndPageSetup

%%BeginObject: obj1
bplot

/dpi2point 12 def
portraitMode 0312 7272 csm

    0     0  6719  5033 rc
85 dict begin %Colortable dictionary
/c0 { 0.000000 0.000000 0.000000 sr} bdef
/c1 { 1.000000 1.000000 1.000000 sr} bdef
/c2 { 0.900000 0.000000 0.000000 sr} bdef
/c3 { 0.000000 0.820000 0.000000 sr} bdef
/c4 { 0.000000 0.000000 0.800000 sr} bdef
/c5 { 0.910000 0.820000 0.320000 sr} bdef
/c6 { 1.000000 0.260000 0.820000 sr} bdef
/c7 { 0.000000 0.820000 0.820000 sr} bdef
c0
1 j
1 sg
   0    0 6720 5034 rf
6 w
0 4102 5208 0 0 -4102 873 4479 4 MP
PP
-5208 0 0 4102 5208 0 0 -4102 873 4479 5 MP stroke
gs 873 377 5209 4103 rc
/c8 { 0.000000 0.000000 0.562500 sr} bdef
c8
1010  377 mt 1007  460 L
1007  460 mt 1003  544 L
1003  544 mt  999  628 L
 999  628 mt  994  711 L
 994  711 mt  987  795 L
 987  795 mt  979  879 L
 979  879 mt  979  883 L
 979  883 mt  973  962 L
 973  962 mt  966 1046 L
 966 1046 mt  958 1130 L
 958 1130 mt  948 1214 L
 948 1214 mt  936 1297 L
 936 1297 mt  923 1381 L
 923 1381 mt  906 1465 L
 906 1465 mt  885 1548 L
 885 1548 mt  873 1593 L
/c9 { 0.000000 0.000000 0.687500 sr} bdef
c9
2105  377 mt 2128  460 L
2128  460 mt 2148  538 L
2148  538 mt 2149  544 L
2149  544 mt 2169  628 L
2169  628 mt 2188  711 L
2188  711 mt 2206  795 L
2206  795 mt 2223  879 L
2223  879 mt 2238  962 L
2238  962 mt 2253 1046 L
2253 1046 mt 2254 1056 L
2254 1056 mt 2265 1130 L
2265 1130 mt 2276 1214 L
2276 1214 mt 2285 1297 L
2285 1297 mt 2292 1381 L
2292 1381 mt 2298 1465 L
2298 1465 mt 2303 1548 L
2303 1548 mt 2305 1632 L
2305 1632 mt 2306 1716 L
2306 1716 mt 2304 1800 L
2304 1800 mt 2301 1883 L
2301 1883 mt 2295 1967 L
2295 1967 mt 2287 2051 L
2287 2051 mt 2277 2135 L
2277 2135 mt 2265 2218 L
2265 2218 mt 2254 2275 L
2254 2275 mt 2249 2302 L
2249 2302 mt 2229 2386 L
2229 2386 mt 2206 2469 L
2206 2469 mt 2180 2553 L
2180 2553 mt 2149 2637 L
2149 2637 mt 2148 2640 L
2148 2640 mt 2111 2721 L
2111 2721 mt 2067 2804 L
2067 2804 mt 2042 2847 L
2042 2847 mt 2013 2888 L
2013 2888 mt 1947 2972 L
1947 2972 mt 1935 2985 L
1935 2985 mt 1856 3055 L
1856 3055 mt 1829 3076 L
1829 3076 mt 1723 3132 L
1723 3132 mt 1695 3139 L
1695 3139 mt 1617 3156 L
1617 3156 mt 1548 3153 L
1471 3140 mt 1467 3139 L
1467 3139 mt 1404 3119 L
1404 3119 mt 1298 3062 L
1298 3062 mt 1290 3055 L
1290 3055 mt 1191 2980 L
1191 2980 mt 1182 2972 L
1182 2972 mt 1087 2888 L
1087 2888 mt 1085 2886 L
1085 2886 mt  992 2804 L
 992 2804 mt  979 2794 L
 979 2794 mt  873 2731 L
/c10 { 0.000000 0.000000 0.812500 sr} bdef
c10
3258  377 mt 3260  460 L
3260  460 mt 3261  544 L
3261  544 mt 3260  628 L
3260  628 mt 3259  711 L
3259  711 mt 3257  795 L
3257  795 mt 3254  879 L
3254  879 mt 3250  962 L
3250  962 mt 3244 1046 L
3244 1046 mt 3238 1130 L
3238 1130 mt 3231 1214 L
3231 1214 mt 3223 1297 L
3223 1297 mt 3213 1381 L
3213 1381 mt 3211 1403 L
3211 1403 mt 3203 1465 L
3203 1465 mt 3191 1548 L
3191 1548 mt 3178 1632 L
3178 1632 mt 3164 1716 L
3164 1716 mt 3148 1800 L
3148 1800 mt 3132 1883 L
3132 1883 mt 3114 1967 L
3114 1967 mt 3105 2006 L
3105 2006 mt 3094 2051 L
3094 2051 mt 3072 2135 L
3072 2135 mt 3049 2218 L
3049 2218 mt 3025 2302 L
3025 2302 mt 2999 2386 L
2999 2386 mt 2998 2387 L
2998 2387 mt 2970 2469 L
2970 2469 mt 2939 2553 L
2939 2553 mt 2906 2637 L
2906 2637 mt 2892 2670 L
2892 2670 mt 2870 2721 L
2870 2721 mt 2831 2804 L
2831 2804 mt 2790 2888 L
2790 2888 mt 2786 2896 L
2786 2896 mt 2744 2972 L
2744 2972 mt 2694 3055 L
2694 3055 mt 2679 3078 L
2679 3078 mt 2639 3139 L
2639 3139 mt 2579 3223 L
2579 3223 mt 2573 3230 L
2573 3230 mt 2510 3307 L
2510 3307 mt 2467 3354 L
2467 3354 mt 2432 3390 L
2432 3390 mt 2361 3458 L
2361 3458 mt 2343 3474 L
2343 3474 mt 2254 3543 L
2254 3543 mt 2233 3558 L
2233 3558 mt 2148 3611 L
2148 3611 mt 2090 3641 L
2090 3641 mt 2042 3664 L
2042 3664 mt 1935 3703 L
1935 3703 mt 1848 3725 L
1848 3725 mt 1829 3729 L
1829 3729 mt 1723 3740 L
1723 3740 mt 1617 3738 L
1617 3738 mt 1535 3725 L
1535 3725 mt 1510 3721 L
1510 3721 mt 1404 3685 L
1404 3685 mt 1314 3641 L
1314 3641 mt 1298 3633 L
1298 3633 mt 1191 3559 L
1191 3559 mt 1190 3558 L
1190 3558 mt 1099 3474 L
1099 3474 mt 1085 3461 L
1085 3461 mt 1021 3390 L
1021 3390 mt  979 3345 L
 979 3345 mt  948 3307 L
 948 3307 mt  873 3223 L
 873 3223 mt  873 3222 L
/c11 { 0.000000 0.000000 0.937500 sr} bdef
c11
4126  377 mt 4112  460 L
4112  460 mt 4097  544 L
4097  544 mt 4082  628 L
4082  628 mt 4066  711 L
4066  711 mt 4061  739 L
4061  739 mt 4050  795 L
4050  795 mt 4033  879 L
4033  879 mt 4015  962 L
4015  962 mt 3996 1046 L
3996 1046 mt 3977 1130 L
3977 1130 mt 3957 1214 L
3957 1214 mt 3955 1222 L
3955 1222 mt 3936 1297 L
3936 1297 mt 3914 1381 L
3914 1381 mt 3892 1465 L
3892 1465 mt 3868 1548 L
3868 1548 mt 3849 1617 L
3849 1617 mt 3844 1632 L
3844 1632 mt 3819 1716 L
3819 1716 mt 3793 1800 L
3793 1800 mt 3765 1883 L
3765 1883 mt 3742 1952 L
3742 1952 mt 3737 1967 L
3737 1967 mt 3707 2051 L
3707 2051 mt 3677 2135 L
3677 2135 mt 3645 2218 L
3645 2218 mt 3636 2240 L
3636 2240 mt 3611 2302 L
3611 2302 mt 3576 2386 L
3576 2386 mt 3540 2469 L
3540 2469 mt 3530 2492 L
3530 2492 mt 3502 2553 L
3502 2553 mt 3461 2637 L
3461 2637 mt 3423 2713 L
3423 2713 mt 3419 2721 L
3419 2721 mt 3375 2804 L
3375 2804 mt 3328 2888 L
3328 2888 mt 3317 2906 L
3317 2906 mt 3278 2972 L
3278 2972 mt 3226 3055 L
3226 3055 mt 3211 3078 L
3211 3078 mt 3169 3139 L
3169 3139 mt 3109 3223 L
3109 3223 mt 3105 3229 L
3105 3229 mt 3044 3307 L
3044 3307 mt 2998 3362 L
2998 3362 mt 2974 3390 L
2974 3390 mt 2898 3474 L
2898 3474 mt 2892 3480 L
2892 3480 mt 2813 3558 L
2813 3558 mt 2786 3582 L
2786 3582 mt 2718 3641 L
2718 3641 mt 2679 3672 L
2679 3672 mt 2609 3725 L
2609 3725 mt 2573 3749 L
2573 3749 mt 2480 3809 L
2480 3809 mt 2467 3816 L
2467 3816 mt 2361 3872 L
2361 3872 mt 2317 3893 L
2317 3893 mt 2254 3918 L
2254 3918 mt 2148 3955 L
2148 3955 mt 2074 3976 L
2074 3976 mt 2042 3984 L
2042 3984 mt 1935 4002 L
1935 4002 mt 1829 4012 L
1829 4012 mt 1723 4012 L
1723 4012 mt 1617 4003 L
1617 4003 mt 1510 3984 L
1510 3984 mt 1483 3976 L
1483 3976 mt 1404 3950 L
1404 3950 mt 1298 3904 L
1298 3904 mt 1278 3893 L
1278 3893 mt 1191 3838 L
1191 3838 mt 1154 3809 L
1154 3809 mt 1085 3752 L
1085 3752 mt 1058 3725 L
1058 3725 mt  979 3644 L
 979 3644 mt  977 3641 L
 977 3641 mt  912 3558 L
 912 3558 mt  873 3510 L
/c12 { 0.000000 0.125000 1.000000 sr} bdef
c12
4869  377 mt 4843  460 L
4843  460 mt 4817  544 L
4817  544 mt 4805  580 L
4805  580 mt 4790  628 L
4790  628 mt 4762  711 L
4762  711 mt 4735  795 L
4735  795 mt 4707  879 L
4707  879 mt 4699  902 L
4699  902 mt 4678  962 L
4678  962 mt 4649 1046 L
4649 1046 mt 4619 1130 L
4619 1130 mt 4593 1203 L
4593 1203 mt 4589 1214 L
4589 1214 mt 4557 1297 L
4557 1297 mt 4526 1381 L
4526 1381 mt 4494 1465 L
4494 1465 mt 4486 1484 L
4486 1484 mt 4461 1548 L
4461 1548 mt 4427 1632 L
4427 1632 mt 4393 1716 L
4393 1716 mt 4380 1746 L
4380 1746 mt 4357 1800 L
4357 1800 mt 4321 1883 L
4321 1883 mt 4284 1967 L
4284 1967 mt 4274 1990 L
4274 1990 mt 4246 2051 L
4246 2051 mt 4207 2135 L
4207 2135 mt 4167 2217 L
4167 2217 mt 4167 2218 L
4167 2218 mt 4125 2302 L
4125 2302 mt 4083 2386 L
4083 2386 mt 4061 2427 L
4061 2427 mt 4039 2469 L
4039 2469 mt 3993 2553 L
3993 2553 mt 3955 2621 L
3955 2621 mt 3946 2637 L
3946 2637 mt 3897 2721 L
3897 2721 mt 3849 2801 L
3849 2801 mt 3847 2804 L
3847 2804 mt 3793 2888 L
3793 2888 mt 3742 2966 L
3742 2966 mt 3739 2972 L
3739 2972 mt 3681 3055 L
3681 3055 mt 3636 3117 L
3636 3117 mt 3620 3139 L
3620 3139 mt 3556 3223 L
3556 3223 mt 3530 3256 L
3530 3256 mt 3488 3307 L
3488 3307 mt 3423 3383 L
3423 3383 mt 3417 3390 L
3417 3390 mt 3340 3474 L
3340 3474 mt 3317 3497 L
3317 3497 mt 3257 3558 L
3257 3558 mt 3211 3601 L
3211 3601 mt 3168 3641 L
3168 3641 mt 3105 3695 L
3105 3695 mt 3069 3725 L
3069 3725 mt 2998 3780 L
2998 3780 mt 2960 3809 L
2960 3809 mt 2892 3855 L
2892 3855 mt 2835 3893 L
2835 3893 mt 2786 3922 L
2786 3922 mt 2689 3976 L
2689 3976 mt 2679 3981 L
2679 3981 mt 2573 4031 L
2573 4031 mt 2505 4060 L
2505 4060 mt 2467 4074 L
2467 4074 mt 2361 4110 L
2361 4110 mt 2254 4140 L
2254 4140 mt 2239 4144 L
2239 4144 mt 2148 4161 L
2148 4161 mt 2042 4176 L
2042 4176 mt 1935 4185 L
1935 4185 mt 1829 4187 L
1829 4187 mt 1723 4181 L
1723 4181 mt 1617 4169 L
1617 4169 mt 1510 4148 L
1510 4148 mt 1494 4144 L
1494 4144 mt 1404 4115 L
1404 4115 mt 1298 4072 L
1298 4072 mt 1275 4060 L
1275 4060 mt 1191 4012 L
1191 4012 mt 1141 3976 L
1141 3976 mt 1085 3935 L
1085 3935 mt 1040 3893 L
1040 3893 mt  979 3834 L
 979 3834 mt  959 3809 L
 959 3809 mt  891 3725 L
 891 3725 mt  873 3703 L
/c13 { 0.000000 0.250000 1.000000 sr} bdef
c13
5544  377 mt 5508  460 L
5508  460 mt 5471  544 L
5471  544 mt 5443  609 L
5443  609 mt 5435  628 L
5435  628 mt 5398  711 L
5398  711 mt 5360  795 L
5360  795 mt 5337  848 L
5337  848 mt 5323  879 L
5323  879 mt 5285  962 L
5285  962 mt 5246 1046 L
5246 1046 mt 5230 1080 L
5230 1080 mt 5207 1130 L
5207 1130 mt 5168 1214 L
5168 1214 mt 5128 1297 L
5128 1297 mt 5124 1306 L
5124 1306 mt 5088 1381 L
5088 1381 mt 5047 1465 L
5047 1465 mt 5018 1524 L
5018 1524 mt 5006 1548 L
5006 1548 mt 4964 1632 L
4964 1632 mt 4921 1716 L
4921 1716 mt 4911 1734 L
4911 1734 mt 4877 1800 L
4877 1800 mt 4833 1883 L
4833 1883 mt 4805 1936 L
4805 1936 mt 4788 1967 L
4788 1967 mt 4743 2051 L
4743 2051 mt 4699 2130 L
4699 2130 mt 4696 2135 L
4696 2135 mt 4648 2218 L
4648 2218 mt 4600 2302 L
4600 2302 mt 4593 2314 L
4593 2314 mt 4550 2386 L
4550 2386 mt 4499 2469 L
4499 2469 mt 4486 2489 L
4486 2489 mt 4446 2553 L
4446 2553 mt 4393 2637 L
4393 2637 mt 4380 2656 L
4380 2656 mt 4337 2721 L
4337 2721 mt 4280 2804 L
4280 2804 mt 4274 2814 L
4274 2814 mt 4221 2888 L
4221 2888 mt 4167 2962 L
4167 2962 mt 4161 2972 L
4161 2972 mt 4097 3055 L
4097 3055 mt 4061 3101 L
4061 3101 mt 4031 3139 L
4031 3139 mt 3963 3223 L
3963 3223 mt 3955 3232 L
3955 3232 mt 3891 3307 L
3891 3307 mt 3849 3354 L
3849 3354 mt 3816 3390 L
3816 3390 mt 3742 3468 L
3742 3468 mt 3736 3474 L
3736 3474 mt 3652 3558 L
3652 3558 mt 3636 3572 L
3636 3572 mt 3562 3641 L
3562 3641 mt 3530 3669 L
3530 3669 mt 3465 3725 L
3465 3725 mt 3423 3758 L
3423 3758 mt 3359 3809 L
3359 3809 mt 3317 3839 L
3317 3839 mt 3243 3893 L
3243 3893 mt 3211 3914 L
3211 3914 mt 3113 3976 L
3113 3976 mt 3105 3981 L
3105 3981 mt 2998 4041 L
2998 4041 mt 2964 4060 L
2964 4060 mt 2892 4094 L
2892 4094 mt 2786 4143 L
2786 4143 mt 2785 4144 L
2785 4144 mt 2679 4183 L
2679 4183 mt 2573 4220 L
2573 4220 mt 2548 4227 L
2548 4227 mt 2467 4249 L
2467 4249 mt 2361 4272 L
2361 4272 mt 2254 4291 L
2254 4291 mt 2148 4306 L
2148 4306 mt 2081 4311 L
2081 4311 mt 2073 4312 L
1994 4315 mt 1935 4316 L
1935 4316 mt 1829 4313 L
1829 4313 mt 1812 4311 L
1812 4311 mt 1723 4302 L
1723 4302 mt 1617 4285 L
1617 4285 mt 1510 4261 L
1510 4261 mt 1404 4231 L
1404 4231 mt 1393 4227 L
1393 4227 mt 1298 4187 L
1298 4187 mt 1209 4144 L
1209 4144 mt 1191 4134 L
1191 4134 mt 1085 4063 L
1085 4063 mt 1081 4060 L
1081 4060 mt  987 3976 L
 987 3976 mt  979 3969 L
 979 3969 mt  917 3893 L
 917 3893 mt  873 3841 L
/c14 { 0.000000 0.375000 1.000000 sr} bdef
c14
 873 3946 mt  900 3976 L
 900 3976 mt  972 4060 L
 972 4060 mt  979 4068 L
 979 4068 mt 1070 4144 L
1070 4144 mt 1085 4156 L
1085 4156 mt 1191 4224 L
1191 4224 mt 1197 4227 L
1197 4227 mt 1298 4274 L
1298 4274 mt 1386 4311 L
1386 4311 mt 1404 4317 L
1404 4317 mt 1510 4348 L
1510 4348 mt 1617 4373 L
1617 4373 mt 1723 4393 L
1723 4393 mt 1734 4395 L
1734 4395 mt 1829 4405 L
1829 4405 mt 1935 4412 L
1935 4412 mt 2042 4414 L
2042 4414 mt 2148 4412 L
2148 4412 mt 2254 4406 L
2254 4406 mt 2361 4395 L
2361 4395 mt 2365 4395 L
2365 4395 mt 2467 4378 L
2467 4378 mt 2573 4357 L
2573 4357 mt 2679 4332 L
2679 4332 mt 2758 4311 L
2758 4311 mt 2786 4302 L
2786 4302 mt 2892 4266 L
2892 4266 mt 2998 4228 L
2998 4228 mt 2999 4227 L
2999 4227 mt 3105 4181 L
3105 4181 mt 3186 4144 L
3186 4144 mt 3211 4131 L
3211 4131 mt 3317 4075 L
3317 4075 mt 3345 4060 L
3345 4060 mt 3423 4013 L
3423 4013 mt 3483 3976 L
3483 3976 mt 3530 3945 L
3530 3945 mt 3608 3893 L
3608 3893 mt 3636 3872 L
3636 3872 mt 3722 3809 L
3722 3809 mt 3742 3793 L
3742 3793 mt 3827 3725 L
3827 3725 mt 3849 3707 L
3849 3707 mt 3926 3641 L
3926 3641 mt 3955 3615 L
3955 3615 mt 4018 3558 L
4018 3558 mt 4061 3517 L
4061 3517 mt 4106 3474 L
4106 3474 mt 4167 3412 L
4167 3412 mt 4190 3390 L
4190 3390 mt 4269 3307 L
4269 3307 mt 4274 3302 L
4274 3302 mt 4346 3223 L
4346 3223 mt 4380 3184 L
4380 3184 mt 4420 3139 L
4420 3139 mt 4486 3061 L
4486 3061 mt 4491 3055 L
4491 3055 mt 4559 2972 L
4559 2972 mt 4593 2930 L
4593 2930 mt 4626 2888 L
4626 2888 mt 4691 2804 L
4691 2804 mt 4699 2794 L
4699 2794 mt 4754 2721 L
4754 2721 mt 4805 2651 L
4805 2651 mt 4816 2637 L
4816 2637 mt 4876 2553 L
4876 2553 mt 4911 2503 L
4911 2503 mt 4935 2469 L
4935 2469 mt 4993 2386 L
4993 2386 mt 5018 2348 L
5018 2348 mt 5049 2302 L
5049 2302 mt 5105 2218 L
5105 2218 mt 5124 2189 L
5124 2189 mt 5159 2135 L
5159 2135 mt 5213 2051 L
5213 2051 mt 5230 2024 L
5230 2024 mt 5266 1967 L
5266 1967 mt 5318 1883 L
5318 1883 mt 5337 1853 L
5337 1853 mt 5370 1800 L
5370 1800 mt 5421 1716 L
5421 1716 mt 5443 1679 L
5443 1679 mt 5471 1632 L
5471 1632 mt 5521 1548 L
5521 1548 mt 5549 1500 L
5549 1500 mt 5570 1465 L
5570 1465 mt 5618 1381 L
5618 1381 mt 5655 1317 L
5655 1317 mt 5667 1297 L
5667 1297 mt 5714 1214 L
5714 1214 mt 5762 1130 L
5762 1130 mt 5762 1130 L
5762 1130 mt 5809 1046 L
5809 1046 mt 5856  962 L
5856  962 mt 5868  940 L
5868  940 mt 5902  879 L
5902  879 mt 5948  795 L
5948  795 mt 5974  748 L
5974  748 mt 5994  711 L
5994  711 mt 6040  628 L
6040  628 mt 6081  553 L
/c15 { 0.000000 0.562500 1.000000 sr} bdef
c15
1817 4479 mt 1723 4464 L
1723 4464 mt 1617 4442 L
1617 4442 mt 1510 4416 L
1510 4416 mt 1434 4395 L
1434 4395 mt 1404 4385 L
1404 4385 mt 1298 4342 L
1298 4342 mt 1228 4311 L
1228 4311 mt 1191 4292 L
1191 4292 mt 1085 4229 L
1085 4229 mt 1082 4227 L
1082 4227 mt  979 4145 L
 979 4145 mt  977 4144 L
 977 4144 mt  903 4060 L
 903 4060 mt  873 4027 L
2484 4479 mt 2573 4466 L
2573 4466 mt 2679 4447 L
2679 4447 mt 2786 4425 L
2786 4425 mt 2892 4399 L
2892 4399 mt 2910 4395 L
2910 4395 mt 2998 4368 L
2998 4368 mt 3105 4333 L
3105 4333 mt 3168 4311 L
3168 4311 mt 3211 4294 L
3211 4294 mt 3317 4250 L
3317 4250 mt 3370 4227 L
3370 4227 mt 3423 4202 L
3423 4202 mt 3530 4149 L
3530 4149 mt 3541 4144 L
3541 4144 mt 3636 4091 L
3636 4091 mt 3691 4060 L
3691 4060 mt 3742 4028 L
3742 4028 mt 3826 3976 L
3826 3976 mt 3849 3961 L
3849 3961 mt 3949 3893 L
3949 3893 mt 3955 3888 L
3955 3888 mt 4061 3811 L
4061 3811 mt 4064 3809 L
4064 3809 mt 4167 3728 L
4167 3728 mt 4171 3725 L
4171 3725 mt 4272 3641 L
4272 3641 mt 4274 3640 L
4274 3640 mt 4368 3558 L
4368 3558 mt 4380 3547 L
4380 3547 mt 4460 3474 L
4460 3474 mt 4486 3448 L
4486 3448 mt 4547 3390 L
4547 3390 mt 4593 3345 L
4593 3345 mt 4632 3307 L
4632 3307 mt 4699 3238 L
4699 3238 mt 4713 3223 L
4713 3223 mt 4792 3139 L
4792 3139 mt 4805 3125 L
4805 3125 mt 4869 3055 L
4869 3055 mt 4911 3007 L
4911 3007 mt 4943 2972 L
4943 2972 mt 5015 2888 L
5015 2888 mt 5018 2885 L
5018 2885 mt 5086 2804 L
5086 2804 mt 5124 2758 L
5124 2758 mt 5155 2721 L
5155 2721 mt 5223 2637 L
5223 2637 mt 5230 2627 L
5230 2627 mt 5289 2553 L
5289 2553 mt 5337 2492 L
5337 2492 mt 5354 2469 L
5354 2469 mt 5419 2386 L
5419 2386 mt 5443 2353 L
5443 2353 mt 5482 2302 L
5482 2302 mt 5544 2218 L
5544 2218 mt 5549 2211 L
5549 2211 mt 5605 2135 L
5605 2135 mt 5655 2065 L
5655 2065 mt 5666 2051 L
5666 2051 mt 5725 1967 L
5725 1967 mt 5762 1915 L
5762 1915 mt 5784 1883 L
5784 1883 mt 5843 1800 L
5843 1800 mt 5868 1763 L
5868 1763 mt 5901 1716 L
5901 1716 mt 5958 1632 L
5958 1632 mt 5974 1608 L
5974 1608 mt 6015 1548 L
6015 1548 mt 6071 1465 L
6071 1465 mt 6081 1451 L
/c16 { 0.000000 0.687500 1.000000 sr} bdef
c16
1528 4479 mt 1510 4474 L
1510 4474 mt 1404 4438 L
1404 4438 mt 1298 4399 L
1298 4399 mt 1287 4395 L
1287 4395 mt 1191 4347 L
1191 4347 mt 1127 4311 L
1127 4311 mt 1085 4285 L
1085 4285 mt 1008 4227 L
1008 4227 mt  979 4204 L
 979 4204 mt  923 4144 L
 923 4144 mt  873 4092 L
3013 4479 mt 3105 4454 L
3105 4454 mt 3211 4423 L
3211 4423 mt 3301 4395 L
3301 4395 mt 3317 4389 L
3317 4389 mt 3423 4349 L
3423 4349 mt 3522 4311 L
3522 4311 mt 3530 4308 L
3530 4308 mt 3636 4260 L
3636 4260 mt 3708 4227 L
3708 4227 mt 3742 4210 L
3742 4210 mt 3849 4155 L
3849 4155 mt 3870 4144 L
3870 4144 mt 3955 4095 L
3955 4095 mt 4017 4060 L
4017 4060 mt 4061 4032 L
4061 4032 mt 4151 3976 L
4151 3976 mt 4167 3965 L
4167 3965 mt 4274 3894 L
4274 3894 mt 4275 3893 L
4275 3893 mt 4380 3817 L
4380 3817 mt 4392 3809 L
4392 3809 mt 4486 3737 L
4486 3737 mt 4502 3725 L
4502 3725 mt 4593 3652 L
4593 3652 mt 4606 3641 L
4606 3641 mt 4699 3564 L
4699 3564 mt 4706 3558 L
4706 3558 mt 4802 3474 L
4802 3474 mt 4805 3471 L
4805 3471 mt 4894 3390 L
4894 3390 mt 4911 3374 L
4911 3374 mt 4984 3307 L
4984 3307 mt 5018 3273 L
5018 3273 mt 5070 3223 L
5070 3223 mt 5124 3169 L
5124 3169 mt 5154 3139 L
5154 3139 mt 5230 3061 L
5230 3061 mt 5236 3055 L
5236 3055 mt 5316 2972 L
5316 2972 mt 5337 2949 L
5337 2949 mt 5394 2888 L
5394 2888 mt 5443 2834 L
5443 2834 mt 5470 2804 L
5470 2804 mt 5545 2721 L
5545 2721 mt 5549 2716 L
5549 2716 mt 5619 2637 L
5619 2637 mt 5655 2594 L
5655 2594 mt 5691 2553 L
5691 2553 mt 5762 2470 L
5762 2470 mt 5763 2469 L
5763 2469 mt 5833 2386 L
5833 2386 mt 5868 2343 L
5868 2343 mt 5902 2302 L
5902 2302 mt 5971 2218 L
5971 2218 mt 5974 2214 L
5974 2214 mt 6038 2135 L
6038 2135 mt 6081 2082 L
/c17 { 0.000000 0.812500 1.000000 sr} bdef
c17
1385 4479 mt 1298 4442 L
1298 4442 mt 1191 4396 L
1191 4396 mt 1189 4395 L
1189 4395 mt 1085 4332 L
1085 4332 mt 1072 4323 L
 951 4224 mt  873 4147 L
3397 4479 mt 3423 4470 L
3423 4470 mt 3530 4435 L
3530 4435 mt 3636 4398 L
3636 4398 mt 3644 4395 L
3644 4395 mt 3742 4355 L
3742 4355 mt 3848 4311 L
3848 4311 mt 3849 4311 L
3849 4311 mt 3955 4261 L
3955 4261 mt 4025 4227 L
4025 4227 mt 4061 4209 L
4061 4209 mt 4167 4153 L
4167 4153 mt 4185 4144 L
4185 4144 mt 4274 4092 L
4274 4092 mt 4330 4060 L
4330 4060 mt 4380 4029 L
4380 4029 mt 4465 3976 L
4465 3976 mt 4486 3962 L
4486 3962 mt 4591 3893 L
4591 3893 mt 4593 3892 L
4593 3892 mt 4699 3817 L
4699 3817 mt 4710 3809 L
4710 3809 mt 4805 3739 L
4805 3739 mt 4824 3725 L
4824 3725 mt 4911 3657 L
4911 3657 mt 4932 3641 L
4932 3641 mt 5018 3572 L
5018 3572 mt 5036 3558 L
5036 3558 mt 5124 3484 L
5124 3484 mt 5137 3474 L
5137 3474 mt 5230 3393 L
5230 3393 mt 5234 3390 L
5234 3390 mt 5328 3307 L
5328 3307 mt 5337 3298 L
5337 3298 mt 5419 3223 L
5419 3223 mt 5443 3200 L
5443 3200 mt 5508 3139 L
5508 3139 mt 5540 3108 L
5653 2999 mt 5655 2997 L
5655 2997 mt 5681 2972 L
5681 2972 mt 5762 2891 L
5762 2891 mt 5765 2888 L
5765 2888 mt 5847 2804 L
5847 2804 mt 5868 2782 L
5868 2782 mt 5927 2721 L
5927 2721 mt 5974 2671 L
5974 2671 mt 6007 2637 L
6007 2637 mt 6081 2558 L
/c18 { 0.000000 0.937500 1.000000 sr} bdef
c18
1287 4479 mt 1191 4431 L
1191 4431 mt 1124 4395 L
1124 4395 mt 1085 4372 L
1085 4372 mt  999 4311 L
 999 4311 mt  979 4295 L
 979 4295 mt  912 4227 L
 912 4227 mt  873 4189 L
3736 4479 mt 3742 4476 L
3742 4476 mt 3849 4438 L
3849 4438 mt 3955 4398 L
3955 4398 mt 3963 4395 L
3963 4395 mt 4061 4353 L
4061 4353 mt 4157 4311 L
4157 4311 mt 4167 4306 L
4167 4306 mt 4274 4255 L
4274 4255 mt 4331 4227 L
4331 4227 mt 4380 4201 L
4380 4201 mt 4486 4145 L
4486 4145 mt 4489 4144 L
4489 4144 mt 4593 4084 L
4593 4084 mt 4635 4060 L
4635 4060 mt 4699 4020 L
4699 4020 mt 4771 3976 L
4771 3976 mt 4805 3954 L
4805 3954 mt 4900 3893 L
4900 3893 mt 4911 3885 L
4911 3885 mt 5018 3812 L
5018 3812 mt 5023 3809 L
5023 3809 mt 5124 3736 L
5124 3736 mt 5140 3725 L
5140 3725 mt 5230 3658 L
5230 3658 mt 5252 3641 L
5252 3641 mt 5337 3576 L
5337 3576 mt 5361 3558 L
5361 3558 mt 5443 3492 L
5443 3492 mt 5466 3474 L
5466 3474 mt 5549 3405 L
5549 3405 mt 5567 3390 L
5567 3390 mt 5655 3316 L
5655 3316 mt 5666 3307 L
5666 3307 mt 5762 3224 L
5762 3224 mt 5763 3223 L
5763 3223 mt 5858 3139 L
5858 3139 mt 5868 3130 L
5868 3130 mt 5950 3055 L
5950 3055 mt 5974 3033 L
5974 3033 mt 6041 2972 L
6041 2972 mt 6081 2934 L
/c19 { 0.125000 1.000000 0.875000 sr} bdef
c19
1217 4479 mt 1191 4466 L
1191 4466 mt 1085 4406 L
1085 4406 mt 1069 4395 L
1069 4395 mt  979 4329 L
 979 4329 mt  960 4311 L
 960 4311 mt  873 4229 L
4051 4479 mt 4061 4475 L
4061 4475 mt 4167 4434 L
4167 4434 mt 4266 4395 L
4266 4395 mt 4274 4392 L
4274 4392 mt 4380 4345 L
4380 4345 mt 4456 4311 L
4456 4311 mt 4486 4296 L
4486 4296 mt 4593 4244 L
4593 4244 mt 4628 4227 L
4628 4227 mt 4699 4190 L
4699 4190 mt 4786 4144 L
4786 4144 mt 4805 4133 L
4805 4133 mt 4911 4072 L
4911 4072 mt 4933 4060 L
4933 4060 mt 5018 4009 L
5018 4009 mt 5072 3976 L
5072 3976 mt 5124 3943 L
5124 3943 mt 5205 3893 L
5205 3893 mt 5230 3875 L
5230 3875 mt 5331 3809 L
5331 3809 mt 5337 3805 L
5337 3805 mt 5443 3731 L
5443 3731 mt 5452 3725 L
5452 3725 mt 5549 3655 L
5549 3655 mt 5568 3641 L
5568 3641 mt 5655 3577 L
5655 3577 mt 5681 3558 L
5681 3558 mt 5762 3496 L
5762 3496 mt 5791 3474 L
5791 3474 mt 5868 3413 L
5868 3413 mt 5897 3390 L
5897 3390 mt 5974 3328 L
5974 3328 mt 6001 3307 L
6001 3307 mt 6081 3241 L
/c20 { 0.250000 1.000000 0.750000 sr} bdef
c20
1163 4479 mt 1085 4432 L
1085 4432 mt 1029 4395 L
1029 4395 mt  979 4358 L
 979 4358 mt  930 4311 L
 930 4311 mt  873 4257 L
4352 4479 mt 4380 4467 L
4380 4467 mt 4486 4425 L
4486 4425 mt 4560 4395 L
4560 4395 mt 4593 4380 L
4593 4380 mt 4699 4333 L
4699 4333 mt 4747 4311 L
4747 4311 mt 4805 4283 L
4805 4283 mt 4911 4231 L
4911 4231 mt 4919 4227 L
4919 4227 mt 5018 4175 L
5018 4175 mt 5078 4144 L
5078 4144 mt 5124 4118 L
5124 4118 mt 5228 4060 L
5228 4060 mt 5230 4059 L
5230 4059 mt 5337 3996 L
5337 3996 mt 5370 3976 L
5370 3976 mt 5443 3931 L
5443 3931 mt 5505 3893 L
5505 3893 mt 5549 3864 L
5549 3864 mt 5635 3809 L
5635 3809 mt 5655 3795 L
5655 3795 mt 5760 3725 L
5760 3725 mt 5762 3724 L
5762 3724 mt 5868 3651 L
5868 3651 mt 5881 3641 L
5881 3641 mt 5974 3575 L
5974 3575 mt 5999 3558 L
5999 3558 mt 6081 3498 L
/c21 { 0.375000 1.000000 0.625000 sr} bdef
c21
1118 4479 mt 1085 4459 L
1085 4459 mt 1031 4423 L
 911 4322 mt  900 4311 L
 900 4311 mt  873 4285 L
4643 4479 mt 4699 4456 L
4699 4456 mt 4805 4412 L
4805 4412 mt 4847 4395 L
4847 4395 mt 4911 4366 L
4911 4366 mt 5018 4318 L
5018 4318 mt 5034 4311 L
5034 4311 mt 5124 4267 L
5124 4267 mt 5206 4227 L
5206 4227 mt 5230 4215 L
5230 4215 mt 5337 4159 L
5337 4159 mt 5367 4144 L
5367 4144 mt 5443 4102 L
5443 4102 mt 5520 4060 L
5520 4060 mt 5549 4043 L
5549 4043 mt 5655 3982 L
5655 3982 mt 5665 3976 L
5665 3976 mt 5695 3958 L
5830 3876 mt 5868 3852 L
5868 3852 mt 5938 3809 L
5938 3809 mt 5974 3785 L
5974 3785 mt 6067 3725 L
6067 3725 mt 6081 3716 L
/c22 { 0.562500 1.000000 0.437500 sr} bdef
c22
1079 4479 mt  979 4408 L
 979 4408 mt  965 4395 L
 965 4395 mt  873 4313 L
4928 4479 mt 5018 4441 L
5018 4441 mt 5124 4397 L
5124 4397 mt 5130 4395 L
5130 4395 mt 5230 4350 L
5230 4350 mt 5317 4311 L
5317 4311 mt 5337 4301 L
5337 4301 mt 5443 4250 L
5443 4250 mt 5490 4227 L
5490 4227 mt 5549 4197 L
5549 4197 mt 5654 4144 L
5654 4144 mt 5655 4143 L
5655 4143 mt 5762 4086 L
5762 4086 mt 5810 4060 L
5810 4060 mt 5868 4027 L
5868 4027 mt 5958 3976 L
5958 3976 mt 5974 3967 L
5974 3967 mt 6081 3905 L
/c23 { 0.687500 1.000000 0.312500 sr} bdef
c23
1054 4479 mt  979 4426 L
 979 4426 mt  945 4395 L
 945 4395 mt  873 4330 L
5208 4479 mt 5230 4469 L
5230 4469 mt 5337 4425 L
5337 4425 mt 5410 4395 L
5410 4395 mt 5443 4380 L
5443 4380 mt 5549 4333 L
5549 4333 mt 5597 4311 L
5597 4311 mt 5655 4283 L
5655 4283 mt 5762 4233 L
5762 4233 mt 5773 4227 L
5773 4227 mt 5868 4179 L
5868 4179 mt 5940 4144 L
5940 4144 mt 5974 4125 L
5974 4125 mt 6081 4069 L
/c24 { 0.812500 1.000000 0.187500 sr} bdef
c24
1028 4479 mt  979 4443 L
 979 4443 mt  926 4395 L
 926 4395 mt  873 4347 L
5485 4479 mt 5549 4452 L
5549 4452 mt 5655 4408 L
5655 4408 mt 5688 4395 L
5688 4395 mt 5762 4362 L
5762 4362 mt 5868 4315 L
5868 4315 mt 5877 4311 L
5877 4311 mt 5974 4265 L
5974 4265 mt 6055 4227 L
6055 4227 mt 6081 4215 L
/c25 { 0.937500 1.000000 0.062500 sr} bdef
c25
1003 4479 mt  979 4461 L
 979 4461 mt  907 4395 L
 907 4395 mt  873 4364 L
5761 4479 mt 5762 4478 L
5762 4478 mt 5868 4434 L
5868 4434 mt 5881 4429 L
6026 4368 mt 6081 4344 L
/c26 { 1.000000 0.875000 0.000000 sr} bdef
c26
 979 4479 mt  888 4395 L
 888 4395 mt  873 4381 L
6035 4479 mt 6081 4460 L
/c27 { 1.000000 0.750000 0.000000 sr} bdef
c27
 968 4479 mt  873 4397 L
/c28 { 1.000000 0.625000 0.000000 sr} bdef
c28
 958 4479 mt  873 4405 L
/c29 { 1.000000 0.437500 0.000000 sr} bdef
c29
 948 4479 mt  873 4414 L
/c30 { 1.000000 0.312500 0.000000 sr} bdef
c30
 938 4479 mt  873 4423 L
/c31 { 1.000000 0.187500 0.000000 sr} bdef
c31
 928 4479 mt  873 4431 L
/c32 { 1.000000 0.062500 0.000000 sr} bdef
c32
 918 4479 mt  873 4440 L
/c33 { 0.875000 0.000000 0.000000 sr} bdef
c33
 907 4479 mt  873 4449 L
/c34 { 0.750000 0.000000 0.000000 sr} bdef
c34
 897 4479 mt  873 4457 L
/c35 { 0.625000 0.000000 0.000000 sr} bdef
c35
 887 4479 mt  873 4466 L
/c36 { 0.500000 0.000000 0.000000 sr} bdef
c36
 877 4479 mt  873 4475 L
0 sg
%%IncludeResource: font Helvetica
/Helvetica /ISOLatin1Encoding 120 FMSR

1469 3185 mt  -350 rotate
(6) s
350 rotate
2003 4356 mt  -2 rotate
(8) s
2 rotate
 932 4265 mt  -320 rotate
(10) s
320 rotate
5578 3131 mt  -44 rotate
(10) s
44 rotate
 892 4364 mt  -319 rotate
(12) s
319 rotate
5727 3988 mt  -31 rotate
(12) s
31 rotate
5908 4464 mt  -22 rotate
(14) s
22 rotate
gr

0 sg
%%IncludeResource: font Symbol
/Symbol /ISOLatin1Encoding 120 FMSR

3371 4736 mt 
(f) s
%%IncludeResource: font Symbol
/Symbol /ISOLatin1Encoding 96 FMSR

3433 4796 mt 
(D) s
%%IncludeResource: font Helvetica
/Helvetica /ISOLatin1Encoding 96 FMSR

3491 4796 mt 
( Y) s
%%IncludeResource: font Symbol
/Symbol /ISOLatin1Encoding 120 FMSR

 529 2534 mt  -90 rotate
(f) s
90 rotate
%%IncludeResource: font Symbol
/Symbol /ISOLatin1Encoding 96 FMSR

 589 2472 mt  -90 rotate
(D) s
90 rotate
%%IncludeResource: font Helvetica
/Helvetica /ISOLatin1Encoding 96 FMSR

 589 2414 mt  -90 rotate
( V) s
90 rotate
%%IncludeResource: font Helvetica
/Helvetica /ISOLatin1Encoding 120 FMSR

3369  282 mt 
(loss) s
gs 873 377 5209 4103 rc
24 w
DA
5316  377 mt 5283  460 L
5283  460 mt 5250  544 L
5250  544 mt 5230  593 L
5230  593 mt 5216  628 L
5216  628 mt 5183  711 L
5183  711 mt 5148  795 L
5148  795 mt 5124  854 L
5124  854 mt 5114  879 L
5114  879 mt 5079  962 L
5079  962 mt 5044 1046 L
5044 1046 mt 5018 1107 L
5018 1107 mt 5008 1130 L
5008 1130 mt 4971 1214 L
4971 1214 mt 4935 1297 L
4935 1297 mt 4911 1349 L
4911 1349 mt 4897 1381 L
4897 1381 mt 4859 1465 L
4859 1465 mt 4821 1548 L
4821 1548 mt 4805 1582 L
4805 1582 mt 4781 1632 L
4781 1632 mt 4741 1716 L
4741 1716 mt 4701 1800 L
4701 1800 mt 4699 1804 L
4699 1804 mt 4659 1883 L
4659 1883 mt 4617 1967 L
4617 1967 mt 4593 2015 L
4593 2015 mt 4574 2051 L
4574 2051 mt 4530 2135 L
4530 2135 mt 4486 2216 L
4486 2216 mt 4485 2218 L
4485 2218 mt 4438 2302 L
4438 2302 mt 4391 2386 L
4391 2386 mt 4380 2405 L
4380 2405 mt 4342 2469 L
4342 2469 mt 4293 2553 L
4293 2553 mt 4274 2584 L
4274 2584 mt 4241 2637 L
4241 2637 mt 4188 2721 L
4188 2721 mt 4167 2752 L
4167 2752 mt 4133 2804 L
4133 2804 mt 4076 2888 L
4076 2888 mt 4061 2909 L
4061 2909 mt 4017 2972 L
4017 2972 mt 3956 3055 L
3956 3055 mt 3955 3057 L
3955 3057 mt 3892 3139 L
3892 3139 mt 3849 3193 L
3849 3193 mt 3825 3223 L
3825 3223 mt 3755 3307 L
3755 3307 mt 3742 3321 L
3742 3321 mt 3681 3390 L
3681 3390 mt 3636 3438 L
3636 3438 mt 3602 3474 L
3602 3474 mt 3530 3547 L
3530 3547 mt 3519 3558 L
3519 3558 mt 3429 3641 L
3429 3641 mt 3423 3647 L
3423 3647 mt 3332 3725 L
3332 3725 mt 3317 3737 L
3317 3737 mt 3226 3809 L
3226 3809 mt 3211 3820 L
3211 3820 mt 3108 3893 L
3108 3893 mt 3105 3895 L
3105 3895 mt 2998 3962 L
2998 3962 mt 2974 3976 L
2974 3976 mt 2892 4021 L
2892 4021 mt 2818 4060 L
2818 4060 mt 2786 4075 L
2786 4075 mt 2679 4121 L
2679 4121 mt 2623 4144 L
2623 4144 mt 2573 4161 L
2573 4161 mt 2467 4194 L
2467 4194 mt 2361 4223 L
2361 4223 mt 2342 4227 L
2342 4227 mt 2254 4244 L
2254 4244 mt 2148 4259 L
2148 4259 mt 2042 4269 L
2042 4269 mt 1935 4274 L
1935 4274 mt 1829 4272 L
1829 4272 mt 1723 4263 L
1723 4263 mt 1617 4249 L
1617 4249 mt 1510 4228 L
1510 4228 mt 1509 4227 L
1509 4227 mt 1404 4194 L
1404 4194 mt 1298 4152 L
1298 4152 mt 1280 4144 L
1280 4144 mt 1191 4095 L
1191 4095 mt 1138 4060 L
1138 4060 mt 1085 4022 L
1085 4022 mt 1034 3976 L
1034 3976 mt  979 3926 L
 979 3926 mt  952 3893 L
 952 3893 mt  881 3809 L
 881 3809 mt  873 3799 L
gr

24 w
DA
4 w
DO
SO
6 w
 873 4479 mt 6081 4479 L
 873  377 mt 6081  377 L
 873 4479 mt  873  377 L
6081 4479 mt 6081  377 L
 873 4479 mt 6081 4479 L
 873 4479 mt  873  377 L
 873 4479 mt  873 4426 L
 873  377 mt  873  429 L
 840 4624 mt 
(0) s
1393 4479 mt 1393 4426 L
1393  377 mt 1393  429 L
1310 4624 mt 
(0.5) s
1914 4479 mt 1914 4426 L
1914  377 mt 1914  429 L
1881 4624 mt 
(1) s
2435 4479 mt 2435 4426 L
2435  377 mt 2435  429 L
2352 4624 mt 
(1.5) s
2956 4479 mt 2956 4426 L
2956  377 mt 2956  429 L
2923 4624 mt 
(2) s
3477 4479 mt 3477 4426 L
3477  377 mt 3477  429 L
3394 4624 mt 
(2.5) s
3997 4479 mt 3997 4426 L
3997  377 mt 3997  429 L
3964 4624 mt 
(3) s
4518 4479 mt 4518 4426 L
4518  377 mt 4518  429 L
4435 4624 mt 
(3.5) s
5039 4479 mt 5039 4426 L
5039  377 mt 5039  429 L
5006 4624 mt 
(4) s
5560 4479 mt 5560 4426 L
5560  377 mt 5560  429 L
5477 4624 mt 
(4.5) s
6081 4479 mt 6081 4426 L
6081  377 mt 6081  429 L
6048 4624 mt 
(5) s
 873 4479 mt  925 4479 L
6081 4479 mt 6028 4479 L
 772 4523 mt 
(0) s
 873 4068 mt  925 4068 L
6081 4068 mt 6028 4068 L
 672 4112 mt 
(0.5) s
 873 3658 mt  925 3658 L
6081 3658 mt 6028 3658 L
 772 3702 mt 
(1) s
 873 3248 mt  925 3248 L
6081 3248 mt 6028 3248 L
 672 3292 mt 
(1.5) s
 873 2838 mt  925 2838 L
6081 2838 mt 6028 2838 L
 772 2882 mt 
(2) s
 873 2428 mt  925 2428 L
6081 2428 mt 6028 2428 L
 672 2472 mt 
(2.5) s
 873 2017 mt  925 2017 L
6081 2017 mt 6028 2017 L
 772 2061 mt 
(3) s
 873 1607 mt  925 1607 L
6081 1607 mt 6028 1607 L
 672 1651 mt 
(3.5) s
 873 1197 mt  925 1197 L
6081 1197 mt 6028 1197 L
 772 1241 mt 
(4) s
 873  787 mt  925  787 L
6081  787 mt 6028  787 L
 672  831 mt 
(4.5) s
 873  377 mt  925  377 L
6081  377 mt 6028  377 L
 772  421 mt 
(5) s
 873 4479 mt 6081 4479 L
 873  377 mt 6081  377 L
 873 4479 mt  873  377 L
6081 4479 mt 6081  377 L

end %%Color Dict

eplot
%%EndObject

epage
end

showpage

%%Trailer
%%EOF
