%!PS-Adobe-3.0 EPSF-3.0
%%Creator: MATLAB, The MathWorks, Inc. Version 7.14.0.739 (R2012a). Operating System: Darwin 13.1.0 Darwin Kernel Version 13.1.0: Thu Jan 16 19:40:37 PST 2014; root:xnu-2422.90.20~2/RELEASE_X86_64 x86_64.
%%Title: /Users/fckw/Dropbox/PhD/finfric/paper/loss_RE.eps
%%CreationDate: 05/04/2014  17:36:14
%%DocumentNeededFonts: Helvetica
%%DocumentProcessColors: Cyan Magenta Yellow Black
%%LanguageLevel: 2
%%Pages: 1
%%BoundingBox:    26   186   585   606
%%EndComments

%%BeginProlog
% MathWorks dictionary
/MathWorks 160 dict begin
% definition operators
/bdef {bind def} bind def
/ldef {load def} bind def
/xdef {exch def} bdef
/xstore {exch store} bdef
% operator abbreviations
/c  /clip ldef
/cc /concat ldef
/cp /closepath ldef
/gr /grestore ldef
/gs /gsave ldef
/mt /moveto ldef
/np /newpath ldef
/cm /currentmatrix ldef
/sm /setmatrix ldef
/rm /rmoveto ldef
/rl /rlineto ldef
/s {show newpath} bdef
/sc {setcmykcolor} bdef
/sr /setrgbcolor ldef
/sg /setgray ldef
/w /setlinewidth ldef
/j /setlinejoin ldef
/cap /setlinecap ldef
/rc {rectclip} bdef
/rf {rectfill} bdef
% page state control
/pgsv () def
/bpage {/pgsv save def} bdef
/epage {pgsv restore} bdef
/bplot /gsave ldef
/eplot {stroke grestore} bdef
% orientation switch
/portraitMode 0 def /landscapeMode 1 def /rotateMode 2 def
% coordinate system mappings
/dpi2point 0 def
% font control
/FontSize 0 def
/FMS {/FontSize xstore findfont [FontSize 0 0 FontSize neg 0 0]
  makefont setfont} bdef
/reencode {exch dup where {pop load} {pop StandardEncoding} ifelse
  exch dup 3 1 roll findfont dup length dict begin
  { 1 index /FID ne {def}{pop pop} ifelse } forall
  /Encoding exch def currentdict end definefont pop} bdef
/isroman {findfont /CharStrings get /Agrave known} bdef
/FMSR {3 1 roll 1 index dup isroman {reencode} {pop pop} ifelse
  exch FMS} bdef
/csm {1 dpi2point div -1 dpi2point div scale neg translate
 dup landscapeMode eq {pop -90 rotate}
  {rotateMode eq {90 rotate} if} ifelse} bdef
% line types: solid, dotted, dashed, dotdash
/SO { [] 0 setdash } bdef
/DO { [.5 dpi2point mul 4 dpi2point mul] 0 setdash } bdef
/DA { [6 dpi2point mul] 0 setdash } bdef
/DD { [.5 dpi2point mul 4 dpi2point mul 6 dpi2point mul 4
  dpi2point mul] 0 setdash } bdef
% macros for lines and objects
/L {lineto stroke} bdef
/MP {3 1 roll moveto 1 sub {rlineto} repeat} bdef
/AP {{rlineto} repeat} bdef
/PDlw -1 def
/W {/PDlw currentlinewidth def setlinewidth} def
/PP {closepath eofill} bdef
/DP {closepath stroke} bdef
/MR {4 -2 roll moveto dup  0 exch rlineto exch 0 rlineto
  neg 0 exch rlineto closepath} bdef
/FR {MR stroke} bdef
/PR {MR fill} bdef
/L1i {{currentfile picstr readhexstring pop} image} bdef
/tMatrix matrix def
/MakeOval {newpath tMatrix currentmatrix pop translate scale
0 0 1 0 360 arc tMatrix setmatrix} bdef
/FO {MakeOval stroke} bdef
/PO {MakeOval fill} bdef
/PD {currentlinewidth 2 div 0 360 arc fill
   PDlw -1 eq not {PDlw w /PDlw -1 def} if} def
/FA {newpath tMatrix currentmatrix pop translate scale
  0 0 1 5 -2 roll arc tMatrix setmatrix stroke} bdef
/PA {newpath tMatrix currentmatrix pop	translate 0 0 moveto scale
  0 0 1 5 -2 roll arc closepath tMatrix setmatrix fill} bdef
/FAn {newpath tMatrix currentmatrix pop translate scale
  0 0 1 5 -2 roll arcn tMatrix setmatrix stroke} bdef
/PAn {newpath tMatrix currentmatrix pop translate 0 0 moveto scale
  0 0 1 5 -2 roll arcn closepath tMatrix setmatrix fill} bdef
/vradius 0 def /hradius 0 def /lry 0 def
/lrx 0 def /uly 0 def /ulx 0 def /rad 0 def
/MRR {/vradius xdef /hradius xdef /lry xdef /lrx xdef /uly xdef
  /ulx xdef newpath tMatrix currentmatrix pop ulx hradius add uly
  vradius add translate hradius vradius scale 0 0 1 180 270 arc 
  tMatrix setmatrix lrx hradius sub uly vradius add translate
  hradius vradius scale 0 0 1 270 360 arc tMatrix setmatrix
  lrx hradius sub lry vradius sub translate hradius vradius scale
  0 0 1 0 90 arc tMatrix setmatrix ulx hradius add lry vradius sub
  translate hradius vradius scale 0 0 1 90 180 arc tMatrix setmatrix
  closepath} bdef
/FRR {MRR stroke } bdef
/PRR {MRR fill } bdef
/MlrRR {/lry xdef /lrx xdef /uly xdef /ulx xdef /rad lry uly sub 2 div def
  newpath tMatrix currentmatrix pop ulx rad add uly rad add translate
  rad rad scale 0 0 1 90 270 arc tMatrix setmatrix lrx rad sub lry rad
  sub translate rad rad scale 0 0 1 270 90 arc tMatrix setmatrix
  closepath} bdef
/FlrRR {MlrRR stroke } bdef
/PlrRR {MlrRR fill } bdef
/MtbRR {/lry xdef /lrx xdef /uly xdef /ulx xdef /rad lrx ulx sub 2 div def
  newpath tMatrix currentmatrix pop ulx rad add uly rad add translate
  rad rad scale 0 0 1 180 360 arc tMatrix setmatrix lrx rad sub lry rad
  sub translate rad rad scale 0 0 1 0 180 arc tMatrix setmatrix
  closepath} bdef
/FtbRR {MtbRR stroke } bdef
/PtbRR {MtbRR fill } bdef
/stri 6 array def /dtri 6 array def
/smat 6 array def /dmat 6 array def
/tmat1 6 array def /tmat2 6 array def /dif 3 array def
/asub {/ind2 exch def /ind1 exch def dup dup
  ind1 get exch ind2 get sub exch } bdef
/tri_to_matrix {
  2 0 asub 3 1 asub 4 0 asub 5 1 asub
  dup 0 get exch 1 get 7 -1 roll astore } bdef
/compute_transform {
  dmat dtri tri_to_matrix tmat1 invertmatrix 
  smat stri tri_to_matrix tmat2 concatmatrix } bdef
/ds {stri astore pop} bdef
/dt {dtri astore pop} bdef
/db {2 copy /cols xdef /rows xdef mul dup 3 mul string
  currentfile 
  3 index 0 eq {/ASCIIHexDecode filter}
  {/ASCII85Decode filter 3 index 2 eq {/RunLengthDecode filter} if }
  ifelse exch readstring pop
  dup 0 3 index getinterval /rbmap xdef
  dup 2 index dup getinterval /gbmap xdef
  1 index dup 2 mul exch getinterval /bbmap xdef pop pop}bdef
/it {gs np dtri aload pop moveto lineto lineto cp c
  cols rows 8 compute_transform 
  rbmap gbmap bbmap true 3 colorimage gr}bdef
/il {newpath moveto lineto stroke}bdef
currentdict end def
%%EndProlog

%%BeginSetup
MathWorks begin

0 cap

end
%%EndSetup

%%Page: 1 1
%%BeginPageSetup
%%PageBoundingBox:    26   186   585   606
MathWorks begin
bpage
%%EndPageSetup

%%BeginObject: obj1
bplot

/dpi2point 12 def
portraitMode 0312 7272 csm

    0     0  6719  5033 rc
85 dict begin %Colortable dictionary
/c0 { 0.000000 0.000000 0.000000 sr} bdef
/c1 { 1.000000 1.000000 1.000000 sr} bdef
/c2 { 0.900000 0.000000 0.000000 sr} bdef
/c3 { 0.000000 0.820000 0.000000 sr} bdef
/c4 { 0.000000 0.000000 0.800000 sr} bdef
/c5 { 0.910000 0.820000 0.320000 sr} bdef
/c6 { 1.000000 0.260000 0.820000 sr} bdef
/c7 { 0.000000 0.820000 0.820000 sr} bdef
c0
1 j
1 sg
   0    0 6720 5034 rf
6 w
0 4102 5208 0 0 -4102 873 4479 4 MP
PP
-5208 0 0 4102 5208 0 0 -4102 873 4479 5 MP stroke
gs 873 377 5209 4103 rc
/c8 { 0.000000 0.000000 0.562500 sr} bdef
c8
1264 4479 mt 1235 4395 L
1235 4395 mt 1201 4311 L
1201 4311 mt 1191 4290 L
1191 4290 mt 1173 4227 L
1173 4227 mt 1146 4144 L
1146 4144 mt 1115 4060 L
1115 4060 mt 1085 3989 L
1085 3989 mt 1081 3976 L
1081 3976 mt 1057 3893 L
1057 3893 mt 1029 3809 L
1029 3809 mt  995 3725 L
 995 3725 mt  979 3687 L
 979 3687 mt  966 3641 L
 966 3641 mt  941 3558 L
 941 3558 mt  911 3474 L
 911 3474 mt  876 3390 L
 876 3390 mt  873 3381 L
1999 4479 mt 1969 4395 L
1969 4395 mt 1939 4311 L
1939 4311 mt 1935 4300 L
1935 4300 mt 1907 4227 L
1907 4227 mt 1875 4144 L
1875 4144 mt 1846 4060 L
1846 4060 mt 1829 4012 L
1829 4012 mt 1815 3976 L
1815 3976 mt 1783 3893 L
1783 3893 mt 1752 3809 L
1752 3809 mt 1723 3725 L
1723 3725 mt 1723 3725 L
1723 3725 mt 1689 3641 L
1689 3641 mt 1658 3558 L
1658 3558 mt 1628 3474 L
1628 3474 mt 1617 3441 L
1617 3441 mt 1596 3390 L
1596 3390 mt 1564 3307 L
1564 3307 mt 1533 3223 L
1533 3223 mt 1510 3159 L
1510 3159 mt 1502 3139 L
1502 3139 mt 1468 3055 L
1468 3055 mt 1436 2972 L
1436 2972 mt 1406 2888 L
1406 2888 mt 1404 2884 L
1404 2884 mt 1370 2804 L
1370 2804 mt 1337 2721 L
1337 2721 mt 1304 2637 L
1304 2637 mt 1298 2620 L
1298 2620 mt 1267 2553 L
1267 2553 mt 1230 2469 L
1230 2469 mt 1194 2386 L
1194 2386 mt 1191 2379 L
1191 2379 mt 1149 2302 L
1149 2302 mt 1103 2218 L
1103 2218 mt 1085 2184 L
1085 2184 mt 1028 2135 L
1028 2135 mt  979 2094 L
 979 2094 mt  957 2135 L
 957 2135 mt  909 2218 L
 909 2218 mt  873 2275 L
/c9 { 0.000000 0.000000 0.625000 sr} bdef
c9
1124 4479 mt 1092 4395 L
1092 4395 mt 1085 4377 L
1085 4377 mt 1067 4311 L
1067 4311 mt 1042 4227 L
1042 4227 mt 1014 4144 L
1014 4144 mt  981 4060 L
 981 4060 mt  979 4055 L
 979 4055 mt  959 3976 L
 959 3976 mt  935 3893 L
 935 3893 mt  906 3809 L
 906 3809 mt  873 3728 L
2264 4479 mt 2254 4452 L
2254 4452 mt 2232 4395 L
2232 4395 mt 2200 4311 L
2200 4311 mt 2169 4227 L
2169 4227 mt 2148 4168 L
2148 4168 mt 2138 4144 L
2138 4144 mt 2106 4060 L
2106 4060 mt 2075 3976 L
2075 3976 mt 2045 3893 L
2045 3893 mt 2042 3884 L
2042 3884 mt 2013 3809 L
2013 3809 mt 1981 3725 L
1981 3725 mt 1950 3641 L
1950 3641 mt 1935 3601 L
1935 3601 mt 1919 3558 L
1919 3558 mt 1887 3474 L
1887 3474 mt 1855 3390 L
1855 3390 mt 1829 3318 L
1829 3318 mt 1825 3307 L
1825 3307 mt 1792 3223 L
1792 3223 mt 1760 3139 L
1760 3139 mt 1730 3055 L
1730 3055 mt 1723 3037 L
1723 3037 mt 1697 2972 L
1697 2972 mt 1665 2888 L
1665 2888 mt 1633 2804 L
1633 2804 mt 1617 2759 L
1617 2759 mt 1601 2721 L
1601 2721 mt 1568 2637 L
1568 2637 mt 1536 2553 L
1536 2553 mt 1510 2485 L
1510 2485 mt 1504 2469 L
1504 2469 mt 1470 2386 L
1470 2386 mt 1436 2302 L
1436 2302 mt 1404 2219 L
1404 2219 mt 1404 2218 L
1404 2218 mt 1367 2135 L
1367 2135 mt 1332 2051 L
1332 2051 mt 1298 1968 L
1298 1968 mt 1297 1967 L
1297 1967 mt 1257 1883 L
1257 1883 mt 1217 1800 L
1217 1800 mt 1191 1745 L
1191 1745 mt 1174 1716 L
1174 1716 mt 1121 1632 L
1121 1632 mt 1085 1575 L
1085 1575 mt 1034 1548 L
1034 1548 mt  979 1523 L
 979 1523 mt  970 1548 L
 970 1548 mt  937 1632 L
 937 1632 mt  900 1716 L
 900 1716 mt  873 1770 L
/c10 { 0.000000 0.000000 0.750000 sr} bdef
c10
1041 4479 mt 1014 4395 L
1014 4395 mt  983 4311 L
 983 4311 mt  979 4301 L
 979 4301 mt  962 4227 L
 962 4227 mt  940 4144 L
 940 4144 mt  914 4060 L
 914 4060 mt  884 3976 L
 884 3976 mt  873 3947 L
2473 4479 mt 2467 4461 L
2467 4461 mt 2441 4395 L
2441 4395 mt 2410 4311 L
2410 4311 mt 2379 4227 L
2379 4227 mt 2361 4178 L
2361 4178 mt 2347 4144 L
2347 4144 mt 2315 4060 L
2315 4060 mt 2284 3976 L
2284 3976 mt 2254 3895 L
2254 3895 mt 2253 3893 L
2253 3893 mt 2221 3809 L
2221 3809 mt 2189 3725 L
2189 3725 mt 2158 3641 L
2158 3641 mt 2148 3613 L
2148 3613 mt 2127 3558 L
2127 3558 mt 2095 3474 L
2095 3474 mt 2064 3390 L
2064 3390 mt 2042 3331 L
2042 3331 mt 2032 3307 L
2032 3307 mt 2000 3223 L
2000 3223 mt 1969 3139 L
1969 3139 mt 1938 3055 L
1938 3055 mt 1935 3049 L
1935 3049 mt 1905 2972 L
1905 2972 mt 1874 2888 L
1874 2888 mt 1842 2804 L
1842 2804 mt 1829 2769 L
1829 2769 mt 1810 2721 L
1810 2721 mt 1778 2637 L
1778 2637 mt 1746 2553 L
1746 2553 mt 1723 2490 L
1723 2490 mt 1715 2469 L
1715 2469 mt 1682 2386 L
1682 2386 mt 1649 2302 L
1649 2302 mt 1618 2218 L
1618 2218 mt 1617 2215 L
1617 2215 mt 1584 2135 L
1584 2135 mt 1551 2051 L
1551 2051 mt 1518 1967 L
1518 1967 mt 1510 1946 L
1510 1946 mt 1484 1883 L
1484 1883 mt 1450 1800 L
1450 1800 mt 1416 1716 L
1416 1716 mt 1404 1687 L
1404 1687 mt 1380 1632 L
1380 1632 mt 1343 1548 L
1343 1548 mt 1306 1465 L
1306 1465 mt 1298 1445 L
1298 1445 mt 1266 1381 L
1266 1381 mt 1223 1297 L
1223 1297 mt 1191 1234 L
1191 1234 mt 1177 1214 L
1177 1214 mt 1118 1130 L
1118 1130 mt 1085 1084 L
1085 1084 mt  979 1068 L
 979 1068 mt  962 1130 L
 962 1130 mt  936 1214 L
 936 1214 mt  908 1297 L
 908 1297 mt  875 1381 L
 875 1381 mt  873 1387 L
/c11 { 0.000000 0.000000 0.812500 sr} bdef
c11
 976 4479 mt  957 4395 L
 957 4395 mt  936 4311 L
 936 4311 mt  919 4253 L
 895 4180 mt  883 4144 L
 883 4144 mt  873 4117 L
2658 4479 mt 2626 4395 L
2626 4395 mt 2595 4311 L
2595 4311 mt 2573 4253 L
2573 4253 mt 2563 4227 L
2563 4227 mt 2531 4144 L
2531 4144 mt 2500 4060 L
2500 4060 mt 2469 3976 L
2469 3976 mt 2467 3971 L
2467 3971 mt 2437 3893 L
2437 3893 mt 2405 3809 L
2405 3809 mt 2374 3725 L
2374 3725 mt 2361 3689 L
2361 3689 mt 2342 3641 L
2342 3641 mt 2311 3558 L
2311 3558 mt 2279 3474 L
2279 3474 mt 2254 3406 L
2254 3406 mt 2248 3390 L
2248 3390 mt 2216 3307 L
2216 3307 mt 2184 3223 L
2184 3223 mt 2153 3139 L
2153 3139 mt 2148 3124 L
2148 3124 mt 2121 3055 L
2121 3055 mt 2090 2972 L
2090 2972 mt 2058 2888 L
2058 2888 mt 2042 2843 L
2042 2843 mt 2027 2804 L
2027 2804 mt 1995 2721 L
1995 2721 mt 1963 2637 L
1963 2637 mt 1935 2562 L
1935 2562 mt 1932 2553 L
1932 2553 mt 1899 2469 L
1899 2469 mt 1868 2386 L
1868 2386 mt 1836 2302 L
1836 2302 mt 1829 2283 L
1829 2283 mt 1804 2218 L
1804 2218 mt 1771 2135 L
1771 2135 mt 1740 2051 L
1740 2051 mt 1723 2007 L
1723 2007 mt 1707 1967 L
1707 1967 mt 1674 1883 L
1674 1883 mt 1642 1800 L
1642 1800 mt 1617 1734 L
1617 1734 mt 1609 1716 L
1609 1716 mt 1575 1632 L
1575 1632 mt 1542 1548 L
1542 1548 mt 1510 1468 L
1510 1468 mt 1509 1465 L
1509 1465 mt 1474 1381 L
1474 1381 mt 1439 1297 L
1439 1297 mt 1404 1214 L
1404 1214 mt 1404 1214 L
1404 1214 mt 1366 1130 L
1366 1130 mt 1328 1046 L
1328 1046 mt 1310 1006 L
1276  937 mt 1245  879 L
1245  879 mt 1201  795 L
1201  795 mt 1191  778 L
1191  778 mt 1139  711 L
1139  711 mt 1085  646 L
1085  646 mt  979  662 L
 979  662 mt  968  711 L
 968  711 mt  948  795 L
 948  795 mt  926  879 L
 926  879 mt  902  962 L
 902  962 mt  875 1046 L
 875 1046 mt  873 1053 L
/c12 { 0.000000 0.000000 0.937500 sr} bdef
c12
 961  377 mt  944  460 L
 944  460 mt  925  544 L
 925  544 mt  904  628 L
 904  628 mt  882  711 L
 882  711 mt  873  744 L
 941 4479 mt  918 4395 L
 918 4395 mt  892 4311 L
 892 4311 mt  873 4257 L
1204  377 mt 1251  460 L
1251  460 mt 1297  544 L
1297  544 mt 1298  544 L
1298  544 mt 1336  628 L
1336  628 mt 1375  711 L
1375  711 mt 1404  774 L
1404  774 mt 1413  795 L
1413  795 mt 1448  879 L
1448  879 mt 1484  962 L
1484  962 mt 1510 1025 L
1510 1025 mt 1519 1046 L
1519 1046 mt 1552 1130 L
1552 1130 mt 1586 1214 L
1586 1214 mt 1617 1289 L
1617 1289 mt 1620 1297 L
1620 1297 mt 1653 1381 L
1653 1381 mt 1685 1465 L
1685 1465 mt 1718 1548 L
1718 1548 mt 1723 1559 L
1723 1559 mt 1751 1632 L
1751 1632 mt 1783 1716 L
1783 1716 mt 1815 1800 L
1815 1800 mt 1829 1835 L
1829 1835 mt 1847 1883 L
1847 1883 mt 1879 1967 L
1879 1967 mt 1911 2051 L
1911 2051 mt 1935 2113 L
1935 2113 mt 1943 2135 L
1943 2135 mt 1975 2218 L
1975 2218 mt 2007 2302 L
2007 2302 mt 2039 2386 L
2039 2386 mt 2042 2393 L
2042 2393 mt 2070 2469 L
2070 2469 mt 2101 2553 L
2101 2553 mt 2133 2637 L
2133 2637 mt 2148 2675 L
2148 2675 mt 2165 2721 L
2165 2721 mt 2196 2804 L
2196 2804 mt 2228 2888 L
2228 2888 mt 2254 2957 L
2254 2957 mt 2260 2972 L
2260 2972 mt 2291 3055 L
2291 3055 mt 2323 3139 L
2323 3139 mt 2354 3223 L
2354 3223 mt 2361 3239 L
2361 3239 mt 2386 3307 L
2386 3307 mt 2417 3390 L
2417 3390 mt 2449 3474 L
2449 3474 mt 2467 3521 L
2467 3521 mt 2480 3558 L
2480 3558 mt 2512 3641 L
2512 3641 mt 2543 3725 L
2543 3725 mt 2573 3803 L
2573 3803 mt 2575 3809 L
2575 3809 mt 2606 3893 L
2606 3893 mt 2638 3976 L
2638 3976 mt 2670 4060 L
2670 4060 mt 2679 4085 L
2679 4085 mt 2701 4144 L
2701 4144 mt 2733 4227 L
2733 4227 mt 2764 4311 L
2764 4311 mt 2786 4367 L
2786 4367 mt 2796 4395 L
2796 4395 mt 2827 4479 L
/c13 { 0.000000 0.000000 1.000000 sr} bdef
c13
 891  377 mt  873  450 L
 906 4479 mt  878 4395 L
 878 4395 mt  873 4377 L
1413  377 mt 1448  460 L
1448  460 mt 1484  544 L
1484  544 mt 1510  604 L
1510  604 mt 1520  628 L
1520  628 mt 1553  711 L
1553  711 mt 1588  795 L
1588  795 mt 1617  866 L
1617  866 mt 1621  879 L
1621  879 mt 1654  962 L
1654  962 mt 1687 1046 L
1687 1046 mt 1720 1130 L
1720 1130 mt 1723 1136 L
1723 1136 mt 1753 1214 L
1753 1214 mt 1785 1297 L
1785 1297 mt 1817 1381 L
1817 1381 mt 1829 1411 L
1829 1411 mt 1850 1465 L
1850 1465 mt 1881 1548 L
1881 1548 mt 1913 1632 L
1913 1632 mt 1935 1689 L
1935 1689 mt 1946 1716 L
1946 1716 mt 1977 1800 L
1977 1800 mt 2009 1883 L
2009 1883 mt 2041 1967 L
2041 1967 mt 2042 1969 L
2042 1969 mt 2072 2051 L
2072 2051 mt 2104 2135 L
2104 2135 mt 2136 2218 L
2136 2218 mt 2148 2250 L
2148 2250 mt 2167 2302 L
2167 2302 mt 2199 2386 L
2199 2386 mt 2230 2469 L
2230 2469 mt 2254 2532 L
2254 2532 mt 2262 2553 L
2262 2553 mt 2293 2637 L
2293 2637 mt 2325 2721 L
2325 2721 mt 2357 2804 L
2357 2804 mt 2361 2815 L
2361 2815 mt 2388 2888 L
2388 2888 mt 2419 2972 L
2419 2972 mt 2451 3055 L
2451 3055 mt 2467 3097 L
2467 3097 mt 2482 3139 L
2482 3139 mt 2514 3223 L
2514 3223 mt 2545 3307 L
2545 3307 mt 2573 3380 L
2573 3380 mt 2577 3390 L
2577 3390 mt 2608 3474 L
2608 3474 mt 2640 3558 L
2640 3558 mt 2671 3641 L
2671 3641 mt 2679 3662 L
2679 3662 mt 2703 3725 L
2703 3725 mt 2734 3809 L
2734 3809 mt 2766 3893 L
2766 3893 mt 2786 3944 L
2786 3944 mt 2798 3976 L
2798 3976 mt 2829 4060 L
2829 4060 mt 2861 4144 L
2861 4144 mt 2892 4226 L
2892 4226 mt 2893 4227 L
2893 4227 mt 2924 4311 L
2924 4311 mt 2955 4395 L
2955 4395 mt 2987 4479 L
/c14 { 0.000000 0.125000 1.000000 sr} bdef
c14
1583  377 mt 1617  459 L
1617  459 mt 1617  460 L
1617  460 mt 1650  544 L
1650  544 mt 1683  628 L
1683  628 mt 1716  711 L
1716  711 mt 1723  729 L
1723  729 mt 1748  795 L
1748  795 mt 1781  879 L
1781  879 mt 1813  962 L
1813  962 mt 1829 1003 L
1829 1003 mt 1845 1046 L
1845 1046 mt 1877 1130 L
1877 1130 mt 1909 1214 L
1909 1214 mt 1935 1281 L
1935 1281 mt 1941 1297 L
1941 1297 mt 1973 1381 L
1973 1381 mt 2005 1465 L
2005 1465 mt 2037 1548 L
2037 1548 mt 2042 1562 L
2042 1562 mt 2068 1632 L
2068 1632 mt 2099 1716 L
2099 1716 mt 2131 1800 L
2131 1800 mt 2148 1844 L
2148 1844 mt 2163 1883 L
2163 1883 mt 2194 1967 L
2194 1967 mt 2226 2051 L
2226 2051 mt 2254 2126 L
2254 2126 mt 2257 2135 L
2257 2135 mt 2289 2218 L
2289 2218 mt 2320 2302 L
2320 2302 mt 2352 2386 L
2352 2386 mt 2361 2409 L
2361 2409 mt 2383 2469 L
2383 2469 mt 2414 2553 L
2414 2553 mt 2446 2637 L
2446 2637 mt 2467 2692 L
2467 2692 mt 2477 2721 L
2477 2721 mt 2509 2804 L
2509 2804 mt 2540 2888 L
2540 2888 mt 2572 2972 L
2572 2972 mt 2573 2975 L
2573 2975 mt 2603 3055 L
2603 3055 mt 2634 3139 L
2634 3139 mt 2666 3223 L
2666 3223 mt 2679 3258 L
2679 3258 mt 2698 3307 L
2698 3307 mt 2729 3390 L
2729 3390 mt 2760 3474 L
2760 3474 mt 2786 3540 L
2786 3540 mt 2792 3558 L
2792 3558 mt 2823 3641 L
2823 3641 mt 2855 3725 L
2855 3725 mt 2887 3809 L
2887 3809 mt 2892 3823 L
2892 3823 mt 2918 3893 L
2918 3893 mt 2949 3976 L
2949 3976 mt 2981 4060 L
2981 4060 mt 2998 4105 L
2998 4105 mt 3013 4144 L
3013 4144 mt 3044 4227 L
3044 4227 mt 3076 4311 L
3076 4311 mt 3105 4386 L
3105 4386 mt 3108 4395 L
3108 4395 mt 3139 4479 L
/c15 { 0.000000 0.187500 1.000000 sr} bdef
c15
1739  377 mt 1772  460 L
1772  460 mt 1804  544 L
1804  544 mt 1829  608 L
1829  608 mt 1837  628 L
1837  628 mt 1868  711 L
1868  711 mt 1900  795 L
1900  795 mt 1932  879 L
1932  879 mt 1935  886 L
1935  886 mt 1964  962 L
1964  962 mt 1996 1046 L
1996 1046 mt 2027 1130 L
2027 1130 mt 2042 1167 L
2042 1167 mt 2059 1214 L
2059 1214 mt 2090 1297 L
2090 1297 mt 2122 1381 L
2122 1381 mt 2148 1450 L
2148 1450 mt 2154 1465 L
2154 1465 mt 2185 1548 L
2185 1548 mt 2216 1632 L
2216 1632 mt 2248 1716 L
2248 1716 mt 2254 1733 L
2254 1733 mt 2279 1800 L
2279 1800 mt 2310 1883 L
2310 1883 mt 2342 1967 L
2342 1967 mt 2361 2016 L
2361 2016 mt 2373 2051 L
2373 2051 mt 2405 2135 L
2405 2135 mt 2436 2218 L
2436 2218 mt 2467 2300 L
2467 2300 mt 2468 2302 L
2468 2302 mt 2499 2386 L
2499 2386 mt 2530 2469 L
2530 2469 mt 2562 2553 L
2562 2553 mt 2573 2584 L
2573 2584 mt 2593 2637 L
2593 2637 mt 2624 2721 L
2624 2721 mt 2656 2804 L
2656 2804 mt 2679 2867 L
2679 2867 mt 2687 2888 L
2687 2888 mt 2718 2972 L
2718 2972 mt 2750 3055 L
2750 3055 mt 2781 3139 L
2781 3139 mt 2786 3151 L
2786 3151 mt 2813 3223 L
2813 3223 mt 2844 3307 L
2844 3307 mt 2875 3390 L
2875 3390 mt 2892 3434 L
2892 3434 mt 2907 3474 L
2907 3474 mt 2938 3558 L
2938 3558 mt 2970 3641 L
2970 3641 mt 2973 3649 L
3000 3720 mt 3001 3725 L
3001 3725 mt 3033 3809 L
3033 3809 mt 3064 3893 L
3064 3893 mt 3096 3976 L
3096 3976 mt 3105 3999 L
3105 3999 mt 3127 4060 L
3127 4060 mt 3159 4144 L
3159 4144 mt 3191 4227 L
3191 4227 mt 3211 4281 L
3211 4281 mt 3222 4311 L
3222 4311 mt 3254 4395 L
3254 4395 mt 3285 4479 L
/c16 { 0.000000 0.312500 1.000000 sr} bdef
c16
1888  377 mt 1920  460 L
1920  460 mt 1935  500 L
1935  500 mt 1952  544 L
1952  544 mt 1983  628 L
1983  628 mt 2015  711 L
2015  711 mt 2042  782 L
2042  782 mt 2047  795 L
2047  795 mt 2078  879 L
2078  879 mt 2109  962 L
2109  962 mt 2141 1046 L
2141 1046 mt 2148 1065 L
2148 1065 mt 2172 1130 L
2172 1130 mt 2203 1214 L
2203 1214 mt 2235 1297 L
2235 1297 mt 2254 1349 L
2254 1349 mt 2266 1381 L
2266 1381 mt 2297 1465 L
2297 1465 mt 2329 1548 L
2329 1548 mt 2360 1632 L
2360 1632 mt 2361 1633 L
2361 1633 mt 2391 1716 L
2391 1716 mt 2422 1800 L
2422 1800 mt 2454 1883 L
2454 1883 mt 2467 1918 L
2467 1918 mt 2485 1967 L
2485 1967 mt 2516 2051 L
2516 2051 mt 2547 2135 L
2547 2135 mt 2573 2203 L
2573 2203 mt 2579 2218 L
2579 2218 mt 2610 2302 L
2610 2302 mt 2641 2386 L
2641 2386 mt 2673 2469 L
2673 2469 mt 2679 2487 L
2679 2487 mt 2704 2553 L
2704 2553 mt 2735 2637 L
2735 2637 mt 2766 2721 L
2766 2721 mt 2786 2771 L
2786 2771 mt 2798 2804 L
2798 2804 mt 2829 2888 L
2829 2888 mt 2860 2972 L
2860 2972 mt 2892 3055 L
2892 3055 mt 2892 3055 L
2892 3055 mt 2923 3139 L
2923 3139 mt 2954 3223 L
2954 3223 mt 2986 3307 L
2986 3307 mt 2998 3339 L
2998 3339 mt 3017 3390 L
3017 3390 mt 3049 3474 L
3049 3474 mt 3080 3558 L
3080 3558 mt 3105 3622 L
3105 3622 mt 3112 3641 L
3112 3641 mt 3143 3725 L
3143 3725 mt 3175 3809 L
3175 3809 mt 3206 3893 L
3206 3893 mt 3211 3905 L
3211 3905 mt 3238 3976 L
3238 3976 mt 3269 4060 L
3269 4060 mt 3301 4144 L
3301 4144 mt 3317 4187 L
3317 4187 mt 3332 4227 L
3332 4227 mt 3364 4311 L
3364 4311 mt 3395 4395 L
3395 4395 mt 3423 4469 L
3423 4469 mt 3427 4479 L
/c17 { 0.000000 0.375000 1.000000 sr} bdef
c17
2031  377 mt 2042  404 L
2042  404 mt 2063  460 L
2063  460 mt 2094  544 L
2094  544 mt 2125  628 L
2125  628 mt 2148  688 L
2148  688 mt 2157  711 L
2157  711 mt 2188  795 L
2188  795 mt 2219  879 L
2219  879 mt 2250  962 L
2250  962 mt 2254  973 L
2254  973 mt 2281 1046 L
2281 1046 mt 2312 1130 L
2312 1130 mt 2344 1214 L
2344 1214 mt 2361 1258 L
2361 1258 mt 2375 1297 L
2375 1297 mt 2406 1381 L
2406 1381 mt 2437 1465 L
2437 1465 mt 2467 1544 L
2467 1544 mt 2468 1548 L
2468 1548 mt 2499 1632 L
2499 1632 mt 2531 1716 L
2531 1716 mt 2562 1800 L
2562 1800 mt 2573 1830 L
2573 1830 mt 2593 1883 L
2593 1883 mt 2624 1967 L
2624 1967 mt 2655 2051 L
2655 2051 mt 2679 2115 L
2679 2115 mt 2687 2135 L
2687 2135 mt 2718 2218 L
2718 2218 mt 2749 2302 L
2749 2302 mt 2780 2386 L
2780 2386 mt 2786 2400 L
2786 2400 mt 2811 2469 L
2811 2469 mt 2842 2553 L
2842 2553 mt 2874 2637 L
2874 2637 mt 2892 2685 L
2892 2685 mt 2905 2721 L
2905 2721 mt 2936 2804 L
2936 2804 mt 2968 2888 L
2968 2888 mt 2998 2969 L
2998 2969 mt 2999 2972 L
2999 2972 mt 3030 3055 L
3030 3055 mt 3061 3139 L
3061 3139 mt 3093 3223 L
3093 3223 mt 3105 3253 L
3105 3253 mt 3124 3307 L
3124 3307 mt 3156 3390 L
3156 3390 mt 3187 3474 L
3187 3474 mt 3211 3537 L
3211 3537 mt 3218 3558 L
3218 3558 mt 3250 3641 L
3250 3641 mt 3281 3725 L
3281 3725 mt 3313 3809 L
3313 3809 mt 3317 3820 L
3317 3820 mt 3344 3893 L
3344 3893 mt 3375 3976 L
3375 3976 mt 3407 4060 L
3407 4060 mt 3423 4103 L
3423 4103 mt 3439 4144 L
3439 4144 mt 3470 4227 L
3470 4227 mt 3502 4311 L
3502 4311 mt 3530 4385 L
3530 4385 mt 3533 4395 L
3533 4395 mt 3565 4479 L
/c18 { 0.000000 0.500000 1.000000 sr} bdef
c18
2170  377 mt 2201  460 L
2201  460 mt 2232  544 L
2232  544 mt 2254  602 L
2254  602 mt 2264  628 L
2264  628 mt 2295  711 L
2295  711 mt 2326  795 L
2326  795 mt 2357  879 L
2357  879 mt 2361  889 L
2361  889 mt 2388  962 L
2388  962 mt 2419 1046 L
2419 1046 mt 2450 1130 L
2450 1130 mt 2467 1176 L
2467 1176 mt 2481 1214 L
2481 1214 mt 2512 1297 L
2512 1297 mt 2543 1381 L
2543 1381 mt 2573 1462 L
2573 1462 mt 2574 1465 L
2574 1465 mt 2605 1548 L
2605 1548 mt 2636 1632 L
2636 1632 mt 2667 1716 L
2667 1716 mt 2679 1749 L
2679 1749 mt 2698 1800 L
2698 1800 mt 2729 1883 L
2729 1883 mt 2760 1967 L
2760 1967 mt 2786 2035 L
2786 2035 mt 2791 2051 L
2791 2051 mt 2822 2135 L
2822 2135 mt 2854 2218 L
2854 2218 mt 2885 2302 L
2885 2302 mt 2892 2321 L
2892 2321 mt 2916 2386 L
2916 2386 mt 2947 2469 L
2947 2469 mt 2978 2553 L
2978 2553 mt 2998 2607 L
2998 2607 mt 3009 2637 L
3009 2637 mt 3041 2721 L
3041 2721 mt 3072 2804 L
3072 2804 mt 3103 2888 L
3103 2888 mt 3105 2892 L
3105 2892 mt 3134 2972 L
3134 2972 mt 3165 3055 L
3165 3055 mt 3197 3139 L
3197 3139 mt 3211 3176 L
3211 3176 mt 3228 3223 L
3228 3223 mt 3259 3307 L
3259 3307 mt 3291 3390 L
3291 3390 mt 3317 3460 L
3317 3460 mt 3322 3474 L
3322 3474 mt 3353 3558 L
3353 3558 mt 3385 3641 L
3385 3641 mt 3416 3725 L
3416 3725 mt 3423 3744 L
3423 3744 mt 3448 3809 L
3448 3809 mt 3479 3893 L
3479 3893 mt 3510 3976 L
3510 3976 mt 3530 4027 L
3530 4027 mt 3542 4060 L
3542 4060 mt 3573 4144 L
3573 4144 mt 3605 4227 L
3605 4227 mt 3636 4310 L
3636 4310 mt 3636 4311 L
3636 4311 mt 3668 4395 L
3668 4395 mt 3699 4479 L
/c19 { 0.000000 0.562500 1.000000 sr} bdef
c19
2306  377 mt 2337  460 L
2337  460 mt 2361  524 L
2361  524 mt 2368  544 L
2368  544 mt 2399  628 L
2399  628 mt 2430  711 L
2430  711 mt 2461  795 L
2461  795 mt 2467  812 L
2467  812 mt 2491  879 L
2491  879 mt 2522  962 L
2522  962 mt 2553 1046 L
2553 1046 mt 2573 1100 L
2573 1100 mt 2584 1130 L
2584 1130 mt 2615 1214 L
2615 1214 mt 2646 1297 L
2646 1297 mt 2677 1381 L
2677 1381 mt 2679 1388 L
2679 1388 mt 2708 1465 L
2708 1465 mt 2739 1548 L
2739 1548 mt 2770 1632 L
2770 1632 mt 2786 1675 L
2786 1675 mt 2801 1716 L
2801 1716 mt 2832 1800 L
2832 1800 mt 2863 1883 L
2863 1883 mt 2892 1962 L
2892 1962 mt 2894 1967 L
2894 1967 mt 2925 2051 L
2925 2051 mt 2956 2135 L
2956 2135 mt 2987 2218 L
2987 2218 mt 2998 2249 L
2998 2249 mt 3018 2302 L
3018 2302 mt 3049 2386 L
3049 2386 mt 3080 2469 L
3080 2469 mt 3105 2535 L
3105 2535 mt 3111 2553 L
3111 2553 mt 3142 2637 L
3142 2637 mt 3173 2721 L
3173 2721 mt 3205 2804 L
3205 2804 mt 3211 2820 L
3211 2820 mt 3236 2888 L
3236 2888 mt 3267 2972 L
3267 2972 mt 3298 3055 L
3298 3055 mt 3317 3106 L
3317 3106 mt 3330 3139 L
3330 3139 mt 3361 3223 L
3361 3223 mt 3392 3307 L
3392 3307 mt 3423 3390 L
3423 3390 mt 3423 3390 L
3423 3390 mt 3455 3474 L
3455 3474 mt 3486 3558 L
3486 3558 mt 3517 3641 L
3517 3641 mt 3520 3649 L
3547 3721 mt 3549 3725 L
3549 3725 mt 3580 3809 L
3580 3809 mt 3611 3893 L
3611 3893 mt 3636 3958 L
3636 3958 mt 3643 3976 L
3643 3976 mt 3674 4060 L
3674 4060 mt 3705 4144 L
3705 4144 mt 3737 4227 L
3737 4227 mt 3742 4241 L
3742 4241 mt 3768 4311 L
3768 4311 mt 3800 4395 L
3800 4395 mt 3831 4479 L
/c20 { 0.000000 0.687500 1.000000 sr} bdef
c20
2439  377 mt 2467  451 L
2467  451 mt 2470  460 L
2470  460 mt 2501  544 L
2501  544 mt 2531  628 L
2531  628 mt 2562  711 L
2562  711 mt 2573  741 L
2573  741 mt 2593  795 L
2593  795 mt 2624  879 L
2624  879 mt 2654  962 L
2654  962 mt 2679 1030 L
2679 1030 mt 2685 1046 L
2685 1046 mt 2716 1130 L
2716 1130 mt 2747 1214 L
2747 1214 mt 2778 1297 L
2778 1297 mt 2786 1319 L
2786 1319 mt 2809 1381 L
2809 1381 mt 2839 1465 L
2839 1465 mt 2870 1548 L
2870 1548 mt 2892 1607 L
2892 1607 mt 2901 1632 L
2901 1632 mt 2932 1716 L
2932 1716 mt 2963 1800 L
2963 1800 mt 2994 1883 L
2994 1883 mt 2998 1895 L
2998 1895 mt 3025 1967 L
3025 1967 mt 3056 2051 L
3056 2051 mt 3087 2135 L
3087 2135 mt 3105 2182 L
3105 2182 mt 3118 2218 L
3118 2218 mt 3149 2302 L
3149 2302 mt 3180 2386 L
3180 2386 mt 3211 2469 L
3211 2469 mt 3211 2469 L
3211 2469 mt 3242 2553 L
3242 2553 mt 3273 2637 L
3273 2637 mt 3304 2721 L
3304 2721 mt 3317 2755 L
3317 2755 mt 3335 2804 L
3335 2804 mt 3366 2888 L
3366 2888 mt 3398 2972 L
3398 2972 mt 3423 3041 L
3423 3041 mt 3429 3055 L
3429 3055 mt 3460 3139 L
3460 3139 mt 3491 3223 L
3491 3223 mt 3522 3307 L
3522 3307 mt 3530 3326 L
3530 3326 mt 3554 3390 L
3554 3390 mt 3585 3474 L
3585 3474 mt 3616 3558 L
3616 3558 mt 3636 3611 L
3636 3611 mt 3647 3641 L
3647 3641 mt 3679 3725 L
3679 3725 mt 3710 3809 L
3710 3809 mt 3741 3893 L
3741 3893 mt 3742 3895 L
3742 3895 mt 3773 3976 L
3773 3976 mt 3804 4060 L
3804 4060 mt 3835 4144 L
3835 4144 mt 3849 4178 L
3849 4178 mt 3867 4227 L
3867 4227 mt 3898 4311 L
3898 4311 mt 3930 4395 L
3930 4395 mt 3955 4461 L
3955 4461 mt 3961 4479 L
/c21 { 0.000000 0.750000 1.000000 sr} bdef
c21
2570  377 mt 2573  384 L
2573  384 mt 2601  460 L
2601  460 mt 2631  544 L
2631  544 mt 2662  628 L
2662  628 mt 2679  675 L
2679  675 mt 2693  711 L
2693  711 mt 2723  795 L
2723  795 mt 2754  879 L
2754  879 mt 2785  962 L
2785  962 mt 2786  965 L
2786  965 mt 2815 1046 L
2815 1046 mt 2846 1130 L
2846 1130 mt 2877 1214 L
2877 1214 mt 2892 1255 L
2892 1255 mt 2908 1297 L
2908 1297 mt 2938 1381 L
2938 1381 mt 2969 1465 L
2969 1465 mt 2998 1544 L
2998 1544 mt 3000 1548 L
3000 1548 mt 3031 1632 L
3031 1632 mt 3061 1716 L
3061 1716 mt 3092 1800 L
3092 1800 mt 3105 1832 L
3105 1832 mt 3123 1883 L
3123 1883 mt 3154 1967 L
3154 1967 mt 3185 2051 L
3185 2051 mt 3211 2120 L
3211 2120 mt 3216 2135 L
3216 2135 mt 3247 2218 L
3247 2218 mt 3278 2302 L
3278 2302 mt 3309 2386 L
3309 2386 mt 3317 2408 L
3317 2408 mt 3340 2469 L
3340 2469 mt 3371 2553 L
3371 2553 mt 3402 2637 L
3402 2637 mt 3423 2695 L
3423 2695 mt 3433 2721 L
3433 2721 mt 3464 2804 L
3464 2804 mt 3495 2888 L
3495 2888 mt 3526 2972 L
3526 2972 mt 3530 2981 L
3530 2981 mt 3557 3055 L
3557 3055 mt 3588 3139 L
3588 3139 mt 3620 3223 L
3620 3223 mt 3636 3267 L
3636 3267 mt 3651 3307 L
3651 3307 mt 3682 3390 L
3682 3390 mt 3713 3474 L
3713 3474 mt 3742 3552 L
3742 3552 mt 3744 3558 L
3744 3558 mt 3776 3641 L
3776 3641 mt 3807 3725 L
3807 3725 mt 3838 3809 L
3838 3809 mt 3849 3836 L
3849 3836 mt 3869 3893 L
3869 3893 mt 3901 3976 L
3901 3976 mt 3932 4060 L
3932 4060 mt 3955 4121 L
3955 4121 mt 3963 4144 L
3963 4144 mt 3995 4227 L
3995 4227 mt 4026 4311 L
4026 4311 mt 4058 4395 L
4058 4395 mt 4061 4404 L
4061 4404 mt 4089 4479 L
/c22 { 0.000000 0.875000 1.000000 sr} bdef
c22
2699  377 mt 2730  460 L
2730  460 mt 2760  544 L
2760  544 mt 2786  613 L
2786  613 mt 2791  628 L
2791  628 mt 2821  711 L
2821  711 mt 2852  795 L
2852  795 mt 2882  879 L
2882  879 mt 2892  905 L
2892  905 mt 2913  962 L
2913  962 mt 2944 1046 L
2944 1046 mt 2974 1130 L
2974 1130 mt 2998 1195 L
2998 1195 mt 3005 1214 L
3005 1214 mt 3036 1297 L
3036 1297 mt 3066 1381 L
3066 1381 mt 3097 1465 L
3097 1465 mt 3105 1485 L
3105 1485 mt 3128 1548 L
3128 1548 mt 3158 1632 L
3158 1632 mt 3189 1716 L
3189 1716 mt 3211 1774 L
3211 1774 mt 3220 1800 L
3220 1800 mt 3251 1883 L
3251 1883 mt 3282 1967 L
3282 1967 mt 3313 2051 L
3313 2051 mt 3317 2063 L
3317 2063 mt 3343 2135 L
3343 2135 mt 3374 2218 L
3374 2218 mt 3405 2302 L
3405 2302 mt 3423 2351 L
3423 2351 mt 3436 2386 L
3436 2386 mt 3467 2469 L
3467 2469 mt 3498 2553 L
3498 2553 mt 3529 2637 L
3529 2637 mt 3530 2638 L
3530 2638 mt 3560 2721 L
3560 2721 mt 3591 2804 L
3591 2804 mt 3622 2888 L
3622 2888 mt 3636 2925 L
3636 2925 mt 3653 2972 L
3653 2972 mt 3684 3055 L
3684 3055 mt 3715 3139 L
3715 3139 mt 3742 3212 L
3742 3212 mt 3746 3223 L
3746 3223 mt 3777 3307 L
3777 3307 mt 3808 3390 L
3808 3390 mt 3840 3474 L
3840 3474 mt 3849 3497 L
3849 3497 mt 3871 3558 L
3871 3558 mt 3902 3641 L
3902 3641 mt 3933 3725 L
3933 3725 mt 3955 3783 L
3955 3783 mt 3965 3809 L
3965 3809 mt 3996 3893 L
3996 3893 mt 4027 3976 L
4027 3976 mt 4058 4060 L
4058 4060 mt 4061 4067 L
4061 4067 mt 4090 4144 L
4090 4144 mt 4121 4227 L
4121 4227 mt 4152 4311 L
4152 4311 mt 4167 4351 L
4167 4351 mt 4184 4395 L
4184 4395 mt 4215 4479 L
/c23 { 0.000000 0.937500 1.000000 sr} bdef
c23
2827  377 mt 2857  460 L
2857  460 mt 2888  544 L
2888  544 mt 2892  556 L
2892  556 mt 2918  628 L
2918  628 mt 2948  711 L
2948  711 mt 2979  795 L
2979  795 mt 2998  848 L
2998  848 mt 3009  879 L
3009  879 mt 3040  962 L
3040  962 mt 3070 1046 L
3070 1046 mt 3101 1130 L
3101 1130 mt 3105 1139 L
3105 1139 mt 3132 1214 L
3132 1214 mt 3162 1297 L
3162 1297 mt 3193 1381 L
3193 1381 mt 3211 1430 L
3211 1430 mt 3223 1465 L
3223 1465 mt 3254 1548 L
3254 1548 mt 3285 1632 L
3285 1632 mt 3316 1716 L
3316 1716 mt 3317 1720 L
3317 1720 mt 3346 1800 L
3346 1800 mt 3377 1883 L
3377 1883 mt 3408 1967 L
3408 1967 mt 3423 2009 L
3423 2009 mt 3439 2051 L
3439 2051 mt 3469 2135 L
3469 2135 mt 3500 2218 L
3500 2218 mt 3530 2298 L
3530 2298 mt 3531 2302 L
3531 2302 mt 3562 2386 L
3562 2386 mt 3593 2469 L
3593 2469 mt 3624 2553 L
3624 2553 mt 3636 2586 L
3636 2586 mt 3655 2637 L
3655 2637 mt 3685 2721 L
3685 2721 mt 3716 2804 L
3716 2804 mt 3742 2874 L
3742 2874 mt 3747 2888 L
3747 2888 mt 3778 2972 L
3778 2972 mt 3809 3055 L
3809 3055 mt 3841 3139 L
3841 3139 mt 3849 3160 L
3849 3160 mt 3872 3223 L
3872 3223 mt 3903 3307 L
3903 3307 mt 3934 3390 L
3934 3390 mt 3955 3447 L
3955 3447 mt 3965 3474 L
3965 3474 mt 3996 3558 L
3996 3558 mt 4027 3641 L
4027 3641 mt 4030 3650 L
4057 3722 mt 4058 3725 L
4058 3725 mt 4061 3732 L
4061 3732 mt 4089 3809 L
4089 3809 mt 4121 3893 L
4121 3893 mt 4152 3976 L
4152 3976 mt 4167 4018 L
4167 4018 mt 4183 4060 L
4183 4060 mt 4214 4144 L
4214 4144 mt 4246 4227 L
4246 4227 mt 4274 4302 L
4274 4302 mt 4277 4311 L
4277 4311 mt 4308 4395 L
4308 4395 mt 4340 4479 L
/c24 { 0.062500 1.000000 0.937500 sr} bdef
c24
2953  377 mt 2983  460 L
2983  460 mt 2998  502 L
2998  502 mt 3013  544 L
3013  544 mt 3044  628 L
3044  628 mt 3074  711 L
3074  711 mt 3105  795 L
3105  795 mt 3105  795 L
3105  795 mt 3135  879 L
3135  879 mt 3165  962 L
3165  962 mt 3196 1046 L
3196 1046 mt 3211 1087 L
3211 1087 mt 3226 1130 L
3226 1130 mt 3257 1214 L
3257 1214 mt 3287 1297 L
3287 1297 mt 3317 1378 L
3317 1378 mt 3318 1381 L
3318 1381 mt 3349 1465 L
3349 1465 mt 3379 1548 L
3379 1548 mt 3410 1632 L
3410 1632 mt 3423 1669 L
3423 1669 mt 3440 1716 L
3440 1716 mt 3471 1800 L
3471 1800 mt 3502 1883 L
3502 1883 mt 3530 1959 L
3530 1959 mt 3533 1967 L
3533 1967 mt 3563 2051 L
3563 2051 mt 3594 2135 L
3594 2135 mt 3625 2218 L
3625 2218 mt 3636 2248 L
3636 2248 mt 3656 2302 L
3656 2302 mt 3686 2386 L
3686 2386 mt 3717 2469 L
3717 2469 mt 3742 2537 L
3742 2537 mt 3748 2553 L
3748 2553 mt 3779 2637 L
3779 2637 mt 3810 2721 L
3810 2721 mt 3841 2804 L
3841 2804 mt 3849 2825 L
3849 2825 mt 3872 2888 L
3872 2888 mt 3903 2972 L
3903 2972 mt 3934 3055 L
3934 3055 mt 3955 3113 L
3955 3113 mt 3965 3139 L
3965 3139 mt 3995 3223 L
3995 3223 mt 4027 3307 L
4027 3307 mt 4058 3390 L
4058 3390 mt 4061 3399 L
4061 3399 mt 4089 3474 L
4089 3474 mt 4120 3558 L
4120 3558 mt 4151 3641 L
4151 3641 mt 4167 3686 L
4167 3686 mt 4182 3725 L
4182 3725 mt 4213 3809 L
4213 3809 mt 4244 3893 L
4244 3893 mt 4274 3971 L
4274 3971 mt 4275 3976 L
4275 3976 mt 4307 4060 L
4307 4060 mt 4338 4144 L
4338 4144 mt 4369 4227 L
4369 4227 mt 4380 4256 L
4380 4256 mt 4400 4311 L
4400 4311 mt 4432 4395 L
4432 4395 mt 4463 4479 L
/c25 { 0.125000 1.000000 0.875000 sr} bdef
c25
3077  377 mt 3105  451 L
3105  451 mt 3108  460 L
3108  460 mt 3138  544 L
3138  544 mt 3168  628 L
3168  628 mt 3199  711 L
3199  711 mt 3211  745 L
3211  745 mt 3229  795 L
3229  795 mt 3259  879 L
3259  879 mt 3290  962 L
3290  962 mt 3317 1038 L
3317 1038 mt 3320 1046 L
3320 1046 mt 3351 1130 L
3351 1130 mt 3381 1214 L
3381 1214 mt 3412 1297 L
3412 1297 mt 3423 1330 L
3423 1330 mt 3442 1381 L
3442 1381 mt 3473 1465 L
3473 1465 mt 3503 1548 L
3503 1548 mt 3530 1621 L
3530 1621 mt 3534 1632 L
3534 1632 mt 3564 1716 L
3564 1716 mt 3595 1800 L
3595 1800 mt 3626 1883 L
3626 1883 mt 3636 1912 L
3636 1912 mt 3656 1967 L
3656 1967 mt 3687 2051 L
3687 2051 mt 3717 2135 L
3717 2135 mt 3742 2202 L
3742 2202 mt 3748 2218 L
3748 2218 mt 3779 2302 L
3779 2302 mt 3810 2386 L
3810 2386 mt 3840 2469 L
3840 2469 mt 3849 2491 L
3849 2491 mt 3871 2553 L
3871 2553 mt 3902 2637 L
3902 2637 mt 3933 2721 L
3933 2721 mt 3955 2780 L
3955 2780 mt 3964 2804 L
3964 2804 mt 3995 2888 L
3995 2888 mt 4026 2972 L
4026 2972 mt 4056 3055 L
4056 3055 mt 4061 3068 L
4061 3068 mt 4087 3139 L
4087 3139 mt 4118 3223 L
4118 3223 mt 4149 3307 L
4149 3307 mt 4167 3355 L
4167 3355 mt 4180 3390 L
4180 3390 mt 4211 3474 L
4211 3474 mt 4242 3558 L
4242 3558 mt 4273 3641 L
4273 3641 mt 4274 3642 L
4274 3642 mt 4304 3725 L
4304 3725 mt 4336 3809 L
4336 3809 mt 4367 3893 L
4367 3893 mt 4380 3928 L
4380 3928 mt 4398 3976 L
4398 3976 mt 4429 4060 L
4429 4060 mt 4460 4144 L
4460 4144 mt 4486 4214 L
4486 4214 mt 4491 4227 L
4491 4227 mt 4522 4311 L
4522 4311 mt 4554 4395 L
4554 4395 mt 4585 4479 L
/c26 { 0.250000 1.000000 0.750000 sr} bdef
c26
3201  377 mt 3211  403 L
3211  403 mt 3231  460 L
3231  460 mt 3262  544 L
3262  544 mt 3292  628 L
3292  628 mt 3317  697 L
3317  697 mt 3322  711 L
3322  711 mt 3352  795 L
3352  795 mt 3383  879 L
3383  879 mt 3413  962 L
3413  962 mt 3423  991 L
3423  991 mt 3443 1046 L
3443 1046 mt 3474 1130 L
3474 1130 mt 3504 1214 L
3504 1214 mt 3530 1284 L
3530 1284 mt 3535 1297 L
3535 1297 mt 3565 1381 L
3565 1381 mt 3595 1465 L
3595 1465 mt 3626 1548 L
3626 1548 mt 3636 1576 L
3636 1576 mt 3656 1632 L
3656 1632 mt 3687 1716 L
3687 1716 mt 3718 1800 L
3718 1800 mt 3742 1867 L
3742 1867 mt 3748 1883 L
3748 1883 mt 3779 1967 L
3779 1967 mt 3809 2051 L
3809 2051 mt 3840 2135 L
3840 2135 mt 3849 2158 L
3849 2158 mt 3871 2218 L
3871 2218 mt 3901 2302 L
3901 2302 mt 3932 2386 L
3932 2386 mt 3955 2448 L
3955 2448 mt 3963 2469 L
3963 2469 mt 3993 2553 L
3993 2553 mt 4024 2637 L
4024 2637 mt 4055 2721 L
4055 2721 mt 4061 2737 L
4061 2737 mt 4086 2804 L
4086 2804 mt 4117 2888 L
4117 2888 mt 4147 2972 L
4147 2972 mt 4167 3025 L
4167 3025 mt 4178 3055 L
4178 3055 mt 4209 3139 L
4209 3139 mt 4240 3223 L
4240 3223 mt 4271 3307 L
4271 3307 mt 4274 3313 L
4274 3313 mt 4302 3390 L
4302 3390 mt 4333 3474 L
4333 3474 mt 4364 3558 L
4364 3558 mt 4380 3601 L
4380 3601 mt 4395 3641 L
4395 3641 mt 4426 3725 L
4426 3725 mt 4457 3809 L
4457 3809 mt 4486 3887 L
4486 3887 mt 4488 3893 L
4488 3893 mt 4519 3976 L
4519 3976 mt 4550 4060 L
4550 4060 mt 4581 4144 L
4581 4144 mt 4593 4173 L
4593 4173 mt 4613 4227 L
4613 4227 mt 4644 4311 L
4644 4311 mt 4675 4395 L
4675 4395 mt 4699 4459 L
4699 4459 mt 4706 4479 L
/c27 { 0.312500 1.000000 0.687500 sr} bdef
c27
3324  377 mt 3354  460 L
3354  460 mt 3384  544 L
3384  544 mt 3414  628 L
3414  628 mt 3423  652 L
3423  652 mt 3445  711 L
3445  711 mt 3475  795 L
3475  795 mt 3505  879 L
3505  879 mt 3530  946 L
3530  946 mt 3535  962 L
3535  962 mt 3566 1046 L
3566 1046 mt 3596 1130 L
3596 1130 mt 3626 1214 L
3626 1214 mt 3636 1240 L
3636 1240 mt 3657 1297 L
3657 1297 mt 3687 1381 L
3687 1381 mt 3717 1465 L
3717 1465 mt 3742 1533 L
3742 1533 mt 3748 1548 L
3748 1548 mt 3778 1632 L
3778 1632 mt 3809 1716 L
3809 1716 mt 3839 1800 L
3839 1800 mt 3849 1825 L
3849 1825 mt 3870 1883 L
3870 1883 mt 3900 1967 L
3900 1967 mt 3931 2051 L
3931 2051 mt 3955 2116 L
3955 2116 mt 3962 2135 L
3962 2135 mt 3992 2218 L
3992 2218 mt 4023 2302 L
4023 2302 mt 4053 2386 L
4053 2386 mt 4061 2406 L
4061 2406 mt 4084 2469 L
4084 2469 mt 4115 2553 L
4115 2553 mt 4145 2637 L
4145 2637 mt 4167 2696 L
4167 2696 mt 4176 2721 L
4176 2721 mt 4207 2804 L
4207 2804 mt 4238 2888 L
4238 2888 mt 4269 2972 L
4269 2972 mt 4274 2985 L
4274 2985 mt 4299 3055 L
4299 3055 mt 4330 3139 L
4330 3139 mt 4361 3223 L
4361 3223 mt 4380 3274 L
4380 3274 mt 4392 3307 L
4392 3307 mt 4423 3390 L
4423 3390 mt 4454 3474 L
4454 3474 mt 4485 3558 L
4485 3558 mt 4486 3562 L
4486 3562 mt 4493 3580 L
4546 3724 mt 4547 3725 L
4547 3725 mt 4578 3809 L
4578 3809 mt 4593 3849 L
4593 3849 mt 4609 3893 L
4609 3893 mt 4640 3976 L
4640 3976 mt 4671 4060 L
4671 4060 mt 4699 4136 L
4699 4136 mt 4702 4144 L
4702 4144 mt 4733 4227 L
4733 4227 mt 4764 4311 L
4764 4311 mt 4795 4395 L
4795 4395 mt 4805 4422 L
4805 4422 mt 4826 4479 L
/c28 { 0.437500 1.000000 0.562500 sr} bdef
c28
3446  377 mt 3476  460 L
3476  460 mt 3506  544 L
3506  544 mt 3530  609 L
3530  609 mt 3536  628 L
3536  628 mt 3566  711 L
3566  711 mt 3596  795 L
3596  795 mt 3627  879 L
3627  879 mt 3636  904 L
3636  904 mt 3657  962 L
3657  962 mt 3687 1046 L
3687 1046 mt 3717 1130 L
3717 1130 mt 3742 1198 L
3742 1198 mt 3748 1214 L
3748 1214 mt 3778 1297 L
3778 1297 mt 3808 1381 L
3808 1381 mt 3839 1465 L
3839 1465 mt 3849 1492 L
3849 1492 mt 3869 1548 L
3869 1548 mt 3899 1632 L
3899 1632 mt 3930 1716 L
3930 1716 mt 3955 1784 L
3955 1784 mt 3960 1800 L
3960 1800 mt 3991 1883 L
3991 1883 mt 4021 1967 L
4021 1967 mt 4052 2051 L
4052 2051 mt 4061 2076 L
4061 2076 mt 4082 2135 L
4082 2135 mt 4113 2218 L
4113 2218 mt 4143 2302 L
4143 2302 mt 4167 2367 L
4167 2367 mt 4174 2386 L
4174 2386 mt 4205 2469 L
4205 2469 mt 4235 2553 L
4235 2553 mt 4266 2637 L
4266 2637 mt 4274 2658 L
4274 2658 mt 4297 2721 L
4297 2721 mt 4327 2804 L
4327 2804 mt 4358 2888 L
4358 2888 mt 4380 2947 L
4380 2947 mt 4389 2972 L
4389 2972 mt 4420 3055 L
4420 3055 mt 4450 3139 L
4450 3139 mt 4481 3223 L
4481 3223 mt 4486 3236 L
4486 3236 mt 4512 3307 L
4512 3307 mt 4543 3390 L
4543 3390 mt 4574 3474 L
4574 3474 mt 4593 3525 L
4593 3525 mt 4605 3558 L
4605 3558 mt 4635 3641 L
4635 3641 mt 4666 3725 L
4666 3725 mt 4697 3809 L
4697 3809 mt 4699 3813 L
4699 3813 mt 4728 3893 L
4728 3893 mt 4759 3976 L
4759 3976 mt 4790 4060 L
4790 4060 mt 4805 4100 L
4805 4100 mt 4821 4144 L
4821 4144 mt 4852 4227 L
4852 4227 mt 4883 4311 L
4883 4311 mt 4911 4386 L
4911 4386 mt 4914 4395 L
4914 4395 mt 4946 4479 L
/c29 { 0.562500 1.000000 0.437500 sr} bdef
c29
3567  377 mt 3597  460 L
3597  460 mt 3627  544 L
3627  544 mt 3636  568 L
3636  568 mt 3657  628 L
3657  628 mt 3687  711 L
3687  711 mt 3717  795 L
3717  795 mt 3742  864 L
3742  864 mt 3748  879 L
3748  879 mt 3778  962 L
3778  962 mt 3808 1046 L
3808 1046 mt 3838 1130 L
3838 1130 mt 3849 1159 L
3849 1159 mt 3868 1214 L
3868 1214 mt 3899 1297 L
3899 1297 mt 3929 1381 L
3929 1381 mt 3955 1453 L
3955 1453 mt 3959 1465 L
3959 1465 mt 3989 1548 L
3989 1548 mt 4020 1632 L
4020 1632 mt 4050 1716 L
4050 1716 mt 4061 1746 L
4061 1746 mt 4081 1800 L
4081 1800 mt 4111 1883 L
4111 1883 mt 4141 1967 L
4141 1967 mt 4167 2038 L
4167 2038 mt 4172 2051 L
4172 2051 mt 4202 2135 L
4202 2135 mt 4233 2218 L
4233 2218 mt 4263 2302 L
4263 2302 mt 4274 2330 L
4274 2330 mt 4294 2386 L
4294 2386 mt 4324 2469 L
4324 2469 mt 4355 2553 L
4355 2553 mt 4380 2621 L
4380 2621 mt 4386 2637 L
4386 2637 mt 4416 2721 L
4416 2721 mt 4447 2804 L
4447 2804 mt 4478 2888 L
4478 2888 mt 4486 2911 L
4486 2911 mt 4508 2972 L
4508 2972 mt 4539 3055 L
4539 3055 mt 4570 3139 L
4570 3139 mt 4593 3201 L
4593 3201 mt 4601 3223 L
4601 3223 mt 4631 3307 L
4631 3307 mt 4662 3390 L
4662 3390 mt 4693 3474 L
4693 3474 mt 4699 3490 L
4699 3490 mt 4724 3558 L
4724 3558 mt 4755 3641 L
4755 3641 mt 4785 3725 L
4785 3725 mt 4805 3778 L
4805 3778 mt 4816 3809 L
4816 3809 mt 4847 3893 L
4847 3893 mt 4878 3976 L
4878 3976 mt 4909 4060 L
4909 4060 mt 4911 4066 L
4911 4066 mt 4940 4144 L
4940 4144 mt 4971 4227 L
4971 4227 mt 5002 4311 L
5002 4311 mt 5018 4353 L
5018 4353 mt 5033 4395 L
5033 4395 mt 5064 4479 L
/c30 { 0.625000 1.000000 0.375000 sr} bdef
c30
3688  377 mt 3718  460 L
3718  460 mt 3742  529 L
3742  529 mt 3748  544 L
3748  544 mt 3778  628 L
3778  628 mt 3808  711 L
3808  711 mt 3838  795 L
3838  795 mt 3849  825 L
3849  825 mt 3868  879 L
3868  879 mt 3898  962 L
3898  962 mt 3928 1046 L
3928 1046 mt 3955 1121 L
3955 1121 mt 3958 1130 L
3958 1130 mt 3988 1214 L
3988 1214 mt 4018 1297 L
4018 1297 mt 4049 1381 L
4049 1381 mt 4061 1415 L
4061 1415 mt 4079 1465 L
4079 1465 mt 4109 1548 L
4109 1548 mt 4139 1632 L
4139 1632 mt 4167 1709 L
4167 1709 mt 4170 1716 L
4170 1716 mt 4200 1800 L
4200 1800 mt 4230 1883 L
4230 1883 mt 4261 1967 L
4261 1967 mt 4274 2002 L
4274 2002 mt 4291 2051 L
4291 2051 mt 4322 2135 L
4322 2135 mt 4352 2218 L
4352 2218 mt 4380 2294 L
4380 2294 mt 4383 2302 L
4383 2302 mt 4413 2386 L
4413 2386 mt 4444 2469 L
4444 2469 mt 4474 2553 L
4474 2553 mt 4486 2586 L
4486 2586 mt 4505 2637 L
4505 2637 mt 4535 2721 L
4535 2721 mt 4566 2804 L
4566 2804 mt 4593 2877 L
4593 2877 mt 4597 2888 L
4597 2888 mt 4627 2972 L
4627 2972 mt 4658 3055 L
4658 3055 mt 4689 3139 L
4689 3139 mt 4699 3167 L
4699 3167 mt 4719 3223 L
4719 3223 mt 4750 3307 L
4750 3307 mt 4781 3390 L
4781 3390 mt 4805 3457 L
4805 3457 mt 4811 3474 L
4811 3474 mt 4842 3558 L
4842 3558 mt 4873 3641 L
4873 3641 mt 4904 3725 L
4904 3725 mt 4911 3745 L
4911 3745 mt 4935 3809 L
4935 3809 mt 4966 3893 L
4966 3893 mt 4996 3976 L
4996 3976 mt 5018 4034 L
5018 4034 mt 5027 4060 L
5027 4060 mt 5058 4144 L
5058 4144 mt 5089 4227 L
5089 4227 mt 5120 4311 L
5120 4311 mt 5124 4321 L
5124 4321 mt 5151 4395 L
5151 4395 mt 5182 4479 L
/c31 { 0.750000 1.000000 0.250000 sr} bdef
c31
3808  377 mt 3837  460 L
3837  460 mt 3849  491 L
3849  491 mt 3867  544 L
3867  544 mt 3897  628 L
3897  628 mt 3927  711 L
3927  711 mt 3955  788 L
3955  788 mt 3957  795 L
3957  795 mt 3987  879 L
3987  879 mt 4017  962 L
4017  962 mt 4047 1046 L
4047 1046 mt 4061 1084 L
4061 1084 mt 4078 1130 L
4078 1130 mt 4108 1214 L
4108 1214 mt 4138 1297 L
4138 1297 mt 4167 1379 L
4167 1379 mt 4168 1381 L
4168 1381 mt 4198 1465 L
4198 1465 mt 4228 1548 L
4228 1548 mt 4259 1632 L
4259 1632 mt 4274 1674 L
4274 1674 mt 4289 1716 L
4289 1716 mt 4319 1800 L
4319 1800 mt 4349 1883 L
4349 1883 mt 4380 1967 L
4380 1967 mt 4380 1967 L
4380 1967 mt 4410 2051 L
4410 2051 mt 4440 2135 L
4440 2135 mt 4471 2218 L
4471 2218 mt 4486 2260 L
4486 2260 mt 4501 2302 L
4501 2302 mt 4532 2386 L
4532 2386 mt 4562 2469 L
4562 2469 mt 4593 2552 L
4593 2552 mt 4593 2553 L
4593 2553 mt 4623 2637 L
4623 2637 mt 4654 2721 L
4654 2721 mt 4684 2804 L
4684 2804 mt 4699 2844 L
4699 2844 mt 4715 2888 L
4715 2888 mt 4745 2972 L
4745 2972 mt 4776 3055 L
4776 3055 mt 4805 3135 L
4805 3135 mt 4807 3139 L
4807 3139 mt 4837 3223 L
4837 3223 mt 4868 3307 L
4868 3307 mt 4899 3390 L
4899 3390 mt 4911 3425 L
4911 3425 mt 4929 3474 L
4929 3474 mt 4960 3558 L
4960 3558 mt 4968 3580 L
5021 3724 mt 5022 3725 L
5022 3725 mt 5052 3809 L
5052 3809 mt 5083 3893 L
5083 3893 mt 5114 3976 L
5114 3976 mt 5124 4003 L
5124 4003 mt 5145 4060 L
5145 4060 mt 5176 4144 L
5176 4144 mt 5207 4227 L
5207 4227 mt 5230 4291 L
5230 4291 mt 5238 4311 L
5238 4311 mt 5268 4395 L
5268 4395 mt 5299 4479 L
/c32 { 0.812500 1.000000 0.187500 sr} bdef
c32
3927  377 mt 3955  455 L
3955  455 mt 3957  460 L
3957  460 mt 3987  544 L
3987  544 mt 4017  628 L
4017  628 mt 4046  711 L
4046  711 mt 4061  752 L
4061  752 mt 4076  795 L
4076  795 mt 4106  879 L
4106  879 mt 4136  962 L
4136  962 mt 4166 1046 L
4166 1046 mt 4167 1049 L
4167 1049 mt 4196 1130 L
4196 1130 mt 4227 1214 L
4227 1214 mt 4257 1297 L
4257 1297 mt 4274 1345 L
4274 1345 mt 4287 1381 L
4287 1381 mt 4317 1465 L
4317 1465 mt 4347 1548 L
4347 1548 mt 4377 1632 L
4377 1632 mt 4380 1640 L
4380 1640 mt 4407 1716 L
4407 1716 mt 4438 1800 L
4438 1800 mt 4468 1883 L
4468 1883 mt 4486 1934 L
4486 1934 mt 4498 1967 L
4498 1967 mt 4528 2051 L
4528 2051 mt 4559 2135 L
4559 2135 mt 4589 2218 L
4589 2218 mt 4593 2227 L
4593 2227 mt 4619 2302 L
4619 2302 mt 4650 2386 L
4650 2386 mt 4680 2469 L
4680 2469 mt 4699 2520 L
4699 2520 mt 4711 2553 L
4711 2553 mt 4741 2637 L
4741 2637 mt 4772 2721 L
4772 2721 mt 4802 2804 L
4802 2804 mt 4805 2812 L
4805 2812 mt 4833 2888 L
4833 2888 mt 4863 2972 L
4863 2972 mt 4894 3055 L
4894 3055 mt 4911 3104 L
4911 3104 mt 4924 3139 L
4924 3139 mt 4955 3223 L
4955 3223 mt 4986 3307 L
4986 3307 mt 5016 3390 L
5016 3390 mt 5018 3394 L
5018 3394 mt 5047 3474 L
5047 3474 mt 5077 3558 L
5077 3558 mt 5108 3641 L
5108 3641 mt 5124 3684 L
5124 3684 mt 5139 3725 L
5139 3725 mt 5170 3809 L
5170 3809 mt 5200 3893 L
5200 3893 mt 5230 3973 L
5230 3973 mt 5231 3976 L
5231 3976 mt 5262 4060 L
5262 4060 mt 5293 4144 L
5293 4144 mt 5324 4227 L
5324 4227 mt 5337 4262 L
5337 4262 mt 5355 4311 L
5355 4311 mt 5385 4395 L
5385 4395 mt 5416 4479 L
/c33 { 0.937500 1.000000 0.062500 sr} bdef
c33
4046  377 mt 4061  419 L
4061  419 mt 4076  460 L
4076  460 mt 4105  544 L
4105  544 mt 4135  628 L
4135  628 mt 4165  711 L
4165  711 mt 4167  717 L
4167  717 mt 4195  795 L
4195  795 mt 4225  879 L
4225  879 mt 4255  962 L
4255  962 mt 4274 1015 L
4274 1015 mt 4285 1046 L
4285 1046 mt 4315 1130 L
4315 1130 mt 4345 1214 L
4345 1214 mt 4375 1297 L
4375 1297 mt 4380 1311 L
4380 1311 mt 4405 1381 L
4405 1381 mt 4435 1465 L
4435 1465 mt 4465 1548 L
4465 1548 mt 4486 1607 L
4486 1607 mt 4495 1632 L
4495 1632 mt 4525 1716 L
4525 1716 mt 4556 1800 L
4556 1800 mt 4586 1883 L
4586 1883 mt 4593 1902 L
4593 1902 mt 4616 1967 L
4616 1967 mt 4646 2051 L
4646 2051 mt 4677 2135 L
4677 2135 mt 4699 2196 L
4699 2196 mt 4707 2218 L
4707 2218 mt 4737 2302 L
4737 2302 mt 4768 2386 L
4768 2386 mt 4798 2469 L
4798 2469 mt 4805 2489 L
4805 2489 mt 4828 2553 L
4828 2553 mt 4859 2637 L
4859 2637 mt 4889 2721 L
4889 2721 mt 4911 2782 L
4911 2782 mt 4920 2804 L
4920 2804 mt 4950 2888 L
4950 2888 mt 4980 2972 L
4980 2972 mt 5011 3055 L
5011 3055 mt 5018 3074 L
5018 3074 mt 5041 3139 L
5041 3139 mt 5072 3223 L
5072 3223 mt 5103 3307 L
5103 3307 mt 5124 3365 L
5124 3365 mt 5133 3390 L
5133 3390 mt 5164 3474 L
5164 3474 mt 5194 3558 L
5194 3558 mt 5225 3641 L
5225 3641 mt 5230 3655 L
5230 3655 mt 5256 3725 L
5256 3725 mt 5286 3809 L
5286 3809 mt 5317 3893 L
5317 3893 mt 5337 3945 L
5337 3945 mt 5348 3976 L
5348 3976 mt 5379 4060 L
5379 4060 mt 5409 4144 L
5409 4144 mt 5440 4227 L
5440 4227 mt 5443 4234 L
5443 4234 mt 5471 4311 L
5471 4311 mt 5502 4395 L
5502 4395 mt 5533 4479 L
/c34 { 1.000000 1.000000 0.000000 sr} bdef
c34
4164  377 mt 4167  385 L
4167  385 mt 4194  460 L
4194  460 mt 4224  544 L
4224  544 mt 4254  628 L
4254  628 mt 4274  684 L
4274  684 mt 4283  711 L
4283  711 mt 4313  795 L
4313  795 mt 4343  879 L
4343  879 mt 4373  962 L
4373  962 mt 4380  982 L
4380  982 mt 4403 1046 L
4403 1046 mt 4433 1130 L
4433 1130 mt 4463 1214 L
4463 1214 mt 4486 1279 L
4486 1279 mt 4493 1297 L
4493 1297 mt 4523 1381 L
4523 1381 mt 4553 1465 L
4553 1465 mt 4583 1548 L
4583 1548 mt 4593 1575 L
4593 1575 mt 4613 1632 L
4613 1632 mt 4643 1716 L
4643 1716 mt 4673 1800 L
4673 1800 mt 4699 1870 L
4699 1870 mt 4703 1883 L
4703 1883 mt 4734 1967 L
4734 1967 mt 4764 2051 L
4764 2051 mt 4794 2135 L
4794 2135 mt 4805 2165 L
4805 2165 mt 4824 2218 L
4824 2218 mt 4854 2302 L
4854 2302 mt 4885 2386 L
4885 2386 mt 4911 2459 L
4911 2459 mt 4915 2469 L
4915 2469 mt 4945 2553 L
4945 2553 mt 4976 2637 L
4976 2637 mt 5006 2721 L
5006 2721 mt 5018 2752 L
5018 2752 mt 5037 2804 L
5037 2804 mt 5067 2888 L
5067 2888 mt 5097 2972 L
5097 2972 mt 5124 3045 L
5124 3045 mt 5128 3055 L
5128 3055 mt 5158 3139 L
5158 3139 mt 5189 3223 L
5189 3223 mt 5219 3307 L
5219 3307 mt 5230 3336 L
5230 3336 mt 5250 3390 L
5250 3390 mt 5280 3474 L
5280 3474 mt 5311 3558 L
5311 3558 mt 5337 3628 L
5337 3628 mt 5342 3641 L
5342 3641 mt 5372 3725 L
5372 3725 mt 5403 3809 L
5403 3809 mt 5433 3893 L
5433 3893 mt 5443 3918 L
5443 3918 mt 5464 3976 L
5464 3976 mt 5495 4060 L
5495 4060 mt 5526 4144 L
5526 4144 mt 5549 4208 L
5549 4208 mt 5556 4227 L
5556 4227 mt 5587 4311 L
5587 4311 mt 5618 4395 L
5618 4395 mt 5649 4479 L
/c35 { 1.000000 0.875000 0.000000 sr} bdef
c35
4282  377 mt 4312  460 L
4312  460 mt 4342  544 L
4342  544 mt 4372  628 L
4372  628 mt 4380  651 L
4380  651 mt 4401  711 L
4401  711 mt 4431  795 L
4431  795 mt 4461  879 L
4461  879 mt 4486  950 L
4486  950 mt 4491  962 L
4491  962 mt 4521 1046 L
4521 1046 mt 4551 1130 L
4551 1130 mt 4580 1214 L
4580 1214 mt 4593 1247 L
4593 1247 mt 4610 1297 L
4610 1297 mt 4640 1381 L
4640 1381 mt 4670 1465 L
4670 1465 mt 4699 1544 L
4699 1544 mt 4700 1548 L
4700 1548 mt 4730 1632 L
4730 1632 mt 4760 1716 L
4760 1716 mt 4790 1800 L
4790 1800 mt 4805 1840 L
4805 1840 mt 4821 1883 L
4821 1883 mt 4851 1967 L
4851 1967 mt 4881 2051 L
4881 2051 mt 4911 2135 L
4911 2135 mt 4911 2135 L
4911 2135 mt 4941 2218 L
4941 2218 mt 4971 2302 L
4971 2302 mt 5002 2386 L
5002 2386 mt 5018 2430 L
5018 2430 mt 5032 2469 L
5032 2469 mt 5062 2553 L
5062 2553 mt 5092 2637 L
5092 2637 mt 5123 2721 L
5123 2721 mt 5124 2724 L
5124 2724 mt 5153 2804 L
5153 2804 mt 5183 2888 L
5183 2888 mt 5214 2972 L
5214 2972 mt 5230 3017 L
5230 3017 mt 5244 3055 L
5244 3055 mt 5275 3139 L
5275 3139 mt 5305 3223 L
5305 3223 mt 5336 3307 L
5336 3307 mt 5337 3309 L
5337 3309 mt 5366 3390 L
5366 3390 mt 5397 3474 L
5397 3474 mt 5427 3558 L
5427 3558 mt 5435 3579 L
5488 3724 mt 5488 3725 L
5488 3725 mt 5519 3809 L
5519 3809 mt 5549 3892 L
5549 3892 mt 5549 3893 L
5549 3893 mt 5580 3976 L
5580 3976 mt 5611 4060 L
5611 4060 mt 5641 4144 L
5641 4144 mt 5655 4182 L
5655 4182 mt 5672 4227 L
5672 4227 mt 5703 4311 L
5703 4311 mt 5733 4395 L
5733 4395 mt 5762 4472 L
5762 4472 mt 5764 4479 L
/c36 { 1.000000 0.812500 0.000000 sr} bdef
c36
4400  377 mt 4430  460 L
4430  460 mt 4459  544 L
4459  544 mt 4486  619 L
4486  619 mt 4489  628 L
4489  628 mt 4519  711 L
4519  711 mt 4549  795 L
4549  795 mt 4578  879 L
4578  879 mt 4593  918 L
4593  918 mt 4608  962 L
4608  962 mt 4638 1046 L
4638 1046 mt 4668 1130 L
4668 1130 mt 4698 1214 L
4698 1214 mt 4699 1217 L
4699 1217 mt 4728 1297 L
4728 1297 mt 4757 1381 L
4757 1381 mt 4787 1465 L
4787 1465 mt 4805 1514 L
4805 1514 mt 4817 1548 L
4817 1548 mt 4847 1632 L
4847 1632 mt 4877 1716 L
4877 1716 mt 4907 1800 L
4907 1800 mt 4911 1811 L
4911 1811 mt 4937 1883 L
4937 1883 mt 4967 1967 L
4967 1967 mt 4998 2051 L
4998 2051 mt 5018 2106 L
5018 2106 mt 5028 2135 L
5028 2135 mt 5058 2218 L
5058 2218 mt 5088 2302 L
5088 2302 mt 5118 2386 L
5118 2386 mt 5124 2402 L
5124 2402 mt 5148 2469 L
5148 2469 mt 5179 2553 L
5179 2553 mt 5209 2637 L
5209 2637 mt 5230 2696 L
5230 2696 mt 5239 2721 L
5239 2721 mt 5269 2804 L
5269 2804 mt 5300 2888 L
5300 2888 mt 5330 2972 L
5330 2972 mt 5337 2989 L
5337 2989 mt 5360 3055 L
5360 3055 mt 5391 3139 L
5391 3139 mt 5421 3223 L
5421 3223 mt 5443 3282 L
5443 3282 mt 5452 3307 L
5452 3307 mt 5482 3390 L
5482 3390 mt 5512 3474 L
5512 3474 mt 5543 3558 L
5543 3558 mt 5549 3575 L
5549 3575 mt 5573 3641 L
5573 3641 mt 5604 3725 L
5604 3725 mt 5634 3809 L
5634 3809 mt 5655 3866 L
5655 3866 mt 5665 3893 L
5665 3893 mt 5696 3976 L
5696 3976 mt 5726 4060 L
5726 4060 mt 5757 4144 L
5757 4144 mt 5762 4157 L
5762 4157 mt 5787 4227 L
5787 4227 mt 5818 4311 L
5818 4311 mt 5849 4395 L
5849 4395 mt 5868 4447 L
5868 4447 mt 5879 4479 L
/c37 { 1.000000 0.687500 0.000000 sr} bdef
c37
4518  377 mt 4547  460 L
4547  460 mt 4577  544 L
4577  544 mt 4593  588 L
4593  588 mt 4607  628 L
4607  628 mt 4636  711 L
4636  711 mt 4666  795 L
4666  795 mt 4696  879 L
4696  879 mt 4699  888 L
4699  888 mt 4725  962 L
4725  962 mt 4755 1046 L
4755 1046 mt 4785 1130 L
4785 1130 mt 4805 1187 L
4805 1187 mt 4815 1214 L
4815 1214 mt 4844 1297 L
4844 1297 mt 4874 1381 L
4874 1381 mt 4904 1465 L
4904 1465 mt 4911 1485 L
4911 1485 mt 4934 1548 L
4934 1548 mt 4964 1632 L
4964 1632 mt 4994 1716 L
4994 1716 mt 5018 1782 L
5018 1782 mt 5024 1800 L
5024 1800 mt 5054 1883 L
5054 1883 mt 5084 1967 L
5084 1967 mt 5114 2051 L
5114 2051 mt 5124 2078 L
5124 2078 mt 5144 2135 L
5144 2135 mt 5174 2218 L
5174 2218 mt 5204 2302 L
5204 2302 mt 5230 2374 L
5230 2374 mt 5234 2386 L
5234 2386 mt 5265 2469 L
5265 2469 mt 5295 2553 L
5295 2553 mt 5325 2637 L
5325 2637 mt 5337 2669 L
5337 2669 mt 5355 2721 L
5355 2721 mt 5385 2804 L
5385 2804 mt 5416 2888 L
5416 2888 mt 5443 2963 L
5443 2963 mt 5446 2972 L
5446 2972 mt 5476 3055 L
5476 3055 mt 5506 3139 L
5506 3139 mt 5537 3223 L
5537 3223 mt 5549 3256 L
5549 3256 mt 5567 3307 L
5567 3307 mt 5598 3390 L
5598 3390 mt 5628 3474 L
5628 3474 mt 5655 3549 L
5655 3549 mt 5658 3558 L
5658 3558 mt 5689 3641 L
5689 3641 mt 5719 3725 L
5719 3725 mt 5750 3809 L
5750 3809 mt 5762 3841 L
5762 3841 mt 5780 3893 L
5780 3893 mt 5811 3976 L
5811 3976 mt 5841 4060 L
5841 4060 mt 5868 4133 L
5868 4133 mt 5872 4144 L
5872 4144 mt 5902 4227 L
5902 4227 mt 5933 4311 L
5933 4311 mt 5964 4395 L
5964 4395 mt 5974 4424 L
5974 4424 mt 5994 4479 L
/c38 { 1.000000 0.625000 0.000000 sr} bdef
c38
4635  377 mt 4664  460 L
4664  460 mt 4694  544 L
4694  544 mt 4699  558 L
4699  558 mt 4724  628 L
4724  628 mt 4753  711 L
4753  711 mt 4783  795 L
4783  795 mt 4805  858 L
4805  858 mt 4812  879 L
4812  879 mt 4842  962 L
4842  962 mt 4872 1046 L
4872 1046 mt 4902 1130 L
4902 1130 mt 4911 1157 L
4911 1157 mt 4931 1214 L
4931 1214 mt 4961 1297 L
4961 1297 mt 4991 1381 L
4991 1381 mt 5018 1456 L
5018 1456 mt 5021 1465 L
5021 1465 mt 5051 1548 L
5051 1548 mt 5081 1632 L
5081 1632 mt 5110 1716 L
5110 1716 mt 5124 1754 L
5124 1754 mt 5140 1800 L
5140 1800 mt 5170 1883 L
5170 1883 mt 5200 1967 L
5200 1967 mt 5230 2051 L
5230 2051 mt 5230 2051 L
5230 2051 mt 5260 2135 L
5260 2135 mt 5290 2218 L
5290 2218 mt 5320 2302 L
5320 2302 mt 5337 2347 L
5337 2347 mt 5350 2386 L
5350 2386 mt 5380 2469 L
5380 2469 mt 5411 2553 L
5411 2553 mt 5441 2637 L
5441 2637 mt 5443 2642 L
5443 2642 mt 5471 2721 L
5471 2721 mt 5501 2804 L
5501 2804 mt 5531 2888 L
5531 2888 mt 5549 2937 L
5549 2937 mt 5562 2972 L
5562 2972 mt 5592 3055 L
5592 3055 mt 5622 3139 L
5622 3139 mt 5652 3223 L
5652 3223 mt 5655 3231 L
5655 3231 mt 5683 3307 L
5683 3307 mt 5713 3390 L
5713 3390 mt 5743 3474 L
5743 3474 mt 5762 3525 L
5762 3525 mt 5774 3558 L
5774 3558 mt 5804 3641 L
5804 3641 mt 5834 3725 L
5834 3725 mt 5865 3809 L
5865 3809 mt 5868 3817 L
5868 3817 mt 5895 3893 L
5895 3893 mt 5926 3976 L
5926 3976 mt 5956 4060 L
5956 4060 mt 5974 4109 L
5974 4109 mt 5987 4144 L
5987 4144 mt 6017 4227 L
6017 4227 mt 6048 4311 L
6048 4311 mt 6078 4395 L
6078 4395 mt 6081 4401 L
/c39 { 1.000000 0.500000 0.000000 sr} bdef
c39
4752  377 mt 4781  460 L
4781  460 mt 4805  528 L
4805  528 mt 4811  544 L
4811  544 mt 4840  628 L
4840  628 mt 4870  711 L
4870  711 mt 4900  795 L
4900  795 mt 4911  828 L
4911  828 mt 4929  879 L
4929  879 mt 4959  962 L
4959  962 mt 4988 1046 L
4988 1046 mt 5018 1129 L
5018 1129 mt 5018 1130 L
5018 1130 mt 5048 1214 L
5048 1214 mt 5078 1297 L
5078 1297 mt 5107 1381 L
5107 1381 mt 5124 1428 L
5124 1428 mt 5137 1465 L
5137 1465 mt 5167 1548 L
5167 1548 mt 5197 1632 L
5197 1632 mt 5227 1716 L
5227 1716 mt 5230 1726 L
5230 1726 mt 5256 1800 L
5256 1800 mt 5286 1883 L
5286 1883 mt 5316 1967 L
5316 1967 mt 5337 2024 L
5337 2024 mt 5346 2051 L
5346 2051 mt 5376 2135 L
5376 2135 mt 5406 2218 L
5406 2218 mt 5436 2302 L
5436 2302 mt 5443 2320 L
5443 2320 mt 5466 2386 L
5466 2386 mt 5496 2469 L
5496 2469 mt 5526 2553 L
5526 2553 mt 5549 2617 L
5549 2617 mt 5556 2637 L
5556 2637 mt 5586 2721 L
5586 2721 mt 5617 2804 L
5617 2804 mt 5647 2888 L
5647 2888 mt 5655 2912 L
5655 2912 mt 5677 2972 L
5677 2972 mt 5707 3055 L
5707 3055 mt 5737 3139 L
5737 3139 mt 5762 3206 L
5762 3206 mt 5768 3223 L
5768 3223 mt 5781 3259 L
5833 3404 mt 5858 3474 L
5858 3474 mt 5868 3500 L
5868 3500 mt 5889 3558 L
5889 3558 mt 5919 3641 L
5919 3641 mt 5949 3725 L
5949 3725 mt 5974 3794 L
5974 3794 mt 5980 3809 L
5980 3809 mt 6010 3893 L
6010 3893 mt 6041 3976 L
6041 3976 mt 6071 4060 L
6071 4060 mt 6081 4086 L
/c40 { 1.000000 0.437500 0.000000 sr} bdef
c40
4869  377 mt 4898  460 L
4898  460 mt 4911  498 L
4911  498 mt 4928  544 L
4928  544 mt 4957  628 L
4957  628 mt 4987  711 L
4987  711 mt 5016  795 L
5016  795 mt 5018  800 L
5018  800 mt 5046  879 L
5046  879 mt 5075  962 L
5075  962 mt 5105 1046 L
5105 1046 mt 5124 1100 L
5124 1100 mt 5134 1130 L
5134 1130 mt 5164 1214 L
5164 1214 mt 5194 1297 L
5194 1297 mt 5223 1381 L
5223 1381 mt 5230 1400 L
5230 1400 mt 5253 1465 L
5253 1465 mt 5283 1548 L
5283 1548 mt 5313 1632 L
5313 1632 mt 5337 1699 L
5337 1699 mt 5343 1716 L
5343 1716 mt 5372 1800 L
5372 1800 mt 5402 1883 L
5402 1883 mt 5432 1967 L
5432 1967 mt 5443 1997 L
5443 1997 mt 5462 2051 L
5462 2051 mt 5492 2135 L
5492 2135 mt 5522 2218 L
5522 2218 mt 5549 2294 L
5549 2294 mt 5552 2302 L
5552 2302 mt 5582 2386 L
5582 2386 mt 5612 2469 L
5612 2469 mt 5642 2553 L
5642 2553 mt 5655 2591 L
5655 2591 mt 5672 2637 L
5672 2637 mt 5702 2721 L
5702 2721 mt 5732 2804 L
5732 2804 mt 5762 2887 L
5762 2887 mt 5762 2888 L
5762 2888 mt 5792 2972 L
5792 2972 mt 5822 3055 L
5822 3055 mt 5852 3139 L
5852 3139 mt 5868 3182 L
5868 3182 mt 5883 3223 L
5883 3223 mt 5913 3307 L
5913 3307 mt 5943 3390 L
5943 3390 mt 5973 3474 L
5973 3474 mt 5974 3477 L
5974 3477 mt 6003 3558 L
6003 3558 mt 6034 3641 L
6034 3641 mt 6064 3725 L
6064 3725 mt 6081 3770 L
/c41 { 1.000000 0.312500 0.000000 sr} bdef
c41
4985  377 mt 5015  460 L
5015  460 mt 5018  469 L
5018  469 mt 5044  544 L
5044  544 mt 5073  628 L
5073  628 mt 5103  711 L
5103  711 mt 5124  771 L
5124  771 mt 5132  795 L
5132  795 mt 5162  879 L
5162  879 mt 5191  962 L
5191  962 mt 5221 1046 L
5221 1046 mt 5230 1072 L
5230 1072 mt 5251 1130 L
5251 1130 mt 5280 1214 L
5280 1214 mt 5310 1297 L
5310 1297 mt 5337 1373 L
5337 1373 mt 5339 1381 L
5339 1381 mt 5369 1465 L
5369 1465 mt 5399 1548 L
5399 1548 mt 5429 1632 L
5429 1632 mt 5443 1672 L
5443 1672 mt 5458 1716 L
5458 1716 mt 5488 1800 L
5488 1800 mt 5518 1883 L
5518 1883 mt 5548 1967 L
5548 1967 mt 5549 1971 L
5549 1971 mt 5578 2051 L
5578 2051 mt 5607 2135 L
5607 2135 mt 5637 2218 L
5637 2218 mt 5655 2269 L
5655 2269 mt 5667 2302 L
5667 2302 mt 5697 2386 L
5697 2386 mt 5727 2469 L
5727 2469 mt 5757 2553 L
5757 2553 mt 5762 2566 L
5762 2566 mt 5787 2637 L
5787 2637 mt 5817 2721 L
5817 2721 mt 5847 2804 L
5847 2804 mt 5868 2863 L
5868 2863 mt 5877 2888 L
5877 2888 mt 5907 2972 L
5907 2972 mt 5937 3055 L
5937 3055 mt 5967 3139 L
5967 3139 mt 5974 3158 L
5974 3158 mt 5997 3223 L
5997 3223 mt 6028 3307 L
6028 3307 mt 6058 3390 L
6058 3390 mt 6081 3453 L
/c42 { 1.000000 0.250000 0.000000 sr} bdef
c42
5102  377 mt 5124  440 L
5124  440 mt 5131  460 L
5131  460 mt 5160  544 L
5160  544 mt 5190  628 L
5190  628 mt 5219  711 L
5219  711 mt 5230  743 L
5230  743 mt 5249  795 L
5249  795 mt 5278  879 L
5278  879 mt 5308  962 L
5308  962 mt 5337 1045 L
5337 1045 mt 5337 1046 L
5337 1046 mt 5367 1130 L
5367 1130 mt 5396 1214 L
5396 1214 mt 5426 1297 L
5426 1297 mt 5443 1346 L
5443 1346 mt 5455 1381 L
5455 1381 mt 5485 1465 L
5485 1465 mt 5515 1548 L
5515 1548 mt 5544 1632 L
5544 1632 mt 5549 1646 L
5549 1646 mt 5574 1716 L
5574 1716 mt 5604 1800 L
5604 1800 mt 5633 1883 L
5633 1883 mt 5655 1945 L
5655 1945 mt 5663 1967 L
5663 1967 mt 5693 2051 L
5693 2051 mt 5723 2135 L
5723 2135 mt 5753 2218 L
5753 2218 mt 5762 2244 L
5762 2244 mt 5782 2302 L
5782 2302 mt 5812 2386 L
5812 2386 mt 5842 2469 L
5842 2469 mt 5868 2541 L
5868 2541 mt 5872 2553 L
5872 2553 mt 5902 2637 L
5902 2637 mt 5932 2721 L
5932 2721 mt 5962 2804 L
5962 2804 mt 5974 2838 L
5974 2838 mt 5992 2888 L
5992 2888 mt 6022 2972 L
6022 2972 mt 6052 3055 L
6052 3055 mt 6081 3135 L
/c43 { 1.000000 0.125000 0.000000 sr} bdef
c43
5218  377 mt 5230  412 L
5230  412 mt 5247  460 L
5247  460 mt 5277  544 L
5277  544 mt 5306  628 L
5306  628 mt 5335  711 L
5335  711 mt 5337  715 L
5337  715 mt 5365  795 L
5365  795 mt 5394  879 L
5394  879 mt 5424  962 L
5424  962 mt 5443 1017 L
5443 1017 mt 5453 1046 L
5453 1046 mt 5482 1130 L
5482 1130 mt 5512 1214 L
5512 1214 mt 5542 1297 L
5542 1297 mt 5549 1319 L
5549 1319 mt 5571 1381 L
5571 1381 mt 5601 1465 L
5601 1465 mt 5630 1548 L
5630 1548 mt 5655 1619 L
5655 1619 mt 5660 1632 L
5660 1632 mt 5689 1716 L
5689 1716 mt 5719 1800 L
5719 1800 mt 5749 1883 L
5749 1883 mt 5762 1919 L
5762 1919 mt 5779 1967 L
5779 1967 mt 5808 2051 L
5808 2051 mt 5838 2135 L
5838 2135 mt 5868 2218 L
5868 2218 mt 5868 2219 L
5868 2219 mt 5869 2223 L
5921 2367 mt 5927 2386 L
5927 2386 mt 5957 2469 L
5957 2469 mt 5974 2517 L
5974 2517 mt 5987 2553 L
5987 2553 mt 6017 2637 L
6017 2637 mt 6047 2721 L
6047 2721 mt 6077 2804 L
6077 2804 mt 6081 2815 L
/c44 { 1.000000 0.062500 0.000000 sr} bdef
c44
5334  377 mt 5337  383 L
5337  383 mt 5363  460 L
5363  460 mt 5393  544 L
5393  544 mt 5422  628 L
5422  628 mt 5443  687 L
5443  687 mt 5451  711 L
5451  711 mt 5481  795 L
5481  795 mt 5510  879 L
5510  879 mt 5539  962 L
5539  962 mt 5549  990 L
5549  990 mt 5569 1046 L
5569 1046 mt 5598 1130 L
5598 1130 mt 5628 1214 L
5628 1214 mt 5655 1292 L
5655 1292 mt 5657 1297 L
5657 1297 mt 5687 1381 L
5687 1381 mt 5716 1465 L
5716 1465 mt 5746 1548 L
5746 1548 mt 5762 1593 L
5762 1593 mt 5775 1632 L
5775 1632 mt 5805 1716 L
5805 1716 mt 5835 1800 L
5835 1800 mt 5864 1883 L
5864 1883 mt 5868 1894 L
5868 1894 mt 5894 1967 L
5894 1967 mt 5923 2051 L
5923 2051 mt 5953 2135 L
5953 2135 mt 5974 2194 L
5974 2194 mt 5983 2218 L
5983 2218 mt 6013 2302 L
6013 2302 mt 6042 2386 L
6042 2386 mt 6072 2469 L
6072 2469 mt 6081 2493 L
/c45 { 0.937500 0.000000 0.000000 sr} bdef
c45
5450  377 mt 5479  460 L
5479  460 mt 5509  544 L
5509  544 mt 5538  628 L
5538  628 mt 5549  659 L
5549  659 mt 5567  711 L
5567  711 mt 5597  795 L
5597  795 mt 5626  879 L
5626  879 mt 5655  962 L
5655  962 mt 5655  963 L
5655  963 mt 5685 1046 L
5685 1046 mt 5714 1130 L
5714 1130 mt 5743 1214 L
5743 1214 mt 5762 1266 L
5762 1266 mt 5773 1297 L
5773 1297 mt 5802 1381 L
5802 1381 mt 5832 1465 L
5832 1465 mt 5861 1548 L
5861 1548 mt 5868 1568 L
5868 1568 mt 5891 1632 L
5891 1632 mt 5920 1716 L
5920 1716 mt 5950 1800 L
5950 1800 mt 5974 1869 L
5974 1869 mt 5979 1883 L
5979 1883 mt 6009 1967 L
6009 1967 mt 6039 2051 L
6039 2051 mt 6068 2135 L
6068 2135 mt 6081 2169 L
/c46 { 0.875000 0.000000 0.000000 sr} bdef
c46
5566  377 mt 5596  460 L
5596  460 mt 5625  544 L
5625  544 mt 5654  628 L
5654  628 mt 5655  632 L
5655  632 mt 5683  711 L
5683  711 mt 5712  795 L
5712  795 mt 5742  879 L
5742  879 mt 5762  936 L
5762  936 mt 5771  962 L
5771  962 mt 5800 1046 L
5800 1046 mt 5830 1130 L
5830 1130 mt 5859 1214 L
5859 1214 mt 5868 1239 L
5868 1239 mt 5888 1297 L
5888 1297 mt 5918 1381 L
5918 1381 mt 5947 1465 L
5947 1465 mt 5974 1542 L
5974 1542 mt 5977 1548 L
5977 1548 mt 6006 1632 L
6006 1632 mt 6036 1716 L
6036 1716 mt 6065 1800 L
6065 1800 mt 6081 1843 L
/c47 { 0.750000 0.000000 0.000000 sr} bdef
c47
5682  377 mt 5711  460 L
5711  460 mt 5741  544 L
5741  544 mt 5762  604 L
5762  604 mt 5770  628 L
5770  628 mt 5799  711 L
5799  711 mt 5828  795 L
5828  795 mt 5857  879 L
5857  879 mt 5868  909 L
5868  909 mt 5887  962 L
5887  962 mt 5916 1046 L
5916 1046 mt 5945 1130 L
5945 1130 mt 5957 1164 L
6008 1309 mt 6033 1381 L
6033 1381 mt 6063 1465 L
6063 1465 mt 6081 1516 L
/c48 { 0.687500 0.000000 0.000000 sr} bdef
c48
5798  377 mt 5827  460 L
5827  460 mt 5857  544 L
5857  544 mt 5868  577 L
5868  577 mt 5886  628 L
5886  628 mt 5915  711 L
5915  711 mt 5944  795 L
5944  795 mt 5973  879 L
5973  879 mt 5974  882 L
5974  882 mt 6002  962 L
6002  962 mt 6031 1046 L
6031 1046 mt 6061 1130 L
6061 1130 mt 6081 1187 L
/c49 { 0.562500 0.000000 0.000000 sr} bdef
c49
5914  377 mt 5943  460 L
5943  460 mt 5972  544 L
5972  544 mt 5974  549 L
5974  549 mt 6001  628 L
6001  628 mt 6031  711 L
6031  711 mt 6060  795 L
6060  795 mt 6081  855 L
/c50 { 0.500000 0.000000 0.000000 sr} bdef
c50
6030  377 mt 6059  460 L
6059  460 mt 6081  521 L
0 sg
%%IncludeResource: font Helvetica
/Helvetica /ISOLatin1Encoding 120 FMSR

 857 4199 mt  -288 rotate
(6) s
288 rotate
1241  960 mt  -296 rotate
(6) s
296 rotate
2935 3669 mt  -290 rotate
(7) s
290 rotate
3483 3669 mt  -290 rotate
(8) s
290 rotate
3993 3670 mt  -290 rotate
(9) s
290 rotate
4456 3604 mt  -290 rotate
(10) s
290 rotate
4932 3604 mt  -290 rotate
(11) s
290 rotate
5399 3603 mt  -290 rotate
(12) s
290 rotate
5745 3283 mt  -289 rotate
(13) s
289 rotate
5833 2246 mt  -289 rotate
(14) s
289 rotate
5920 1188 mt  -289 rotate
(15) s
289 rotate
gr

0 sg
%%IncludeResource: font Symbol
/Symbol /ISOLatin1Encoding 120 FMSR

3371 4736 mt 
(f) s
%%IncludeResource: font Symbol
/Symbol /ISOLatin1Encoding 96 FMSR

3433 4796 mt 
(D) s
%%IncludeResource: font Helvetica
/Helvetica /ISOLatin1Encoding 96 FMSR

3491 4796 mt 
( Y) s
%%IncludeResource: font Symbol
/Symbol /ISOLatin1Encoding 120 FMSR

 529 2534 mt  -90 rotate
(f) s
90 rotate
%%IncludeResource: font Symbol
/Symbol /ISOLatin1Encoding 96 FMSR

 589 2472 mt  -90 rotate
(D) s
90 rotate
%%IncludeResource: font Helvetica
/Helvetica /ISOLatin1Encoding 96 FMSR

 589 2414 mt  -90 rotate
( V) s
90 rotate
%%IncludeResource: font Helvetica
/Helvetica /ISOLatin1Encoding 120 FMSR

3369  282 mt 
(loss) s
gs 873 377 5209 4103 rc
24 w
DA
1082 4479 mt 1059 4395 L
1059 4395 mt 1034 4311 L
1034 4311 mt 1005 4227 L
1005 4227 mt  979 4161 L
 979 4161 mt  975 4144 L
 975 4144 mt  954 4060 L
 954 4060 mt  929 3976 L
 929 3976 mt  900 3893 L
 900 3893 mt  873 3824 L
2351 4479 mt 2319 4395 L
2319 4395 mt 2288 4311 L
2288 4311 mt 2257 4227 L
2257 4227 mt 2254 4219 L
2254 4219 mt 2225 4144 L
2225 4144 mt 2193 4060 L
2193 4060 mt 2163 3976 L
2163 3976 mt 2148 3936 L
2148 3936 mt 2131 3893 L
2131 3893 mt 2099 3809 L
2099 3809 mt 2068 3725 L
2068 3725 mt 2042 3653 L
2042 3653 mt 2037 3641 L
2037 3641 mt 2005 3558 L
2005 3558 mt 1973 3474 L
1973 3474 mt 1943 3390 L
1943 3390 mt 1935 3370 L
1935 3370 mt 1911 3307 L
1911 3307 mt 1879 3223 L
1879 3223 mt 1848 3139 L
1848 3139 mt 1829 3089 L
1829 3089 mt 1816 3055 L
1816 3055 mt 1784 2972 L
1784 2972 mt 1752 2888 L
1752 2888 mt 1723 2809 L
1723 2809 mt 1721 2804 L
1721 2804 mt 1688 2721 L
1688 2721 mt 1656 2637 L
1656 2637 mt 1624 2553 L
1624 2553 mt 1617 2532 L
1617 2532 mt 1591 2469 L
1591 2469 mt 1558 2386 L
1558 2386 mt 1526 2302 L
1526 2302 mt 1510 2261 L
1510 2261 mt 1493 2218 L
1493 2218 mt 1459 2135 L
1459 2135 mt 1425 2051 L
1425 2051 mt 1404 1998 L
1404 1998 mt 1391 1967 L
1391 1967 mt 1354 1883 L
1354 1883 mt 1318 1800 L
1318 1800 mt 1298 1751 L
1298 1751 mt 1281 1716 L
1281 1716 mt 1240 1632 L
1240 1632 mt 1199 1548 L
1199 1548 mt 1191 1532 L
1191 1532 mt 1147 1465 L
1147 1465 mt 1092 1381 L
1092 1381 mt 1085 1371 L
1085 1371 mt  979 1334 L
 979 1334 mt  964 1381 L
 964 1381 mt  934 1465 L
 934 1465 mt  900 1548 L
 900 1548 mt  873 1609 L
gr

24 w
DA
4 w
DO
SO
6 w
 873 4479 mt 6081 4479 L
 873  377 mt 6081  377 L
 873 4479 mt  873  377 L
6081 4479 mt 6081  377 L
 873 4479 mt 6081 4479 L
 873 4479 mt  873  377 L
 873 4479 mt  873 4426 L
 873  377 mt  873  429 L
 840 4624 mt 
(0) s
1393 4479 mt 1393 4426 L
1393  377 mt 1393  429 L
1310 4624 mt 
(0.5) s
1914 4479 mt 1914 4426 L
1914  377 mt 1914  429 L
1881 4624 mt 
(1) s
2435 4479 mt 2435 4426 L
2435  377 mt 2435  429 L
2352 4624 mt 
(1.5) s
2956 4479 mt 2956 4426 L
2956  377 mt 2956  429 L
2923 4624 mt 
(2) s
3477 4479 mt 3477 4426 L
3477  377 mt 3477  429 L
3394 4624 mt 
(2.5) s
3997 4479 mt 3997 4426 L
3997  377 mt 3997  429 L
3964 4624 mt 
(3) s
4518 4479 mt 4518 4426 L
4518  377 mt 4518  429 L
4435 4624 mt 
(3.5) s
5039 4479 mt 5039 4426 L
5039  377 mt 5039  429 L
5006 4624 mt 
(4) s
5560 4479 mt 5560 4426 L
5560  377 mt 5560  429 L
5477 4624 mt 
(4.5) s
6081 4479 mt 6081 4426 L
6081  377 mt 6081  429 L
6048 4624 mt 
(5) s
 873 4479 mt  925 4479 L
6081 4479 mt 6028 4479 L
 772 4523 mt 
(0) s
 873 4068 mt  925 4068 L
6081 4068 mt 6028 4068 L
 672 4112 mt 
(0.5) s
 873 3658 mt  925 3658 L
6081 3658 mt 6028 3658 L
 772 3702 mt 
(1) s
 873 3248 mt  925 3248 L
6081 3248 mt 6028 3248 L
 672 3292 mt 
(1.5) s
 873 2838 mt  925 2838 L
6081 2838 mt 6028 2838 L
 772 2882 mt 
(2) s
 873 2428 mt  925 2428 L
6081 2428 mt 6028 2428 L
 672 2472 mt 
(2.5) s
 873 2017 mt  925 2017 L
6081 2017 mt 6028 2017 L
 772 2061 mt 
(3) s
 873 1607 mt  925 1607 L
6081 1607 mt 6028 1607 L
 672 1651 mt 
(3.5) s
 873 1197 mt  925 1197 L
6081 1197 mt 6028 1197 L
 772 1241 mt 
(4) s
 873  787 mt  925  787 L
6081  787 mt 6028  787 L
 672  831 mt 
(4.5) s
 873  377 mt  925  377 L
6081  377 mt 6028  377 L
 772  421 mt 
(5) s
 873 4479 mt 6081 4479 L
 873  377 mt 6081  377 L
 873 4479 mt  873  377 L
6081 4479 mt 6081  377 L

end %%Color Dict

eplot
%%EndObject

epage
end

showpage

%%Trailer
%%EOF
