%!PS-Adobe-3.0 EPSF-3.0
%%Creator: MATLAB, The MathWorks, Inc. Version 7.14.0.739 (R2012a). Operating System: Darwin 13.0.0 Darwin Kernel Version 13.0.0: Thu Sep 19 22:22:27 PDT 2013; root:xnu-2422.1.72~6/RELEASE_X86_64 x86_64.
%%Title: /Users/fckw/Dropbox/PhD/finfric/paper/p_comparison.eps
%%CreationDate: 12/08/2013  00:59:06
%%DocumentNeededFonts: Helvetica
%%DocumentProcessColors: Cyan Magenta Yellow Black
%%LanguageLevel: 2
%%Pages: 1
%%BoundingBox:    26   186   585   606
%%EndComments

%%BeginProlog
% MathWorks dictionary
/MathWorks 160 dict begin
% definition operators
/bdef {bind def} bind def
/ldef {load def} bind def
/xdef {exch def} bdef
/xstore {exch store} bdef
% operator abbreviations
/c  /clip ldef
/cc /concat ldef
/cp /closepath ldef
/gr /grestore ldef
/gs /gsave ldef
/mt /moveto ldef
/np /newpath ldef
/cm /currentmatrix ldef
/sm /setmatrix ldef
/rm /rmoveto ldef
/rl /rlineto ldef
/s {show newpath} bdef
/sc {setcmykcolor} bdef
/sr /setrgbcolor ldef
/sg /setgray ldef
/w /setlinewidth ldef
/j /setlinejoin ldef
/cap /setlinecap ldef
/rc {rectclip} bdef
/rf {rectfill} bdef
% page state control
/pgsv () def
/bpage {/pgsv save def} bdef
/epage {pgsv restore} bdef
/bplot /gsave ldef
/eplot {stroke grestore} bdef
% orientation switch
/portraitMode 0 def /landscapeMode 1 def /rotateMode 2 def
% coordinate system mappings
/dpi2point 0 def
% font control
/FontSize 0 def
/FMS {/FontSize xstore findfont [FontSize 0 0 FontSize neg 0 0]
  makefont setfont} bdef
/reencode {exch dup where {pop load} {pop StandardEncoding} ifelse
  exch dup 3 1 roll findfont dup length dict begin
  { 1 index /FID ne {def}{pop pop} ifelse } forall
  /Encoding exch def currentdict end definefont pop} bdef
/isroman {findfont /CharStrings get /Agrave known} bdef
/FMSR {3 1 roll 1 index dup isroman {reencode} {pop pop} ifelse
  exch FMS} bdef
/csm {1 dpi2point div -1 dpi2point div scale neg translate
 dup landscapeMode eq {pop -90 rotate}
  {rotateMode eq {90 rotate} if} ifelse} bdef
% line types: solid, dotted, dashed, dotdash
/dom { dpi2point 1 currentlinewidth 0.08 mul add mul mul } bdef/dam { dpi2point 2 currentlinewidth 0.04 mul add mul mul } bdef/SO { [] 0 setdash 0 setlinecap } bdef/DO { [1 dom 1.2 dom] 0 setdash 0 setlinecap } bdef/DA { [4 dam 1.5 dam] 0 setdash 0 setlinecap } bdef/DD { [1 dom 1.2 dom 4 dam 1.2 dom] 0 setdash 0 setlinecap } bdef/GR { [0 dpi2point mul 4 dpi2point mul] 0 setdash 1 setlinecap } bdef% macros for lines and objects
/L {lineto stroke} bdef
/MP {3 1 roll moveto 1 sub {rlineto} repeat} bdef
/AP {{rlineto} repeat} bdef
/PDlw -1 def
/W {/PDlw currentlinewidth def setlinewidth} def
/PP {closepath eofill} bdef
/DP {closepath stroke} bdef
/MR {4 -2 roll moveto dup  0 exch rlineto exch 0 rlineto
  neg 0 exch rlineto closepath} bdef
/FR {MR stroke} bdef
/PR {MR fill} bdef
/L1i {{currentfile picstr readhexstring pop} image} bdef
/tMatrix matrix def
/MakeOval {newpath tMatrix currentmatrix pop translate scale
0 0 1 0 360 arc tMatrix setmatrix} bdef
/FO {MakeOval stroke} bdef
/PO {MakeOval fill} bdef
/PD {currentlinewidth 2 div 0 360 arc fill
   PDlw -1 eq not {PDlw w /PDlw -1 def} if} def
/FA {newpath tMatrix currentmatrix pop translate scale
  0 0 1 5 -2 roll arc tMatrix setmatrix stroke} bdef
/PA {newpath tMatrix currentmatrix pop	translate 0 0 moveto scale
  0 0 1 5 -2 roll arc closepath tMatrix setmatrix fill} bdef
/FAn {newpath tMatrix currentmatrix pop translate scale
  0 0 1 5 -2 roll arcn tMatrix setmatrix stroke} bdef
/PAn {newpath tMatrix currentmatrix pop translate 0 0 moveto scale
  0 0 1 5 -2 roll arcn closepath tMatrix setmatrix fill} bdef
/vradius 0 def /hradius 0 def /lry 0 def
/lrx 0 def /uly 0 def /ulx 0 def /rad 0 def
/MRR {/vradius xdef /hradius xdef /lry xdef /lrx xdef /uly xdef
  /ulx xdef newpath tMatrix currentmatrix pop ulx hradius add uly
  vradius add translate hradius vradius scale 0 0 1 180 270 arc 
  tMatrix setmatrix lrx hradius sub uly vradius add translate
  hradius vradius scale 0 0 1 270 360 arc tMatrix setmatrix
  lrx hradius sub lry vradius sub translate hradius vradius scale
  0 0 1 0 90 arc tMatrix setmatrix ulx hradius add lry vradius sub
  translate hradius vradius scale 0 0 1 90 180 arc tMatrix setmatrix
  closepath} bdef
/FRR {MRR stroke } bdef
/PRR {MRR fill } bdef
/MlrRR {/lry xdef /lrx xdef /uly xdef /ulx xdef /rad lry uly sub 2 div def
  newpath tMatrix currentmatrix pop ulx rad add uly rad add translate
  rad rad scale 0 0 1 90 270 arc tMatrix setmatrix lrx rad sub lry rad
  sub translate rad rad scale 0 0 1 270 90 arc tMatrix setmatrix
  closepath} bdef
/FlrRR {MlrRR stroke } bdef
/PlrRR {MlrRR fill } bdef
/MtbRR {/lry xdef /lrx xdef /uly xdef /ulx xdef /rad lrx ulx sub 2 div def
  newpath tMatrix currentmatrix pop ulx rad add uly rad add translate
  rad rad scale 0 0 1 180 360 arc tMatrix setmatrix lrx rad sub lry rad
  sub translate rad rad scale 0 0 1 0 180 arc tMatrix setmatrix
  closepath} bdef
/FtbRR {MtbRR stroke } bdef
/PtbRR {MtbRR fill } bdef
/stri 6 array def /dtri 6 array def
/smat 6 array def /dmat 6 array def
/tmat1 6 array def /tmat2 6 array def /dif 3 array def
/asub {/ind2 exch def /ind1 exch def dup dup
  ind1 get exch ind2 get sub exch } bdef
/tri_to_matrix {
  2 0 asub 3 1 asub 4 0 asub 5 1 asub
  dup 0 get exch 1 get 7 -1 roll astore } bdef
/compute_transform {
  dmat dtri tri_to_matrix tmat1 invertmatrix 
  smat stri tri_to_matrix tmat2 concatmatrix } bdef
/ds {stri astore pop} bdef
/dt {dtri astore pop} bdef
/db {2 copy /cols xdef /rows xdef mul dup 3 mul string
  currentfile 
  3 index 0 eq {/ASCIIHexDecode filter}
  {/ASCII85Decode filter 3 index 2 eq {/RunLengthDecode filter} if }
  ifelse exch readstring pop
  dup 0 3 index getinterval /rbmap xdef
  dup 2 index dup getinterval /gbmap xdef
  1 index dup 2 mul exch getinterval /bbmap xdef pop pop}bdef
/it {gs np dtri aload pop moveto lineto lineto cp c
  cols rows 8 compute_transform 
  rbmap gbmap bbmap true 3 colorimage gr}bdef
/il {newpath moveto lineto stroke}bdef
currentdict end def
%%EndProlog

%%BeginSetup
MathWorks begin

0 cap

end
%%EndSetup

%%Page: 1 1
%%BeginPageSetup
%%PageBoundingBox:    26   186   585   606
MathWorks begin
bpage
%%EndPageSetup

%%BeginObject: obj1
bplot

/dpi2point 12 def
portraitMode 0312 7272 csm

    0     0  6719  5033 rc
85 dict begin %Colortable dictionary
/c0 { 0.000000 0.000000 0.000000 sr} bdef
/c1 { 1.000000 1.000000 1.000000 sr} bdef
/c2 { 0.900000 0.000000 0.000000 sr} bdef
/c3 { 0.000000 0.820000 0.000000 sr} bdef
/c4 { 0.000000 0.000000 0.800000 sr} bdef
/c5 { 0.910000 0.820000 0.320000 sr} bdef
/c6 { 1.000000 0.260000 0.820000 sr} bdef
/c7 { 0.000000 0.820000 0.820000 sr} bdef
c0
1 j
1 sg
   0    0 6720 5034 rf
6 w
0 4102 5208 0 0 -4102 873 4479 4 MP
PP
-5208 0 0 4102 5208 0 0 -4102 873 4479 5 MP stroke
4 w
DO
6 w
SO
0 sg
 873 4479 mt 6081 4479 L
 873  377 mt 6081  377 L
 873 4479 mt  873  377 L
6081 4479 mt 6081  377 L
 873 4479 mt 6081 4479 L
 873 4479 mt  873  377 L
 873 4479 mt  873 4426 L
 873  377 mt  873  429 L
%%IncludeResource: font Helvetica
/Helvetica /ISOLatin1Encoding 120 FMSR

 840 4624 mt 
(0) s
1524 4479 mt 1524 4426 L
1524  377 mt 1524  429 L
1491 4624 mt 
(5) s
2175 4479 mt 2175 4426 L
2175  377 mt 2175  429 L
2109 4624 mt 
(10) s
2826 4479 mt 2826 4426 L
2826  377 mt 2826  429 L
2760 4624 mt 
(15) s
3477 4479 mt 3477 4426 L
3477  377 mt 3477  429 L
3411 4624 mt 
(20) s
4128 4479 mt 4128 4426 L
4128  377 mt 4128  429 L
4062 4624 mt 
(25) s
4779 4479 mt 4779 4426 L
4779  377 mt 4779  429 L
4713 4624 mt 
(30) s
5430 4479 mt 5430 4426 L
5430  377 mt 5430  429 L
5364 4624 mt 
(35) s
6081 4479 mt 6081 4426 L
6081  377 mt 6081  429 L
6015 4624 mt 
(40) s
 873 4479 mt  925 4479 L
6081 4479 mt 6028 4479 L
 702 4523 mt 
(-1) s
 873 3966 mt  925 3966 L
6081 3966 mt 6028 3966 L
 772 4010 mt 
(0) s
 873 3453 mt  925 3453 L
6081 3453 mt 6028 3453 L
 772 3497 mt 
(1) s
 873 2940 mt  925 2940 L
6081 2940 mt 6028 2940 L
 772 2984 mt 
(2) s
 873 2428 mt  925 2428 L
6081 2428 mt 6028 2428 L
 772 2472 mt 
(3) s
 873 1915 mt  925 1915 L
6081 1915 mt 6028 1915 L
 772 1959 mt 
(4) s
 873 1402 mt  925 1402 L
6081 1402 mt 6028 1402 L
 772 1446 mt 
(5) s
 873  889 mt  925  889 L
6081  889 mt 6028  889 L
 772  933 mt 
(6) s
 873  377 mt  925  377 L
6081  377 mt 6028  377 L
 772  421 mt 
(7) s
 873 4479 mt 6081 4479 L
 873  377 mt 6081  377 L
 873 4479 mt  873  377 L
6081 4479 mt 6081  377 L
gs 873 377 5209 4103 rc
/c8 { 1.000000 0.000000 0.000000 sr} bdef
c8
131 122 130 130 130 139 130 146 130 155 131 162 130 168 130 174 
130 178 130 182 131 184 130 185 130 184 130 181 130 177 131 169 
130 160 130 148 130 134 130 116 131 96 130 72 130 46 130 17 
130 -15 131 -50 130 -86 130 -124 130 -164 130 -201 131 -239 130 -271 
130 -300 130 -318 130 -327 131 -318 130 -289 130 -237 130 -161 1003 3966 40 MP stroke
DA
/c9 { 0.000000 0.000000 1.000000 sr} bdef
c9
131 3 130 3 130 4 130 3 130 4 131 4 130 4 130 3 
130 4 130 4 131 4 130 4 130 4 130 4 130 4 131 5 
130 4 130 4 130 4 130 4 131 4 130 4 130 3 130 4 
130 4 131 3 130 4 130 3 130 3 130 3 131 2 130 2 
130 2 130 2 130 1 131 1 130 0 130 0 130 -159 1003 3966 40 MP stroke
DD
131 47 130 46 130 45 130 45 130 44 131 43 130 41 130 41 
130 38 130 37 131 35 130 32 130 29 130 26 130 23 131 19 
130 15 130 10 130 4 130 0 131 -7 130 -13 130 -21 130 -28 
130 -37 131 -46 130 -56 130 -65 130 -77 130 -88 131 -101 130 -112 
130 -124 130 -134 130 -144 131 -149 130 -151 130 -149 130 -162 1003 3966 40 MP stroke
gr

c9
DD
0 sg
2604  282 mt 
(Counterfactual IRF: stock price V) s
 832 4546 mt 
( ) s
6041  443 mt 
( ) s
SO
1 sg
0 563 2229 0 0 -563 3663 1069 4 MP
PP
-2229 0 0 563 2229 0 0 -563 3663 1069 5 MP stroke
4 w
DO
6 w
SO
0 sg
3663 1069 mt 5892 1069 L
3663  506 mt 5892  506 L
3663 1069 mt 3663  506 L
5892 1069 mt 5892  506 L
3663 1069 mt 5892 1069 L
3663 1069 mt 3663  506 L
3663 1069 mt 5892 1069 L
3663  506 mt 5892  506 L
3663 1069 mt 3663  506 L
5892 1069 mt 5892  506 L
4131  656 mt 
(learning) s
gs 3663 506 2230 564 rc
c8
360 0 3734 613 2 MP stroke
gr

c8
0 sg
4131  830 mt 
(RE) s
gs 3663 506 2230 564 rc
DA
c9
360 0 3734 787 2 MP stroke
SO
gr

c9
0 sg
4131 1004 mt 
(learning with RE dividend path) s
gs 3663 506 2230 564 rc
DD
c9
360 0 3734 961 2 MP stroke
SO
gr

c9

end %%Color Dict

eplot
%%EndObject

epage
end

showpage

%%Trailer
%%EOF
