%!PS-Adobe-3.0 EPSF-3.0
%%Creator: MATLAB, The Mathworks, Inc. Version 7.10.0.499 (R2010a). Operating System: Microsoft Windows 7.
%%Title: C:\Users\winklerh\Dropbox\PhD\finfric\paper\p_comparison_smu.eps
%%CreationDate: 09/23/2013  16:09:01
%%DocumentNeededFonts: Helvetica
%%DocumentProcessColors: Cyan Magenta Yellow Black
%%LanguageLevel: 2
%%Pages: 1
%%BoundingBox:    30   279   562   562
%%EndComments

%%BeginProlog
% MathWorks dictionary
/MathWorks 160 dict begin
% definition operators
/bdef {bind def} bind def
/ldef {load def} bind def
/xdef {exch def} bdef
/xstore {exch store} bdef
% operator abbreviations
/c  /clip ldef
/cc /concat ldef
/cp /closepath ldef
/gr /grestore ldef
/gs /gsave ldef
/mt /moveto ldef
/np /newpath ldef
/cm /currentmatrix ldef
/sm /setmatrix ldef
/rm /rmoveto ldef
/rl /rlineto ldef
/s {show newpath} bdef
/sc {setcmykcolor} bdef
/sr /setrgbcolor ldef
/sg /setgray ldef
/w /setlinewidth ldef
/j /setlinejoin ldef
/cap /setlinecap ldef
/rc {rectclip} bdef
/rf {rectfill} bdef
% page state control
/pgsv () def
/bpage {/pgsv save def} bdef
/epage {pgsv restore} bdef
/bplot /gsave ldef
/eplot {stroke grestore} bdef
% orientation switch
/portraitMode 0 def /landscapeMode 1 def /rotateMode 2 def
% coordinate system mappings
/dpi2point 0 def
% font control
/FontSize 0 def
/FMS {/FontSize xstore findfont [FontSize 0 0 FontSize neg 0 0]
  makefont setfont} bdef
/ISOLatin1Encoding where {pop /WindowsLatin1Encoding 256 array bdef
ISOLatin1Encoding WindowsLatin1Encoding copy pop
/.notdef/.notdef/quotesinglbase/florin/quotedblbase/ellipsis/dagger
/daggerdbl/circumflex/perthousand/Scaron/guilsinglleft/OE/.notdef/.notdef
/.notdef/.notdef/quoteleft/quoteright/quotedblleft/quotedblright/bullet
/endash/emdash/tilde/trademark/scaron/guilsinglright/oe/.notdef/.notdef
/Ydieresis WindowsLatin1Encoding 128 32 getinterval astore pop}
{/WindowsLatin1Encoding StandardEncoding bdef} ifelse
/reencode {exch dup where {pop load} {pop StandardEncoding} ifelse
  exch dup 3 1 roll findfont dup length dict begin
  { 1 index /FID ne {def}{pop pop} ifelse } forall
  /Encoding exch def currentdict end definefont pop} bdef
/isroman {findfont /CharStrings get /Agrave known} bdef
/FMSR {3 1 roll 1 index dup isroman {reencode} {pop pop} ifelse
  exch FMS} bdef
/csm {1 dpi2point div -1 dpi2point div scale neg translate
 dup landscapeMode eq {pop -90 rotate}
  {rotateMode eq {90 rotate} if} ifelse} bdef
% line types: solid, dotted, dashed, dotdash
/SO { [] 0 setdash } bdef
/DO { [.5 dpi2point mul 4 dpi2point mul] 0 setdash } bdef
/DA { [6 dpi2point mul] 0 setdash } bdef
/DD { [.5 dpi2point mul 4 dpi2point mul 6 dpi2point mul 4
  dpi2point mul] 0 setdash } bdef
% macros for lines and objects
/L {lineto stroke} bdef
/MP {3 1 roll moveto 1 sub {rlineto} repeat} bdef
/AP {{rlineto} repeat} bdef
/PDlw -1 def
/W {/PDlw currentlinewidth def setlinewidth} def
/PP {closepath eofill} bdef
/DP {closepath stroke} bdef
/MR {4 -2 roll moveto dup  0 exch rlineto exch 0 rlineto
  neg 0 exch rlineto closepath} bdef
/FR {MR stroke} bdef
/PR {MR fill} bdef
/L1i {{currentfile picstr readhexstring pop} image} bdef
/tMatrix matrix def
/MakeOval {newpath tMatrix currentmatrix pop translate scale
0 0 1 0 360 arc tMatrix setmatrix} bdef
/FO {MakeOval stroke} bdef
/PO {MakeOval fill} bdef
/PD {currentlinewidth 2 div 0 360 arc fill
   PDlw -1 eq not {PDlw w /PDlw -1 def} if} def
/FA {newpath tMatrix currentmatrix pop translate scale
  0 0 1 5 -2 roll arc tMatrix setmatrix stroke} bdef
/PA {newpath tMatrix currentmatrix pop	translate 0 0 moveto scale
  0 0 1 5 -2 roll arc closepath tMatrix setmatrix fill} bdef
/FAn {newpath tMatrix currentmatrix pop translate scale
  0 0 1 5 -2 roll arcn tMatrix setmatrix stroke} bdef
/PAn {newpath tMatrix currentmatrix pop translate 0 0 moveto scale
  0 0 1 5 -2 roll arcn closepath tMatrix setmatrix fill} bdef
/vradius 0 def /hradius 0 def /lry 0 def
/lrx 0 def /uly 0 def /ulx 0 def /rad 0 def
/MRR {/vradius xdef /hradius xdef /lry xdef /lrx xdef /uly xdef
  /ulx xdef newpath tMatrix currentmatrix pop ulx hradius add uly
  vradius add translate hradius vradius scale 0 0 1 180 270 arc 
  tMatrix setmatrix lrx hradius sub uly vradius add translate
  hradius vradius scale 0 0 1 270 360 arc tMatrix setmatrix
  lrx hradius sub lry vradius sub translate hradius vradius scale
  0 0 1 0 90 arc tMatrix setmatrix ulx hradius add lry vradius sub
  translate hradius vradius scale 0 0 1 90 180 arc tMatrix setmatrix
  closepath} bdef
/FRR {MRR stroke } bdef
/PRR {MRR fill } bdef
/MlrRR {/lry xdef /lrx xdef /uly xdef /ulx xdef /rad lry uly sub 2 div def
  newpath tMatrix currentmatrix pop ulx rad add uly rad add translate
  rad rad scale 0 0 1 90 270 arc tMatrix setmatrix lrx rad sub lry rad
  sub translate rad rad scale 0 0 1 270 90 arc tMatrix setmatrix
  closepath} bdef
/FlrRR {MlrRR stroke } bdef
/PlrRR {MlrRR fill } bdef
/MtbRR {/lry xdef /lrx xdef /uly xdef /ulx xdef /rad lrx ulx sub 2 div def
  newpath tMatrix currentmatrix pop ulx rad add uly rad add translate
  rad rad scale 0 0 1 180 360 arc tMatrix setmatrix lrx rad sub lry rad
  sub translate rad rad scale 0 0 1 0 180 arc tMatrix setmatrix
  closepath} bdef
/FtbRR {MtbRR stroke } bdef
/PtbRR {MtbRR fill } bdef
/stri 6 array def /dtri 6 array def
/smat 6 array def /dmat 6 array def
/tmat1 6 array def /tmat2 6 array def /dif 3 array def
/asub {/ind2 exch def /ind1 exch def dup dup
  ind1 get exch ind2 get sub exch } bdef
/tri_to_matrix {
  2 0 asub 3 1 asub 4 0 asub 5 1 asub
  dup 0 get exch 1 get 7 -1 roll astore } bdef
/compute_transform {
  dmat dtri tri_to_matrix tmat1 invertmatrix 
  smat stri tri_to_matrix tmat2 concatmatrix } bdef
/ds {stri astore pop} bdef
/dt {dtri astore pop} bdef
/db {2 copy /cols xdef /rows xdef mul dup 3 mul string
  currentfile 
  3 index 0 eq {/ASCIIHexDecode filter}
  {/ASCII85Decode filter 3 index 2 eq {/RunLengthDecode filter} if }
  ifelse exch readstring pop
  dup 0 3 index getinterval /rbmap xdef
  dup 2 index dup getinterval /gbmap xdef
  1 index dup 2 mul exch getinterval /bbmap xdef pop pop}bdef
/it {gs np dtri aload pop moveto lineto lineto cp c
  cols rows 8 compute_transform 
  rbmap gbmap bbmap true 3 colorimage gr}bdef
/il {newpath moveto lineto stroke}bdef
currentdict end def
%%EndProlog

%%BeginSetup
MathWorks begin

0 cap

end
%%EndSetup

%%Page: 1 1
%%BeginPageSetup
%%PageBoundingBox:    30   279   562   562
MathWorks begin
bpage
%%EndPageSetup

%%BeginObject: obj1
bplot

/dpi2point 12 def
portraitMode 0360 6744 csm

    0     0  6395  3395 rc
85 dict begin %Colortable dictionary
/c0 { 0.000000 0.000000 0.000000 sr} bdef
/c1 { 1.000000 1.000000 1.000000 sr} bdef
/c2 { 0.900000 0.000000 0.000000 sr} bdef
/c3 { 0.000000 0.820000 0.000000 sr} bdef
/c4 { 0.000000 0.000000 0.800000 sr} bdef
/c5 { 0.910000 0.820000 0.320000 sr} bdef
/c6 { 1.000000 0.260000 0.820000 sr} bdef
/c7 { 0.000000 0.820000 0.820000 sr} bdef
c0
1 j
1 sg
   0    0 6396 3396 rf
6 w
0 2767 4956 0 0 -2767 831 3022 4 MP
PP
-4956 0 0 2767 4956 0 0 -2767 831 3022 5 MP stroke
4 w
DO
SO
6 w
0 sg
 831  255 mt 5787  255 L
 831 3022 mt 5787 3022 L
5787 3022 mt 5787  255 L
 831 3022 mt  831  255 L
 831 3022 mt 5787 3022 L
 831 3022 mt  831  255 L
 831 3022 mt  831 2972 L
 831  255 mt  831  304 L
%%IncludeResource: font Helvetica
/Helvetica /WindowsLatin1Encoding 120 FMSR

 798 3167 mt 
(0) s
1326 3022 mt 1326 2972 L
1326  255 mt 1326  304 L
1293 3167 mt 
(5) s
1822 3022 mt 1822 2972 L
1822  255 mt 1822  304 L
1756 3167 mt 
(10) s
2317 3022 mt 2317 2972 L
2317  255 mt 2317  304 L
2251 3167 mt 
(15) s
2813 3022 mt 2813 2972 L
2813  255 mt 2813  304 L
2747 3167 mt 
(20) s
3309 3022 mt 3309 2972 L
3309  255 mt 3309  304 L
3243 3167 mt 
(25) s
3804 3022 mt 3804 2972 L
3804  255 mt 3804  304 L
3738 3167 mt 
(30) s
4300 3022 mt 4300 2972 L
4300  255 mt 4300  304 L
4234 3167 mt 
(35) s
4795 3022 mt 4795 2972 L
4795  255 mt 4795  304 L
4729 3167 mt 
(40) s
5291 3022 mt 5291 2972 L
5291  255 mt 5291  304 L
5225 3167 mt 
(45) s
5787 3022 mt 5787 2972 L
5787  255 mt 5787  304 L
5721 3167 mt 
(50) s
 831 3022 mt  880 3022 L
5787 3022 mt 5737 3022 L
 730 3066 mt 
(0) s
 831 2560 mt  880 2560 L
5787 2560 mt 5737 2560 L
 630 2604 mt 
(0.5) s
 831 2099 mt  880 2099 L
5787 2099 mt 5737 2099 L
 730 2143 mt 
(1) s
 831 1638 mt  880 1638 L
5787 1638 mt 5737 1638 L
 630 1682 mt 
(1.5) s
 831 1177 mt  880 1177 L
5787 1177 mt 5737 1177 L
 730 1221 mt 
(2) s
 831  716 mt  880  716 L
5787  716 mt 5737  716 L
 630  760 mt 
(2.5) s
 831  255 mt  880  255 L
5787  255 mt 5737  255 L
 730  299 mt 
(3) s
 831  255 mt 5787  255 L
 831 3022 mt 5787 3022 L
5787 3022 mt 5787  255 L
 831 3022 mt  831  255 L
gs 831 255 4957 2768 rc
/c8 { 1.000000 0.000000 0.000000 sr} bdef
c8
100 67 99 70 99 73 99 76 99 80 99 82 99 84 99 88 
100 90 99 93 99 94 99 97 99 98 99 100 99 101 99 102 
100 102 99 102 99 102 99 100 99 98 99 96 99 93 99 88 
99 84 100 77 99 70 99 63 99 52 99 42 99 30 99 16 
99 1 100 -16 99 -34 99 -55 99 -76 99 -101 99 -124 99 -151 
99 -178 100 -204 99 -229 99 -252 99 -270 99 -282 99 -280 99 -264 
99 -223 930 3022 50 MP stroke
DA
/c9 { 0.000000 0.000000 1.000000 sr} bdef
c9
100 5 99 5 99 5 99 6 99 5 99 6 99 5 99 6 
100 6 99 6 99 6 99 6 99 6 99 7 99 6 99 7 
100 6 99 7 99 6 99 7 99 6 99 7 99 7 99 7 
99 6 100 7 99 6 99 7 99 6 99 7 99 6 99 6 
99 6 100 5 99 6 99 5 99 5 99 5 99 4 99 4 
99 3 100 3 99 3 99 2 99 1 99 1 99 0 99 -1 
99 -318 930 3022 50 MP stroke
DD
100 54 99 53 99 54 99 54 99 54 99 55 99 53 99 54 
100 53 99 53 99 52 99 51 99 50 99 48 99 48 99 45 
100 44 99 42 99 39 99 36 99 34 99 30 99 27 99 22 
99 19 100 13 99 9 99 2 99 -3 99 -10 99 -17 99 -25 
99 -33 100 -42 99 -51 99 -62 99 -73 99 -84 99 -98 99 -110 
99 -125 100 -140 99 -156 99 -172 99 -188 99 -205 99 -219 99 -232 
99 -238 930 3022 50 MP stroke
gr

c9
DD
0 sg
 796 3083 mt 
( ) s
5753  315 mt 
( ) s
SO
1 sg
0 546 2129 0 0 -546 1030 2257 4 MP
PP
-2129 0 0 546 2129 0 0 -546 1030 2257 5 MP stroke
4 w
DO
SO
6 w
0 sg
1030 1711 mt 3159 1711 L
1030 2257 mt 3159 2257 L
3159 2257 mt 3159 1711 L
1030 2257 mt 1030 1711 L
1030 2257 mt 3159 2257 L
1030 2257 mt 1030 1711 L
1030 1711 mt 3159 1711 L
1030 2257 mt 3159 2257 L
3159 2257 mt 3159 1711 L
1030 2257 mt 1030 1711 L
1509 1858 mt 
(learning) s
gs 1030 1711 2130 547 rc
c8
369 0 1103 1816 2 MP stroke
gr

c8
0 sg
1509 2027 mt 
(RE) s
gs 1030 1711 2130 547 rc
DA
c9
369 0 1103 1984 2 MP stroke
SO
gr

c9
0 sg
1509 2195 mt 
(learning with RE dividend path) s
gs 1030 1711 2130 547 rc
DD
c9
369 0 1103 2152 2 MP stroke
SO
gr

c9

end %%Color Dict

eplot
%%EndObject

epage
end

showpage

%%Trailer
%%EOF
