%!PS-Adobe-3.0 EPSF-3.0
%%Creator: MATLAB, The MathWorks, Inc. Version 7.14.0.739 (R2012a). Operating System: Darwin 12.4.0 Darwin Kernel Version 12.4.0: Wed May  1 17:57:12 PDT 2013; root:xnu-2050.24.15~1/RELEASE_X86_64 x86_64.
%%Title: /Users/fckw/Dropbox/PhD/finfric/p_comparison.eps
%%CreationDate: 07/14/2013  23:27:22
%%DocumentNeededFonts: Helvetica
%%DocumentProcessColors: Cyan Magenta Yellow Black
%%LanguageLevel: 2
%%Pages: 1
%%BoundingBox:    71   241   541   551
%%EndComments

%%BeginProlog
% MathWorks dictionary
/MathWorks 160 dict begin
% definition operators
/bdef {bind def} bind def
/ldef {load def} bind def
/xdef {exch def} bdef
/xstore {exch store} bdef
% operator abbreviations
/c  /clip ldef
/cc /concat ldef
/cp /closepath ldef
/gr /grestore ldef
/gs /gsave ldef
/mt /moveto ldef
/np /newpath ldef
/cm /currentmatrix ldef
/sm /setmatrix ldef
/rm /rmoveto ldef
/rl /rlineto ldef
/s {show newpath} bdef
/sc {setcmykcolor} bdef
/sr /setrgbcolor ldef
/sg /setgray ldef
/w /setlinewidth ldef
/j /setlinejoin ldef
/cap /setlinecap ldef
/rc {rectclip} bdef
/rf {rectfill} bdef
% page state control
/pgsv () def
/bpage {/pgsv save def} bdef
/epage {pgsv restore} bdef
/bplot /gsave ldef
/eplot {stroke grestore} bdef
% orientation switch
/portraitMode 0 def /landscapeMode 1 def /rotateMode 2 def
% coordinate system mappings
/dpi2point 0 def
% font control
/FontSize 0 def
/FMS {/FontSize xstore findfont [FontSize 0 0 FontSize neg 0 0]
  makefont setfont} bdef
/reencode {exch dup where {pop load} {pop StandardEncoding} ifelse
  exch dup 3 1 roll findfont dup length dict begin
  { 1 index /FID ne {def}{pop pop} ifelse } forall
  /Encoding exch def currentdict end definefont pop} bdef
/isroman {findfont /CharStrings get /Agrave known} bdef
/FMSR {3 1 roll 1 index dup isroman {reencode} {pop pop} ifelse
  exch FMS} bdef
/csm {1 dpi2point div -1 dpi2point div scale neg translate
 dup landscapeMode eq {pop -90 rotate}
  {rotateMode eq {90 rotate} if} ifelse} bdef
% line types: solid, dotted, dashed, dotdash
/SO { [] 0 setdash } bdef
/DO { [.5 dpi2point mul 4 dpi2point mul] 0 setdash } bdef
/DA { [6 dpi2point mul] 0 setdash } bdef
/DD { [.5 dpi2point mul 4 dpi2point mul 6 dpi2point mul 4
  dpi2point mul] 0 setdash } bdef
% macros for lines and objects
/L {lineto stroke} bdef
/MP {3 1 roll moveto 1 sub {rlineto} repeat} bdef
/AP {{rlineto} repeat} bdef
/PDlw -1 def
/W {/PDlw currentlinewidth def setlinewidth} def
/PP {closepath eofill} bdef
/DP {closepath stroke} bdef
/MR {4 -2 roll moveto dup  0 exch rlineto exch 0 rlineto
  neg 0 exch rlineto closepath} bdef
/FR {MR stroke} bdef
/PR {MR fill} bdef
/L1i {{currentfile picstr readhexstring pop} image} bdef
/tMatrix matrix def
/MakeOval {newpath tMatrix currentmatrix pop translate scale
0 0 1 0 360 arc tMatrix setmatrix} bdef
/FO {MakeOval stroke} bdef
/PO {MakeOval fill} bdef
/PD {currentlinewidth 2 div 0 360 arc fill
   PDlw -1 eq not {PDlw w /PDlw -1 def} if} def
/FA {newpath tMatrix currentmatrix pop translate scale
  0 0 1 5 -2 roll arc tMatrix setmatrix stroke} bdef
/PA {newpath tMatrix currentmatrix pop	translate 0 0 moveto scale
  0 0 1 5 -2 roll arc closepath tMatrix setmatrix fill} bdef
/FAn {newpath tMatrix currentmatrix pop translate scale
  0 0 1 5 -2 roll arcn tMatrix setmatrix stroke} bdef
/PAn {newpath tMatrix currentmatrix pop translate 0 0 moveto scale
  0 0 1 5 -2 roll arcn closepath tMatrix setmatrix fill} bdef
/vradius 0 def /hradius 0 def /lry 0 def
/lrx 0 def /uly 0 def /ulx 0 def /rad 0 def
/MRR {/vradius xdef /hradius xdef /lry xdef /lrx xdef /uly xdef
  /ulx xdef newpath tMatrix currentmatrix pop ulx hradius add uly
  vradius add translate hradius vradius scale 0 0 1 180 270 arc 
  tMatrix setmatrix lrx hradius sub uly vradius add translate
  hradius vradius scale 0 0 1 270 360 arc tMatrix setmatrix
  lrx hradius sub lry vradius sub translate hradius vradius scale
  0 0 1 0 90 arc tMatrix setmatrix ulx hradius add lry vradius sub
  translate hradius vradius scale 0 0 1 90 180 arc tMatrix setmatrix
  closepath} bdef
/FRR {MRR stroke } bdef
/PRR {MRR fill } bdef
/MlrRR {/lry xdef /lrx xdef /uly xdef /ulx xdef /rad lry uly sub 2 div def
  newpath tMatrix currentmatrix pop ulx rad add uly rad add translate
  rad rad scale 0 0 1 90 270 arc tMatrix setmatrix lrx rad sub lry rad
  sub translate rad rad scale 0 0 1 270 90 arc tMatrix setmatrix
  closepath} bdef
/FlrRR {MlrRR stroke } bdef
/PlrRR {MlrRR fill } bdef
/MtbRR {/lry xdef /lrx xdef /uly xdef /ulx xdef /rad lrx ulx sub 2 div def
  newpath tMatrix currentmatrix pop ulx rad add uly rad add translate
  rad rad scale 0 0 1 180 360 arc tMatrix setmatrix lrx rad sub lry rad
  sub translate rad rad scale 0 0 1 0 180 arc tMatrix setmatrix
  closepath} bdef
/FtbRR {MtbRR stroke } bdef
/PtbRR {MtbRR fill } bdef
/stri 6 array def /dtri 6 array def
/smat 6 array def /dmat 6 array def
/tmat1 6 array def /tmat2 6 array def /dif 3 array def
/asub {/ind2 exch def /ind1 exch def dup dup
  ind1 get exch ind2 get sub exch } bdef
/tri_to_matrix {
  2 0 asub 3 1 asub 4 0 asub 5 1 asub
  dup 0 get exch 1 get 7 -1 roll astore } bdef
/compute_transform {
  dmat dtri tri_to_matrix tmat1 invertmatrix 
  smat stri tri_to_matrix tmat2 concatmatrix } bdef
/ds {stri astore pop} bdef
/dt {dtri astore pop} bdef
/db {2 copy /cols xdef /rows xdef mul dup 3 mul string
  currentfile 
  3 index 0 eq {/ASCIIHexDecode filter}
  {/ASCII85Decode filter 3 index 2 eq {/RunLengthDecode filter} if }
  ifelse exch readstring pop
  dup 0 3 index getinterval /rbmap xdef
  dup 2 index dup getinterval /gbmap xdef
  1 index dup 2 mul exch getinterval /bbmap xdef pop pop}bdef
/it {gs np dtri aload pop moveto lineto lineto cp c
  cols rows 8 compute_transform 
  rbmap gbmap bbmap true 3 colorimage gr}bdef
/il {newpath moveto lineto stroke}bdef
currentdict end def
%%EndProlog

%%BeginSetup
MathWorks begin

0 cap

end
%%EndSetup

%%Page: 1 1
%%BeginPageSetup
%%PageBoundingBox:    71   241   541   551
MathWorks begin
bpage
%%EndPageSetup

%%BeginObject: obj1
bplot

/dpi2point 12 def
portraitMode 0852 6612 csm

    0     0  5640  3715 rc
85 dict begin %Colortable dictionary
/c0 { 0.000000 0.000000 0.000000 sr} bdef
/c1 { 1.000000 1.000000 1.000000 sr} bdef
/c2 { 0.900000 0.000000 0.000000 sr} bdef
/c3 { 0.000000 0.820000 0.000000 sr} bdef
/c4 { 0.000000 0.000000 0.800000 sr} bdef
/c5 { 0.910000 0.820000 0.320000 sr} bdef
/c6 { 1.000000 0.260000 0.820000 sr} bdef
/c7 { 0.000000 0.820000 0.820000 sr} bdef
c0
1 j
1 sg
   0    0 5641 3716 rf
6 w
0 3027 4371 0 0 -3027 733 3306 4 MP
PP
-4371 0 0 3027 4371 0 0 -3027 733 3306 5 MP stroke
4 w
DO
SO
6 w
0 sg
 733 3306 mt 5104 3306 L
 733  279 mt 5104  279 L
 733 3306 mt  733  279 L
5104 3306 mt 5104  279 L
 733 3306 mt 5104 3306 L
 733 3306 mt  733  279 L
 733 3306 mt  733 3262 L
 733  279 mt  733  322 L
%%IncludeResource: font Helvetica
/Helvetica /ISOLatin1Encoding 120 FMSR

 700 3451 mt 
(0) s
1170 3306 mt 1170 3262 L
1170  279 mt 1170  322 L
1137 3451 mt 
(5) s
1607 3306 mt 1607 3262 L
1607  279 mt 1607  322 L
1541 3451 mt 
(10) s
2044 3306 mt 2044 3262 L
2044  279 mt 2044  322 L
1978 3451 mt 
(15) s
2481 3306 mt 2481 3262 L
2481  279 mt 2481  322 L
2415 3451 mt 
(20) s
2918 3306 mt 2918 3262 L
2918  279 mt 2918  322 L
2852 3451 mt 
(25) s
3355 3306 mt 3355 3262 L
3355  279 mt 3355  322 L
3289 3451 mt 
(30) s
3792 3306 mt 3792 3262 L
3792  279 mt 3792  322 L
3726 3451 mt 
(35) s
4229 3306 mt 4229 3262 L
4229  279 mt 4229  322 L
4163 3451 mt 
(40) s
4666 3306 mt 4666 3262 L
4666  279 mt 4666  322 L
4600 3451 mt 
(45) s
5104 3306 mt 5104 3262 L
5104  279 mt 5104  322 L
5038 3451 mt 
(50) s
 733 3306 mt  776 3306 L
5104 3306 mt 5060 3306 L
 632 3350 mt 
(0) s
 733 2873 mt  776 2873 L
5104 2873 mt 5060 2873 L
 632 2917 mt 
(1) s
 733 2441 mt  776 2441 L
5104 2441 mt 5060 2441 L
 632 2485 mt 
(2) s
 733 2008 mt  776 2008 L
5104 2008 mt 5060 2008 L
 632 2052 mt 
(3) s
 733 1576 mt  776 1576 L
5104 1576 mt 5060 1576 L
 632 1620 mt 
(4) s
 733 1143 mt  776 1143 L
5104 1143 mt 5060 1143 L
 632 1187 mt 
(5) s
 733  711 mt  776  711 L
5104  711 mt 5060  711 L
 632  755 mt 
(6) s
 733  279 mt  776  279 L
5104  279 mt 5060  279 L
 632  323 mt 
(7) s
 733 3306 mt 5104 3306 L
 733  279 mt 5104  279 L
 733 3306 mt  733  279 L
5104 3306 mt 5104  279 L
gs 733 279 4372 3028 rc
DO
/c8 { 0.000000 0.000000 1.000000 sr} bdef
c8
88 1 87 2 88 2 87 2 88 2 87 2 87 2 88 1 
87 2 88 2 87 2 88 2 87 2 87 2 88 1 87 2 
88 2 87 2 87 2 88 1 87 2 88 2 87 1 88 2 
87 1 87 2 88 1 87 2 88 1 87 1 88 1 87 1 
87 1 88 1 87 1 88 0 87 1 87 0 88 0 87 0 
88 0 87 0 88 -1 87 0 87 -1 88 -2 87 -1 88 -1 
87 -176 820 3306 50 MP stroke
SO
/c9 { 1.000000 0.000000 0.000000 sr} bdef
c9
88 75 87 74 88 73 87 71 88 70 87 67 87 65 88 63 
87 59 88 57 87 53 88 49 87 45 87 41 88 35 87 31 
88 24 87 19 87 13 88 6 87 -2 88 -8 87 -17 88 -25 
87 -33 87 -42 88 -50 87 -60 88 -70 87 -79 88 -88 87 -98 
87 -107 88 -116 87 -124 88 -133 87 -140 87 -146 88 -151 87 -154 
88 -156 87 -155 88 -152 87 -145 87 -135 88 -121 87 -100 88 -73 
87 -41 820 3306 50 MP stroke
DA
0 sg
88 45 87 45 88 44 87 45 88 44 87 44 87 43 88 42 
87 41 88 40 87 38 88 36 87 34 87 32 88 29 87 26 
88 22 87 19 87 14 88 10 87 5 88 0 87 -6 88 -12 
87 -19 87 -25 88 -32 87 -40 88 -48 87 -55 88 -64 87 -71 
87 -80 88 -87 87 -94 88 -101 87 -106 87 -111 88 -114 87 -115 
88 -112 87 -108 88 -99 87 -86 87 -67 88 -41 87 -7 88 35 
87 -41 820 3306 50 MP stroke
gr

DA
 692 3373 mt 
( ) s
5064  345 mt 
( ) s
SO
1 sg
0 480 2129 0 0 -480 2892 3271 4 MP
PP
-2129 0 0 480 2129 0 0 -480 2892 3271 5 MP stroke
4 w
DO
SO
6 w
0 sg
2892 3271 mt 5021 3271 L
2892 2791 mt 5021 2791 L
2892 3271 mt 2892 2791 L
5021 3271 mt 5021 2791 L
2892 3271 mt 5021 3271 L
2892 3271 mt 2892 2791 L
2892 3271 mt 5021 3271 L
2892 2791 mt 5021 2791 L
2892 3271 mt 2892 2791 L
5021 3271 mt 5021 2791 L
3339 2925 mt 
(RE) s
gs 2892 2791 2130 481 rc
DO
c8
344 0 2960 2882 2 MP stroke
SO
gr

c8
0 sg
3339 3074 mt 
(learning) s
gs 2892 2791 2130 481 rc
c9
344 0 2960 3031 2 MP stroke
gr

c9
0 sg
3339 3222 mt 
(learning with RE dividend path) s
gs 2892 2791 2130 481 rc
DA
344 0 2960 3179 2 MP stroke
SO
gr


end %%Color Dict

eplot
%%EndObject

epage
end

showpage

%%Trailer
%%EOF
