\BOOKMARK [1][-]{section.1}{\376\377\000I\000n\000t\000r\000o\000d\000u\000c\000t\000i\000o\000n\000\040}{}% 1
\BOOKMARK [1][-]{section.2}{\376\377\000R\000e\000l\000a\000t\000e\000d\000\040\000l\000i\000t\000e\000r\000a\000t\000u\000r\000e}{}% 2
\BOOKMARK [1][-]{section.3}{\376\377\000T\000h\000e\000\040\000m\000o\000d\000e\000l}{}% 3
\BOOKMARK [2][-]{subsection.3.1}{\376\377\000M\000o\000d\000e\000l\000\040\000s\000e\000t\000u\000p}{section.3}% 4
\BOOKMARK [3][-]{subsubsection.3.1.1}{\376\377\000L\000e\000n\000d\000e\000r\000s}{subsection.3.1}% 5
\BOOKMARK [3][-]{subsubsection.3.1.2}{\376\377\000I\000n\000t\000e\000r\000m\000e\000d\000i\000a\000t\000e\000\040\000g\000o\000o\000d\000\040\000p\000r\000o\000d\000u\000c\000e\000r\000s\000\040\000\050\000f\000i\000r\000m\000s\000\051}{subsection.3.1}% 6
\BOOKMARK [3][-]{subsubsection.3.1.3}{\376\377\000I\000n\000v\000e\000s\000t\000o\000r\000s}{subsection.3.1}% 7
\BOOKMARK [3][-]{subsubsection.3.1.4}{\376\377\000B\000o\000r\000r\000o\000w\000i\000n\000g\000\040\000c\000o\000n\000s\000t\000r\000a\000i\000n\000t}{subsection.3.1}% 8
\BOOKMARK [3][-]{subsubsection.3.1.5}{\376\377\000F\000u\000r\000t\000h\000e\000r\000\040\000m\000o\000d\000e\000l\000\040\000e\000l\000e\000m\000e\000n\000t\000s\000,\000\040\000m\000a\000r\000k\000e\000t\000\040\000c\000l\000e\000a\000r\000i\000n\000g\000,\000\040\000s\000h\000o\000c\000k\000s}{subsection.3.1}% 9
\BOOKMARK [2][-]{subsection.3.2}{\376\377\000R\000a\000t\000i\000o\000n\000a\000l\000\040\000e\000x\000p\000e\000c\000t\000a\000t\000i\000o\000n\000s\000\040\000e\000q\000u\000i\000l\000i\000b\000r\000i\000u\000m}{section.3}% 10
\BOOKMARK [2][-]{subsection.3.3}{\376\377\000L\000e\000a\000r\000n\000i\000n\000g\000\040\000e\000q\000u\000i\000l\000i\000b\000r\000i\000u\000m}{section.3}% 11
\BOOKMARK [1][-]{section.4}{\376\377\000I\000n\000s\000p\000e\000c\000t\000i\000n\000g\000\040\000t\000h\000e\000\040\000m\000e\000c\000h\000a\000n\000i\000s\000m}{}% 12
\BOOKMARK [2][-]{subsection.4.1}{\376\377\000S\000i\000m\000p\000l\000i\000f\000y\000i\000n\000g\000\040\000t\000h\000e\000\040\000m\000o\000d\000e\000l}{section.4}% 13
\BOOKMARK [2][-]{subsection.4.2}{\376\377\000R\000a\000t\000i\000o\000n\000a\000l\000\040\000e\000x\000p\000e\000c\000t\000a\000t\000i\000o\000n\000s\000\040\000e\000q\000u\000i\000l\000i\000b\000r\000i\000u\000m\000\040}{section.4}% 14
\BOOKMARK [2][-]{subsection.4.3}{\376\377\000L\000e\000a\000r\000n\000i\000n\000g\000\040\000e\000q\000u\000i\000l\000i\000b\000r\000i\000u\000m}{section.4}% 15
\BOOKMARK [1][-]{section.5}{\376\377\000Q\000u\000a\000n\000t\000i\000t\000a\000t\000i\000v\000e\000\040\000r\000e\000s\000u\000l\000t\000s}{}% 16
\BOOKMARK [2][-]{subsection.5.1}{\376\377\000C\000a\000l\000i\000b\000r\000a\000t\000i\000o\000n}{section.5}% 17
\BOOKMARK [2][-]{subsection.5.2}{\376\377\000B\000u\000s\000i\000n\000e\000s\000s\000\040\000c\000y\000c\000l\000e\000\040\000a\000n\000d\000\040\000a\000s\000s\000e\000t\000\040\000p\000r\000i\000c\000e\000\040\000m\000o\000m\000e\000n\000t\000s}{section.5}% 18
\BOOKMARK [2][-]{subsection.5.3}{\376\377\000I\000m\000p\000u\000l\000s\000e\000\040\000r\000e\000s\000p\000o\000n\000s\000e\000\040\000f\000u\000n\000c\000t\000i\000o\000n\000s}{section.5}% 19
\BOOKMARK [1][-]{section.6}{\376\377\000S\000u\000r\000v\000e\000y\000\040\000d\000a\000t\000a\000\040\000o\000n\000\040\000e\000x\000p\000e\000c\000t\000a\000t\000i\000o\000n\000s}{}% 20
\BOOKMARK [1][-]{section.7}{\376\377\000S\000e\000n\000s\000i\000t\000i\000v\000i\000t\000y}{}% 21
\BOOKMARK [2][-]{subsection.7.1}{\376\377\000B\000e\000l\000i\000e\000f\000\040\000f\000o\000r\000m\000a\000t\000i\000o\000n\000\040\000c\000o\000n\000c\000e\000p\000t}{section.7}% 22
\BOOKMARK [2][-]{subsection.7.2}{\376\377\000M\000e\000a\000n\000-\000r\000e\000v\000e\000r\000t\000i\000n\000g\000\040\000b\000e\000l\000i\000e\000f\000s}{section.7}% 23
\BOOKMARK [2][-]{subsection.7.3}{\376\377\000N\000o\000m\000i\000n\000a\000l\000\040\000r\000i\000g\000i\000d\000i\000t\000i\000e\000s\000\040\000a\000n\000d\000\040\000a\000d\000j\000u\000s\000t\000m\000e\000n\000t\000\040\000c\000o\000s\000t\000s}{section.7}% 24
\BOOKMARK [2][-]{subsection.7.4}{\376\377\000M\000o\000n\000e\000t\000a\000r\000y\000\040\000p\000o\000l\000i\000c\000y}{section.7}% 25
\BOOKMARK [1][-]{section.8}{\376\377\000C\000o\000n\000c\000l\000u\000s\000i\000o\000n}{}% 26
\BOOKMARK [1][-]{section.9}{\376\377\000R\000e\000f\000e\000r\000e\000n\000c\000e\000s}{}% 27
\BOOKMARK [1][-]{section.10}{\376\377\000T\000a\000b\000l\000e\000s\000\040\000a\000n\000d\000\040\000F\000i\000g\000u\000r\000e\000s}{}% 28
\BOOKMARK [1][-]{appendix.A}{\376\377\000D\000e\000t\000a\000i\000l\000s\000\040\000o\000n\000\040\000t\000h\000e\000\040\000m\000o\000d\000e\000l}{}% 29
\BOOKMARK [2][-]{subsection.A.1}{\376\377\000A\000d\000j\000u\000s\000t\000m\000e\000n\000t\000\040\000c\000o\000s\000t\000s\000\040\000a\000n\000d\000\040\000n\000o\000m\000i\000n\000a\000l\000\040\000r\000i\000g\000i\000d\000i\000t\000i\000e\000s}{appendix.A}% 30
\BOOKMARK [2][-]{subsection.A.2}{\376\377\000P\000r\000o\000p\000e\000r\000t\000i\000e\000s\000\040\000o\000f\000\040\000t\000h\000e\000\040\000r\000a\000t\000i\000o\000n\000a\000l\000\040\000e\000x\000p\000e\000c\000t\000a\000t\000i\000o\000n\000s\000\040\000e\000q\000u\000i\000l\000i\000b\000r\000i\000u\000m}{appendix.A}% 31
\BOOKMARK [2][-]{subsection.A.3}{\376\377\000C\000o\000n\000d\000i\000t\000i\000o\000n\000s\000\040\000t\000o\000\040\000r\000u\000l\000e\000\040\000o\000u\000t\000\040\000m\000u\000l\000t\000i\000p\000l\000e\000\040\000e\000q\000u\000i\000l\000i\000b\000r\000i\000a}{appendix.A}% 32
\BOOKMARK [2][-]{subsection.A.4}{\376\377\000B\000e\000n\000c\000h\000m\000a\000r\000k\000\040\000m\000o\000d\000e\000l\000\040\000w\000i\000t\000h\000o\000u\000t\000\040\000f\000i\000n\000a\000n\000c\000i\000a\000l\000\040\000f\000r\000i\000c\000t\000i\000o\000n\000s}{appendix.A}% 33
\BOOKMARK [1][-]{appendix.B}{\376\377\000P\000r\000o\000o\000f\000\040\000o\000f\000\040\000P\000r\000o\000p\000o\000s\000i\000t\000i\000o\000n\000\040\0004}{}% 34
\BOOKMARK [1][-]{appendix.C}{\376\377\000F\000u\000l\000l\000\040\000s\000e\000t\000s\000\040\000o\000f\000\040\000m\000o\000d\000e\000l\000\040\000e\000q\000u\000a\000t\000i\000o\000n\000s}{}% 35
\BOOKMARK [2][-]{subsection.C.1}{\376\377\000R\000a\000t\000i\000o\000n\000a\000l\000\040\000e\000x\000p\000e\000c\000t\000a\000t\000i\000o\000n\000s}{appendix.C}% 36
\BOOKMARK [2][-]{subsection.C.2}{\376\377\000L\000e\000a\000r\000n\000i\000n\000g\000\040\000w\000i\000t\000h\000\040\000c\000o\000n\000d\000i\000t\000i\000o\000n\000a\000l\000l\000y\000\040\000m\000o\000d\000e\000l\000-\000c\000o\000n\000s\000i\000s\000t\000e\000n\000t\000\040\000e\000x\000p\000e\000c\000t\000a\000t\000i\000o\000n\000s}{appendix.C}% 37
\BOOKMARK [2][-]{subsection.C.3}{\376\377\000A\000l\000t\000e\000r\000n\000a\000t\000i\000v\000e\000\040\000b\000e\000l\000i\000e\000f\000\040\000f\000o\000r\000m\000a\000t\000i\000o\000n\000\040\000c\000o\000n\000c\000e\000p\000t\000s}{appendix.C}% 38
\BOOKMARK [2][-]{subsection.C.4}{\376\377\000B\000e\000n\000c\000h\000m\000a\000r\000k\000\040\000e\000c\000o\000n\000o\000m\000y\000\040\000w\000i\000t\000h\000o\000u\000t\000\040\000f\000i\000n\000a\000n\000c\000i\000a\000l\000\040\000f\000r\000i\000c\000t\000i\000o\000n\000s}{appendix.C}% 39
\BOOKMARK [1][-]{appendix.D}{\376\377\000G\000e\000n\000e\000r\000a\000l\000\040\000f\000o\000r\000m\000u\000l\000a\000t\000i\000o\000n\000\040\000o\000f\000\040\000C\000M\000C\000E}{}% 40
\BOOKMARK [2][-]{subsection.D.1}{\376\377\000A\000p\000p\000r\000o\000x\000i\000m\000a\000t\000i\000o\000n\000\040\000w\000i\000t\000h\000\040\000p\000e\000r\000t\000u\000r\000b\000a\000t\000i\000o\000n\000\040\000m\000e\000t\000h\000o\000d\000s}{appendix.D}% 41
\BOOKMARK [1][-]{appendix.E}{\376\377\000R\000e\000s\000u\000l\000t\000s\000\040\000f\000o\000r\000\040\000e\000s\000t\000i\000m\000a\000t\000e\000d\000\040\000v\000e\000r\000s\000i\000o\000n\000\040\000o\000f\000\040\000t\000h\000e\000\040\000m\000o\000d\000e\000l}{}% 42
\BOOKMARK [2][-]{subsection.E.1}{\376\377\000S\000p\000e\000c\000i\000f\000i\000c\000a\000t\000i\000o\000n\000\040\000a\000n\000d\000\040\000c\000h\000o\000i\000c\000e\000\040\000o\000f\000\040\000p\000a\000r\000a\000m\000e\000t\000e\000r\000s}{appendix.E}% 43
\BOOKMARK [2][-]{subsection.E.2}{\376\377\000R\000e\000s\000u\000l\000t\000s}{appendix.E}% 44
