\relax 
\providecommand\hyper@newdestlabel[2]{}
\providecommand\HyperFirstAtBeginDocument{\AtBeginDocument}
\HyperFirstAtBeginDocument{\ifx\hyper@anchor\@undefined
\global\let\oldcontentsline\contentsline
\gdef\contentsline#1#2#3#4{\oldcontentsline{#1}{#2}{#3}}
\global\let\oldnewlabel\newlabel
\gdef\newlabel#1#2{\newlabelxx{#1}#2}
\gdef\newlabelxx#1#2#3#4#5#6{\oldnewlabel{#1}{{#2}{#3}}}
\AtEndDocument{\ifx\hyper@anchor\@undefined
\let\contentsline\oldcontentsline
\let\newlabel\oldnewlabel
\fi}
\fi}
\global\let\hyper@last\relax 
\gdef\HyperFirstAtBeginDocument#1{#1}
\providecommand\HyField@AuxAddToFields[1]{}
\providecommand\HyField@AuxAddToCoFields[2]{}
\emailauthor{fabian.winkler@frb.gov}{Fabian~Winkler}
\citation{GreenwoodShleifer2014}
\citation{Adametal2013}
\select@language{english}
\@writefile{toc}{\select@language{english}}
\@writefile{lof}{\select@language{english}}
\@writefile{lot}{\select@language{english}}
\Newlabel{t1}{1}
\Newlabel{rvt}{a}
\@writefile{toc}{\contentsline {section}{\numberline {1}Introduction }{1}{section.1}}
\citation{Kocherlakota2000}
\citation{Manski2004,CoibionGorodnichenko2012}
\citation{CoibionGorodnichenko2015}
\citation{Adametal2013}
\citation{Adam.etal2017}
\citation{Milani2011,Milani2017}
\citation{Caputoetal2010}
\citation{Gelainetal2013}
\citation{Rychalovska2016}
\citation{Milani2007,Slobodyan.Wouters2012}
\newlabel{sec:Related-literature}{{2}{3}{Related literature}{section.2}{}}
\@writefile{toc}{\contentsline {section}{\numberline {2}Related literature}{3}{section.2}}
\citation{FusterEtAl2011}
\citation{HirshleiferEtAl2015}
\citation{Collin-Dufresne.etal2016}
\citation{Pintus.Suda2018}
\citation{Timmermann1996}
\citation{KiyotakiMoore1997,BernankeGertler2001}
\citation{Kocherlakota2000,Quadrini2011}
\citation{JermannQuadrini2012}
\citation{Brunnermeier.Sannikov2014,Mendoza2010}
\citation{Miao.etal2015}
\citation{Bacchettaetal2009,Gennaioli.etal2016}
\citation{Cole.Milaniforthcoming}
\citation{Bernankeetal1999}
\citation{Beaudry.Portier2007}
\newlabel{sec:The-full-model}{{3}{5}{The model}{section.3}{}}
\@writefile{toc}{\contentsline {section}{\numberline {3}The model}{5}{section.3}}
\@writefile{toc}{\contentsline {subsection}{\numberline {3.1}Model setup}{5}{subsection.3.1}}
\@writefile{toc}{\contentsline {subsubsection}{\numberline {3.1.1}Lenders}{5}{subsubsection.3.1.1}}
\newlabel{eq:hhbc}{{3.1}{5}{Lenders}{equation.3.1}{}}
\citation{Bernankeetal1999}
\@writefile{toc}{\contentsline {subsubsection}{\numberline {3.1.2}Intermediate good producers (firms)}{6}{subsubsection.3.1.2}}
\newlabel{eq:n}{{3.3}{6}{Intermediate good producers (firms)}{equation.3.3}{}}
\citation{Miao.etal2015}
\@writefile{toc}{\contentsline {subsubsection}{\numberline {3.1.3}Investors}{7}{subsubsection.3.1.3}}
\newlabel{eq:EulerPi}{{3.7}{7}{Investors}{equation.3.7}{}}
\@writefile{toc}{\contentsline {subsubsection}{\numberline {3.1.4}Borrowing constraint}{8}{subsubsection.3.1.4}}
\newlabel{eq:bc}{{3.8}{8}{Borrowing constraint}{equation.3.8}{}}
\@writefile{toc}{\contentsline {subsubsection}{\numberline {3.1.5}Further model elements, market clearing, shocks}{8}{subsubsection.3.1.5}}
\newlabel{eq:taylorrule}{{3.9}{8}{Further model elements, market clearing, shocks}{equation.3.9}{}}
\@writefile{toc}{\contentsline {subsection}{\numberline {3.2}Rational expectations equilibrium}{9}{subsection.3.2}}
\citation{Adam.etal2017}
\citation{Adam.etal2017}
\newlabel{subsec:learneq-full}{{3.3}{10}{Learning equilibrium}{subsection.3.3}{}}
\@writefile{toc}{\contentsline {subsection}{\numberline {3.3}Learning equilibrium}{10}{subsection.3.3}}
\newlabel{eq:beliefsystem_first}{{3.12}{10}{Learning equilibrium}{equation.3.12}{}}
\newlabel{eq:beliefsystem_last}{{3.13}{10}{Learning equilibrium}{equation.3.12}{}}
\newlabel{eq:individualstocks-P}{{3.14}{11}{Learning equilibrium}{equation.3.14}{}}
\newlabel{def:CMCE}{{2}{11}{}{thm.2}{}}
\citation{AdamMarcet2011}
\newlabel{def:CMCE-equilibrium}{{3}{12}{}{thm.3}{}}
\newlabel{prop:cmce}{{4}{13}{}{thm.4}{}}
\newlabel{eq:cmce}{{3.15}{13}{}{equation.3.15}{}}
\newlabel{sec:A-stylised-model}{{4}{13}{Inspecting the mechanism}{section.4}{}}
\@writefile{toc}{\contentsline {section}{\numberline {4}Inspecting the mechanism}{13}{section.4}}
\@writefile{toc}{\contentsline {subsection}{\numberline {4.1}Simplifying the model}{13}{subsection.4.1}}
\newlabel{eq:simpleBC}{{4.2}{14}{Simplifying the model}{equation.4.1}{}}
\@writefile{toc}{\contentsline {subsection}{\numberline {4.2}Rational expectations equilibrium }{14}{subsection.4.2}}
\newlabel{eq:Rk}{{4.3}{14}{Rational expectations equilibrium}{equation.4.3}{}}
\newlabel{eq:v}{{4.4}{14}{Rational expectations equilibrium}{equation.4.4}{}}
\newlabel{eq:kredit}{{4.5}{14}{Rational expectations equilibrium}{equation.4.4}{}}
\newlabel{subsec:learneq-simple}{{4.3}{15}{Learning equilibrium}{subsection.4.3}{}}
\@writefile{toc}{\contentsline {subsection}{\numberline {4.3}Learning equilibrium}{15}{subsection.4.3}}
\newlabel{eq:v-learn}{{4.9}{15}{Learning equilibrium}{equation.4.9}{}}
\newlabel{eq:k-learn}{{4.10}{15}{Learning equilibrium}{equation.4.9}{}}
\newlabel{eq:mu-learn}{{4.11}{15}{Learning equilibrium}{equation.4.9}{}}
\citation{FlynnCrewson2009,Lawton2012}
\newlabel{sec:Results}{{5}{17}{Quantitative results}{section.5}{}}
\@writefile{toc}{\contentsline {section}{\numberline {5}Quantitative results}{17}{section.5}}
\@writefile{toc}{\contentsline {subsection}{\numberline {5.1}Calibration}{17}{subsection.5.1}}
\@writefile{toc}{\contentsline {subsection}{\numberline {5.2}Business cycle and asset price moments}{18}{subsection.5.2}}
\citation{Boldrinetal2001}
\citation{TallariniJr2000}
\@writefile{toc}{\contentsline {subsection}{\numberline {5.3}Impulse response functions}{20}{subsection.5.3}}
\citation{Christianoetal2010}
\newlabel{sec:Survey-data}{{6}{21}{Survey data on expectations}{section.6}{}}
\@writefile{toc}{\contentsline {section}{\numberline {6}Survey data on expectations}{21}{section.6}}
\citation{CoibionGorodnichenko2015}
\citation{CoibionGorodnichenko2015}
\citation{EvansHonkapohja2001}
\newlabel{sec:Discussion}{{7}{22}{Sensitivity}{section.7}{}}
\@writefile{toc}{\contentsline {section}{\numberline {7}Sensitivity}{22}{section.7}}
\newlabel{subsec:Does-learning-matter?}{{7.1}{22}{Belief formation concept}{subsection.7.1}{}}
\@writefile{toc}{\contentsline {subsection}{\numberline {7.1}Belief formation concept}{22}{subsection.7.1}}
\newlabel{subsec:beliefsweep}{{7.2}{23}{Mean-reverting beliefs}{subsection.7.2}{}}
\@writefile{toc}{\contentsline {subsection}{\numberline {7.2}Mean-reverting beliefs}{23}{subsection.7.2}}
\newlabel{eq:beliefsystem_first-1}{{7.1}{23}{Mean-reverting beliefs}{equation.7.1}{}}
\newlabel{eq:beliefsystem_last-1}{{7.2}{23}{Mean-reverting beliefs}{equation.7.1}{}}
\citation{Ajello2016}
\newlabel{subsec:nomrigsens}{{7.3}{24}{Nominal rigidities and adjustment costs}{subsection.7.3}{}}
\@writefile{toc}{\contentsline {subsection}{\numberline {7.3}Nominal rigidities and adjustment costs}{24}{subsection.7.3}}
\citation{Caines.Winkler2018}
\@writefile{toc}{\contentsline {subsection}{\numberline {7.4}Monetary policy}{26}{subsection.7.4}}
\newlabel{eq:taylormod}{{7.3}{26}{Monetary policy}{equation.7.3}{}}
\bibstyle{elsarticle-harv}
\bibdata{finfric}
\bibcite{AdamMarcet2011}{{1}{2011}{{Adam and Marcet}}{{}}}
\bibcite{Adam.etal2017}{{2}{2017}{{Adam et~al.}}{{Adam, Marcet, and Beutel}}}
\bibcite{Adametal2013}{{3}{2015}{{Adam et~al.}}{{Adam, Marcet, and Nicolini}}}
\bibcite{Ajello2016}{{4}{2016}{{Ajello}}{{}}}
\newlabel{sec:Conclusion}{{8}{27}{Conclusion}{section.8}{}}
\@writefile{toc}{\contentsline {section}{\numberline {8}Conclusion}{27}{section.8}}
\@writefile{toc}{\contentsline {section}{\numberline {9}References}{27}{section.9}}
\bibcite{Andrews1999}{{5}{1999}{{Andrews}}{{}}}
\bibcite{Bacchettaetal2009}{{6}{2009}{{Bacchetta et~al.}}{{Bacchetta, Mertens, and van Wincoop}}}
\bibcite{Beaudry.Portier2007}{{7}{2007}{{Beaudry and Portier}}{{}}}
\bibcite{BernankeGertler2001}{{8}{2001}{{Bernanke and Gertler}}{{}}}
\bibcite{Bernankeetal1999}{{9}{1999}{{Bernanke et~al.}}{{Bernanke, Gertler, and Gilchrist}}}
\bibcite{Boldrinetal2001}{{10}{2001}{{Boldrin et~al.}}{{Boldrin, Christiano, and Fisher}}}
\bibcite{Brunnermeier.Sannikov2014}{{11}{2014}{{Brunnermeier and Sannikov}}{{}}}
\bibcite{Caines.Winkler2018}{{12}{2018}{{Caines and Winkler}}{{}}}
\bibcite{Caputoetal2010}{{13}{2010}{{Caputo et~al.}}{{Caputo, Medina, and Soto}}}
\bibcite{Christianoetal2010}{{14}{2010}{{Christiano et~al.}}{{Christiano, Ilut, Motto, and Rostagno}}}
\bibcite{Christiano.Fitzgerald2003}{{15}{2003}{{Christiano and Fitzgerald}}{{}}}
\bibcite{CoibionGorodnichenko2012}{{16}{2012}{{Coibion and Gorodnichenko}}{{}}}
\bibcite{CoibionGorodnichenko2015}{{17}{2015}{{Coibion and Gorodnichenko}}{{}}}
\bibcite{Cole.Milaniforthcoming}{{18}{2017}{{Cole and Milani}}{{}}}
\bibcite{Collin-Dufresne.etal2016}{{19}{2016}{{Collin-Dufresne et~al.}}{{Collin-Dufresne, Johannes, and Lochstoer}}}
\bibcite{EvansHonkapohja2001}{{20}{2001}{{Evans and Honkapohja}}{{}}}
\bibcite{FlynnCrewson2009}{{21}{2009}{{Flynn and Crewson}}{{}}}
\bibcite{FusterEtAl2011}{{22}{2012}{{Fuster et~al.}}{{Fuster, Hebert, and Laibson}}}
\bibcite{Gelainetal2013}{{23}{2013}{{Gelain et~al.}}{{Gelain, Lansing, and Mendicino}}}
\bibcite{Gennaioli.etal2016}{{24}{2016}{{Gennaioli et~al.}}{{Gennaioli, Ma, and Shleifer}}}
\bibcite{Gorodnichenko.Ng2010}{{25}{2010}{{Gorodnichenko and Ng}}{{}}}
\bibcite{GreenwoodShleifer2014}{{26}{2014}{{Greenwood and Shleifer}}{{}}}
\bibcite{Hamilton2017}{{27}{2017}{{Hamilton}}{{}}}
\bibcite{HirshleiferEtAl2015}{{28}{2015}{{Hirshleifer et~al.}}{{Hirshleifer, Li, and Yu}}}
\bibcite{JermannQuadrini2012}{{29}{2012}{{Jermann and Quadrini}}{{}}}
\bibcite{KiyotakiMoore1997}{{30}{1997}{{Kiyotaki and Moore}}{{}}}
\bibcite{Kocherlakota2000}{{31}{2000}{{Kocherlakota}}{{}}}
\bibcite{Lawton2012}{{32}{2012}{{Lawton}}{{}}}
\bibcite{Manski2004}{{33}{2004}{{Manski}}{{}}}
\bibcite{Mendoza2010}{{34}{2010}{{Mendoza}}{{}}}
\bibcite{MiaoWang2011}{{35}{2018}{{Miao and Wang}}{{}}}
\bibcite{Miao.etal2015}{{36}{2015}{{Miao et~al.}}{{Miao, Wang, and Xu}}}
\bibcite{Milani2007}{{37}{2007}{{Milani}}{{}}}
\bibcite{Milani2011}{{38}{2011}{{Milani}}{{}}}
\bibcite{Milani2017}{{39}{2017}{{Milani}}{{}}}
\bibcite{Pintus.Suda2018}{{40}{2019}{{Pintus and Suda}}{{}}}
\bibcite{Quadrini2011}{{41}{2011}{{Quadrini}}{{}}}
\bibcite{Rychalovska2016}{{42}{2016}{{Rychalovska}}{{}}}
\bibcite{Slobodyan.Wouters2012}{{43}{2012}{{Slobodyan and Wouters}}{{}}}
\bibcite{TallariniJr2000}{{44}{2000}{{Tallarini~Jr.}}{{}}}
\bibcite{Timmermann1996}{{45}{1996}{{Timmermann}}{{}}}
\@writefile{toc}{\contentsline {section}{\numberline {10}Tables and Figures}{31}{section.10}}
\@writefile{lot}{\contentsline {table}{\numberline {1}{\ignorespaces Business cycle statistics. \relax }}{31}{table.caption.1}}
\providecommand*\caption@xref[2]{\@setref\relax\@undefined{#1}}
\newlabel{tab:moments-bc-1}{{1}{31}{Business cycle statistics. \relax }{table.caption.1}{}}
\@writefile{lot}{\contentsline {table}{\numberline {2}{\ignorespaces Asset price statistics. \relax }}{32}{table.caption.2}}
\newlabel{tab:moments-ap-1}{{2}{32}{Asset price statistics. \relax }{table.caption.2}{}}
\@writefile{lot}{\contentsline {table}{\numberline {3}{\ignorespaces Sensitivity of selected moments under alternative specifications. \relax }}{33}{table.caption.3}}
\newlabel{tab:sensitivity}{{3}{33}{Sensitivity of selected moments under alternative specifications. \relax }{table.caption.3}{}}
\@writefile{lot}{\contentsline {table}{\numberline {4}{\ignorespaces Alternative monetary policy rules.\relax }}{34}{table.caption.4}}
\newlabel{tab:monpoltable-1}{{4}{34}{Alternative monetary policy rules.\relax }{table.caption.4}{}}
\@writefile{lof}{\contentsline {figure}{\numberline {1}{\ignorespaces Response to a productivity shock in the simplified model.\relax }}{35}{figure.caption.5}}
\newlabel{fig:Endogenous-amplification.}{{1}{35}{Response to a productivity shock in the simplified model.\relax }{figure.caption.5}{}}
\@writefile{lof}{\contentsline {subfigure}{\numberline{(a)}{\ignorespaces {Amplification.}}}{35}{subfigure.2.1}}
\@writefile{lof}{\contentsline {subfigure}{\numberline{(b)}{\ignorespaces {Dampening.}}}{35}{subfigure.2.2}}
\@writefile{lof}{\contentsline {figure}{\numberline {2}{\ignorespaces Impulse responses to a productivity shock.\relax }}{36}{figure.caption.6}}
\newlabel{fig:irf-1}{{2}{36}{Impulse responses to a productivity shock.\relax }{figure.caption.6}{}}
\citation{CoibionGorodnichenko2015}
\@writefile{lof}{\contentsline {figure}{\numberline {3}{\ignorespaces Forecast error predictability.\relax }}{37}{figure.caption.7}}
\newlabel{fig:fecandles-1}{{3}{37}{Forecast error predictability.\relax }{figure.caption.7}{}}
\@writefile{lof}{\contentsline {subfigure}{\numberline{(a)}{\ignorespaces {Correlation of forecast error with $\qopname \relax o{log}PD_{t}$.}}}{37}{subfigure.3.1}}
\@writefile{lof}{\contentsline {subfigure}{\numberline{(b)}{\ignorespaces {Correlation of forecast error with{\relax \fontsize {10.95}{13.6}\selectfont \abovedisplayskip 11\p@ plus3\p@ minus6\p@ \abovedisplayshortskip \z@ plus3\p@ \belowdisplayshortskip 6.5\p@ plus3.5\p@ minus3\p@ \def \leftmargin \leftmargini \parsep 5\p@ plus2.5\p@ minus\p@ \topsep 10\p@ plus4\p@ minus6\p@ \itemsep 5\p@ plus2.5\p@ minus\p@ {\leftmargin \leftmargini \topsep 9\p@ plus3\p@ minus5\p@ \parsep 4.5\p@ plus2\p@ minus\p@ \itemsep \parsep }\belowdisplayskip \abovedisplayskip {} $\Delta \qopname \relax o{log}PD_{t}$}.}}}{37}{subfigure.3.2}}
\@writefile{lof}{\contentsline {subfigure}{\numberline{(c)}{\ignorespaces {Correlation of forecast error with forecast revision.}}}{37}{subfigure.3.3}}
\@writefile{lof}{\contentsline {figure}{\numberline {4}{\ignorespaces Impulse responses under alternative belief formation processes.\relax }}{38}{figure.caption.8}}
\newlabel{fig:klausirf}{{4}{38}{Impulse responses under alternative belief formation processes.\relax }{figure.caption.8}{}}
\@writefile{lof}{\contentsline {figure}{\numberline {5}{\ignorespaces Impulse responses to an unexpected monetary shock.\relax }}{39}{figure.caption.9}}
\newlabel{fig:irf2}{{5}{39}{Impulse responses to an unexpected monetary shock.\relax }{figure.caption.9}{}}
\citation{Bernankeetal1999}
\@writefile{toc}{\contentsline {section}{\numberline {Appendix A}Details on the model}{1}{appendix.A}}
\newlabel{subsec:invcost-nomrig}{{Appendix A.1}{1}{Adjustment costs and nominal rigidities}{subsection.A.1}{}}
\@writefile{toc}{\contentsline {subsection}{\numberline {Appendix A.1}Adjustment costs and nominal rigidities}{1}{subsection.A.1}}
\newlabel{subsec:Properties-of-the-REE}{{Appendix A.2}{2}{Properties of the rational expectations equilibrium}{subsection.A.2}{}}
\@writefile{toc}{\contentsline {subsection}{\numberline {Appendix A.2}Properties of the rational expectations equilibrium}{2}{subsection.A.2}}
\newlabel{enu:Rk>R}{{1}{2}{Properties of the rational expectations equilibrium}{Item.8}{}}
\newlabel{enu:Vlinear}{{2}{2}{Properties of the rational expectations equilibrium}{Item.9}{}}
\newlabel{enu:K/L}{{3}{3}{Properties of the rational expectations equilibrium}{Item.10}{}}
\newlabel{enu:aggregation}{{4}{3}{Properties of the rational expectations equilibrium}{Item.11}{}}
\newlabel{enu:nodefault}{{5}{3}{Properties of the rational expectations equilibrium}{Item.12}{}}
\newlabel{enu:restructuring}{{6}{3}{Properties of the rational expectations equilibrium}{Item.13}{}}
\newlabel{enu:bindingconstraint}{{7}{3}{Properties of the rational expectations equilibrium}{Item.14}{}}
\newlabel{eq:xi-restriction}{{A.1}{7}{Limited commitment problem}{equation.A.1}{}}
\citation{KiyotakiMoore1997}
\citation{MiaoWang2011}
\newlabel{eq:Rk-to-BK}{{A.2}{9}{Return on capital}{equation.A.2}{}}
\newlabel{eq:gamma-constraint}{{A.3}{9}{Return on capital}{equation.A.3}{}}
\citation{MiaoWang2011}
\@writefile{toc}{\contentsline {subsection}{\numberline {Appendix A.3}Conditions to rule out multiple equilibria}{10}{subsection.A.3}}
\newlabel{eq:maxB}{{A.4}{10}{Conditions to rule out multiple equilibria}{equation.A.4}{}}
\newlabel{eq:counterRk}{{A.6}{11}{Conditions to rule out multiple equilibria}{equation.A.6}{}}
\newlabel{subsec:fricless}{{Appendix A.4}{12}{Benchmark model without financial frictions}{subsection.A.4}{}}
\@writefile{toc}{\contentsline {subsection}{\numberline {Appendix A.4}Benchmark model without financial frictions}{12}{subsection.A.4}}
\newlabel{eq:hhbc-nofric}{{A.7}{12}{Benchmark model without financial frictions}{equation.A.7}{}}
\newlabel{eq:eulerP-nofric}{{A.8}{12}{Benchmark model without financial frictions}{equation.A.8}{}}
\@writefile{toc}{\contentsline {section}{\numberline {Appendix B}Proof of Proposition \ref  {prop:cmce}}{14}{appendix.B}}
\@writefile{toc}{\contentsline {section}{\numberline {Appendix C}Full sets of model equations}{15}{appendix.C}}
\@writefile{toc}{\contentsline {subsection}{\numberline {Appendix C.1}Rational expectations}{15}{subsection.C.1}}
\newlabel{eq:hhbc-appendix}{{C.11}{15}{Rational expectations}{equation.C.11}{}}
\newlabel{eq:appendix-Peq-RE}{{C.28}{16}{Rational expectations}{equation.C.28}{}}
\@writefile{toc}{\contentsline {subsection}{\numberline {Appendix C.2}Learning with conditionally model-consistent expectations}{17}{subsection.C.2}}
\newlabel{eq:LOMP-appendix1}{{C.29}{17}{Learning with conditionally model-consistent expectations}{equation.C.29}{}}
\newlabel{eq:LOMP-appendix2}{{C.30}{17}{Learning with conditionally model-consistent expectations}{equation.C.30}{}}
\@writefile{toc}{\contentsline {subsection}{\numberline {Appendix C.3}Alternative belief formation concepts}{17}{subsection.C.3}}
\@writefile{toc}{\contentsline {subsection}{\numberline {Appendix C.4}Benchmark economy without financial frictions}{19}{subsection.C.4}}
\newlabel{eq:appendix-Peq-RE-1}{{C.43}{19}{Benchmark economy without financial frictions}{equation.C.43}{}}
\newlabel{sec:Approximation-method}{{Appendix D}{20}{General formulation of CMCE}{appendix.D}{}}
\@writefile{toc}{\contentsline {section}{\numberline {Appendix D}General formulation of CMCE}{20}{appendix.D}}
\newlabel{eq:re-fminusP}{{D.1}{20}{General formulation of CMCE}{equation.D.1}{}}
\newlabel{re-fP}{{D.2}{20}{General formulation of CMCE}{equation.D.2}{}}
\newlabel{eq:solveh1}{{D.5}{21}{General formulation of CMCE}{equation.D.5}{}}
\newlabel{eq:solveh2}{{D.6}{21}{General formulation of CMCE}{equation.D.6}{}}
\newlabel{eq:learn-r}{{D.7}{22}{General formulation of CMCE}{equation.D.7}{}}
\newlabel{eq:solver}{{D.8}{22}{General formulation of CMCE}{equation.D.8}{}}
\@writefile{toc}{\contentsline {subsection}{\numberline {Appendix D.1}Approximation with perturbation methods}{23}{subsection.D.1}}
\citation{Gorodnichenko.Ng2010}
\citation{Christiano.Fitzgerald2003}
\citation{Hamilton2017}
\citation{Andrews1999}
\newlabel{sec:estimated-model}{{Appendix E}{25}{Results for estimated version of the model}{appendix.E}{}}
\@writefile{toc}{\contentsline {section}{\numberline {Appendix E}Results for estimated version of the model}{25}{appendix.E}}
\@writefile{toc}{\contentsline {subsection}{\numberline {Appendix E.1}Specification and choice of parameters}{25}{subsection.E.1}}
\@writefile{lot}{\contentsline {table}{\numberline {E.1}{\ignorespaces Estimated parameters.\relax }}{26}{table.caption.17}}
\newlabel{tab:Estimated-parameters}{{E.1}{26}{Estimated parameters.\relax }{table.caption.17}{}}
\@writefile{toc}{\contentsline {subsection}{\numberline {Appendix E.2}Results}{27}{subsection.E.2}}
\@writefile{lot}{\contentsline {table}{\numberline {E.2}{\ignorespaces Business cycle statistics, estimated version. \relax }}{28}{table.caption.18}}
\newlabel{tab:moments-bc}{{E.2}{28}{Business cycle statistics, estimated version. \relax }{table.caption.18}{}}
\@writefile{lot}{\contentsline {table}{\numberline {E.3}{\ignorespaces Asset price statistics, estimated version. \relax }}{29}{table.caption.19}}
\newlabel{tab:moments-ap}{{E.3}{29}{Asset price statistics, estimated version. \relax }{table.caption.19}{}}
\citation{CoibionGorodnichenko2015}
\@writefile{lof}{\contentsline {figure}{\numberline {E.1}{\ignorespaces Impulse responses to a productivity shock, estimated version.\relax }}{30}{figure.caption.20}}
\newlabel{fig:irf}{{E.1}{30}{Impulse responses to a productivity shock, estimated version.\relax }{figure.caption.20}{}}
\@writefile{lof}{\contentsline {figure}{\numberline {E.2}{\ignorespaces Forecast error predictability, estimated version.\relax }}{31}{figure.caption.21}}
\newlabel{fig:fecandles}{{E.2}{31}{Forecast error predictability, estimated version.\relax }{figure.caption.21}{}}
\@writefile{lof}{\contentsline {subfigure}{\numberline{(a)}{\ignorespaces {Correlation of forecast error with $\qopname \relax o{log}PD_{t}$.}}}{31}{subfigure.2.1}}
\@writefile{lof}{\contentsline {subfigure}{\numberline{(b)}{\ignorespaces {Correlation of forecast error with{\relax \fontsize {10.95}{13.6}\selectfont \abovedisplayskip 11\p@ plus3\p@ minus6\p@ \abovedisplayshortskip \z@ plus3\p@ \belowdisplayshortskip 6.5\p@ plus3.5\p@ minus3\p@ \def \leftmargin \leftmargini \parsep 5\p@ plus2.5\p@ minus\p@ \topsep 10\p@ plus4\p@ minus6\p@ \itemsep 5\p@ plus2.5\p@ minus\p@ {\leftmargin \leftmargini \topsep 9\p@ plus3\p@ minus5\p@ \parsep 4.5\p@ plus2\p@ minus\p@ \itemsep \parsep }\belowdisplayskip \abovedisplayskip {} $\Delta \qopname \relax o{log}PD_{t}$}.}}}{31}{subfigure.2.2}}
\@writefile{lof}{\contentsline {subfigure}{\numberline{(c)}{\ignorespaces {Correlation of forecast error with forecast revision.}}}{31}{subfigure.2.3}}
\@writefile{lot}{\contentsline {table}{\numberline {E.4}{\ignorespaces Alternative monetary policy rules, estimated version.\relax }}{32}{table.caption.22}}
\newlabel{tab:monpoltable}{{E.4}{32}{Alternative monetary policy rules, estimated version.\relax }{table.caption.22}{}}
