%!PS-Adobe-3.0 EPSF-3.0
%%Creator: MATLAB, The MathWorks, Inc. Version 7.14.0.739 (R2012a). Operating System: Darwin 13.1.0 Darwin Kernel Version 13.1.0: Thu Jan 16 19:40:37 PST 2014; root:xnu-2422.90.20~2/RELEASE_X86_64 x86_64.
%%Title: /Users/fckw/Dropbox/PhD/finfric/paper/policymetrics_learn.eps
%%CreationDate: 05/04/2014  17:35:25
%%DocumentNeededFonts: Helvetica
%%DocumentProcessColors: Cyan Magenta Yellow Black
%%LanguageLevel: 2
%%Pages: 1
%%BoundingBox:  -193   221   806   571
%%EndComments

%%BeginProlog
% MathWorks dictionary
/MathWorks 160 dict begin
% definition operators
/bdef {bind def} bind def
/ldef {load def} bind def
/xdef {exch def} bdef
/xstore {exch store} bdef
% operator abbreviations
/c  /clip ldef
/cc /concat ldef
/cp /closepath ldef
/gr /grestore ldef
/gs /gsave ldef
/mt /moveto ldef
/np /newpath ldef
/cm /currentmatrix ldef
/sm /setmatrix ldef
/rm /rmoveto ldef
/rl /rlineto ldef
/s {show newpath} bdef
/sc {setcmykcolor} bdef
/sr /setrgbcolor ldef
/sg /setgray ldef
/w /setlinewidth ldef
/j /setlinejoin ldef
/cap /setlinecap ldef
/rc {rectclip} bdef
/rf {rectfill} bdef
% page state control
/pgsv () def
/bpage {/pgsv save def} bdef
/epage {pgsv restore} bdef
/bplot /gsave ldef
/eplot {stroke grestore} bdef
% orientation switch
/portraitMode 0 def /landscapeMode 1 def /rotateMode 2 def
% coordinate system mappings
/dpi2point 0 def
% font control
/FontSize 0 def
/FMS {/FontSize xstore findfont [FontSize 0 0 FontSize neg 0 0]
  makefont setfont} bdef
/reencode {exch dup where {pop load} {pop StandardEncoding} ifelse
  exch dup 3 1 roll findfont dup length dict begin
  { 1 index /FID ne {def}{pop pop} ifelse } forall
  /Encoding exch def currentdict end definefont pop} bdef
/isroman {findfont /CharStrings get /Agrave known} bdef
/FMSR {3 1 roll 1 index dup isroman {reencode} {pop pop} ifelse
  exch FMS} bdef
/csm {1 dpi2point div -1 dpi2point div scale neg translate
 dup landscapeMode eq {pop -90 rotate}
  {rotateMode eq {90 rotate} if} ifelse} bdef
% line types: solid, dotted, dashed, dotdash
/SO { [] 0 setdash } bdef
/DO { [.5 dpi2point mul 4 dpi2point mul] 0 setdash } bdef
/DA { [6 dpi2point mul] 0 setdash } bdef
/DD { [.5 dpi2point mul 4 dpi2point mul 6 dpi2point mul 4
  dpi2point mul] 0 setdash } bdef
% macros for lines and objects
/L {lineto stroke} bdef
/MP {3 1 roll moveto 1 sub {rlineto} repeat} bdef
/AP {{rlineto} repeat} bdef
/PDlw -1 def
/W {/PDlw currentlinewidth def setlinewidth} def
/PP {closepath eofill} bdef
/DP {closepath stroke} bdef
/MR {4 -2 roll moveto dup  0 exch rlineto exch 0 rlineto
  neg 0 exch rlineto closepath} bdef
/FR {MR stroke} bdef
/PR {MR fill} bdef
/L1i {{currentfile picstr readhexstring pop} image} bdef
/tMatrix matrix def
/MakeOval {newpath tMatrix currentmatrix pop translate scale
0 0 1 0 360 arc tMatrix setmatrix} bdef
/FO {MakeOval stroke} bdef
/PO {MakeOval fill} bdef
/PD {currentlinewidth 2 div 0 360 arc fill
   PDlw -1 eq not {PDlw w /PDlw -1 def} if} def
/FA {newpath tMatrix currentmatrix pop translate scale
  0 0 1 5 -2 roll arc tMatrix setmatrix stroke} bdef
/PA {newpath tMatrix currentmatrix pop	translate 0 0 moveto scale
  0 0 1 5 -2 roll arc closepath tMatrix setmatrix fill} bdef
/FAn {newpath tMatrix currentmatrix pop translate scale
  0 0 1 5 -2 roll arcn tMatrix setmatrix stroke} bdef
/PAn {newpath tMatrix currentmatrix pop translate 0 0 moveto scale
  0 0 1 5 -2 roll arcn closepath tMatrix setmatrix fill} bdef
/vradius 0 def /hradius 0 def /lry 0 def
/lrx 0 def /uly 0 def /ulx 0 def /rad 0 def
/MRR {/vradius xdef /hradius xdef /lry xdef /lrx xdef /uly xdef
  /ulx xdef newpath tMatrix currentmatrix pop ulx hradius add uly
  vradius add translate hradius vradius scale 0 0 1 180 270 arc 
  tMatrix setmatrix lrx hradius sub uly vradius add translate
  hradius vradius scale 0 0 1 270 360 arc tMatrix setmatrix
  lrx hradius sub lry vradius sub translate hradius vradius scale
  0 0 1 0 90 arc tMatrix setmatrix ulx hradius add lry vradius sub
  translate hradius vradius scale 0 0 1 90 180 arc tMatrix setmatrix
  closepath} bdef
/FRR {MRR stroke } bdef
/PRR {MRR fill } bdef
/MlrRR {/lry xdef /lrx xdef /uly xdef /ulx xdef /rad lry uly sub 2 div def
  newpath tMatrix currentmatrix pop ulx rad add uly rad add translate
  rad rad scale 0 0 1 90 270 arc tMatrix setmatrix lrx rad sub lry rad
  sub translate rad rad scale 0 0 1 270 90 arc tMatrix setmatrix
  closepath} bdef
/FlrRR {MlrRR stroke } bdef
/PlrRR {MlrRR fill } bdef
/MtbRR {/lry xdef /lrx xdef /uly xdef /ulx xdef /rad lrx ulx sub 2 div def
  newpath tMatrix currentmatrix pop ulx rad add uly rad add translate
  rad rad scale 0 0 1 180 360 arc tMatrix setmatrix lrx rad sub lry rad
  sub translate rad rad scale 0 0 1 0 180 arc tMatrix setmatrix
  closepath} bdef
/FtbRR {MtbRR stroke } bdef
/PtbRR {MtbRR fill } bdef
/stri 6 array def /dtri 6 array def
/smat 6 array def /dmat 6 array def
/tmat1 6 array def /tmat2 6 array def /dif 3 array def
/asub {/ind2 exch def /ind1 exch def dup dup
  ind1 get exch ind2 get sub exch } bdef
/tri_to_matrix {
  2 0 asub 3 1 asub 4 0 asub 5 1 asub
  dup 0 get exch 1 get 7 -1 roll astore } bdef
/compute_transform {
  dmat dtri tri_to_matrix tmat1 invertmatrix 
  smat stri tri_to_matrix tmat2 concatmatrix } bdef
/ds {stri astore pop} bdef
/dt {dtri astore pop} bdef
/db {2 copy /cols xdef /rows xdef mul dup 3 mul string
  currentfile 
  3 index 0 eq {/ASCIIHexDecode filter}
  {/ASCII85Decode filter 3 index 2 eq {/RunLengthDecode filter} if }
  ifelse exch readstring pop
  dup 0 3 index getinterval /rbmap xdef
  dup 2 index dup getinterval /gbmap xdef
  1 index dup 2 mul exch getinterval /bbmap xdef pop pop}bdef
/it {gs np dtri aload pop moveto lineto lineto cp c
  cols rows 8 compute_transform 
  rbmap gbmap bbmap true 3 colorimage gr}bdef
/il {newpath moveto lineto stroke}bdef
currentdict end def
%%EndProlog

%%BeginSetup
MathWorks begin

0 cap

end
%%EndSetup

%%Page: 1 1
%%BeginPageSetup
%%PageBoundingBox:  -193   221   806   571
MathWorks begin
bpage
%%EndPageSetup

%%BeginObject: obj1
bplot

/dpi2point 12 def
portraitMode -2316 6852 csm

    0     0 11988  4195 rc
85 dict begin %Colortable dictionary
/c0 { 0.000000 0.000000 0.000000 sr} bdef
/c1 { 1.000000 1.000000 1.000000 sr} bdef
/c2 { 0.900000 0.000000 0.000000 sr} bdef
/c3 { 0.000000 0.820000 0.000000 sr} bdef
/c4 { 0.000000 0.000000 0.800000 sr} bdef
/c5 { 0.910000 0.820000 0.320000 sr} bdef
/c6 { 1.000000 0.260000 0.820000 sr} bdef
/c7 { 0.000000 0.820000 0.820000 sr} bdef
c0
1 j
1 sg
   0    0 11989 4196 rf
6 w
0 3190 3276 0 0 -3190 480 3692 4 MP
PP
-3276 0 0 3190 3276 0 0 -3190 480 3692 5 MP stroke
gs 480 503 3277 3190 rc
/c8 { 0.000000 0.000000 0.562500 sr} bdef
c8
2742  502 mt 2753  533 L
2753  533 mt 2765  568 L
2765  568 mt 2788  633 L
2788  633 mt 2811  698 L
2811  698 mt 2820  721 L
2820  721 mt 2835  763 L
2835  763 mt 2859  828 L
2859  828 mt 2883  893 L
2883  893 mt 2886  903 L
2886  903 mt 2907  958 L
2907  958 mt 2932 1023 L
2932 1023 mt 2953 1077 L
2953 1077 mt 2957 1088 L
2957 1088 mt 2983 1153 L
2983 1153 mt 3009 1218 L
3009 1218 mt 3020 1246 L
3020 1246 mt 3035 1283 L
3035 1283 mt 3062 1349 L
3062 1349 mt 3087 1409 L
3087 1409 mt 3089 1414 L
3089 1414 mt 3116 1479 L
3116 1479 mt 3144 1544 L
3144 1544 mt 3154 1566 L
3154 1566 mt 3173 1609 L
3173 1609 mt 3201 1674 L
3201 1674 mt 3221 1717 L
3221 1717 mt 3230 1739 L
3230 1739 mt 3260 1804 L
3260 1804 mt 3288 1863 L
3288 1863 mt 3290 1869 L
3290 1869 mt 3321 1934 L
3321 1934 mt 3352 1999 L
3352 1999 mt 3354 2004 L
3354 2004 mt 3384 2064 L
3384 2064 mt 3416 2130 L
3416 2130 mt 3421 2140 L
3421 2140 mt 3449 2195 L
3449 2195 mt 3483 2260 L
3483 2260 mt 3488 2270 L
3488 2270 mt 3517 2325 L
3517 2325 mt 3551 2390 L
3551 2390 mt 3555 2396 L
3555 2396 mt 3587 2455 L
3587 2455 mt 3622 2518 L
3622 2518 mt 3623 2520 L
3623 2520 mt 3660 2585 L
3660 2585 mt 3689 2634 L
3689 2634 mt 3698 2650 L
3698 2650 mt 3737 2715 L
3737 2715 mt 3756 2746 L
/c9 { 0.000000 0.000000 0.750000 sr} bdef
c9
1805  502 mt 1817  532 L
1817  532 mt 1830  568 L
1830  568 mt 1856  633 L
1856  633 mt 1881  698 L
1881  698 mt 1884  703 L
1884  703 mt 1907  763 L
1907  763 mt 1934  828 L
1934  828 mt 1950  868 L
1950  868 mt 1961  893 L
1961  893 mt 1988  958 L
1988  958 mt 2015 1023 L
2015 1023 mt 2017 1027 L
2017 1027 mt 2044 1088 L
2044 1088 mt 2072 1153 L
2072 1153 mt 2084 1181 L
2084 1181 mt 2101 1218 L
2101 1218 mt 2130 1283 L
2130 1283 mt 2151 1330 L
2151 1330 mt 2160 1349 L
2160 1349 mt 2190 1414 L
2190 1414 mt 2218 1474 L
2218 1474 mt 2220 1479 L
2220 1479 mt 2251 1544 L
2251 1544 mt 2283 1609 L
2283 1609 mt 2285 1613 L
2285 1613 mt 2315 1674 L
2315 1674 mt 2347 1739 L
2347 1739 mt 2352 1748 L
2352 1748 mt 2380 1804 L
2380 1804 mt 2413 1869 L
2413 1869 mt 2418 1879 L
2418 1879 mt 2448 1934 L
2448 1934 mt 2482 1999 L
2482 1999 mt 2485 2005 L
2485 2005 mt 2517 2064 L
2517 2064 mt 2552 2128 L
2552 2128 mt 2553 2130 L
2553 2130 mt 2589 2195 L
2589 2195 mt 2619 2247 L
2619 2247 mt 2626 2260 L
2626 2260 mt 2664 2325 L
2664 2325 mt 2686 2362 L
2686 2362 mt 2702 2390 L
2702 2390 mt 2741 2455 L
2741 2455 mt 2753 2474 L
2753 2474 mt 2781 2520 L
2781 2520 mt 2820 2583 L
2820 2583 mt 2821 2585 L
2821 2585 mt 2862 2650 L
2862 2650 mt 2886 2687 L
2886 2687 mt 2905 2715 L
2905 2715 mt 2948 2780 L
2948 2780 mt 2953 2789 L
2953 2789 mt 2992 2845 L
2992 2845 mt 3020 2887 L
3020 2887 mt 3036 2911 L
3036 2911 mt 3082 2976 L
3082 2976 mt 3087 2982 L
3087 2982 mt 3129 3041 L
3129 3041 mt 3154 3074 L
3154 3074 mt 3178 3106 L
3178 3106 mt 3221 3163 L
3221 3163 mt 3227 3171 L
3227 3171 mt 3278 3236 L
3278 3236 mt 3288 3248 L
3288 3248 mt 3330 3301 L
3330 3301 mt 3354 3331 L
3354 3331 mt 3383 3366 L
3383 3366 mt 3421 3411 L
3421 3411 mt 3438 3431 L
3438 3431 mt 3488 3489 L
3488 3489 mt 3494 3496 L
3494 3496 mt 3553 3561 L
3553 3561 mt 3555 3564 L
3555 3564 mt 3613 3626 L
3613 3626 mt 3622 3636 L
3622 3636 mt 3675 3692 L
/c10 { 0.000000 0.000000 0.937500 sr} bdef
c10
1056  502 mt 1081  567 L
1081  567 mt 1081  568 L
1081  568 mt 1108  633 L
1108  633 mt 1135  698 L
1135  698 mt 1148  729 L
1148  729 mt 1162  763 L
1162  763 mt 1190  828 L
1190  828 mt 1215  885 L
1215  885 mt 1219  893 L
1219  893 mt 1247  958 L
1247  958 mt 1276 1023 L
1276 1023 mt 1282 1035 L
1282 1035 mt 1306 1088 L
1306 1088 mt 1336 1153 L
1336 1153 mt 1349 1180 L
1349 1180 mt 1367 1218 L
1367 1218 mt 1398 1283 L
1398 1283 mt 1416 1319 L
1416 1319 mt 1430 1349 L
1430 1349 mt 1462 1414 L
1462 1414 mt 1482 1455 L
1482 1455 mt 1494 1479 L
1494 1479 mt 1528 1544 L
1528 1544 mt 1549 1586 L
1549 1586 mt 1561 1609 L
1561 1609 mt 1596 1674 L
1596 1674 mt 1616 1713 L
1616 1713 mt 1630 1739 L
1630 1739 mt 1666 1804 L
1666 1804 mt 1683 1836 L
1683 1836 mt 1701 1869 L
1701 1869 mt 1738 1934 L
1738 1934 mt 1750 1955 L
1750 1955 mt 1775 1999 L
1775 1999 mt 1813 2064 L
1813 2064 mt 1817 2071 L
1817 2071 mt 1851 2130 L
1851 2130 mt 1884 2184 L
1884 2184 mt 1890 2195 L
1890 2195 mt 1929 2260 L
1929 2260 mt 1950 2293 L
1950 2293 mt 1970 2325 L
1970 2325 mt 2011 2390 L
2011 2390 mt 2017 2400 L
2017 2400 mt 2053 2455 L
2053 2455 mt 2084 2503 L
2084 2503 mt 2095 2520 L
2095 2520 mt 2138 2585 L
2138 2585 mt 2151 2604 L
2151 2604 mt 2182 2650 L
2182 2650 mt 2218 2702 L
2218 2702 mt 2227 2715 L
2227 2715 mt 2273 2780 L
2273 2780 mt 2285 2796 L
2285 2796 mt 2320 2845 L
2320 2845 mt 2352 2888 L
2352 2888 mt 2368 2911 L
2368 2911 mt 2416 2976 L
2416 2976 mt 2418 2978 L
2418 2978 mt 2466 3041 L
2466 3041 mt 2485 3065 L
2485 3065 mt 2517 3106 L
2517 3106 mt 2552 3149 L
2552 3149 mt 2570 3171 L
2570 3171 mt 2619 3231 L
2619 3231 mt 2623 3236 L
2623 3236 mt 2678 3301 L
2678 3301 mt 2686 3310 L
2686 3310 mt 2734 3366 L
2734 3366 mt 2753 3387 L
2753 3387 mt 2792 3431 L
2792 3431 mt 2820 3461 L
2820 3461 mt 2852 3496 L
2852 3496 mt 2886 3533 L
2886 3533 mt 2913 3561 L
2913 3561 mt 2953 3603 L
2953 3603 mt 2976 3626 L
2976 3626 mt 3020 3671 L
3020 3671 mt 3041 3692 L
/c11 { 0.000000 0.187500 1.000000 sr} bdef
c11
2525 3692 mt 2485 3653 L
2485 3653 mt 2457 3626 L
2457 3626 mt 2418 3588 L
2418 3588 mt 2392 3561 L
2392 3561 mt 2352 3520 L
2352 3520 mt 2328 3496 L
2328 3496 mt 2285 3450 L
2285 3450 mt 2266 3431 L
2266 3431 mt 2218 3379 L
2218 3379 mt 2206 3366 L
2206 3366 mt 2151 3305 L
2151 3305 mt 2147 3301 L
2147 3301 mt 2090 3236 L
2090 3236 mt 2084 3229 L
2084 3229 mt 2035 3171 L
2035 3171 mt 2017 3150 L
2017 3150 mt 1980 3106 L
1980 3106 mt 1950 3069 L
1950 3069 mt 1927 3041 L
1927 3041 mt 1884 2987 L
1884 2987 mt 1875 2976 L
1875 2976 mt 1824 2911 L
1824 2911 mt 1817 2901 L
1817 2901 mt 1774 2845 L
1774 2845 mt 1750 2813 L
1750 2813 mt 1725 2780 L
1725 2780 mt 1683 2724 L
1683 2724 mt 1677 2715 L
1677 2715 mt 1630 2650 L
1630 2650 mt 1616 2631 L
1616 2631 mt 1584 2585 L
1584 2585 mt 1549 2536 L
1549 2536 mt 1538 2520 L
1538 2520 mt 1494 2455 L
1494 2455 mt 1482 2438 L
1482 2438 mt 1450 2390 L
1450 2390 mt 1416 2338 L
1416 2338 mt 1407 2325 L
1407 2325 mt 1364 2260 L
1364 2260 mt 1349 2235 L
1349 2235 mt 1323 2195 L
1323 2195 mt 1282 2130 L
1282 2130 mt 1282 2129 L
1282 2129 mt 1242 2064 L
1242 2064 mt 1215 2020 L
1215 2020 mt 1202 1999 L
1202 1999 mt 1163 1934 L
1163 1934 mt 1148 1908 L
1148 1908 mt 1125 1869 L
1125 1869 mt 1087 1804 L
1087 1804 mt 1081 1794 L
1081 1794 mt 1050 1739 L
1050 1739 mt 1014 1675 L
1014 1675 mt 1014 1674 L
1014 1674 mt  978 1609 L
 978 1609 mt  948 1554 L
 948 1554 mt  942 1544 L
 942 1544 mt  907 1479 L
 907 1479 mt  881 1428 L
 881 1428 mt  873 1414 L
 873 1414 mt  839 1349 L
 839 1349 mt  820 1312 L
 788 1250 mt  772 1218 L
 772 1218 mt  747 1169 L
 747 1169 mt  739 1153 L
 739 1153 mt  706 1088 L
 706 1088 mt  680 1036 L
 680 1036 mt  674 1023 L
 674 1023 mt  641  958 L
 641  958 mt  613  904 L
 613  904 mt  607  893 L
 607  893 mt  572  828 L
 572  828 mt  546  780 L
 546  780 mt  534  763 L
 534  763 mt  489  698 L
 489  698 mt  480  684 L
/c12 { 0.000000 0.375000 1.000000 sr} bdef
c12
2104 3692 mt 2084 3672 L
2084 3672 mt 2035 3626 L
2035 3626 mt 2017 3609 L
2017 3609 mt 1968 3561 L
1968 3561 mt 1950 3544 L
1950 3544 mt 1902 3496 L
1902 3496 mt 1884 3477 L
1884 3477 mt 1839 3431 L
1839 3431 mt 1817 3408 L
1817 3408 mt 1777 3366 L
1777 3366 mt 1750 3337 L
1750 3337 mt 1717 3301 L
1717 3301 mt 1683 3263 L
1683 3263 mt 1658 3236 L
1658 3236 mt 1616 3188 L
1616 3188 mt 1601 3171 L
1601 3171 mt 1549 3111 L
1549 3111 mt 1545 3106 L
1545 3106 mt 1490 3041 L
1490 3041 mt 1482 3032 L
1482 3032 mt 1436 2976 L
1436 2976 mt 1416 2950 L
1416 2950 mt 1384 2911 L
1384 2911 mt 1349 2866 L
1349 2866 mt 1332 2845 L
1332 2845 mt 1282 2781 L
1282 2781 mt 1282 2780 L
1282 2780 mt 1232 2715 L
1232 2715 mt 1215 2692 L
1215 2692 mt 1184 2650 L
1184 2650 mt 1148 2602 L
1148 2602 mt 1136 2585 L
1136 2585 mt 1089 2520 L
1089 2520 mt 1081 2509 L
1081 2509 mt 1043 2455 L
1043 2455 mt 1014 2414 L
1014 2414 mt  998 2390 L
 998 2390 mt  953 2325 L
 953 2325 mt  948 2317 L
 948 2317 mt  909 2260 L
 909 2260 mt  881 2217 L
 881 2217 mt  866 2195 L
 866 2195 mt  823 2130 L
 823 2130 mt  814 2115 L
 814 2115 mt  781 2064 L
 781 2064 mt  747 2012 L
 747 2012 mt  739 1999 L
 739 1999 mt  697 1934 L
 697 1934 mt  680 1907 L
 680 1907 mt  655 1869 L
 655 1869 mt  613 1804 L
 613 1804 mt  613 1804 L
 613 1804 mt  569 1739 L
 569 1739 mt  546 1705 L
 546 1705 mt  520 1674 L
 520 1674 mt  480 1625 L
/c13 { 0.000000 0.562500 1.000000 sr} bdef
c13
1763 3692 mt 1750 3679 L
1750 3679 mt 1692 3626 L
1692 3626 mt 1683 3618 L
1683 3618 mt 1624 3561 L
1624 3561 mt 1616 3554 L
1616 3554 mt 1557 3496 L
1557 3496 mt 1549 3488 L
1549 3488 mt 1493 3431 L
1493 3431 mt 1482 3420 L
1482 3420 mt 1430 3366 L
1430 3366 mt 1416 3350 L
1416 3350 mt 1369 3301 L
1369 3301 mt 1349 3279 L
1349 3279 mt 1310 3236 L
1310 3236 mt 1282 3205 L
1282 3205 mt 1252 3171 L
1252 3171 mt 1215 3129 L
1215 3129 mt 1195 3106 L
1195 3106 mt 1148 3051 L
1148 3051 mt 1139 3041 L
1139 3041 mt 1085 2976 L
1085 2976 mt 1081 2972 L
1081 2972 mt 1032 2911 L
1032 2911 mt 1014 2889 L
1014 2889 mt  980 2845 L
 980 2845 mt  948 2805 L
 948 2805 mt  928 2780 L
 928 2780 mt  881 2719 L
 881 2719 mt  878 2715 L
 878 2715 mt  829 2650 L
 829 2650 mt  814 2631 L
 814 2631 mt  780 2585 L
 780 2585 mt  747 2541 L
 747 2541 mt  732 2520 L
 732 2520 mt  684 2455 L
 684 2455 mt  680 2449 L
 680 2449 mt  637 2390 L
 637 2390 mt  613 2357 L
 613 2357 mt  589 2325 L
 589 2325 mt  546 2268 L
 546 2268 mt  540 2260 L
 540 2260 mt  486 2195 L
 486 2195 mt  480 2187 L
/c14 { 0.000000 0.812500 1.000000 sr} bdef
c14
1487 3692 mt 1482 3688 L
1482 3688 mt 1416 3627 L
1416 3627 mt 1415 3626 L
1415 3626 mt 1349 3563 L
1349 3563 mt 1347 3561 L
1347 3561 mt 1282 3498 L
1282 3498 mt 1280 3496 L
1280 3496 mt 1215 3431 L
1215 3431 mt 1215 3431 L
1215 3431 mt 1153 3366 L
1153 3366 mt 1148 3361 L
1148 3361 mt 1092 3301 L
1092 3301 mt 1081 3290 L
1081 3290 mt 1032 3236 L
1032 3236 mt 1014 3216 L
1014 3216 mt  974 3171 L
 974 3171 mt  948 3140 L
 948 3140 mt  918 3106 L
 918 3106 mt  881 3062 L
 881 3062 mt  863 3041 L
 863 3041 mt  814 2982 L
 814 2982 mt  808 2976 L
 808 2976 mt  755 2911 L
 755 2911 mt  747 2900 L
 747 2900 mt  704 2845 L
 704 2845 mt  680 2815 L
 680 2815 mt  653 2780 L
 653 2780 mt  613 2729 L
 613 2729 mt  602 2715 L
 602 2715 mt  552 2650 L
 552 2650 mt  546 2643 L
 546 2643 mt  501 2585 L
 501 2585 mt  480 2558 L
/c15 { 0.000000 1.000000 1.000000 sr} bdef
c15
1265 3692 mt 1215 3646 L
1215 3646 mt 1194 3626 L
1194 3626 mt 1148 3583 L
1148 3583 mt 1126 3561 L
1126 3561 mt 1081 3518 L
1081 3518 mt 1060 3496 L
1060 3496 mt 1014 3450 L
1014 3450 mt  996 3431 L
 996 3431 mt  948 3381 L
 948 3381 mt  934 3366 L
 934 3366 mt  881 3309 L
 881 3309 mt  874 3301 L
 874 3301 mt  815 3236 L
 815 3236 mt  814 3234 L
 814 3234 mt  759 3171 L
 759 3171 mt  749 3159 L
 602 2980 mt  599 2976 L
 599 2976 mt  548 2911 L
 548 2911 mt  546 2908 L
 546 2908 mt  500 2845 L
 500 2845 mt  480 2819 L
/c16 { 0.187500 1.000000 0.812500 sr} bdef
c16
1087 3692 mt 1081 3686 L
1081 3686 mt 1017 3626 L
1017 3626 mt 1014 3624 L
1014 3624 mt  950 3561 L
 950 3561 mt  948 3559 L
 948 3559 mt  886 3496 L
 886 3496 mt  881 3491 L
 881 3491 mt  824 3431 L
 824 3431 mt  814 3420 L
 814 3420 mt  764 3366 L
 764 3366 mt  747 3347 L
 747 3347 mt  707 3301 L
 707 3301 mt  680 3270 L
 680 3270 mt  652 3236 L
 652 3236 mt  613 3189 L
 613 3189 mt  599 3171 L
 599 3171 mt  548 3106 L
 548 3106 mt  546 3104 L
 546 3104 mt  501 3041 L
 501 3041 mt  480 3012 L
/c17 { 0.437500 1.000000 0.562500 sr} bdef
c17
 946 3692 mt  881 3629 L
 881 3629 mt  878 3626 L
 878 3626 mt  814 3562 L
 814 3562 mt  813 3561 L
 813 3561 mt  752 3496 L
 752 3496 mt  747 3491 L
 747 3491 mt  693 3431 L
 693 3431 mt  680 3417 L
 680 3417 mt  638 3366 L
 638 3366 mt  613 3337 L
 613 3337 mt  585 3301 L
 585 3301 mt  546 3252 L
 546 3252 mt  535 3236 L
 535 3236 mt  489 3171 L
 489 3171 mt  480 3159 L
/c18 { 0.625000 1.000000 0.375000 sr} bdef
c18
 837 3692 mt  814 3669 L
 814 3669 mt  771 3626 L
 771 3626 mt  747 3601 L
 747 3601 mt  710 3561 L
 710 3561 mt  680 3529 L
 680 3529 mt  652 3496 L
 652 3496 mt  613 3452 L
 613 3452 mt  597 3431 L
 597 3431 mt  546 3369 L
 546 3369 mt  545 3366 L
 545 3366 mt  501 3301 L
 501 3301 mt  480 3272 L
/c19 { 0.875000 1.000000 0.125000 sr} bdef
c19
 749 3692 mt  747 3689 L
 747 3689 mt  687 3626 L
 687 3626 mt  680 3619 L
 680 3619 mt  630 3561 L
 630 3561 mt  613 3543 L
 613 3543 mt  577 3496 L
 577 3496 mt  567 3484 L
 523 3423 mt  482 3366 L
 482 3366 mt  480 3363 L
/c20 { 1.000000 0.937500 0.000000 sr} bdef
c20
 682 3692 mt  680 3689 L
 680 3689 mt  624 3626 L
 624 3626 mt  613 3614 L
 613 3614 mt  571 3561 L
 571 3561 mt  546 3531 L
 546 3531 mt  524 3496 L
 524 3496 mt  480 3435 L
/c21 { 1.000000 0.750000 0.000000 sr} bdef
c21
 632 3692 mt  613 3671 L
 613 3671 mt  578 3626 L
 578 3626 mt  546 3589 L
 546 3589 mt  529 3561 L
 529 3561 mt  481 3496 L
 481 3496 mt  480 3494 L
/c22 { 1.000000 0.500000 0.000000 sr} bdef
c22
 594 3692 mt  546 3636 L
 546 3636 mt  540 3626 L
 540 3626 mt  496 3561 L
 496 3561 mt  480 3539 L
/c23 { 1.000000 0.312500 0.000000 sr} bdef
c23
 562 3692 mt  546 3674 L
 546 3674 mt  516 3626 L
 516 3626 mt  480 3578 L
/c24 { 1.000000 0.125000 0.000000 sr} bdef
c24
 538 3692 mt  492 3626 L
 492 3626 mt  480 3610 L
/c25 { 0.875000 0.000000 0.000000 sr} bdef
c25
 523 3692 mt  480 3636 L
/c26 { 0.687500 0.000000 0.000000 sr} bdef
c26
 508 3692 mt  480 3656 L
/c27 { 0.500000 0.000000 0.000000 sr} bdef
c27
 492 3692 mt  480 3675 L
0 sg
%%IncludeResource: font Helvetica
/Helvetica /ISOLatin1Encoding 120 FMSR

 755 1259 mt  -283 rotate
(2) s
283 rotate
 606 3006 mt  -290 rotate
(2.5) s
290 rotate
 494 3436 mt  -288 rotate
(3) s
288 rotate
gr

0 sg
%%IncludeResource: font Symbol
/Symbol /ISOLatin1Encoding 120 FMSR

2012 3949 mt 
(f) s
%%IncludeResource: font Symbol
/Symbol /ISOLatin1Encoding 96 FMSR

2074 4009 mt 
(D) s
%%IncludeResource: font Helvetica
/Helvetica /ISOLatin1Encoding 96 FMSR

2132 4009 mt 
( Y) s
%%IncludeResource: font Symbol
/Symbol /ISOLatin1Encoding 120 FMSR

 136 2203 mt  -90 rotate
(f) s
90 rotate
%%IncludeResource: font Symbol
/Symbol /ISOLatin1Encoding 96 FMSR

 196 2141 mt  -90 rotate
(D) s
90 rotate
%%IncludeResource: font Helvetica
/Helvetica /ISOLatin1Encoding 96 FMSR

 196 2083 mt  -90 rotate
( V) s
90 rotate
%%IncludeResource: font Symbol
/Symbol /ISOLatin1Encoding 120 FMSR

2049  354 mt 
(s) s
%%IncludeResource: font Helvetica
/Helvetica /ISOLatin1Encoding 96 FMSR

2121  414 mt 
(Y) s
gs 480 503 3277 3190 rc
24 w
DA
 902 3692 mt  881 3671 L
 881 3671 mt  835 3626 L
 835 3626 mt  814 3605 L
 814 3605 mt  771 3561 L
 771 3561 mt  747 3536 L
 747 3536 mt  711 3496 L
 711 3496 mt  680 3463 L
 680 3463 mt  653 3431 L
 653 3431 mt  613 3385 L
 613 3385 mt  599 3366 L
 599 3366 mt  547 3301 L
 547 3301 mt  546 3301 L
 546 3301 mt  502 3236 L
 502 3236 mt  480 3205 L
gr

24 w
DA
4 w
DO
SO
6 w
 480 3692 mt 3756 3692 L
 480  502 mt 3756  502 L
 480 3692 mt  480  502 L
3756 3692 mt 3756  502 L
 480 3692 mt 3756 3692 L
 480 3692 mt  480  502 L
 480 3692 mt  480 3659 L
 480  503 mt  480  535 L
%%IncludeResource: font Helvetica
/Helvetica /ISOLatin1Encoding 120 FMSR

 447 3837 mt 
(0) s
1135 3692 mt 1135 3659 L
1135  503 mt 1135  535 L
1102 3837 mt 
(1) s
1790 3692 mt 1790 3659 L
1790  503 mt 1790  535 L
1757 3837 mt 
(2) s
2445 3692 mt 2445 3659 L
2445  503 mt 2445  535 L
2412 3837 mt 
(3) s
3100 3692 mt 3100 3659 L
3100  503 mt 3100  535 L
3067 3837 mt 
(4) s
3756 3692 mt 3756 3659 L
3756  503 mt 3756  535 L
3723 3837 mt 
(5) s
 480 3692 mt  512 3692 L
3756 3692 mt 3723 3692 L
 379 3736 mt 
(0) s
 480 3373 mt  512 3373 L
3756 3373 mt 3723 3373 L
 279 3417 mt 
(0.5) s
 480 3054 mt  512 3054 L
3756 3054 mt 3723 3054 L
 379 3098 mt 
(1) s
 480 2735 mt  512 2735 L
3756 2735 mt 3723 2735 L
 279 2779 mt 
(1.5) s
 480 2416 mt  512 2416 L
3756 2416 mt 3723 2416 L
 379 2460 mt 
(2) s
 480 2097 mt  512 2097 L
3756 2097 mt 3723 2097 L
 279 2141 mt 
(2.5) s
 480 1778 mt  512 1778 L
3756 1778 mt 3723 1778 L
 379 1822 mt 
(3) s
 480 1459 mt  512 1459 L
3756 1459 mt 3723 1459 L
 279 1503 mt 
(3.5) s
 480 1140 mt  512 1140 L
3756 1140 mt 3723 1140 L
 379 1184 mt 
(4) s
 480  821 mt  512  821 L
3756  821 mt 3723  821 L
 279  865 mt 
(4.5) s
 480  503 mt  512  503 L
3756  503 mt 3723  503 L
 379  547 mt 
(5) s
 480 3692 mt 3756 3692 L
 480  502 mt 3756  502 L
 480 3692 mt  480  502 L
3756 3692 mt 3756  502 L
1 sg
0 3190 3276 0 0 -3190 4356 3692 4 MP
PP
-3276 0 0 3190 3276 0 0 -3190 4356 3692 5 MP stroke
gs 4356 503 3277 3190 rc
c8
4356 3193 mt 4422 3227 L
4422 3227 mt 4428 3236 L
4428 3236 mt 4448 3301 L
4448 3301 mt 4444 3366 L
4444 3366 mt 4422 3401 L
4422 3401 mt 4356 3407 L
/c28 { 0.000000 0.000000 0.625000 sr} bdef
c28
4356 3051 mt 4422 3083 L
4422 3083 mt 4441 3106 L
4441 3106 mt 4485 3171 L
4485 3171 mt 4489 3180 L
4489 3180 mt 4509 3236 L
4509 3236 mt 4520 3301 L
4520 3301 mt 4516 3366 L
4516 3366 mt 4490 3431 L
4490 3431 mt 4489 3432 L
4489 3432 mt 4422 3474 L
4422 3474 mt 4356 3465 L
c9
4356 2907 mt 4361 2911 L
4361 2911 mt 4422 2949 L
4422 2949 mt 4446 2976 L
4446 2976 mt 4489 3027 L
4489 3027 mt 4498 3041 L
4498 3041 mt 4533 3106 L
4533 3106 mt 4556 3162 L
4556 3162 mt 4559 3171 L
4559 3171 mt 4575 3236 L
4575 3236 mt 4577 3261 L
4536 3450 mt 4494 3496 L
4494 3496 mt 4489 3499 L
4489 3499 mt 4422 3516 L
4422 3516 mt 4356 3505 L
/c29 { 0.000000 0.000000 0.875000 sr} bdef
c29
4356 2742 mt 4396 2780 L
4396 2780 mt 4422 2802 L
4422 2802 mt 4460 2845 L
4460 2845 mt 4489 2879 L
4489 2879 mt 4510 2911 L
4510 2911 mt 4551 2976 L
4551 2976 mt 4556 2984 L
4556 2984 mt 4583 3041 L
4583 3041 mt 4608 3106 L
4608 3106 mt 4623 3159 L
4623 3159 mt 4626 3171 L
4626 3171 mt 4637 3236 L
4637 3236 mt 4640 3301 L
4640 3301 mt 4633 3366 L
4633 3366 mt 4623 3397 L
4623 3397 mt 4612 3431 L
4612 3431 mt 4567 3496 L
4567 3496 mt 4556 3505 L
4556 3505 mt 4489 3540 L
4489 3540 mt 4422 3549 L
4422 3549 mt 4356 3531 L
c10
4356 2544 mt 4384 2585 L
4384 2585 mt 4422 2633 L
4422 2633 mt 4435 2650 L
4435 2650 mt 4487 2715 L
4487 2715 mt 4489 2718 L
4489 2718 mt 4532 2780 L
4532 2780 mt 4556 2817 L
4556 2817 mt 4572 2845 L
4572 2845 mt 4607 2911 L
4607 2911 mt 4623 2945 L
4623 2945 mt 4636 2976 L
4636 2976 mt 4660 3041 L
4660 3041 mt 4678 3106 L
4678 3106 mt 4690 3162 L
4690 3162 mt 4691 3171 L
4691 3171 mt 4698 3236 L
4698 3236 mt 4698 3301 L
4698 3301 mt 4690 3365 L
4690 3365 mt 4690 3366 L
4690 3366 mt 4669 3431 L
4669 3431 mt 4630 3496 L
4630 3496 mt 4623 3503 L
4623 3503 mt 4556 3554 L
4556 3554 mt 4541 3561 L
4541 3561 mt 4489 3574 L
4489 3574 mt 4422 3574 L
4422 3574 mt 4371 3561 L
4371 3561 mt 4356 3557 L
/c30 { 0.000000 0.062500 1.000000 sr} bdef
c30
4356 2300 mt 4367 2325 L
4367 2325 mt 4399 2390 L
4399 2390 mt 4422 2431 L
4422 2431 mt 4437 2455 L
4437 2455 mt 4480 2520 L
4480 2520 mt 4489 2533 L
4489 2533 mt 4523 2585 L
4523 2585 mt 4556 2636 L
4556 2636 mt 4564 2650 L
4564 2650 mt 4602 2715 L
4602 2715 mt 4623 2753 L
4623 2753 mt 4636 2780 L
4636 2780 mt 4667 2845 L
4667 2845 mt 4690 2901 L
4690 2901 mt 4693 2911 L
4693 2911 mt 4716 2976 L
4716 2976 mt 4734 3041 L
4734 3041 mt 4748 3106 L
4748 3106 mt 4757 3169 L
4757 3169 mt 4757 3171 L
4757 3171 mt 4761 3236 L
4761 3236 mt 4758 3301 L
4758 3301 mt 4757 3309 L
4757 3309 mt 4748 3366 L
4748 3366 mt 4727 3431 L
4727 3431 mt 4691 3496 L
4691 3496 mt 4690 3497 L
4690 3497 mt 4623 3561 L
4623 3561 mt 4623 3561 L
4623 3561 mt 4556 3590 L
4556 3590 mt 4489 3601 L
4489 3601 mt 4422 3596 L
4422 3596 mt 4356 3574 L
c11
4356 1991 mt 4358 1999 L
4358 1999 mt 4378 2064 L
4378 2064 mt 4400 2130 L
4400 2130 mt 4422 2186 L
4422 2186 mt 4426 2195 L
4426 2195 mt 4459 2260 L
4459 2260 mt 4489 2316 L
4489 2316 mt 4494 2325 L
4494 2325 mt 4532 2390 L
4532 2390 mt 4556 2431 L
4556 2431 mt 4570 2455 L
4570 2455 mt 4607 2520 L
4607 2520 mt 4623 2549 L
4623 2549 mt 4642 2585 L
4642 2585 mt 4675 2650 L
4675 2650 mt 4690 2682 L
4690 2682 mt 4705 2715 L
4705 2715 mt 4732 2780 L
4732 2780 mt 4756 2845 L
4756 2845 mt 4757 2848 L
4757 2848 mt 4777 2911 L
4777 2911 mt 4794 2976 L
4794 2976 mt 4808 3041 L
4808 3041 mt 4818 3106 L
4818 3106 mt 4823 3171 L
4823 3171 mt 4824 3188 L
4824 3188 mt 4824 3236 L
4824 3236 mt 4824 3243 L
4824 3243 mt 4823 3246 L
4783 3436 mt 4757 3486 L
4757 3486 mt 4751 3496 L
4751 3496 mt 4692 3561 L
4692 3561 mt 4690 3563 L
4690 3563 mt 4623 3601 L
4623 3601 mt 4556 3623 L
4556 3623 mt 4515 3626 L
4515 3626 mt 4489 3628 L
4489 3628 mt 4480 3626 L
4480 3626 mt 4422 3617 L
4422 3617 mt 4356 3590 L
/c31 { 0.000000 0.312500 1.000000 sr} bdef
c31
4356 1597 mt 4358 1609 L
4358 1609 mt 4371 1674 L
4371 1674 mt 4386 1739 L
4386 1739 mt 4401 1804 L
4401 1804 mt 4419 1869 L
4419 1869 mt 4422 1883 L
4422 1883 mt 4441 1934 L
4441 1934 mt 4466 1999 L
4466 1999 mt 4489 2054 L
4489 2054 mt 4494 2064 L
4494 2064 mt 4525 2130 L
4525 2130 mt 4556 2190 L
4556 2190 mt 4558 2195 L
4558 2195 mt 4592 2260 L
4592 2260 mt 4623 2318 L
4623 2318 mt 4627 2325 L
4627 2325 mt 4660 2390 L
4660 2390 mt 4690 2449 L
4690 2449 mt 4692 2455 L
4692 2455 mt 4723 2520 L
4723 2520 mt 4752 2585 L
4752 2585 mt 4757 2597 L
4757 2597 mt 4778 2650 L
4778 2650 mt 4802 2715 L
4802 2715 mt 4824 2780 L
4824 2780 mt 4824 2780 L
4824 2780 mt 4843 2845 L
4843 2845 mt 4859 2911 L
4859 2911 mt 4872 2976 L
4872 2976 mt 4882 3041 L
4882 3041 mt 4889 3106 L
4889 3106 mt 4890 3151 L
4890 3151 mt 4891 3171 L
4891 3171 mt 4890 3198 L
4890 3198 mt 4889 3236 L
4889 3236 mt 4882 3301 L
4882 3301 mt 4869 3366 L
4869 3366 mt 4847 3431 L
4847 3431 mt 4824 3475 L
4824 3475 mt 4813 3496 L
4813 3496 mt 4759 3561 L
4759 3561 mt 4757 3563 L
4757 3563 mt 4690 3609 L
4690 3609 mt 4655 3626 L
4655 3626 mt 4623 3636 L
4623 3636 mt 4556 3647 L
4556 3647 mt 4489 3646 L
4489 3646 mt 4422 3634 L
4422 3634 mt 4402 3626 L
4402 3626 mt 4356 3606 L
c12
4356 1090 mt 4364 1153 L
4364 1153 mt 4374 1218 L
4374 1218 mt 4384 1283 L
4384 1283 mt 4394 1349 L
4394 1349 mt 4405 1414 L
4405 1414 mt 4418 1479 L
4418 1479 mt 4422 1503 L
4422 1503 mt 4433 1544 L
4433 1544 mt 4451 1609 L
4451 1609 mt 4470 1674 L
4470 1674 mt 4489 1735 L
4489 1735 mt 4491 1739 L
4491 1739 mt 4516 1804 L
4516 1804 mt 4542 1869 L
4542 1869 mt 4556 1903 L
4556 1903 mt 4570 1934 L
4570 1934 mt 4600 1999 L
4600 1999 mt 4623 2049 L
4623 2049 mt 4630 2064 L
4630 2064 mt 4662 2130 L
4662 2130 mt 4690 2188 L
4690 2188 mt 4693 2195 L
4693 2195 mt 4723 2260 L
4723 2260 mt 4753 2325 L
4753 2325 mt 4757 2333 L
4757 2333 mt 4781 2390 L
4781 2390 mt 4808 2455 L
4808 2455 mt 4824 2494 L
4824 2494 mt 4833 2520 L
4833 2520 mt 4857 2585 L
4857 2585 mt 4878 2650 L
4878 2650 mt 4890 2691 L
4890 2691 mt 4897 2715 L
4897 2715 mt 4914 2780 L
4914 2780 mt 4929 2845 L
4929 2845 mt 4941 2911 L
4941 2911 mt 4951 2976 L
4951 2976 mt 4957 3037 L
4957 3037 mt 4958 3041 L
4958 3041 mt 4961 3106 L
4961 3106 mt 4961 3171 L
4961 3171 mt 4957 3224 L
4957 3224 mt 4956 3236 L
4956 3236 mt 4947 3301 L
4947 3301 mt 4932 3366 L
4932 3366 mt 4909 3431 L
4909 3431 mt 4890 3467 L
4890 3467 mt 4875 3496 L
4875 3496 mt 4824 3561 L
4824 3561 mt 4824 3562 L
4824 3562 mt 4757 3615 L
4757 3615 mt 4739 3626 L
4739 3626 mt 4690 3647 L
4690 3647 mt 4623 3664 L
4623 3664 mt 4556 3670 L
4556 3670 mt 4489 3665 L
4489 3665 mt 4422 3648 L
4422 3648 mt 4366 3626 L
4366 3626 mt 4356 3622 L
/c32 { 0.000000 0.500000 1.000000 sr} bdef
c32
4361  502 mt 4368  568 L
4368  568 mt 4374  633 L
4374  633 mt 4381  698 L
4381  698 mt 4389  763 L
4389  763 mt 4397  828 L
4397  828 mt 4405  893 L
4405  893 mt 4413  958 L
4413  958 mt 4422 1023 L
4422 1023 mt 4422 1026 L
4422 1026 mt 4434 1088 L
4434 1088 mt 4447 1153 L
4447 1153 mt 4461 1218 L
4461 1218 mt 4476 1283 L
4476 1283 mt 4489 1341 L
4489 1341 mt 4491 1349 L
4491 1349 mt 4511 1414 L
4511 1414 mt 4531 1479 L
4531 1479 mt 4552 1544 L
4552 1544 mt 4556 1557 L
4556 1557 mt 4576 1609 L
4576 1609 mt 4601 1674 L
4601 1674 mt 4623 1730 L
4623 1730 mt 4627 1739 L
4627 1739 mt 4654 1804 L
4654 1804 mt 4683 1869 L
4683 1869 mt 4690 1885 L
4690 1885 mt 4711 1934 L
4711 1934 mt 4740 1999 L
4740 1999 mt 4757 2037 L
4757 2037 mt 4769 2064 L
4769 2064 mt 4797 2130 L
4797 2130 mt 4824 2194 L
4824 2194 mt 4824 2195 L
4824 2195 mt 4850 2260 L
4850 2260 mt 4875 2325 L
4875 2325 mt 4890 2367 L
4890 2367 mt 4898 2390 L
4898 2390 mt 4920 2455 L
4920 2455 mt 4941 2520 L
4941 2520 mt 4957 2576 L
4957 2576 mt 4960 2585 L
4960 2585 mt 4977 2650 L
4977 2650 mt 4992 2715 L
4992 2715 mt 5005 2780 L
5005 2780 mt 5016 2845 L
5016 2845 mt 5024 2904 L
5024 2904 mt 5025 2911 L
5025 2911 mt 5031 2976 L
5031 2976 mt 5035 3041 L
5035 3041 mt 5035 3106 L
5035 3106 mt 5033 3171 L
5033 3171 mt 5026 3236 L
5026 3236 mt 5024 3245 L
5024 3245 mt 5014 3301 L
5014 3301 mt 4998 3366 L
4998 3366 mt 4973 3431 L
4973 3431 mt 4957 3462 L
4957 3462 mt 4939 3496 L
4939 3496 mt 4891 3561 L
4891 3561 mt 4890 3561 L
4890 3561 mt 4824 3620 L
4824 3620 mt 4815 3626 L
4815 3626 mt 4757 3656 L
4757 3656 mt 4690 3680 L
4690 3680 mt 4628 3692 L
4545 3692 mt 4489 3683 L
4489 3683 mt 4422 3663 L
4422 3663 mt 4356 3633 L
/c33 { 0.000000 0.625000 1.000000 sr} bdef
c33
4433  502 mt 4443  568 L
4443  568 mt 4453  633 L
4453  633 mt 4463  698 L
4463  698 mt 4474  763 L
4474  763 mt 4485  828 L
4485  828 mt 4489  852 L
4489  852 mt 4498  893 L
4498  893 mt 4513  958 L
4513  958 mt 4528 1023 L
4528 1023 mt 4545 1088 L
4545 1088 mt 4556 1133 L
4556 1133 mt 4562 1153 L
4562 1153 mt 4582 1218 L
4582 1218 mt 4602 1283 L
4602 1283 mt 4623 1346 L
4623 1346 mt 4624 1349 L
4624 1349 mt 4647 1414 L
4647 1414 mt 4671 1479 L
4671 1479 mt 4690 1527 L
4690 1527 mt 4696 1544 L
4696 1544 mt 4722 1609 L
4722 1609 mt 4749 1674 L
4749 1674 mt 4757 1693 L
4757 1693 mt 4775 1739 L
4775 1739 mt 4802 1804 L
4802 1804 mt 4824 1857 L
4824 1857 mt 4829 1869 L
4829 1869 mt 4855 1934 L
4855 1934 mt 4880 1999 L
4880 1999 mt 4890 2026 L
4890 2026 mt 4905 2064 L
4905 2064 mt 4929 2130 L
4929 2130 mt 4952 2195 L
4952 2195 mt 4957 2211 L
4957 2211 mt 4973 2260 L
4973 2260 mt 4994 2325 L
4994 2325 mt 5013 2390 L
5013 2390 mt 5024 2429 L
5024 2429 mt 5031 2455 L
5031 2455 mt 5048 2520 L
5048 2520 mt 5062 2585 L
5062 2585 mt 5076 2650 L
5076 2650 mt 5087 2715 L
5087 2715 mt 5091 2741 L
5091 2741 mt 5097 2780 L
5097 2780 mt 5104 2845 L
5104 2845 mt 5110 2911 L
5110 2911 mt 5112 2941 L
5110 3133 mt 5106 3171 L
5106 3171 mt 5097 3236 L
5097 3236 mt 5091 3266 L
5091 3266 mt 5084 3301 L
5084 3301 mt 5065 3366 L
5065 3366 mt 5040 3431 L
5040 3431 mt 5024 3460 L
5024 3460 mt 5005 3496 L
5005 3496 mt 4958 3561 L
4958 3561 mt 4957 3562 L
4957 3562 mt 4890 3625 L
4890 3625 mt 4888 3626 L
4888 3626 mt 4824 3664 L
4824 3664 mt 4762 3692 L
4466 3692 mt 4422 3677 L
4422 3677 mt 4356 3642 L
/c34 { 0.000000 0.750000 1.000000 sr} bdef
c34
4425 3692 mt 4422 3691 L
4422 3691 mt 4356 3651 L
4535  502 mt 4547  568 L
4547  568 mt 4556  612 L
4556  612 mt 4561  633 L
4561  633 mt 4576  698 L
4576  698 mt 4593  763 L
4593  763 mt 4609  828 L
4609  828 mt 4623  880 L
4623  880 mt 4627  893 L
4627  893 mt 4646  958 L
4646  958 mt 4666 1023 L
4666 1023 mt 4687 1088 L
4687 1088 mt 4690 1097 L
4690 1097 mt 4709 1153 L
4709 1153 mt 4732 1218 L
4732 1218 mt 4755 1283 L
4755 1283 mt 4757 1288 L
4757 1288 mt 4779 1349 L
4779 1349 mt 4804 1414 L
4804 1414 mt 4824 1466 L
4824 1466 mt 4829 1479 L
4829 1479 mt 4853 1544 L
4853 1544 mt 4878 1609 L
4878 1609 mt 4890 1640 L
4890 1640 mt 4903 1674 L
4903 1674 mt 4927 1739 L
4927 1739 mt 4951 1804 L
4951 1804 mt 4957 1821 L
4957 1821 mt 4974 1869 L
4974 1869 mt 4997 1934 L
4997 1934 mt 5019 1999 L
5019 1999 mt 5024 2016 L
5024 2016 mt 5039 2064 L
5039 2064 mt 5059 2130 L
5059 2130 mt 5078 2195 L
5078 2195 mt 5091 2242 L
5091 2242 mt 5096 2260 L
5096 2260 mt 5112 2325 L
5112 2325 mt 5128 2390 L
5128 2390 mt 5142 2455 L
5142 2455 mt 5154 2520 L
5154 2520 mt 5158 2540 L
5158 2540 mt 5166 2585 L
5166 2585 mt 5175 2650 L
5175 2650 mt 5183 2715 L
5183 2715 mt 5190 2780 L
5190 2780 mt 5194 2845 L
5194 2845 mt 5197 2911 L
5197 2911 mt 5197 2976 L
5197 2976 mt 5195 3041 L
5195 3041 mt 5190 3106 L
5190 3106 mt 5183 3171 L
5183 3171 mt 5171 3236 L
5171 3236 mt 5158 3291 L
5158 3291 mt 5156 3301 L
5156 3301 mt 5135 3366 L
5135 3366 mt 5108 3431 L
5108 3431 mt 5091 3463 L
5091 3463 mt 5073 3496 L
5073 3496 mt 5027 3561 L
5027 3561 mt 5024 3564 L
5024 3564 mt 4961 3626 L
4961 3626 mt 4957 3629 L
4957 3629 mt 4890 3672 L
4890 3672 mt 4855 3692 L
c14
4408 3692 mt 4356 3660 L
4670  502 mt 4687  568 L
4687  568 mt 4690  578 L
4690  578 mt 4706  633 L
4706  633 mt 4725  698 L
4725  698 mt 4744  763 L
4744  763 mt 4757  803 L
4757  803 mt 4765  828 L
4765  828 mt 4786  893 L
4786  893 mt 4808  958 L
4808  958 mt 4824 1004 L
4824 1004 mt 4830 1023 L
4830 1023 mt 4853 1088 L
4853 1088 mt 4876 1153 L
4876 1153 mt 4890 1193 L
4890 1193 mt 4899 1218 L
4899 1218 mt 4923 1283 L
4923 1283 mt 4946 1349 L
4946 1349 mt 4957 1380 L
4957 1380 mt 4969 1414 L
4969 1414 mt 4992 1479 L
4992 1479 mt 5015 1544 L
5015 1544 mt 5024 1571 L
5024 1571 mt 5037 1609 L
5037 1609 mt 5058 1674 L
5058 1674 mt 5079 1739 L
5079 1739 mt 5091 1776 L
5091 1776 mt 5100 1804 L
5100 1804 mt 5119 1869 L
5119 1869 mt 5138 1934 L
5138 1934 mt 5156 1999 L
5156 1999 mt 5158 2007 L
5158 2007 mt 5173 2064 L
5173 2064 mt 5189 2130 L
5189 2130 mt 5204 2195 L
5204 2195 mt 5218 2260 L
5218 2260 mt 5225 2294 L
5225 2294 mt 5231 2325 L
5231 2325 mt 5242 2390 L
5242 2390 mt 5253 2455 L
5253 2455 mt 5262 2520 L
5262 2520 mt 5270 2585 L
5270 2585 mt 5276 2650 L
5276 2650 mt 5281 2715 L
5281 2715 mt 5284 2780 L
5284 2780 mt 5286 2845 L
5286 2845 mt 5286 2911 L
5286 2911 mt 5283 2976 L
5283 2976 mt 5279 3041 L
5279 3041 mt 5271 3106 L
5271 3106 mt 5261 3171 L
5261 3171 mt 5248 3236 L
5248 3236 mt 5230 3301 L
5230 3301 mt 5225 3316 L
5225 3316 mt 5208 3366 L
5208 3366 mt 5180 3431 L
5180 3431 mt 5158 3470 L
5158 3470 mt 5144 3496 L
5144 3496 mt 5097 3561 L
5097 3561 mt 5091 3568 L
5091 3568 mt 5034 3626 L
5034 3626 mt 5024 3634 L
5024 3634 mt 4957 3681 L
4957 3681 mt 4940 3692 L
/c35 { 0.000000 0.937500 1.000000 sr} bdef
c35
4393 3692 mt 4356 3669 L
4839  502 mt 4859  568 L
4859  568 mt 4880  633 L
4880  633 mt 4890  665 L
4890  665 mt 4901  698 L
4901  698 mt 4923  763 L
4923  763 mt 4945  828 L
4945  828 mt 4957  866 L
4957  866 mt 4966  893 L
4966  893 mt 4988  958 L
4988  958 mt 5010 1023 L
5010 1023 mt 5024 1064 L
5024 1064 mt 5032 1088 L
5032 1088 mt 5054 1153 L
5054 1153 mt 5075 1218 L
5075 1218 mt 5091 1266 L
5091 1266 mt 5097 1283 L
5097 1283 mt 5117 1349 L
5117 1349 mt 5138 1414 L
5138 1414 mt 5158 1479 L
5158 1479 mt 5158 1479 L
5158 1479 mt 5177 1544 L
5177 1544 mt 5196 1609 L
5196 1609 mt 5214 1674 L
5214 1674 mt 5225 1715 L
5225 1715 mt 5231 1739 L
5231 1739 mt 5248 1804 L
5248 1804 mt 5264 1869 L
5264 1869 mt 5279 1934 L
5279 1934 mt 5292 1994 L
5292 1994 mt 5293 1999 L
5293 1999 mt 5306 2064 L
5306 2064 mt 5318 2130 L
5318 2130 mt 5330 2195 L
5330 2195 mt 5340 2260 L
5340 2260 mt 5350 2325 L
5350 2325 mt 5358 2390 L
5358 2390 mt 5358 2394 L
5358 2394 mt 5365 2455 L
5365 2455 mt 5371 2520 L
5371 2520 mt 5376 2585 L
5376 2585 mt 5379 2650 L
5379 2650 mt 5381 2715 L
5381 2715 mt 5381 2780 L
5381 2780 mt 5380 2845 L
5380 2845 mt 5377 2911 L
5377 2911 mt 5372 2976 L
5372 2976 mt 5364 3041 L
5364 3041 mt 5358 3080 L
5358 3080 mt 5355 3106 L
5355 3106 mt 5342 3171 L
5342 3171 mt 5326 3236 L
5326 3236 mt 5307 3301 L
5307 3301 mt 5292 3342 L
5292 3342 mt 5283 3366 L
5283 3366 mt 5253 3431 L
5253 3431 mt 5225 3481 L
5225 3481 mt 5216 3496 L
5216 3496 mt 5170 3561 L
5170 3561 mt 5158 3574 L
5158 3574 mt 5108 3626 L
5108 3626 mt 5091 3640 L
5091 3640 mt 5024 3690 L
5024 3690 mt 5022 3692 L
/c36 { 0.062500 1.000000 0.937500 sr} bdef
c36
4378 3692 mt 4356 3678 L
5034  502 mt 5055  568 L
5055  568 mt 5076  633 L
5076  633 mt 5091  681 L
5091  681 mt 5096  698 L
5096  698 mt 5117  763 L
5117  763 mt 5138  828 L
5138  828 mt 5158  892 L
5158  892 mt 5158  893 L
5158  893 mt 5178  958 L
5178  958 mt 5198 1023 L
5198 1023 mt 5217 1088 L
5217 1088 mt 5225 1113 L
5225 1113 mt 5236 1153 L
5236 1153 mt 5255 1218 L
5255 1218 mt 5273 1283 L
5273 1283 mt 5290 1349 L
5290 1349 mt 5292 1353 L
5292 1353 mt 5307 1414 L
5307 1414 mt 5324 1479 L
5324 1479 mt 5340 1544 L
5340 1544 mt 5355 1609 L
5355 1609 mt 5358 1625 L
5358 1625 mt 5369 1674 L
5369 1674 mt 5383 1739 L
5383 1739 mt 5396 1804 L
5396 1804 mt 5408 1869 L
5408 1869 mt 5419 1934 L
5419 1934 mt 5425 1969 L
5425 1969 mt 5430 1999 L
5430 1999 mt 5440 2064 L
5440 2064 mt 5449 2130 L
5449 2130 mt 5457 2195 L
5457 2195 mt 5464 2260 L
5464 2260 mt 5470 2325 L
5470 2325 mt 5475 2390 L
5475 2390 mt 5479 2455 L
5479 2455 mt 5482 2520 L
5482 2520 mt 5483 2585 L
5483 2585 mt 5484 2650 L
5484 2650 mt 5483 2715 L
5483 2715 mt 5480 2780 L
5480 2780 mt 5476 2845 L
5476 2845 mt 5470 2911 L
5470 2911 mt 5468 2934 L
5436 3125 mt 5426 3171 L
5426 3171 mt 5425 3173 L
5425 3173 mt 5408 3236 L
5408 3236 mt 5386 3301 L
5386 3301 mt 5360 3366 L
5360 3366 mt 5358 3370 L
5358 3370 mt 5329 3431 L
5329 3431 mt 5292 3496 L
5292 3496 mt 5291 3496 L
5291 3496 mt 5244 3561 L
5244 3561 mt 5225 3583 L
5225 3583 mt 5184 3626 L
5184 3626 mt 5158 3648 L
5158 3648 mt 5103 3692 L
/c37 { 0.125000 1.000000 0.875000 sr} bdef
c37
4363 3692 mt 4356 3687 L
5184 3692 mt 5225 3658 L
5225 3658 mt 5262 3626 L
5262 3626 mt 5292 3594 L
5292 3594 mt 5321 3561 L
5321 3561 mt 5358 3510 L
5358 3510 mt 5369 3496 L
5369 3496 mt 5408 3431 L
5408 3431 mt 5425 3396 L
5425 3396 mt 5441 3366 L
5441 3366 mt 5469 3301 L
5469 3301 mt 5492 3236 L
5492 3236 mt 5492 3236 L
5492 3236 mt 5512 3171 L
5512 3171 mt 5530 3106 L
5530 3106 mt 5544 3041 L
5544 3041 mt 5556 2976 L
5556 2976 mt 5559 2958 L
5559 2958 mt 5567 2911 L
5567 2911 mt 5575 2845 L
5575 2845 mt 5582 2780 L
5582 2780 mt 5587 2715 L
5587 2715 mt 5591 2650 L
5591 2650 mt 5594 2585 L
5594 2585 mt 5595 2520 L
5595 2520 mt 5595 2455 L
5595 2455 mt 5594 2390 L
5594 2390 mt 5592 2325 L
5592 2325 mt 5589 2260 L
5589 2260 mt 5585 2195 L
5585 2195 mt 5581 2130 L
5581 2130 mt 5575 2064 L
5575 2064 mt 5569 1999 L
5569 1999 mt 5561 1934 L
5561 1934 mt 5559 1915 L
5559 1915 mt 5553 1869 L
5553 1869 mt 5545 1804 L
5545 1804 mt 5535 1739 L
5535 1739 mt 5525 1674 L
5525 1674 mt 5514 1609 L
5514 1609 mt 5503 1544 L
5503 1544 mt 5492 1488 L
5492 1488 mt 5490 1479 L
5490 1479 mt 5478 1414 L
5478 1414 mt 5464 1349 L
5464 1349 mt 5450 1283 L
5450 1283 mt 5436 1218 L
5436 1218 mt 5425 1173 L
5425 1173 mt 5421 1153 L
5421 1153 mt 5405 1088 L
5405 1088 mt 5389 1023 L
5389 1023 mt 5372  958 L
5372  958 mt 5358  905 L
5358  905 mt 5355  893 L
5355  893 mt 5338  828 L
5338  828 mt 5320  763 L
5320  763 mt 5301  698 L
5301  698 mt 5292  663 L
5292  663 mt 5283  633 L
5283  633 mt 5264  568 L
5264  568 mt 5245  502 L
/c38 { 0.250000 1.000000 0.750000 sr} bdef
c38
5266 3692 mt 5292 3670 L
5292 3670 mt 5341 3626 L
5341 3626 mt 5358 3608 L
5358 3608 mt 5401 3561 L
5401 3561 mt 5425 3528 L
5425 3528 mt 5449 3496 L
5449 3496 mt 5489 3431 L
5489 3431 mt 5492 3426 L
5492 3426 mt 5524 3366 L
5524 3366 mt 5553 3301 L
5553 3301 mt 5559 3287 L
5559 3287 mt 5579 3236 L
5579 3236 mt 5602 3171 L
5602 3171 mt 5621 3106 L
5621 3106 mt 5626 3087 L
5626 3087 mt 5638 3041 L
5638 3041 mt 5653 2976 L
5653 2976 mt 5666 2911 L
5666 2911 mt 5677 2845 L
5677 2845 mt 5686 2780 L
5686 2780 mt 5693 2726 L
5693 2726 mt 5694 2715 L
5694 2715 mt 5701 2650 L
5701 2650 mt 5706 2585 L
5706 2585 mt 5710 2520 L
5710 2520 mt 5713 2455 L
5713 2455 mt 5715 2390 L
5715 2390 mt 5716 2325 L
5716 2325 mt 5717 2260 L
5717 2260 mt 5716 2195 L
5716 2195 mt 5714 2130 L
5714 2130 mt 5712 2064 L
5712 2064 mt 5709 1999 L
5709 1999 mt 5705 1934 L
5705 1934 mt 5700 1869 L
5700 1869 mt 5695 1804 L
5695 1804 mt 5693 1783 L
5693 1783 mt 5689 1739 L
5689 1739 mt 5682 1674 L
5682 1674 mt 5674 1609 L
5674 1609 mt 5666 1544 L
5666 1544 mt 5658 1479 L
5658 1479 mt 5649 1414 L
5649 1414 mt 5639 1349 L
5639 1349 mt 5628 1283 L
5628 1283 mt 5626 1267 L
5626 1267 mt 5618 1218 L
5618 1218 mt 5606 1153 L
5606 1153 mt 5594 1088 L
5594 1088 mt 5581 1023 L
5581 1023 mt 5568  958 L
5568  958 mt 5559  913 L
5559  913 mt 5555  893 L
5555  893 mt 5541  828 L
5541  828 mt 5526  763 L
5526  763 mt 5511  698 L
5511  698 mt 5496  633 L
5496  633 mt 5492  617 L
5492  617 mt 5480  568 L
5480  568 mt 5464  502 L
/c39 { 0.375000 1.000000 0.625000 sr} bdef
c39
5349 3692 mt 5358 3684 L
5358 3684 mt 5423 3626 L
5423 3626 mt 5425 3624 L
5425 3624 mt 5482 3561 L
5482 3561 mt 5492 3548 L
5492 3548 mt 5532 3496 L
5532 3496 mt 5559 3454 L
5559 3454 mt 5574 3431 L
5574 3431 mt 5610 3366 L
5610 3366 mt 5626 3333 L
5626 3333 mt 5641 3301 L
5641 3301 mt 5669 3236 L
5669 3236 mt 5693 3173 L
5693 3173 mt 5694 3171 L
5694 3171 mt 5715 3106 L
5715 3106 mt 5735 3041 L
5735 3041 mt 5752 2976 L
5752 2976 mt 5760 2943 L
5760 2943 mt 5767 2911 L
5767 2911 mt 5781 2845 L
5781 2845 mt 5793 2780 L
5793 2780 mt 5804 2715 L
5804 2715 mt 5813 2650 L
5813 2650 mt 5821 2585 L
5821 2585 mt 5826 2535 L
5826 2535 mt 5828 2520 L
5828 2520 mt 5834 2455 L
5834 2455 mt 5839 2390 L
5839 2390 mt 5843 2325 L
5843 2325 mt 5846 2260 L
5846 2260 mt 5848 2195 L
5848 2195 mt 5850 2130 L
5850 2130 mt 5851 2064 L
5851 2064 mt 5851 1999 L
5851 1999 mt 5850 1934 L
5850 1934 mt 5848 1869 L
5848 1869 mt 5846 1804 L
5846 1804 mt 5844 1739 L
5844 1739 mt 5840 1674 L
5840 1674 mt 5836 1609 L
5836 1609 mt 5832 1544 L
5832 1544 mt 5827 1479 L
5827 1479 mt 5826 1476 L
5826 1476 mt 5821 1414 L
5821 1414 mt 5815 1349 L
5815 1349 mt 5808 1283 L
5808 1283 mt 5800 1218 L
5800 1218 mt 5793 1153 L
5793 1153 mt 5784 1088 L
5784 1088 mt 5775 1023 L
5775 1023 mt 5766  958 L
5766  958 mt 5760  916 L
5760  916 mt 5756  893 L
5756  893 mt 5746  828 L
5746  828 mt 5735  763 L
5735  763 mt 5724  698 L
5724  698 mt 5712  633 L
5712  633 mt 5699  568 L
5699  568 mt 5693  532 L
5693  532 mt 5687  502 L
/c40 { 0.500000 1.000000 0.500000 sr} bdef
c40
5435 3692 mt 5492 3640 L
5492 3640 mt 5507 3626 L
5507 3626 mt 5559 3570 L
5559 3570 mt 5567 3561 L
5567 3561 mt 5617 3496 L
5617 3496 mt 5626 3483 L
5626 3483 mt 5661 3431 L
5661 3431 mt 5693 3376 L
5693 3376 mt 5699 3366 L
5699 3366 mt 5732 3301 L
5732 3301 mt 5760 3241 L
5760 3241 mt 5762 3236 L
5762 3236 mt 5789 3171 L
5789 3171 mt 5813 3106 L
5813 3106 mt 5826 3065 L
5826 3065 mt 5835 3041 L
5835 3041 mt 5854 2976 L
5854 2976 mt 5872 2911 L
5872 2911 mt 5888 2845 L
5888 2845 mt 5893 2823 L
5893 2823 mt 5903 2780 L
5903 2780 mt 5916 2715 L
5916 2715 mt 5928 2650 L
5928 2650 mt 5939 2585 L
5939 2585 mt 5949 2520 L
5949 2520 mt 5958 2455 L
5958 2455 mt 5960 2434 L
5960 2434 mt 5965 2390 L
5965 2390 mt 5972 2325 L
5972 2325 mt 5978 2260 L
5978 2260 mt 5984 2195 L
5984 2195 mt 5988 2130 L
5988 2130 mt 5992 2064 L
5992 2064 mt 5995 1999 L
5995 1999 mt 5997 1934 L
5997 1934 mt 5999 1869 L
5999 1869 mt 6000 1804 L
6000 1804 mt 6001 1739 L
6001 1739 mt 6001 1674 L
6001 1674 mt 6000 1609 L
6000 1609 mt 5999 1544 L
5999 1544 mt 5997 1479 L
5997 1479 mt 5995 1414 L
5995 1414 mt 5992 1349 L
5992 1349 mt 5989 1285 L
5976 1094 mt 5976 1088 L
5976 1088 mt 5971 1023 L
5971 1023 mt 5965  958 L
5965  958 mt 5960  907 L
5960  907 mt 5959  893 L
5959  893 mt 5952  828 L
5952  828 mt 5945  763 L
5945  763 mt 5937  698 L
5937  698 mt 5930  633 L
5930  633 mt 5921  568 L
5921  568 mt 5912  502 L
/c41 { 0.562500 1.000000 0.437500 sr} bdef
c41
5522 3692 mt 5559 3658 L
5559 3658 mt 5594 3626 L
5594 3626 mt 5626 3592 L
5626 3592 mt 5654 3561 L
5654 3561 mt 5693 3513 L
5693 3513 mt 5706 3496 L
5706 3496 mt 5751 3431 L
5751 3431 mt 5760 3416 L
5760 3416 mt 5791 3366 L
5791 3366 mt 5826 3301 L
5826 3301 mt 5826 3300 L
5826 3300 mt 5858 3236 L
5858 3236 mt 5887 3171 L
5887 3171 mt 5893 3155 L
5893 3155 mt 5913 3106 L
5913 3106 mt 5938 3041 L
5938 3041 mt 5960 2976 L
5960 2976 mt 5960 2974 L
5960 2974 mt 5980 2911 L
5980 2911 mt 5999 2845 L
5999 2845 mt 6016 2780 L
6016 2780 mt 6027 2735 L
6027 2735 mt 6032 2715 L
6032 2715 mt 6047 2650 L
6047 2650 mt 6060 2585 L
6060 2585 mt 6073 2520 L
6073 2520 mt 6084 2455 L
6084 2455 mt 6094 2396 L
6094 2396 mt 6095 2390 L
6095 2390 mt 6105 2325 L
6105 2325 mt 6114 2260 L
6114 2260 mt 6122 2195 L
6122 2195 mt 6129 2130 L
6129 2130 mt 6136 2064 L
6136 2064 mt 6142 1999 L
6142 1999 mt 6147 1934 L
6147 1934 mt 6152 1869 L
6152 1869 mt 6157 1804 L
6157 1804 mt 6160 1739 L
6160 1739 mt 6161 1730 L
6161 1730 mt 6163 1674 L
6163 1674 mt 6166 1609 L
6166 1609 mt 6168 1544 L
6168 1544 mt 6170 1479 L
6170 1479 mt 6171 1414 L
6171 1414 mt 6171 1349 L
6171 1349 mt 6172 1283 L
6172 1283 mt 6171 1218 L
6171 1218 mt 6170 1153 L
6170 1153 mt 6169 1088 L
6169 1088 mt 6168 1023 L
6168 1023 mt 6166  958 L
6166  958 mt 6163  893 L
6163  893 mt 6161  839 L
6161  839 mt 6160  828 L
6160  828 mt 6157  763 L
6157  763 mt 6153  698 L
6153  698 mt 6149  633 L
6149  633 mt 6144  568 L
6144  568 mt 6139  502 L
/c42 { 0.687500 1.000000 0.312500 sr} bdef
c42
5612 3692 mt 5626 3679 L
5626 3679 mt 5684 3626 L
5684 3626 mt 5693 3617 L
5693 3617 mt 5744 3561 L
5744 3561 mt 5760 3543 L
5760 3543 mt 5797 3496 L
5797 3496 mt 5826 3455 L
5826 3455 mt 5844 3431 L
5844 3431 mt 5885 3366 L
5885 3366 mt 5893 3352 L
5893 3352 mt 5923 3301 L
5923 3301 mt 5957 3236 L
5957 3236 mt 5960 3229 L
5960 3229 mt 5988 3171 L
5988 3171 mt 6017 3106 L
6017 3106 mt 6027 3081 L
6027 3081 mt 6044 3041 L
6044 3041 mt 6068 2976 L
6068 2976 mt 6091 2911 L
6091 2911 mt 6094 2902 L
6094 2902 mt 6112 2845 L
6112 2845 mt 6132 2780 L
6132 2780 mt 6151 2715 L
6151 2715 mt 6161 2678 L
6161 2678 mt 6168 2650 L
6168 2650 mt 6184 2585 L
6184 2585 mt 6200 2520 L
6200 2520 mt 6214 2455 L
6214 2455 mt 6227 2390 L
6227 2390 mt 6228 2389 L
6228 2389 mt 6240 2325 L
6240 2325 mt 6252 2260 L
6252 2260 mt 6263 2195 L
6263 2195 mt 6273 2130 L
6273 2130 mt 6283 2064 L
6283 2064 mt 6292 1999 L
6292 1999 mt 6294 1981 L
6294 1981 mt 6300 1934 L
6300 1934 mt 6308 1869 L
6308 1869 mt 6316 1804 L
6316 1804 mt 6323 1739 L
6323 1739 mt 6329 1674 L
6329 1674 mt 6335 1609 L
6335 1609 mt 6340 1544 L
6340 1544 mt 6345 1479 L
6345 1479 mt 6349 1414 L
6349 1414 mt 6353 1349 L
6353 1349 mt 6357 1283 L
6357 1283 mt 6360 1218 L
6360 1218 mt 6361 1186 L
6361 1186 mt 6363 1153 L
6363 1153 mt 6365 1088 L
6365 1088 mt 6367 1023 L
6367 1023 mt 6368  958 L
6368  958 mt 6369  893 L
6369  893 mt 6370  828 L
6370  828 mt 6371  763 L
6371  763 mt 6371  698 L
6371  698 mt 6370  633 L
6370  633 mt 6370  568 L
6370  568 mt 6368  502 L
/c43 { 0.812500 1.000000 0.187500 sr} bdef
c43
5704 3692 mt 5760 3641 L
5760 3641 mt 5776 3626 L
5776 3626 mt 5826 3573 L
5826 3573 mt 5837 3561 L
5837 3561 mt 5892 3496 L
5892 3496 mt 5893 3494 L
5893 3494 mt 5940 3431 L
5940 3431 mt 5960 3401 L
5960 3401 mt 5984 3366 L
5984 3366 mt 6023 3301 L
6023 3301 mt 6027 3294 L
6027 3294 mt 6060 3236 L
6060 3236 mt 6093 3171 L
6093 3171 mt 6094 3169 L
6094 3169 mt 6124 3106 L
6124 3106 mt 6153 3041 L
6153 3041 mt 6161 3022 L
6161 3022 mt 6180 2976 L
6180 2976 mt 6206 2911 L
6206 2911 mt 6228 2850 L
6228 2850 mt 6229 2845 L
6229 2845 mt 6252 2780 L
6252 2780 mt 6273 2715 L
6273 2715 mt 6293 2650 L
6293 2650 mt 6294 2645 L
6294 2645 mt 6312 2585 L
6312 2585 mt 6330 2520 L
6330 2520 mt 6347 2455 L
6347 2455 mt 6361 2397 L
6361 2397 mt 6363 2390 L
6363 2390 mt 6379 2325 L
6379 2325 mt 6393 2260 L
6393 2260 mt 6407 2195 L
6407 2195 mt 6420 2130 L
6420 2130 mt 6428 2090 L
6428 2090 mt 6433 2064 L
6433 2064 mt 6445 1999 L
6445 1999 mt 6457 1934 L
6457 1934 mt 6468 1869 L
6468 1869 mt 6478 1804 L
6478 1804 mt 6488 1739 L
6488 1739 mt 6495 1691 L
6495 1691 mt 6497 1674 L
6497 1674 mt 6506 1609 L
6506 1609 mt 6515 1544 L
6515 1544 mt 6523 1479 L
6523 1479 mt 6531 1414 L
6531 1414 mt 6538 1349 L
6538 1349 mt 6545 1283 L
6545 1283 mt 6551 1218 L
6551 1218 mt 6557 1153 L
6557 1153 mt 6562 1103 L
6562 1103 mt 6563 1088 L
6563 1088 mt 6569 1023 L
6569 1023 mt 6574  958 L
6574  958 mt 6578  893 L
6578  893 mt 6583  828 L
6583  828 mt 6587  763 L
6587  763 mt 6590  698 L
6590  698 mt 6594  633 L
6594  633 mt 6597  568 L
6597  568 mt 6600  502 L
/c44 { 0.937500 1.000000 0.062500 sr} bdef
c44
5798 3692 mt 5826 3666 L
5826 3666 mt 5871 3626 L
5871 3626 mt 5893 3603 L
5893 3603 mt 5934 3561 L
5934 3561 mt 5960 3530 L
5960 3530 mt 5989 3496 L
5989 3496 mt 6027 3447 L
6027 3447 mt 6039 3431 L
6039 3431 mt 6085 3366 L
6085 3366 mt 6094 3352 L
6094 3352 mt 6127 3301 L
6127 3301 mt 6161 3243 L
6161 3243 mt 6165 3236 L
6165 3236 mt 6201 3171 L
6201 3171 mt 6228 3119 L
6228 3119 mt 6234 3106 L
6234 3106 mt 6266 3041 L
6266 3041 mt 6294 2978 L
6294 2978 mt 6295 2976 L
6295 2976 mt 6323 2911 L
6323 2911 mt 6350 2845 L
6350 2845 mt 6361 2815 L
6361 2815 mt 6375 2780 L
6375 2780 mt 6399 2715 L
6399 2715 mt 6421 2650 L
6421 2650 mt 6428 2630 L
6428 2630 mt 6443 2585 L
6443 2585 mt 6464 2520 L
6464 2520 mt 6484 2455 L
6484 2455 mt 6495 2416 L
6495 2416 mt 6503 2390 L
6503 2390 mt 6521 2325 L
6521 2325 mt 6538 2260 L
6538 2260 mt 6555 2195 L
6555 2195 mt 6562 2167 L
6562 2167 mt 6571 2130 L
6571 2130 mt 6587 2064 L
6587 2064 mt 6602 1999 L
6602 1999 mt 6616 1934 L
6616 1934 mt 6629 1877 L
6629 1877 mt 6630 1869 L
6630 1869 mt 6644 1804 L
6644 1804 mt 6657 1739 L
6657 1739 mt 6669 1674 L
6669 1674 mt 6681 1609 L
6681 1609 mt 6693 1544 L
6693 1544 mt 6696 1530 L
6696 1530 mt 6704 1479 L
6704 1479 mt 6715 1414 L
6715 1414 mt 6726 1349 L
6726 1349 mt 6735 1289 L
6763 1097 mt 6764 1088 L
6764 1088 mt 6773 1023 L
6773 1023 mt 6782  958 L
6782  958 mt 6790  893 L
6790  893 mt 6798  828 L
6798  828 mt 6806  763 L
6806  763 mt 6813  698 L
6813  698 mt 6820  633 L
6820  633 mt 6827  568 L
6827  568 mt 6829  544 L
6829  544 mt 6833  502 L
/c45 { 1.000000 1.000000 0.000000 sr} bdef
c45
5896 3692 mt 5960 3634 L
5960 3634 mt 5969 3626 L
5969 3626 mt 6027 3567 L
6027 3567 mt 6033 3561 L
6033 3561 mt 6090 3496 L
6090 3496 mt 6094 3491 L
6094 3491 mt 6142 3431 L
6142 3431 mt 6161 3405 L
6161 3405 mt 6190 3366 L
6190 3366 mt 6228 3310 L
6228 3310 mt 6233 3301 L
6233 3301 mt 6274 3236 L
6274 3236 mt 6294 3201 L
6294 3201 mt 6313 3171 L
6313 3171 mt 6348 3106 L
6348 3106 mt 6361 3081 L
6361 3081 mt 6382 3041 L
6382 3041 mt 6414 2976 L
6414 2976 mt 6428 2946 L
6428 2946 mt 6445 2911 L
6445 2911 mt 6474 2845 L
6474 2845 mt 6495 2795 L
6495 2795 mt 6501 2780 L
6501 2780 mt 6528 2715 L
6528 2715 mt 6553 2650 L
6553 2650 mt 6562 2627 L
6562 2627 mt 6578 2585 L
6578 2585 mt 6601 2520 L
6601 2520 mt 6624 2455 L
6624 2455 mt 6629 2440 L
6629 2440 mt 6646 2390 L
6646 2390 mt 6667 2325 L
6667 2325 mt 6687 2260 L
6687 2260 mt 6696 2231 L
6696 2231 mt 6707 2195 L
6707 2195 mt 6726 2130 L
6726 2130 mt 6744 2064 L
6744 2064 mt 6762 1999 L
6762 1999 mt 6762 1999 L
6762 1999 mt 6780 1934 L
6780 1934 mt 6797 1869 L
6797 1869 mt 6813 1804 L
6813 1804 mt 6829 1739 L
6829 1739 mt 6829 1739 L
6829 1739 mt 6845 1674 L
6845 1674 mt 6860 1609 L
6860 1609 mt 6875 1544 L
6875 1544 mt 6889 1479 L
6889 1479 mt 6896 1447 L
6896 1447 mt 6903 1414 L
6903 1414 mt 6917 1349 L
6917 1349 mt 6931 1283 L
6931 1283 mt 6944 1218 L
6944 1218 mt 6957 1153 L
6957 1153 mt 6963 1120 L
6963 1120 mt 6969 1088 L
6969 1088 mt 6981 1023 L
6981 1023 mt 6993  958 L
6993  958 mt 7005  893 L
7005  893 mt 7017  828 L
7017  828 mt 7028  763 L
7028  763 mt 7030  750 L
7030  750 mt 7039  698 L
7039  698 mt 7049  633 L
7049  633 mt 7060  568 L
7060  568 mt 7070  502 L
/c46 { 1.000000 0.875000 0.000000 sr} bdef
c46
5996 3692 mt 6027 3664 L
6027 3664 mt 6070 3626 L
6070 3626 mt 6094 3602 L
6094 3602 mt 6135 3561 L
6135 3561 mt 6161 3533 L
6161 3533 mt 6194 3496 L
6194 3496 mt 6228 3456 L
6228 3456 mt 6248 3431 L
6248 3431 mt 6294 3370 L
6294 3370 mt 6298 3366 L
6298 3366 mt 6344 3301 L
6344 3301 mt 6361 3275 L
6361 3275 mt 6387 3236 L
6387 3236 mt 6428 3171 L
6428 3171 mt 6428 3170 L
6428 3170 mt 6466 3106 L
6466 3106 mt 6495 3054 L
6495 3054 mt 6502 3041 L
6502 3041 mt 6537 2976 L
6537 2976 mt 6562 2926 L
6562 2926 mt 6570 2911 L
6570 2911 mt 6602 2845 L
6602 2845 mt 6629 2787 L
6629 2787 mt 6632 2780 L
6632 2780 mt 6661 2715 L
6661 2715 mt 6689 2650 L
6689 2650 mt 6696 2635 L
6696 2635 mt 6716 2585 L
6716 2585 mt 6743 2520 L
6743 2520 mt 6762 2469 L
6762 2469 mt 6768 2455 L
6768 2455 mt 6793 2390 L
6793 2390 mt 6816 2325 L
6816 2325 mt 6829 2288 L
6829 2288 mt 6840 2260 L
6840 2260 mt 6862 2195 L
6862 2195 mt 6884 2130 L
6884 2130 mt 6896 2093 L
6896 2093 mt 6906 2064 L
6906 2064 mt 6927 1999 L
6927 1999 mt 6947 1934 L
6947 1934 mt 6963 1882 L
6963 1882 mt 6967 1869 L
6967 1869 mt 6987 1804 L
6987 1804 mt 7006 1739 L
7006 1739 mt 7024 1674 L
7024 1674 mt 7030 1654 L
7030 1654 mt 7043 1609 L
7043 1609 mt 7061 1544 L
7061 1544 mt 7078 1479 L
7078 1479 mt 7096 1414 L
7096 1414 mt 7097 1409 L
7097 1409 mt 7113 1349 L
7113 1349 mt 7129 1283 L
7129 1283 mt 7146 1218 L
7146 1218 mt 7162 1153 L
7162 1153 mt 7164 1146 L
7164 1146 mt 7178 1088 L
7178 1088 mt 7193 1023 L
7193 1023 mt 7209  958 L
7209  958 mt 7224  893 L
7224  893 mt 7230  864 L
7230  864 mt 7239  828 L
7239  828 mt 7253  763 L
7253  763 mt 7268  698 L
7268  698 mt 7282  633 L
7282  633 mt 7296  568 L
7296  568 mt 7297  563 L
7297  563 mt 7310  502 L
c21
6100 3692 mt 6161 3638 L
6161 3638 mt 6174 3626 L
6174 3626 mt 6228 3574 L
6228 3574 mt 6241 3561 L
6241 3561 mt 6294 3504 L
6294 3504 mt 6302 3496 L
6302 3496 mt 6358 3431 L
6358 3431 mt 6361 3427 L
6361 3427 mt 6410 3366 L
6410 3366 mt 6428 3341 L
6428 3341 mt 6458 3301 L
6458 3301 mt 6495 3248 L
6495 3248 mt 6503 3236 L
6503 3236 mt 6546 3171 L
6546 3171 mt 6562 3146 L
6562 3146 mt 6587 3106 L
6587 3106 mt 6626 3041 L
6626 3041 mt 6629 3036 L
6629 3036 mt 6663 2976 L
6663 2976 mt 6696 2917 L
6696 2917 mt 6699 2911 L
6699 2911 mt 6733 2845 L
6733 2845 mt 6762 2788 L
6762 2788 mt 6766 2780 L
6766 2780 mt 6798 2715 L
6798 2715 mt 6829 2650 L
6829 2650 mt 6829 2650 L
6829 2650 mt 6859 2585 L
6859 2585 mt 6888 2520 L
6888 2520 mt 6896 2501 L
6896 2501 mt 6916 2455 L
6916 2455 mt 6944 2390 L
6944 2390 mt 6963 2342 L
6963 2342 mt 6970 2325 L
6970 2325 mt 6996 2260 L
6996 2260 mt 7022 2195 L
7022 2195 mt 7030 2173 L
7030 2173 mt 7047 2130 L
7047 2130 mt 7071 2064 L
7071 2064 mt 7095 1999 L
7095 1999 mt 7097 1995 L
7097 1995 mt 7118 1934 L
7118 1934 mt 7141 1869 L
7141 1869 mt 7164 1805 L
7164 1805 mt 7164 1804 L
7164 1804 mt 7186 1739 L
7186 1739 mt 7208 1674 L
7208 1674 mt 7229 1609 L
7229 1609 mt 7230 1606 L
7230 1606 mt 7250 1544 L
7250 1544 mt 7271 1479 L
7271 1479 mt 7292 1414 L
7292 1414 mt 7297 1396 L
7297 1396 mt 7312 1349 L
7312 1349 mt 7332 1283 L
7332 1283 mt 7352 1218 L
7352 1218 mt 7364 1176 L
7364 1176 mt 7371 1153 L
7371 1153 mt 7390 1088 L
7390 1088 mt 7409 1023 L
7409 1023 mt 7428  958 L
7428  958 mt 7431  948 L
7431  948 mt 7447  893 L
7447  893 mt 7465  828 L
7465  828 mt 7483  763 L
7483  763 mt 7498  710 L
7498  710 mt 7501  698 L
7501  698 mt 7519  633 L
7519  633 mt 7537  568 L
7537  568 mt 7554  502 L
/c47 { 1.000000 0.687500 0.000000 sr} bdef
c47
6206 3692 mt 6228 3673 L
6228 3673 mt 6282 3626 L
6282 3626 mt 6294 3614 L
6294 3614 mt 6350 3561 L
6350 3561 mt 6361 3550 L
6361 3550 mt 6413 3496 L
6413 3496 mt 6428 3479 L
6428 3479 mt 6471 3431 L
6471 3431 mt 6495 3402 L
6495 3402 mt 6525 3366 L
6525 3366 mt 6562 3319 L
6562 3319 mt 6576 3301 L
6576 3301 mt 6624 3236 L
6624 3236 mt 6629 3228 L
6629 3228 mt 6669 3171 L
6669 3171 mt 6696 3131 L
6696 3131 mt 6712 3106 L
6712 3106 mt 6754 3041 L
6754 3041 mt 6762 3027 L
6762 3027 mt 6794 2976 L
6794 2976 mt 6829 2915 L
6829 2915 mt 6832 2911 L
6832 2911 mt 6869 2845 L
6869 2845 mt 6896 2796 L
6896 2796 mt 6905 2780 L
6905 2780 mt 6939 2715 L
6939 2715 mt 6963 2669 L
6963 2669 mt 6973 2650 L
6973 2650 mt 7006 2585 L
7006 2585 mt 7030 2535 L
7030 2535 mt 7037 2520 L
7037 2520 mt 7068 2455 L
7068 2455 mt 7097 2394 L
7097 2394 mt 7099 2390 L
7099 2390 mt 7128 2325 L
7128 2325 mt 7157 2260 L
7157 2260 mt 7164 2245 L
7164 2245 mt 7186 2195 L
7186 2195 mt 7214 2130 L
7214 2130 mt 7230 2089 L
7230 2089 mt 7241 2064 L
7241 2064 mt 7268 1999 L
7268 1999 mt 7294 1934 L
7294 1934 mt 7297 1926 L
7297 1926 mt 7320 1869 L
7320 1869 mt 7346 1804 L
7346 1804 mt 7364 1757 L
7364 1757 mt 7371 1739 L
7371 1739 mt 7383 1707 L
7454 1518 mt 7469 1479 L
7469 1479 mt 7492 1414 L
7492 1414 mt 7498 1399 L
7498 1399 mt 7516 1349 L
7516 1349 mt 7539 1283 L
7539 1283 mt 7562 1218 L
7562 1218 mt 7565 1211 L
7565 1211 mt 7585 1153 L
7585 1153 mt 7607 1088 L
7607 1088 mt 7630 1023 L
7630 1023 mt 7632 1018 L
/c48 { 1.000000 0.562500 0.000000 sr} bdef
c48
6316 3692 mt 6361 3653 L
6361 3653 mt 6393 3626 L
6393 3626 mt 6428 3594 L
6428 3594 mt 6463 3561 L
6463 3561 mt 6495 3529 L
6495 3529 mt 6528 3496 L
6528 3496 mt 6562 3459 L
6562 3459 mt 6588 3431 L
6588 3431 mt 6629 3384 L
6629 3384 mt 6644 3366 L
6644 3366 mt 6696 3303 L
6696 3303 mt 6697 3301 L
6697 3301 mt 6748 3236 L
6748 3236 mt 6762 3216 L
6762 3216 mt 6796 3171 L
6796 3171 mt 6829 3123 L
6829 3123 mt 6842 3106 L
6842 3106 mt 6886 3041 L
6886 3041 mt 6896 3024 L
6896 3024 mt 6928 2976 L
6928 2976 mt 6963 2920 L
6963 2920 mt 6969 2911 L
6969 2911 mt 7009 2845 L
7009 2845 mt 7030 2810 L
7030 2810 mt 7047 2780 L
7047 2780 mt 7085 2715 L
7085 2715 mt 7097 2693 L
7097 2693 mt 7121 2650 L
7121 2650 mt 7156 2585 L
7156 2585 mt 7164 2572 L
7164 2572 mt 7191 2520 L
7191 2520 mt 7225 2455 L
7225 2455 mt 7230 2444 L
7230 2444 mt 7258 2390 L
7258 2390 mt 7291 2325 L
7291 2325 mt 7297 2311 L
7297 2311 mt 7323 2260 L
7323 2260 mt 7354 2195 L
7354 2195 mt 7364 2173 L
7364 2173 mt 7385 2130 L
7385 2130 mt 7415 2064 L
7415 2064 mt 7431 2030 L
7431 2030 mt 7445 1999 L
7445 1999 mt 7475 1934 L
7475 1934 mt 7498 1882 L
7498 1882 mt 7504 1869 L
7504 1869 mt 7532 1804 L
7532 1804 mt 7561 1739 L
7561 1739 mt 7565 1729 L
7565 1729 mt 7589 1674 L
7589 1674 mt 7616 1609 L
7616 1609 mt 7632 1573 L
/c49 { 1.000000 0.437500 0.000000 sr} bdef
c49
6429 3692 mt 6495 3637 L
6495 3637 mt 6508 3626 L
6508 3626 mt 6562 3577 L
6562 3577 mt 6580 3561 L
6580 3561 mt 6629 3513 L
6629 3513 mt 6646 3496 L
6646 3496 mt 6696 3445 L
6696 3445 mt 6709 3431 L
6709 3431 mt 6762 3371 L
6762 3371 mt 6767 3366 L
6767 3366 mt 6823 3301 L
6823 3301 mt 6829 3293 L
6829 3293 mt 6876 3236 L
6876 3236 mt 6896 3209 L
6896 3209 mt 6926 3171 L
6926 3171 mt 6963 3121 L
6963 3121 mt 6975 3106 L
6975 3106 mt 7022 3041 L
7022 3041 mt 7030 3029 L
7030 3029 mt 7067 2976 L
7067 2976 mt 7097 2931 L
7097 2931 mt 7110 2911 L
7110 2911 mt 7153 2845 L
7153 2845 mt 7164 2828 L
7164 2828 mt 7194 2780 L
7194 2780 mt 7230 2721 L
7230 2721 mt 7234 2715 L
7234 2715 mt 7274 2650 L
7274 2650 mt 7297 2610 L
7297 2610 mt 7312 2585 L
7312 2585 mt 7349 2520 L
7349 2520 mt 7364 2494 L
7364 2494 mt 7386 2455 L
7386 2455 mt 7422 2390 L
7422 2390 mt 7431 2374 L
7431 2374 mt 7458 2325 L
7458 2325 mt 7493 2260 L
7493 2260 mt 7498 2250 L
7498 2250 mt 7527 2195 L
7527 2195 mt 7561 2130 L
7561 2130 mt 7565 2122 L
7565 2122 mt 7594 2064 L
7594 2064 mt 7627 1999 L
7627 1999 mt 7632 1990 L
c23
6546 3692 mt 6562 3679 L
6562 3679 mt 6626 3626 L
6626 3626 mt 6629 3624 L
6629 3624 mt 6696 3565 L
6696 3565 mt 6700 3561 L
6700 3561 mt 6762 3502 L
6762 3502 mt 6769 3496 L
6769 3496 mt 6829 3435 L
6829 3435 mt 6833 3431 L
6833 3431 mt 6894 3366 L
6894 3366 mt 6896 3364 L
6896 3364 mt 6952 3301 L
6952 3301 mt 6963 3288 L
6963 3288 mt 7008 3236 L
7008 3236 mt 7030 3209 L
7030 3209 mt 7061 3171 L
7061 3171 mt 7097 3125 L
7097 3125 mt 7112 3106 L
7112 3106 mt 7162 3041 L
7162 3041 mt 7164 3038 L
7164 3038 mt 7210 2976 L
7210 2976 mt 7230 2946 L
7230 2946 mt 7256 2911 L
7256 2911 mt 7297 2851 L
7297 2851 mt 7301 2845 L
7301 2845 mt 7346 2780 L
7346 2780 mt 7364 2752 L
7364 2752 mt 7389 2715 L
7389 2715 mt 7431 2650 L
7431 2650 mt 7431 2650 L
7431 2650 mt 7472 2585 L
7472 2585 mt 7498 2543 L
7498 2543 mt 7512 2520 L
7512 2520 mt 7552 2455 L
7552 2455 mt 7565 2434 L
7565 2434 mt 7591 2390 L
7591 2390 mt 7630 2325 L
7630 2325 mt 7632 2321 L
/c50 { 1.000000 0.250000 0.000000 sr} bdef
c50
6667 3692 mt 6696 3669 L
6696 3669 mt 6749 3626 L
6749 3626 mt 6762 3615 L
6762 3615 mt 6824 3561 L
6824 3561 mt 6829 3557 L
6829 3557 mt 6895 3496 L
6895 3496 mt 6896 3495 L
6896 3495 mt 6962 3431 L
6962 3431 mt 6963 3430 L
6963 3430 mt 7026 3366 L
7026 3366 mt 7030 3362 L
7030 3362 mt 7086 3301 L
7086 3301 mt 7097 3289 L
7097 3289 mt 7144 3236 L
7144 3236 mt 7164 3213 L
7164 3213 mt 7200 3171 L
7200 3171 mt 7230 3134 L
7230 3134 mt 7254 3106 L
7254 3106 mt 7297 3052 L
7297 3052 mt 7306 3041 L
7306 3041 mt 7355 2979 L
7489 2797 mt 7498 2785 L
7498 2785 mt 7501 2780 L
7501 2780 mt 7548 2715 L
7548 2715 mt 7565 2690 L
7565 2690 mt 7593 2650 L
7593 2650 mt 7632 2593 L
c24
6791 3692 mt 6829 3662 L
6829 3662 mt 6875 3626 L
6875 3626 mt 6896 3609 L
6896 3609 mt 6953 3561 L
6953 3561 mt 6963 3552 L
6963 3552 mt 7026 3496 L
7026 3496 mt 7030 3493 L
7030 3493 mt 7095 3431 L
7095 3431 mt 7097 3430 L
7097 3430 mt 7161 3366 L
7161 3366 mt 7164 3364 L
7164 3364 mt 7225 3301 L
7225 3301 mt 7230 3295 L
7230 3295 mt 7285 3236 L
7285 3236 mt 7297 3223 L
7297 3223 mt 7344 3171 L
7344 3171 mt 7364 3147 L
7364 3147 mt 7401 3106 L
7401 3106 mt 7431 3070 L
7431 3070 mt 7456 3041 L
7456 3041 mt 7498 2989 L
7498 2989 mt 7509 2976 L
7509 2976 mt 7561 2911 L
7561 2911 mt 7565 2906 L
7565 2906 mt 7613 2845 L
7613 2845 mt 7632 2820 L
/c51 { 1.000000 0.000000 0.000000 sr} bdef
c51
6920 3692 mt 6963 3659 L
6963 3659 mt 7005 3626 L
7005 3626 mt 7030 3606 L
7030 3606 mt 7085 3561 L
7085 3561 mt 7097 3552 L
7097 3552 mt 7161 3496 L
7161 3496 mt 7164 3494 L
7164 3494 mt 7230 3433 L
7230 3433 mt 7233 3431 L
7233 3431 mt 7297 3370 L
7297 3370 mt 7301 3366 L
7301 3366 mt 7364 3304 L
7364 3304 mt 7367 3301 L
7367 3301 mt 7431 3236 L
7431 3236 mt 7431 3236 L
7431 3236 mt 7492 3171 L
7492 3171 mt 7498 3165 L
7498 3165 mt 7552 3106 L
7552 3106 mt 7565 3091 L
7565 3091 mt 7610 3041 L
7610 3041 mt 7632 3015 L
c25
7053 3692 mt 7097 3659 L
7097 3659 mt 7140 3626 L
7140 3626 mt 7164 3608 L
7164 3608 mt 7222 3561 L
7222 3561 mt 7230 3555 L
7230 3555 mt 7297 3499 L
7297 3499 mt 7300 3496 L
7300 3496 mt 7364 3440 L
7364 3440 mt 7375 3431 L
7375 3431 mt 7431 3380 L
7431 3380 mt 7446 3366 L
7446 3366 mt 7498 3317 L
7498 3317 mt 7515 3301 L
7515 3301 mt 7565 3252 L
7565 3252 mt 7581 3236 L
7581 3236 mt 7632 3185 L
/c52 { 0.812500 0.000000 0.000000 sr} bdef
c52
7190 3692 mt 7230 3662 L
7230 3662 mt 7279 3626 L
7279 3626 mt 7297 3612 L
7297 3612 mt 7364 3561 L
7364 3561 mt 7364 3561 L
7364 3561 mt 7431 3507 L
7431 3507 mt 7444 3496 L
7444 3496 mt 7492 3456 L
7557 3400 mt 7565 3393 L
7565 3393 mt 7596 3366 L
7596 3366 mt 7632 3333 L
c26
7331 3692 mt 7364 3668 L
7364 3668 mt 7423 3626 L
7423 3626 mt 7431 3620 L
7431 3620 mt 7498 3570 L
7498 3570 mt 7510 3561 L
7510 3561 mt 7565 3518 L
7565 3518 mt 7593 3496 L
7593 3496 mt 7632 3465 L
/c53 { 0.562500 0.000000 0.000000 sr} bdef
c53
7477 3692 mt 7498 3677 L
7498 3677 mt 7565 3631 L
7565 3631 mt 7571 3626 L
7571 3626 mt 7632 3583 L
c27
7628 3692 mt 7632 3689 L
0 sg
4599 3443 mt  -84 rotate
(0.2) s
84 rotate
4842 3428 mt  -84 rotate
(0.3) s
84 rotate
5154 3120 mt  -89 rotate
(0.4) s
89 rotate
5489 3115 mt  -85 rotate
(0.5) s
85 rotate
5938 1107 mt  -271 rotate
(0.6) s
271 rotate
6785 1279 mt  -86 rotate
(0.7) s
86 rotate
7446 1702 mt  -80 rotate
(0.8) s
80 rotate
7435 2980 mt  -70 rotate
(0.9) s
70 rotate
7546 3477 mt  -61 rotate
(1) s
61 rotate
gr

0 sg
%%IncludeResource: font Symbol
/Symbol /ISOLatin1Encoding 120 FMSR

5888 3949 mt 
(f) s
%%IncludeResource: font Symbol
/Symbol /ISOLatin1Encoding 96 FMSR

5950 4009 mt 
(D) s
%%IncludeResource: font Helvetica
/Helvetica /ISOLatin1Encoding 96 FMSR

6008 4009 mt 
( Y) s
%%IncludeResource: font Symbol
/Symbol /ISOLatin1Encoding 120 FMSR

4012 2203 mt  -90 rotate
(f) s
90 rotate
%%IncludeResource: font Symbol
/Symbol /ISOLatin1Encoding 96 FMSR

4072 2141 mt  -90 rotate
(D) s
90 rotate
%%IncludeResource: font Helvetica
/Helvetica /ISOLatin1Encoding 96 FMSR

4072 2083 mt  -90 rotate
( V) s
90 rotate
%%IncludeResource: font Symbol
/Symbol /ISOLatin1Encoding 120 FMSR

5931  347 mt 
(s) s
%%IncludeResource: font Symbol
/Symbol /ISOLatin1Encoding 96 FMSR

6003  407 mt 
(p) s
4 w
DO
SO
6 w
4356 3692 mt 7632 3692 L
4356  502 mt 7632  502 L
4356 3692 mt 4356  502 L
7632 3692 mt 7632  502 L
4356 3692 mt 7632 3692 L
4356 3692 mt 4356  502 L
4356 3692 mt 4356 3659 L
4356  503 mt 4356  535 L
%%IncludeResource: font Helvetica
/Helvetica /ISOLatin1Encoding 120 FMSR

4323 3837 mt 
(0) s
5011 3692 mt 5011 3659 L
5011  503 mt 5011  535 L
4978 3837 mt 
(1) s
5666 3692 mt 5666 3659 L
5666  503 mt 5666  535 L
5633 3837 mt 
(2) s
6321 3692 mt 6321 3659 L
6321  503 mt 6321  535 L
6288 3837 mt 
(3) s
6976 3692 mt 6976 3659 L
6976  503 mt 6976  535 L
6943 3837 mt 
(4) s
7632 3692 mt 7632 3659 L
7632  503 mt 7632  535 L
7599 3837 mt 
(5) s
4356 3692 mt 4388 3692 L
7632 3692 mt 7599 3692 L
4255 3736 mt 
(0) s
4356 3373 mt 4388 3373 L
7632 3373 mt 7599 3373 L
4155 3417 mt 
(0.5) s
4356 3054 mt 4388 3054 L
7632 3054 mt 7599 3054 L
4255 3098 mt 
(1) s
4356 2735 mt 4388 2735 L
7632 2735 mt 7599 2735 L
4155 2779 mt 
(1.5) s
4356 2416 mt 4388 2416 L
7632 2416 mt 7599 2416 L
4255 2460 mt 
(2) s
4356 2097 mt 4388 2097 L
7632 2097 mt 7599 2097 L
4155 2141 mt 
(2.5) s
4356 1778 mt 4388 1778 L
7632 1778 mt 7599 1778 L
4255 1822 mt 
(3) s
4356 1459 mt 4388 1459 L
7632 1459 mt 7599 1459 L
4155 1503 mt 
(3.5) s
4356 1140 mt 4388 1140 L
7632 1140 mt 7599 1140 L
4255 1184 mt 
(4) s
4356  821 mt 4388  821 L
7632  821 mt 7599  821 L
4155  865 mt 
(4.5) s
4356  503 mt 4388  503 L
7632  503 mt 7599  503 L
4255  547 mt 
(5) s
4356 3692 mt 7632 3692 L
4356  502 mt 7632  502 L
4356 3692 mt 4356  502 L
7632 3692 mt 7632  502 L
1 sg
0 3190 3276 0 0 -3190 8232 3692 4 MP
PP
-3276 0 0 3190 3276 0 0 -3190 8232 3692 5 MP stroke
gs 8232 503 3277 3190 rc
c8
11072  502 mt 11106  549 L
11106  549 mt 11120  568 L
11120  568 mt 11170  633 L
11170  633 mt 11173  637 L
11173  637 mt 11221  698 L
11221  698 mt 11240  721 L
11240  721 mt 11274  763 L
11274  763 mt 11307  802 L
11307  802 mt 11329  828 L
11329  828 mt 11374  880 L
11374  880 mt 11385  893 L
11385  893 mt 11441  956 L
11441  956 mt 11443  958 L
11443  958 mt 11503 1023 L
11503 1023 mt 11508 1028 L
/c54 { 0.000000 0.000000 0.687500 sr} bdef
c54
10199  502 mt 10237  565 L
10237  565 mt 10239  568 L
10239  568 mt 10280  633 L
10280  633 mt 10304  670 L
10304  670 mt 10322  698 L
10322  698 mt 10365  763 L
10365  763 mt 10371  772 L
10371  772 mt 10409  828 L
10409  828 mt 10438  869 L
10438  869 mt 10455  893 L
10455  893 mt 10501  958 L
10501  958 mt 10505  963 L
10505  963 mt 10549 1023 L
10549 1023 mt 10572 1053 L
10572 1053 mt 10598 1088 L
10598 1088 mt 10638 1140 L
10638 1140 mt 10649 1153 L
10649 1153 mt 10701 1218 L
10701 1218 mt 10705 1224 L
10705 1224 mt 10755 1283 L
10755 1283 mt 10772 1304 L
10772 1304 mt 10810 1349 L
10810 1349 mt 10839 1382 L
10839 1382 mt 10867 1414 L
10867 1414 mt 10906 1457 L
10906 1457 mt 10926 1479 L
10926 1479 mt 10973 1529 L
10973 1529 mt 10987 1544 L
10987 1544 mt 11040 1598 L
11040 1598 mt 11050 1609 L
11050 1609 mt 11106 1665 L
11106 1665 mt 11116 1674 L
11116 1674 mt 11173 1729 L
11173 1729 mt 11184 1739 L
11184 1739 mt 11240 1791 L
11240 1791 mt 11255 1804 L
11255 1804 mt 11307 1851 L
11307 1851 mt 11328 1869 L
11328 1869 mt 11374 1908 L
11374 1908 mt 11405 1934 L
11405 1934 mt 11441 1964 L
11441 1964 mt 11485 1999 L
11485 1999 mt 11508 2018 L
c29
9524  502 mt 9559  568 L
9559  568 mt 9569  585 L
9569  585 mt 9595  633 L
9595  633 mt 9632  698 L
9632  698 mt 9636  704 L
9636  704 mt 9670  763 L
9670  763 mt 9702  818 L
9702  818 mt 9708  828 L
9708  828 mt 9748  893 L
9748  893 mt 9769  927 L
9769  927 mt 9788  958 L
9788  958 mt 9830 1023 L
9830 1023 mt 9836 1033 L
9836 1033 mt 9872 1088 L
9872 1088 mt 9903 1134 L
9903 1134 mt 9916 1153 L
9916 1153 mt 9961 1218 L
9961 1218 mt 9970 1232 L
9970 1232 mt 10007 1283 L
10007 1283 mt 10037 1325 L
10037 1325 mt 10054 1349 L
10054 1349 mt 10102 1414 L
10102 1414 mt 10104 1416 L
10104 1416 mt 10152 1479 L
10152 1479 mt 10170 1503 L
10170 1503 mt 10203 1544 L
10203 1544 mt 10237 1586 L
10237 1586 mt 10256 1609 L
10256 1609 mt 10304 1667 L
10304 1667 mt 10310 1674 L
10310 1674 mt 10366 1739 L
10366 1739 mt 10371 1745 L
10371 1745 mt 10424 1804 L
10424 1804 mt 10438 1819 L
10438 1819 mt 10484 1869 L
10484 1869 mt 10505 1891 L
10505 1891 mt 10546 1934 L
10546 1934 mt 10572 1961 L
10572 1961 mt 10610 1999 L
10610 1999 mt 10638 2027 L
10638 2027 mt 10676 2064 L
10676 2064 mt 10705 2092 L
10705 2092 mt 10745 2130 L
10745 2130 mt 10772 2154 L
10772 2154 mt 10817 2195 L
10817 2195 mt 10839 2214 L
10839 2214 mt 10892 2260 L
10892 2260 mt 10906 2272 L
10906 2272 mt 10916 2281 L
10985 2338 mt 11040 2381 L
11040 2381 mt 11050 2390 L
11050 2390 mt 11106 2433 L
11106 2433 mt 11135 2455 L
11135 2455 mt 11173 2483 L
11173 2483 mt 11224 2520 L
11224 2520 mt 11240 2531 L
11240 2531 mt 11307 2578 L
11307 2578 mt 11317 2585 L
11317 2585 mt 11374 2623 L
11374 2623 mt 11415 2650 L
11415 2650 mt 11441 2667 L
11441 2667 mt 11508 2709 L
/c55 { 0.000000 0.000000 1.000000 sr} bdef
c55
8980  502 mt 9013  568 L
9013  568 mt 9034  609 L
9034  609 mt 9046  633 L
9046  633 mt 9080  698 L
9080  698 mt 9101  738 L
9101  738 mt 9114  763 L
9114  763 mt 9149  828 L
9149  828 mt 9168  861 L
9168  861 mt 9185  893 L
9185  893 mt 9222  958 L
9222  958 mt 9234  980 L
9234  980 mt 9260 1023 L
9260 1023 mt 9298 1088 L
9298 1088 mt 9301 1093 L
9301 1093 mt 9338 1153 L
9338 1153 mt 9368 1203 L
9368 1203 mt 9378 1218 L
9378 1218 mt 9419 1283 L
9419 1283 mt 9435 1308 L
9435 1308 mt 9462 1349 L
9462 1349 mt 9502 1409 L
9502 1409 mt 9505 1414 L
9505 1414 mt 9549 1479 L
9549 1479 mt 9569 1506 L
9569 1506 mt 9595 1544 L
9595 1544 mt 9636 1600 L
9636 1600 mt 9642 1609 L
9642 1609 mt 9690 1674 L
9690 1674 mt 9702 1691 L
9702 1691 mt 9739 1739 L
9739 1739 mt 9769 1777 L
9769 1777 mt 9790 1804 L
9790 1804 mt 9836 1861 L
9836 1861 mt 9842 1869 L
9842 1869 mt 9896 1934 L
9896 1934 mt 9903 1942 L
9903 1942 mt 9952 1999 L
9952 1999 mt 9970 2020 L
9970 2020 mt 10010 2064 L
10010 2064 mt 10037 2094 L
10037 2094 mt 10069 2130 L
10069 2130 mt 10104 2167 L
10104 2167 mt 10130 2195 L
10130 2195 mt 10170 2236 L
10170 2236 mt 10194 2260 L
10194 2260 mt 10237 2303 L
10237 2303 mt 10259 2325 L
10259 2325 mt 10304 2368 L
10304 2368 mt 10328 2390 L
10328 2390 mt 10371 2430 L
10371 2430 mt 10398 2455 L
10398 2455 mt 10438 2490 L
10438 2490 mt 10472 2520 L
10472 2520 mt 10505 2548 L
10505 2548 mt 10549 2585 L
10549 2585 mt 10572 2604 L
10572 2604 mt 10629 2650 L
10629 2650 mt 10638 2658 L
10638 2658 mt 10705 2710 L
10705 2710 mt 10712 2715 L
10712 2715 mt 10772 2760 L
10772 2760 mt 10800 2780 L
10800 2780 mt 10839 2808 L
10839 2808 mt 10892 2845 L
10892 2845 mt 10906 2855 L
10906 2855 mt 10973 2900 L
10973 2900 mt 10988 2911 L
10988 2911 mt 11040 2944 L
11040 2944 mt 11089 2976 L
11089 2976 mt 11106 2986 L
11106 2986 mt 11173 3027 L
11173 3027 mt 11196 3041 L
11196 3041 mt 11240 3066 L
11240 3066 mt 11307 3105 L
11307 3105 mt 11309 3106 L
11309 3106 mt 11374 3141 L
11374 3141 mt 11429 3171 L
11429 3171 mt 11441 3177 L
11441 3177 mt 11508 3212 L
c11
8528  502 mt 8559  568 L
8559  568 mt 8566  581 L
8566  581 mt 8591  633 L
8591  633 mt 8623  698 L
8623  698 mt 8633  716 L
8633  716 mt 8656  763 L
8656  763 mt 8690  828 L
8690  828 mt 8700  847 L
8700  847 mt 8724  893 L
8724  893 mt 8758  958 L
8758  958 mt 8766  973 L
8766  973 mt 8794 1023 L
8794 1023 mt 8830 1088 L
8830 1088 mt 8833 1094 L
8833 1094 mt 8867 1153 L
8867 1153 mt 8900 1211 L
8900 1211 mt 8904 1218 L
8904 1218 mt 8943 1283 L
8943 1283 mt 8967 1323 L
8967 1323 mt 8982 1349 L
8982 1349 mt 9022 1414 L
9022 1414 mt 9034 1432 L
9034 1432 mt 9064 1479 L
9064 1479 mt 9101 1536 L
9101 1536 mt 9106 1544 L
9106 1544 mt 9149 1609 L
9149 1609 mt 9168 1636 L
9168 1636 mt 9193 1674 L
9193 1674 mt 9234 1733 L
9234 1733 mt 9238 1739 L
9238 1739 mt 9285 1804 L
9285 1804 mt 9301 1826 L
9301 1826 mt 9333 1869 L
9333 1869 mt 9368 1916 L
9368 1916 mt 9382 1934 L
9382 1934 mt 9432 1999 L
9432 1999 mt 9435 2003 L
9435 2003 mt 9484 2064 L
9484 2064 mt 9502 2086 L
9502 2086 mt 9538 2130 L
9538 2130 mt 9569 2166 L
9569 2166 mt 9593 2195 L
9593 2195 mt 9636 2244 L
9636 2244 mt 9650 2260 L
9650 2260 mt 9702 2318 L
9702 2318 mt 9708 2325 L
9708 2325 mt 9769 2390 L
9769 2390 mt 9769 2390 L
9769 2390 mt 9832 2455 L
9832 2455 mt 9836 2460 L
9836 2460 mt 9896 2520 L
9896 2520 mt 9903 2526 L
9903 2526 mt 9964 2585 L
9964 2585 mt 9970 2591 L
9970 2591 mt 10034 2650 L
10034 2650 mt 10037 2653 L
10037 2653 mt 10104 2713 L
10104 2713 mt 10106 2715 L
10106 2715 mt 10170 2770 L
10170 2770 mt 10182 2780 L
10182 2780 mt 10237 2826 L
10237 2826 mt 10261 2845 L
10261 2845 mt 10304 2879 L
10304 2879 mt 10344 2911 L
10344 2911 mt 10371 2931 L
10371 2931 mt 10430 2976 L
10430 2976 mt 10438 2981 L
10438 2981 mt 10505 3030 L
10505 3030 mt 10520 3041 L
10520 3041 mt 10572 3076 L
10572 3076 mt 10615 3106 L
10615 3106 mt 10638 3121 L
10638 3121 mt 10705 3165 L
10705 3165 mt 10715 3171 L
10715 3171 mt 10772 3207 L
10772 3207 mt 10820 3236 L
10820 3236 mt 10839 3247 L
10839 3247 mt 10906 3287 L
10906 3287 mt 10931 3301 L
10931 3301 mt 10973 3325 L
10973 3325 mt 11040 3362 L
11040 3362 mt 11048 3366 L
11048 3366 mt 11106 3397 L
11106 3397 mt 11172 3431 L
11172 3431 mt 11173 3432 L
11173 3432 mt 11240 3465 L
11240 3465 mt 11303 3496 L
11303 3496 mt 11307 3498 L
11307 3498 mt 11374 3529 L
11374 3529 mt 11441 3560 L
11441 3560 mt 11444 3561 L
11444 3561 mt 11508 3589 L
c31
11064 3692 mt 11040 3680 L
11040 3680 mt 10973 3647 L
10973 3647 mt 10930 3626 L
10930 3626 mt 10906 3614 L
10906 3614 mt 10839 3580 L
10839 3580 mt 10802 3561 L
10802 3561 mt 10772 3545 L
10772 3545 mt 10705 3509 L
10705 3509 mt 10682 3496 L
10682 3496 mt 10638 3471 L
10638 3471 mt 10572 3433 L
10572 3433 mt 10569 3431 L
10569 3431 mt 10505 3392 L
10505 3392 mt 10462 3366 L
10462 3366 mt 10438 3351 L
10438 3351 mt 10371 3308 L
10371 3308 mt 10360 3301 L
10360 3301 mt 10304 3264 L
10304 3264 mt 10263 3236 L
10263 3236 mt 10237 3218 L
10237 3218 mt 10171 3171 L
10171 3171 mt 10170 3171 L
10170 3171 mt 10104 3121 L
10104 3121 mt 10083 3106 L
10083 3106 mt 10037 3070 L
10037 3070 mt 9999 3041 L
9999 3041 mt 9970 3017 L
9970 3017 mt 9919 2976 L
9919 2976 mt 9903 2962 L
9903 2962 mt 9842 2911 L
9842 2911 mt 9836 2905 L
9836 2905 mt 9769 2846 L
9769 2846 mt 9768 2845 L
9768 2845 mt 9702 2785 L
9702 2785 mt 9697 2780 L
9697 2780 mt 9636 2721 L
9636 2721 mt 9629 2715 L
9629 2715 mt 9569 2656 L
9569 2656 mt 9563 2650 L
9563 2650 mt 9502 2587 L
9502 2587 mt 9500 2585 L
9500 2585 mt 9439 2520 L
9439 2520 mt 9435 2516 L
9435 2516 mt 9379 2455 L
9379 2455 mt 9368 2442 L
9368 2442 mt 9322 2390 L
9322 2390 mt 9301 2366 L
9301 2366 mt 9266 2325 L
9266 2325 mt 9234 2287 L
9234 2287 mt 9212 2260 L
9212 2260 mt 9168 2204 L
9168 2204 mt 9160 2195 L
9160 2195 mt 9109 2130 L
9109 2130 mt 9101 2119 L
9101 2119 mt 9059 2064 L
9059 2064 mt 9034 2031 L
9034 2031 mt 9011 1999 L
9011 1999 mt 8967 1939 L
8967 1939 mt 8963 1934 L
8963 1934 mt 8918 1869 L
8918 1869 mt 8900 1844 L
8900 1844 mt 8873 1804 L
8873 1804 mt 8833 1746 L
8833 1746 mt 8829 1739 L
8829 1739 mt 8786 1674 L
8786 1674 mt 8766 1644 L
8766 1644 mt 8744 1609 L
8744 1609 mt 8703 1544 L
8703 1544 mt 8700 1539 L
8700 1539 mt 8662 1479 L
8662 1479 mt 8633 1430 L
8633 1430 mt 8623 1414 L
8623 1414 mt 8584 1349 L
8584 1349 mt 8566 1318 L
8566 1318 mt 8545 1283 L
8545 1283 mt 8507 1218 L
8507 1218 mt 8499 1204 L
8499 1204 mt 8470 1153 L
8470 1153 mt 8432 1088 L
8432 1088 mt 8432 1088 L
8432 1088 mt 8395 1023 L
8395 1023 mt 8365  972 L
8365  972 mt 8357  958 L
8357  958 mt 8317  893 L
8317  893 mt 8298  862 L
8298  862 mt 8273  828 L
8273  828 mt 8232  773 L
c32
10541 3692 mt 10505 3672 L
10505 3672 mt 10438 3635 L
10438 3635 mt 10421 3626 L
10421 3626 mt 10371 3597 L
10371 3597 mt 10308 3561 L
10308 3561 mt 10304 3559 L
10304 3559 mt 10237 3518 L
10237 3518 mt 10201 3496 L
10201 3496 mt 10170 3477 L
10170 3477 mt 10104 3434 L
10104 3434 mt 10099 3431 L
10099 3431 mt 10037 3389 L
10037 3389 mt 10003 3366 L
10003 3366 mt 9970 3343 L
9970 3343 mt 9911 3301 L
9911 3301 mt 9903 3295 L
9903 3295 mt 9836 3246 L
9836 3246 mt 9823 3236 L
9823 3236 mt 9769 3194 L
9769 3194 mt 9740 3171 L
9740 3171 mt 9702 3140 L
9702 3140 mt 9660 3106 L
9660 3106 mt 9636 3085 L
9636 3085 mt 9583 3041 L
9583 3041 mt 9569 3028 L
9569 3028 mt 9510 2976 L
9510 2976 mt 9502 2968 L
9502 2968 mt 9440 2911 L
9440 2911 mt 9435 2906 L
9435 2906 mt 9372 2845 L
9372 2845 mt 9368 2842 L
9368 2842 mt 9306 2780 L
9306 2780 mt 9301 2775 L
9301 2775 mt 9243 2715 L
9243 2715 mt 9234 2706 L
9234 2706 mt 9182 2650 L
9182 2650 mt 9168 2634 L
9168 2634 mt 9124 2585 L
9124 2585 mt 9101 2559 L
9101 2559 mt 9066 2520 L
9066 2520 mt 9034 2482 L
9034 2482 mt 9011 2455 L
9011 2455 mt 8967 2402 L
8967 2402 mt 8957 2390 L
8957 2390 mt 8905 2325 L
8905 2325 mt 8900 2319 L
8900 2319 mt 8854 2260 L
8854 2260 mt 8833 2233 L
8833 2233 mt 8804 2195 L
8804 2195 mt 8766 2144 L
8766 2144 mt 8756 2130 L
8756 2130 mt 8708 2064 L
8708 2064 mt 8700 2052 L
8700 2052 mt 8662 1999 L
8662 1999 mt 8633 1957 L
8633 1957 mt 8617 1934 L
8617 1934 mt 8591 1898 L
8549 1835 mt 8528 1804 L
8528 1804 mt 8499 1760 L
8499 1760 mt 8485 1739 L
8485 1739 mt 8442 1674 L
8442 1674 mt 8432 1660 L
8432 1660 mt 8398 1609 L
8398 1609 mt 8365 1559 L
8365 1559 mt 8354 1544 L
8354 1544 mt 8309 1479 L
8309 1479 mt 8298 1464 L
8298 1464 mt 8255 1414 L
8255 1414 mt 8232 1386 L
c33
10128 3692 mt 10104 3677 L
10104 3677 mt 10037 3638 L
10037 3638 mt 10018 3626 L
10018 3626 mt 9970 3596 L
9970 3596 mt 9914 3561 L
9914 3561 mt 9903 3554 L
9903 3554 mt 9836 3510 L
9836 3510 mt 9816 3496 L
9816 3496 mt 9769 3464 L
9769 3464 mt 9722 3431 L
9722 3431 mt 9702 3417 L
9702 3417 mt 9636 3368 L
9636 3368 mt 9633 3366 L
9633 3366 mt 9569 3316 L
9569 3316 mt 9549 3301 L
9549 3301 mt 9502 3263 L
9502 3263 mt 9468 3236 L
9468 3236 mt 9435 3208 L
9435 3208 mt 9391 3171 L
9391 3171 mt 9368 3151 L
9368 3151 mt 9317 3106 L
9317 3106 mt 9301 3092 L
9301 3092 mt 9245 3041 L
9245 3041 mt 9234 3030 L
9234 3030 mt 9177 2976 L
9177 2976 mt 9168 2966 L
9168 2966 mt 9111 2911 L
9111 2911 mt 9101 2900 L
9101 2900 mt 9048 2845 L
9048 2845 mt 9034 2830 L
9034 2830 mt 8987 2780 L
8987 2780 mt 8967 2759 L
8967 2759 mt 8928 2715 L
8928 2715 mt 8900 2684 L
8900 2684 mt 8870 2650 L
8870 2650 mt 8833 2607 L
8833 2607 mt 8814 2585 L
8814 2585 mt 8766 2528 L
8766 2528 mt 8760 2520 L
8760 2520 mt 8707 2455 L
8707 2455 mt 8700 2445 L
8700 2445 mt 8656 2390 L
8656 2390 mt 8633 2359 L
8633 2359 mt 8606 2325 L
8606 2325 mt 8566 2272 L
8566 2272 mt 8557 2260 L
8557 2260 mt 8508 2195 L
8508 2195 mt 8499 2182 L
8499 2182 mt 8461 2130 L
8461 2130 mt 8432 2090 L
8432 2090 mt 8413 2064 L
8413 2064 mt 8365 1999 L
8365 1999 mt 8365 1999 L
8365 1999 mt 8316 1934 L
8316 1934 mt 8298 1911 L
8298 1911 mt 8261 1869 L
8261 1869 mt 8232 1836 L
c14
9792 3692 mt 9769 3677 L
9769 3677 mt 9702 3634 L
9702 3634 mt 9690 3626 L
9690 3626 mt 9636 3590 L
9636 3590 mt 9594 3561 L
9594 3561 mt 9569 3544 L
9569 3544 mt 9502 3496 L
9502 3496 mt 9502 3496 L
9502 3496 mt 9435 3446 L
9435 3446 mt 9415 3431 L
9415 3431 mt 9368 3395 L
9368 3395 mt 9332 3366 L
9332 3366 mt 9301 3341 L
9301 3341 mt 9252 3301 L
9252 3301 mt 9234 3286 L
9234 3286 mt 9177 3236 L
9177 3236 mt 9168 3228 L
9168 3228 mt 9104 3171 L
9104 3171 mt 9101 3168 L
9101 3168 mt 9034 3106 L
9034 3106 mt 9034 3105 L
9034 3105 mt 8968 3041 L
8968 3041 mt 8967 3040 L
8967 3040 mt 8903 2976 L
8903 2976 mt 8900 2972 L
8900 2972 mt 8842 2911 L
8842 2911 mt 8833 2902 L
8833 2902 mt 8782 2845 L
8782 2845 mt 8766 2828 L
8766 2828 mt 8724 2780 L
8724 2780 mt 8700 2753 L
8700 2753 mt 8668 2715 L
8668 2715 mt 8633 2674 L
8633 2674 mt 8613 2650 L
8613 2650 mt 8566 2593 L
8566 2593 mt 8559 2585 L
8559 2585 mt 8507 2520 L
8507 2520 mt 8499 2510 L
8499 2510 mt 8456 2455 L
8456 2455 mt 8432 2424 L
8432 2424 mt 8405 2390 L
8405 2390 mt 8365 2338 L
8365 2338 mt 8355 2325 L
8355 2325 mt 8303 2260 L
8303 2260 mt 8298 2254 L
8298 2254 mt 8246 2195 L
8246 2195 mt 8232 2178 L
c15
9517 3692 mt 9502 3682 L
9502 3682 mt 9435 3636 L
9435 3636 mt 9420 3626 L
9420 3626 mt 9368 3589 L
9368 3589 mt 9329 3561 L
9329 3561 mt 9301 3540 L
9301 3540 mt 9243 3496 L
9243 3496 mt 9234 3490 L
9234 3490 mt 9168 3437 L
9168 3437 mt 9161 3431 L
9161 3431 mt 9101 3381 L
9101 3381 mt 9083 3366 L
9083 3366 mt 9034 3324 L
9034 3324 mt 9008 3301 L
9008 3301 mt 8967 3264 L
8967 3264 mt 8937 3236 L
8937 3236 mt 8900 3201 L
8900 3201 mt 8868 3171 L
8868 3171 mt 8833 3136 L
8833 3136 mt 8803 3106 L
8803 3106 mt 8766 3069 L
8766 3069 mt 8740 3041 L
8740 3041 mt 8700 2998 L
8700 2998 mt 8679 2976 L
8679 2976 mt 8633 2925 L
8633 2925 mt 8620 2911 L
8620 2911 mt 8566 2849 L
8566 2849 mt 8563 2845 L
8563 2845 mt 8507 2780 L
8507 2780 mt 8499 2770 L
8499 2770 mt 8454 2715 L
8454 2715 mt 8432 2689 L
8432 2689 mt 8401 2650 L
8401 2650 mt 8365 2606 L
8365 2606 mt 8348 2585 L
8348 2585 mt 8298 2524 L
8298 2524 mt 8295 2520 L
8295 2520 mt 8239 2455 L
8239 2455 mt 8232 2446 L
c37
9288 3692 mt 9234 3653 L
9234 3653 mt 9197 3626 L
9197 3626 mt 9168 3605 L
9168 3605 mt 9110 3561 L
9110 3561 mt 9101 3554 L
9101 3554 mt 9034 3501 L
9034 3501 mt 9028 3496 L
9028 3496 mt 8967 3445 L
8967 3445 mt 8951 3431 L
8951 3431 mt 8900 3387 L
8900 3387 mt 8877 3366 L
8877 3366 mt 8833 3326 L
8833 3326 mt 8806 3301 L
8806 3301 mt 8766 3263 L
8766 3263 mt 8739 3236 L
8739 3236 mt 8700 3197 L
8700 3197 mt 8674 3171 L
8674 3171 mt 8633 3128 L
8633 3128 mt 8612 3106 L
8612 3106 mt 8566 3056 L
8566 3056 mt 8552 3041 L
8552 3041 mt 8499 2981 L
8499 2981 mt 8494 2976 L
8494 2976 mt 8444 2918 L
8394 2857 mt 8384 2845 L
8384 2845 mt 8365 2822 L
8365 2822 mt 8331 2780 L
8331 2780 mt 8298 2740 L
8298 2740 mt 8278 2715 L
8278 2715 mt 8232 2660 L
/c56 { 0.312500 1.000000 0.687500 sr} bdef
c56
9097 3692 mt 9034 3644 L
9034 3644 mt 9010 3626 L
9010 3626 mt 8967 3592 L
8967 3592 mt 8928 3561 L
8928 3561 mt 8900 3538 L
8900 3538 mt 8850 3496 L
8850 3496 mt 8833 3482 L
8833 3482 mt 8776 3431 L
8776 3431 mt 8766 3422 L
8766 3422 mt 8706 3366 L
8706 3366 mt 8700 3360 L
8700 3360 mt 8639 3301 L
8639 3301 mt 8633 3294 L
8633 3294 mt 8576 3236 L
8576 3236 mt 8566 3226 L
8566 3226 mt 8515 3171 L
8515 3171 mt 8499 3153 L
8499 3153 mt 8457 3106 L
8457 3106 mt 8432 3078 L
8432 3078 mt 8401 3041 L
8401 3041 mt 8365 2999 L
8365 2999 mt 8346 2976 L
8346 2976 mt 8298 2918 L
8298 2918 mt 8293 2911 L
8293 2911 mt 8240 2845 L
8240 2845 mt 8232 2835 L
c17
8938 3692 mt 8900 3662 L
8900 3662 mt 8854 3626 L
8854 3626 mt 8833 3609 L
8833 3609 mt 8776 3561 L
8776 3561 mt 8766 3553 L
8766 3553 mt 8702 3496 L
8702 3496 mt 8700 3494 L
8700 3494 mt 8633 3432 L
8633 3432 mt 8632 3431 L
8632 3431 mt 8566 3366 L
8566 3366 mt 8566 3366 L
8566 3366 mt 8503 3301 L
8503 3301 mt 8499 3297 L
8499 3297 mt 8444 3236 L
8444 3236 mt 8432 3223 L
8432 3223 mt 8387 3171 L
8387 3171 mt 8365 3145 L
8365 3145 mt 8333 3106 L
8333 3106 mt 8298 3064 L
8298 3064 mt 8281 3041 L
8281 3041 mt 8232 2979 L
c18
8804 3692 mt 8766 3661 L
8766 3661 mt 8725 3626 L
8725 3626 mt 8700 3605 L
8700 3605 mt 8650 3561 L
8650 3561 mt 8633 3545 L
8633 3545 mt 8580 3496 L
8580 3496 mt 8566 3482 L
8566 3482 mt 8515 3431 L
8515 3431 mt 8499 3415 L
8499 3415 mt 8453 3366 L
8453 3366 mt 8432 3344 L
8432 3344 mt 8395 3301 L
8395 3301 mt 8365 3267 L
8365 3267 mt 8340 3236 L
8340 3236 mt 8298 3186 L
8298 3186 mt 8287 3171 L
8287 3171 mt 8237 3106 L
8237 3106 mt 8232 3098 L
/c57 { 0.750000 1.000000 0.250000 sr} bdef
c57
8692 3692 mt 8633 3640 L
8633 3640 mt 8617 3626 L
8617 3626 mt 8566 3580 L
8566 3580 mt 8546 3561 L
8546 3561 mt 8499 3515 L
8499 3515 mt 8481 3496 L
8481 3496 mt 8432 3446 L
8432 3446 mt 8419 3431 L
8419 3431 mt 8365 3371 L
8365 3371 mt 8361 3366 L
8361 3366 mt 8350 3352 L
8300 3291 mt 8298 3289 L
8298 3289 mt 8260 3236 L
8260 3236 mt 8232 3199 L
c44
8600 3692 mt 8566 3661 L
8566 3661 mt 8528 3626 L
8528 3626 mt 8499 3599 L
8499 3599 mt 8462 3561 L
8462 3561 mt 8432 3531 L
8432 3531 mt 8401 3496 L
8401 3496 mt 8365 3457 L
8365 3457 mt 8344 3431 L
8344 3431 mt 8298 3376 L
8298 3376 mt 8291 3366 L
8291 3366 mt 8244 3301 L
8244 3301 mt 8232 3285 L
c20
8523 3692 mt 8499 3669 L
8499 3669 mt 8455 3626 L
8455 3626 mt 8432 3604 L
8432 3604 mt 8393 3561 L
8393 3561 mt 8365 3531 L
8365 3531 mt 8337 3496 L
8337 3496 mt 8298 3450 L
8298 3450 mt 8285 3431 L
8285 3431 mt 8238 3366 L
8238 3366 mt 8232 3358 L
c21
8460 3692 mt 8432 3665 L
8432 3665 mt 8396 3626 L
8396 3626 mt 8365 3594 L
8365 3594 mt 8339 3561 L
8339 3561 mt 8298 3514 L
8298 3514 mt 8287 3496 L
8287 3496 mt 8240 3431 L
8240 3431 mt 8232 3420 L
c48
8408 3692 mt 8365 3647 L
8365 3647 mt 8348 3626 L
8348 3626 mt 8304 3575 L
8260 3513 mt 8248 3496 L
8248 3496 mt 8232 3473 L
c49
8363 3692 mt 8309 3626 L
8309 3626 mt 8298 3615 L
8298 3615 mt 8263 3561 L
8263 3561 mt 8232 3519 L
c50
8332 3692 mt 8298 3653 L
8298 3653 mt 8281 3626 L
8281 3626 mt 8232 3561 L
8232 3561 mt 8232 3560 L
c24
8301 3692 mt 8298 3688 L
8298 3688 mt 8258 3626 L
8258 3626 mt 8232 3592 L
/c58 { 0.937500 0.000000 0.000000 sr} bdef
c58
8284 3692 mt 8234 3626 L
8234 3626 mt 8232 3623 L
c52
8268 3692 mt 8232 3644 L
/c59 { 0.625000 0.000000 0.000000 sr} bdef
c59
8252 3692 mt 8232 3665 L
c27
8237 3692 mt 8232 3685 L
0 sg
10898 2301 mt  -299 rotate
(3) s
299 rotate
8520 1847 mt  -287 rotate
(4) s
287 rotate
8368 2871 mt  -291 rotate
(5) s
291 rotate
8274 3306 mt  -290 rotate
(6) s
290 rotate
8232 3526 mt  -288 rotate
(7) s
288 rotate
gr

0 sg
%%IncludeResource: font Symbol
/Symbol /ISOLatin1Encoding 120 FMSR

9764 3949 mt 
(f) s
%%IncludeResource: font Symbol
/Symbol /ISOLatin1Encoding 96 FMSR

9826 4009 mt 
(D) s
%%IncludeResource: font Helvetica
/Helvetica /ISOLatin1Encoding 96 FMSR

9884 4009 mt 
( Y) s
%%IncludeResource: font Symbol
/Symbol /ISOLatin1Encoding 120 FMSR

7888 2203 mt  -90 rotate
(f) s
90 rotate
%%IncludeResource: font Symbol
/Symbol /ISOLatin1Encoding 96 FMSR

7948 2141 mt  -90 rotate
(D) s
90 rotate
%%IncludeResource: font Helvetica
/Helvetica /ISOLatin1Encoding 96 FMSR

7948 2083 mt  -90 rotate
( V) s
90 rotate
%%IncludeResource: font Symbol
/Symbol /ISOLatin1Encoding 120 FMSR

9801  354 mt 
(s) s
%%IncludeResource: font Helvetica
/Helvetica /ISOLatin1Encoding 96 FMSR

9873  414 mt 
(V) s
gs 8232 503 3277 3190 rc
24 w
DA
8670 3692 mt 8633 3660 L
8633 3660 mt 8595 3626 L
8595 3626 mt 8566 3600 L
8566 3600 mt 8525 3561 L
8525 3561 mt 8499 3536 L
8499 3536 mt 8461 3496 L
8461 3496 mt 8432 3467 L
8432 3467 mt 8401 3431 L
8401 3431 mt 8365 3392 L
8365 3392 mt 8344 3366 L
8344 3366 mt 8298 3311 L
8298 3311 mt 8292 3301 L
8292 3301 mt 8244 3236 L
8244 3236 mt 8232 3220 L
gr

24 w
DA
4 w
DO
SO
6 w
8232 3692 mt 11508 3692 L
8232  502 mt 11508  502 L
8232 3692 mt 8232  502 L
11508 3692 mt 11508  502 L
8232 3692 mt 11508 3692 L
8232 3692 mt 8232  502 L
8232 3692 mt 8232 3659 L
8232  503 mt 8232  535 L
%%IncludeResource: font Helvetica
/Helvetica /ISOLatin1Encoding 120 FMSR

8199 3837 mt 
(0) s
8887 3692 mt 8887 3659 L
8887  503 mt 8887  535 L
8854 3837 mt 
(1) s
9542 3692 mt 9542 3659 L
9542  503 mt 9542  535 L
9509 3837 mt 
(2) s
10197 3692 mt 10197 3659 L
10197  503 mt 10197  535 L
10164 3837 mt 
(3) s
10852 3692 mt 10852 3659 L
10852  503 mt 10852  535 L
10819 3837 mt 
(4) s
11508 3692 mt 11508 3659 L
11508  503 mt 11508  535 L
11475 3837 mt 
(5) s
8232 3692 mt 8264 3692 L
11508 3692 mt 11475 3692 L
8131 3736 mt 
(0) s
8232 3373 mt 8264 3373 L
11508 3373 mt 11475 3373 L
8031 3417 mt 
(0.5) s
8232 3054 mt 8264 3054 L
11508 3054 mt 11475 3054 L
8131 3098 mt 
(1) s
8232 2735 mt 8264 2735 L
11508 2735 mt 11475 2735 L
8031 2779 mt 
(1.5) s
8232 2416 mt 8264 2416 L
11508 2416 mt 11475 2416 L
8131 2460 mt 
(2) s
8232 2097 mt 8264 2097 L
11508 2097 mt 11475 2097 L
8031 2141 mt 
(2.5) s
8232 1778 mt 8264 1778 L
11508 1778 mt 11475 1778 L
8131 1822 mt 
(3) s
8232 1459 mt 8264 1459 L
11508 1459 mt 11475 1459 L
8031 1503 mt 
(3.5) s
8232 1140 mt 8264 1140 L
11508 1140 mt 11475 1140 L
8131 1184 mt 
(4) s
8232  821 mt 8264  821 L
11508  821 mt 11475  821 L
8031  865 mt 
(4.5) s
8232  503 mt 8264  503 L
11508  503 mt 11475  503 L
8131  547 mt 
(5) s
8232 3692 mt 11508 3692 L
8232  502 mt 11508  502 L
8232 3692 mt 8232  502 L
11508 3692 mt 11508  502 L

end %%Color Dict

eplot
%%EndObject

epage
end

showpage

%%Trailer
%%EOF
