%!PS-Adobe-3.0 EPSF-3.0
%%Creator: MATLAB, The MathWorks, Inc. Version 7.14.0.739 (R2012a). Operating System: Darwin 13.1.0 Darwin Kernel Version 13.1.0: Thu Jan 16 19:40:37 PST 2014; root:xnu-2422.90.20~2/RELEASE_X86_64 x86_64.
%%Title: /Users/fckw/Dropbox/PhD/finfric/paper/policymetrics_tadc.eps
%%CreationDate: 05/09/2014  17:44:26
%%DocumentNeededFonts: Helvetica
%%DocumentProcessColors: Cyan Magenta Yellow Black
%%LanguageLevel: 2
%%Pages: 1
%%BoundingBox:  -193   221   806   571
%%EndComments

%%BeginProlog
% MathWorks dictionary
/MathWorks 160 dict begin
% definition operators
/bdef {bind def} bind def
/ldef {load def} bind def
/xdef {exch def} bdef
/xstore {exch store} bdef
% operator abbreviations
/c  /clip ldef
/cc /concat ldef
/cp /closepath ldef
/gr /grestore ldef
/gs /gsave ldef
/mt /moveto ldef
/np /newpath ldef
/cm /currentmatrix ldef
/sm /setmatrix ldef
/rm /rmoveto ldef
/rl /rlineto ldef
/s {show newpath} bdef
/sc {setcmykcolor} bdef
/sr /setrgbcolor ldef
/sg /setgray ldef
/w /setlinewidth ldef
/j /setlinejoin ldef
/cap /setlinecap ldef
/rc {rectclip} bdef
/rf {rectfill} bdef
% page state control
/pgsv () def
/bpage {/pgsv save def} bdef
/epage {pgsv restore} bdef
/bplot /gsave ldef
/eplot {stroke grestore} bdef
% orientation switch
/portraitMode 0 def /landscapeMode 1 def /rotateMode 2 def
% coordinate system mappings
/dpi2point 0 def
% font control
/FontSize 0 def
/FMS {/FontSize xstore findfont [FontSize 0 0 FontSize neg 0 0]
  makefont setfont} bdef
/reencode {exch dup where {pop load} {pop StandardEncoding} ifelse
  exch dup 3 1 roll findfont dup length dict begin
  { 1 index /FID ne {def}{pop pop} ifelse } forall
  /Encoding exch def currentdict end definefont pop} bdef
/isroman {findfont /CharStrings get /Agrave known} bdef
/FMSR {3 1 roll 1 index dup isroman {reencode} {pop pop} ifelse
  exch FMS} bdef
/csm {1 dpi2point div -1 dpi2point div scale neg translate
 dup landscapeMode eq {pop -90 rotate}
  {rotateMode eq {90 rotate} if} ifelse} bdef
% line types: solid, dotted, dashed, dotdash
/dom { dpi2point 1 currentlinewidth 0.08 mul add mul mul } bdef/dam { dpi2point 2 currentlinewidth 0.04 mul add mul mul } bdef/SO { [] 0 setdash 0 setlinecap } bdef/DO { [1 dom 1.2 dom] 0 setdash 0 setlinecap } bdef/DA { [4 dam 1.5 dam] 0 setdash 0 setlinecap } bdef/DD { [1 dom 1.2 dom 4 dam 1.2 dom] 0 setdash 0 setlinecap } bdef/GR { [0 dpi2point mul 4 dpi2point mul] 0 setdash 1 setlinecap } bdef% macros for lines and objects
/L {lineto stroke} bdef
/MP {3 1 roll moveto 1 sub {rlineto} repeat} bdef
/AP {{rlineto} repeat} bdef
/PDlw -1 def
/W {/PDlw currentlinewidth def setlinewidth} def
/PP {closepath eofill} bdef
/DP {closepath stroke} bdef
/MR {4 -2 roll moveto dup  0 exch rlineto exch 0 rlineto
  neg 0 exch rlineto closepath} bdef
/FR {MR stroke} bdef
/PR {MR fill} bdef
/L1i {{currentfile picstr readhexstring pop} image} bdef
/tMatrix matrix def
/MakeOval {newpath tMatrix currentmatrix pop translate scale
0 0 1 0 360 arc tMatrix setmatrix} bdef
/FO {MakeOval stroke} bdef
/PO {MakeOval fill} bdef
/PD {currentlinewidth 2 div 0 360 arc fill
   PDlw -1 eq not {PDlw w /PDlw -1 def} if} def
/FA {newpath tMatrix currentmatrix pop translate scale
  0 0 1 5 -2 roll arc tMatrix setmatrix stroke} bdef
/PA {newpath tMatrix currentmatrix pop	translate 0 0 moveto scale
  0 0 1 5 -2 roll arc closepath tMatrix setmatrix fill} bdef
/FAn {newpath tMatrix currentmatrix pop translate scale
  0 0 1 5 -2 roll arcn tMatrix setmatrix stroke} bdef
/PAn {newpath tMatrix currentmatrix pop translate 0 0 moveto scale
  0 0 1 5 -2 roll arcn closepath tMatrix setmatrix fill} bdef
/vradius 0 def /hradius 0 def /lry 0 def
/lrx 0 def /uly 0 def /ulx 0 def /rad 0 def
/MRR {/vradius xdef /hradius xdef /lry xdef /lrx xdef /uly xdef
  /ulx xdef newpath tMatrix currentmatrix pop ulx hradius add uly
  vradius add translate hradius vradius scale 0 0 1 180 270 arc 
  tMatrix setmatrix lrx hradius sub uly vradius add translate
  hradius vradius scale 0 0 1 270 360 arc tMatrix setmatrix
  lrx hradius sub lry vradius sub translate hradius vradius scale
  0 0 1 0 90 arc tMatrix setmatrix ulx hradius add lry vradius sub
  translate hradius vradius scale 0 0 1 90 180 arc tMatrix setmatrix
  closepath} bdef
/FRR {MRR stroke } bdef
/PRR {MRR fill } bdef
/MlrRR {/lry xdef /lrx xdef /uly xdef /ulx xdef /rad lry uly sub 2 div def
  newpath tMatrix currentmatrix pop ulx rad add uly rad add translate
  rad rad scale 0 0 1 90 270 arc tMatrix setmatrix lrx rad sub lry rad
  sub translate rad rad scale 0 0 1 270 90 arc tMatrix setmatrix
  closepath} bdef
/FlrRR {MlrRR stroke } bdef
/PlrRR {MlrRR fill } bdef
/MtbRR {/lry xdef /lrx xdef /uly xdef /ulx xdef /rad lrx ulx sub 2 div def
  newpath tMatrix currentmatrix pop ulx rad add uly rad add translate
  rad rad scale 0 0 1 180 360 arc tMatrix setmatrix lrx rad sub lry rad
  sub translate rad rad scale 0 0 1 0 180 arc tMatrix setmatrix
  closepath} bdef
/FtbRR {MtbRR stroke } bdef
/PtbRR {MtbRR fill } bdef
/stri 6 array def /dtri 6 array def
/smat 6 array def /dmat 6 array def
/tmat1 6 array def /tmat2 6 array def /dif 3 array def
/asub {/ind2 exch def /ind1 exch def dup dup
  ind1 get exch ind2 get sub exch } bdef
/tri_to_matrix {
  2 0 asub 3 1 asub 4 0 asub 5 1 asub
  dup 0 get exch 1 get 7 -1 roll astore } bdef
/compute_transform {
  dmat dtri tri_to_matrix tmat1 invertmatrix 
  smat stri tri_to_matrix tmat2 concatmatrix } bdef
/ds {stri astore pop} bdef
/dt {dtri astore pop} bdef
/db {2 copy /cols xdef /rows xdef mul dup 3 mul string
  currentfile 
  3 index 0 eq {/ASCIIHexDecode filter}
  {/ASCII85Decode filter 3 index 2 eq {/RunLengthDecode filter} if }
  ifelse exch readstring pop
  dup 0 3 index getinterval /rbmap xdef
  dup 2 index dup getinterval /gbmap xdef
  1 index dup 2 mul exch getinterval /bbmap xdef pop pop}bdef
/it {gs np dtri aload pop moveto lineto lineto cp c
  cols rows 8 compute_transform 
  rbmap gbmap bbmap true 3 colorimage gr}bdef
/il {newpath moveto lineto stroke}bdef
currentdict end def
%%EndProlog

%%BeginSetup
MathWorks begin

0 cap

end
%%EndSetup

%%Page: 1 1
%%BeginPageSetup
%%PageBoundingBox:  -193   221   806   571
MathWorks begin
bpage
%%EndPageSetup

%%BeginObject: obj1
bplot

/dpi2point 12 def
portraitMode -2316 6852 csm

    0     0 11988  4195 rc
85 dict begin %Colortable dictionary
/c0 { 0.000000 0.000000 0.000000 sr} bdef
/c1 { 1.000000 1.000000 1.000000 sr} bdef
/c2 { 0.900000 0.000000 0.000000 sr} bdef
/c3 { 0.000000 0.820000 0.000000 sr} bdef
/c4 { 0.000000 0.000000 0.800000 sr} bdef
/c5 { 0.910000 0.820000 0.320000 sr} bdef
/c6 { 1.000000 0.260000 0.820000 sr} bdef
/c7 { 0.000000 0.820000 0.820000 sr} bdef
c0
1 j
1 sg
   0    0 11989 4196 rf
6 w
0 3190 3276 0 0 -3190 480 3692 4 MP
PP
-3276 0 0 3190 3276 0 0 -3190 480 3692 5 MP stroke
gs 480 503 3277 3190 rc
/c8 { 0.000000 0.000000 0.562500 sr} bdef
c8
3462  502 mt 3504  521 L
3504  521 mt 3588  559 L
3588  559 mt 3645  584 L
3645  584 mt 3672  596 L
3672  596 mt 3756  634 L
/c9 { 0.000000 0.000000 0.687500 sr} bdef
c9
2688  502 mt 2748  529 L
2748  529 mt 2832  566 L
2832  566 mt 2874  584 L
2874  584 mt 2916  603 L
2916  603 mt 3000  640 L
3000  640 mt 3058  666 L
3058  666 mt 3084  677 L
3084  677 mt 3168  715 L
3168  715 mt 3241  748 L
3241  748 mt 3252  752 L
3252  752 mt 3270  760 L
3567  893 mt 3588  903 L
3588  903 mt 3607  911 L
3607  911 mt 3672  940 L
3672  940 mt 3756  978 L
/c10 { 0.000000 0.000000 0.812500 sr} bdef
c10
1956  502 mt 1992  518 L
1992  518 mt 2076  554 L
2076  554 mt 2145  584 L
2145  584 mt 2160  590 L
2160  590 mt 2244  627 L
2244  627 mt 2328  664 L
2328  664 mt 2333  666 L
2333  666 mt 2412  700 L
2412  700 mt 2496  737 L
2496  737 mt 2519  748 L
2519  748 mt 2580  774 L
2580  774 mt 2664  812 L
2664  812 mt 2704  830 L
2704  830 mt 2748  849 L
2748  849 mt 2832  886 L
2832  886 mt 2888  911 L
2888  911 mt 2916  924 L
2916  924 mt 3000  961 L
3000  961 mt 3071  993 L
3071  993 mt 3084  999 L
3084  999 mt 3168 1036 L
3168 1036 mt 3252 1074 L
3252 1074 mt 3254 1075 L
3254 1075 mt 3336 1111 L
3336 1111 mt 3420 1149 L
3420 1149 mt 3436 1157 L
3436 1157 mt 3504 1187 L
3504 1187 mt 3588 1225 L
3588 1225 mt 3618 1238 L
3618 1238 mt 3672 1262 L
3672 1262 mt 3756 1300 L
/c11 { 0.000000 0.000000 1.000000 sr} bdef
c11
1258  502 mt 1320  528 L
1320  528 mt 1404  562 L
1404  562 mt 1456  584 L
1456  584 mt 1488  597 L
1488  597 mt 1572  633 L
1572  633 mt 1649  666 L
1649  666 mt 1656  669 L
1656  669 mt 1740  704 L
1740  704 mt 1824  741 L
1824  741 mt 1840  748 L
1840  748 mt 1908  777 L
1908  777 mt 1992  814 L
1992  814 mt 2028  830 L
2028  830 mt 2076  850 L
2076  850 mt 2160  887 L
2160  887 mt 2214  911 L
2214  911 mt 2244  925 L
2244  925 mt 2328  962 L
2328  962 mt 2398  993 L
2398  993 mt 2412  999 L
2412  999 mt 2496 1036 L
2496 1036 mt 2580 1074 L
2580 1074 mt 2582 1075 L
2582 1075 mt 2664 1111 L
2664 1111 mt 2748 1149 L
2748 1149 mt 2765 1157 L
2765 1157 mt 2832 1187 L
2832 1187 mt 2916 1224 L
2916 1224 mt 2947 1238 L
2947 1238 mt 3000 1262 L
3000 1262 mt 3084 1300 L
3084 1300 mt 3129 1320 L
3129 1320 mt 3168 1337 L
3168 1337 mt 3252 1375 L
3252 1375 mt 3311 1402 L
3311 1402 mt 3336 1413 L
3336 1413 mt 3420 1451 L
3420 1451 mt 3492 1484 L
3492 1484 mt 3504 1489 L
3504 1489 mt 3588 1526 L
3588 1526 mt 3672 1564 L
3672 1564 mt 3674 1566 L
3674 1566 mt 3756 1602 L
/c12 { 0.000000 0.125000 1.000000 sr} bdef
c12
 575  502 mt  648  529 L
 648  529 mt  732  560 L
 732  560 mt  794  584 L
 794  584 mt  816  592 L
 816  592 mt  900  625 L
 900  625 mt  984  659 L
 984  659 mt 1001  666 L
1001  666 mt 1068  693 L
1068  693 mt 1152  728 L
1152  728 mt 1199  748 L
1199  748 mt 1236  763 L
1236  763 mt 1320  798 L
1320  798 mt 1392  830 L
1392  830 mt 1404  834 L
1404  834 mt 1488  870 L
1488  870 mt 1572  907 L
1572  907 mt 1582  911 L
1582  911 mt 1656  943 L
1656  943 mt 1740  980 L
1740  980 mt 1769  993 L
1769  993 mt 1824 1017 L
1824 1017 mt 1908 1054 L
1908 1054 mt 1954 1075 L
1954 1075 mt 1992 1091 L
1992 1091 mt 2076 1129 L
2076 1129 mt 2138 1157 L
2138 1157 mt 2160 1166 L
2160 1166 mt 2244 1204 L
2244 1204 mt 2320 1238 L
2320 1238 mt 2328 1242 L
2328 1242 mt 2412 1279 L
2412 1279 mt 2496 1317 L
2496 1317 mt 2502 1320 L
2502 1320 mt 2580 1355 L
2580 1355 mt 2664 1393 L
2664 1393 mt 2684 1402 L
2684 1402 mt 2748 1431 L
2748 1431 mt 2832 1469 L
2832 1469 mt 2865 1484 L
2865 1484 mt 2916 1507 L
2916 1507 mt 3000 1544 L
3000 1544 mt 3046 1566 L
3046 1566 mt 3084 1582 L
3084 1582 mt 3168 1620 L
3168 1620 mt 3227 1647 L
3227 1647 mt 3252 1658 L
3252 1658 mt 3336 1696 L
3336 1696 mt 3408 1729 L
3408 1729 mt 3420 1734 L
3420 1734 mt 3504 1772 L
3504 1772 mt 3588 1810 L
3588 1810 mt 3589 1811 L
3589 1811 mt 3672 1848 L
3672 1848 mt 3756 1886 L
/c13 { 0.000000 0.250000 1.000000 sr} bdef
c13
 480  706 mt  564  738 L
 564  738 mt  588  748 L
 588  748 mt  648  771 L
 648  771 mt  732  804 L
 732  804 mt  794  830 L
 794  830 mt  816  838 L
 816  838 mt  900  873 L
 900  873 mt  984  908 L
 984  908 mt  991  911 L
 991  911 mt 1068  944 L
1068  944 mt 1152  980 L
1152  980 mt 1182  993 L
1182  993 mt 1236 1016 L
1236 1016 mt 1320 1053 L
1320 1053 mt 1370 1075 L
1370 1075 mt 1404 1090 L
1404 1090 mt 1488 1127 L
1488 1127 mt 1555 1157 L
1555 1157 mt 1572 1164 L
1572 1164 mt 1656 1201 L
1656 1201 mt 1738 1238 L
1738 1238 mt 1740 1239 L
1740 1239 mt 1824 1277 L
1824 1277 mt 1908 1315 L
1908 1315 mt 1920 1320 L
1920 1320 mt 1992 1352 L
1992 1352 mt 2076 1390 L
2076 1390 mt 2101 1402 L
2101 1402 mt 2160 1428 L
2160 1428 mt 2244 1466 L
2244 1466 mt 2281 1484 L
2281 1484 mt 2328 1505 L
2328 1505 mt 2412 1543 L
2412 1543 mt 2461 1566 L
2461 1566 mt 2496 1581 L
2496 1581 mt 2580 1619 L
2580 1619 mt 2641 1647 L
2641 1647 mt 2664 1657 L
2664 1657 mt 2748 1696 L
2748 1696 mt 2821 1729 L
2821 1729 mt 2832 1734 L
2832 1734 mt 2869 1751 L
3164 1885 mt 3168 1887 L
3168 1887 mt 3181 1893 L
3181 1893 mt 3252 1925 L
3252 1925 mt 3336 1963 L
3336 1963 mt 3361 1974 L
3361 1974 mt 3420 2001 L
3420 2001 mt 3504 2039 L
3504 2039 mt 3542 2056 L
3542 2056 mt 3588 2077 L
3588 2077 mt 3672 2115 L
3672 2115 mt 3723 2138 L
3723 2138 mt 3756 2153 L
/c14 { 0.000000 0.437500 1.000000 sr} bdef
c14
 480  930 mt  564  964 L
 564  964 mt  635  993 L
 635  993 mt  648  998 L
 648  998 mt  732 1034 L
 732 1034 mt  816 1070 L
 816 1070 mt  827 1075 L
 827 1075 mt  900 1106 L
 900 1106 mt  984 1143 L
 984 1143 mt 1015 1157 L
1015 1157 mt 1068 1180 L
1068 1180 mt 1152 1217 L
1152 1217 mt 1200 1238 L
1200 1238 mt 1236 1254 L
1236 1254 mt 1320 1292 L
1320 1292 mt 1382 1320 L
1382 1320 mt 1404 1330 L
1404 1330 mt 1488 1368 L
1488 1368 mt 1562 1402 L
1562 1402 mt 1572 1406 L
1572 1406 mt 1656 1444 L
1656 1444 mt 1740 1483 L
1740 1483 mt 1742 1484 L
1742 1484 mt 1824 1521 L
1824 1521 mt 1908 1560 L
1908 1560 mt 1920 1566 L
1920 1566 mt 1992 1598 L
1992 1598 mt 2076 1637 L
2076 1637 mt 2099 1647 L
2099 1647 mt 2160 1675 L
2160 1675 mt 2244 1714 L
2244 1714 mt 2277 1729 L
2277 1729 mt 2328 1752 L
2328 1752 mt 2412 1791 L
2412 1791 mt 2455 1811 L
2455 1811 mt 2496 1829 L
2496 1829 mt 2580 1868 L
2580 1868 mt 2633 1893 L
2633 1893 mt 2664 1906 L
2664 1906 mt 2748 1945 L
2748 1945 mt 2812 1974 L
2812 1974 mt 2832 1983 L
2832 1983 mt 2916 2022 L
2916 2022 mt 2990 2056 L
2990 2056 mt 3000 2060 L
3000 2060 mt 3084 2099 L
3084 2099 mt 3168 2137 L
3168 2137 mt 3169 2138 L
3169 2138 mt 3252 2175 L
3252 2175 mt 3336 2214 L
3336 2214 mt 3349 2220 L
3349 2220 mt 3420 2252 L
3420 2252 mt 3504 2290 L
3504 2290 mt 3529 2301 L
3529 2301 mt 3588 2328 L
3588 2328 mt 3672 2366 L
3672 2366 mt 3710 2383 L
3710 2383 mt 3756 2404 L
/c15 { 0.000000 0.562500 1.000000 sr} bdef
c15
 480 1140 mt  519 1157 L
 519 1157 mt  564 1176 L
 564 1176 mt  648 1213 L
 648 1213 mt  705 1238 L
 705 1238 mt  732 1250 L
 732 1250 mt  816 1287 L
 816 1287 mt  888 1320 L
 888 1320 mt  900 1325 L
 900 1325 mt  984 1363 L
 984 1363 mt 1068 1402 L
1068 1402 mt 1068 1402 L
1068 1402 mt 1152 1440 L
1152 1440 mt 1236 1479 L
1236 1479 mt 1246 1484 L
1246 1484 mt 1320 1517 L
1320 1517 mt 1404 1556 L
1404 1556 mt 1423 1566 L
1423 1566 mt 1488 1595 L
1488 1595 mt 1572 1634 L
1572 1634 mt 1600 1647 L
1600 1647 mt 1656 1673 L
1656 1673 mt 1740 1712 L
1740 1712 mt 1776 1729 L
1776 1729 mt 1824 1751 L
1824 1751 mt 1908 1790 L
1908 1790 mt 1951 1811 L
1951 1811 mt 1992 1829 L
1992 1829 mt 2076 1868 L
2076 1868 mt 2127 1893 L
2127 1893 mt 2160 1908 L
2160 1908 mt 2244 1946 L
2244 1946 mt 2303 1974 L
2303 1974 mt 2328 1986 L
2328 1986 mt 2412 2024 L
2412 2024 mt 2479 2056 L
2479 2056 mt 2496 2064 L
2496 2064 mt 2580 2102 L
2580 2102 mt 2656 2138 L
2656 2138 mt 2664 2141 L
2664 2141 mt 2748 2180 L
2748 2180 mt 2832 2219 L
2832 2219 mt 2833 2220 L
2833 2220 mt 2916 2257 L
2916 2257 mt 3000 2296 L
3000 2296 mt 3011 2301 L
3011 2301 mt 3084 2335 L
3084 2335 mt 3168 2373 L
3168 2373 mt 3189 2383 L
3189 2383 mt 3252 2411 L
3252 2411 mt 3336 2450 L
3336 2450 mt 3368 2465 L
3368 2465 mt 3420 2488 L
3420 2488 mt 3504 2526 L
3504 2526 mt 3548 2547 L
3548 2547 mt 3588 2565 L
3588 2565 mt 3672 2603 L
3672 2603 mt 3728 2629 L
3728 2629 mt 3756 2641 L
/c16 { 0.000000 0.687500 1.000000 sr} bdef
c16
 480 1338 mt  564 1376 L
 564 1376 mt  620 1402 L
 620 1402 mt  648 1415 L
 648 1415 mt  732 1454 L
 732 1454 mt  796 1484 L
 796 1484 mt  816 1493 L
 816 1493 mt  900 1532 L
 900 1532 mt  970 1566 L
 970 1566 mt  984 1572 L
 984 1572 mt 1068 1611 L
1068 1611 mt 1144 1647 L
1144 1647 mt 1152 1651 L
1152 1651 mt 1236 1690 L
1236 1690 mt 1317 1729 L
1317 1729 mt 1320 1730 L
1320 1730 mt 1404 1770 L
1404 1770 mt 1488 1810 L
1488 1810 mt 1490 1811 L
1490 1811 mt 1572 1849 L
1572 1849 mt 1656 1889 L
1656 1889 mt 1663 1893 L
1663 1893 mt 1740 1929 L
1740 1929 mt 1824 1969 L
1824 1969 mt 1836 1974 L
1836 1974 mt 1908 2008 L
1908 2008 mt 1992 2048 L
1992 2048 mt 2009 2056 L
2009 2056 mt 2076 2087 L
2076 2087 mt 2160 2127 L
2160 2127 mt 2183 2138 L
2183 2138 mt 2244 2166 L
2244 2166 mt 2328 2206 L
2328 2206 mt 2357 2220 L
2357 2220 mt 2412 2245 L
2412 2245 mt 2496 2284 L
2496 2284 mt 2532 2301 L
2532 2301 mt 2580 2324 L
2580 2324 mt 2664 2363 L
2664 2363 mt 2707 2383 L
2707 2383 mt 2748 2402 L
2748 2402 mt 2832 2441 L
2832 2441 mt 2884 2465 L
2884 2465 mt 2916 2480 L
2916 2480 mt 3000 2518 L
3000 2518 mt 3061 2547 L
3061 2547 mt 3084 2557 L
3084 2557 mt 3168 2596 L
3168 2596 mt 3238 2629 L
3238 2629 mt 3252 2635 L
3252 2635 mt 3336 2673 L
3336 2673 mt 3417 2710 L
3417 2710 mt 3420 2712 L
3420 2712 mt 3504 2750 L
3504 2750 mt 3588 2788 L
3588 2788 mt 3596 2792 L
3596 2792 mt 3672 2826 L
3672 2826 mt 3756 2864 L
/c17 { 0.000000 0.875000 1.000000 sr} bdef
c17
 480 1525 mt  564 1565 L
 564 1565 mt  564 1566 L
 564 1566 mt  648 1606 L
 648 1606 mt  732 1646 L
 732 1646 mt  733 1647 L
 733 1647 mt  816 1687 L
 816 1687 mt  900 1728 L
 900 1728 mt  902 1729 L
 902 1729 mt  984 1768 L
 984 1768 mt 1068 1809 L
1068 1809 mt 1071 1811 L
1071 1811 mt 1152 1850 L
1152 1850 mt 1236 1890 L
1236 1890 mt 1240 1893 L
1240 1893 mt 1320 1931 L
1320 1931 mt 1404 1972 L
1404 1972 mt 1409 1974 L
1409 1974 mt 1488 2012 L
1488 2012 mt 1572 2053 L
1572 2053 mt 1579 2056 L
1579 2056 mt 1656 2093 L
1656 2093 mt 1740 2133 L
1740 2133 mt 1749 2138 L
1749 2138 mt 1824 2174 L
1824 2174 mt 1908 2214 L
1908 2214 mt 1919 2220 L
1919 2220 mt 1992 2254 L
1992 2254 mt 2076 2294 L
2076 2294 mt 2091 2301 L
2091 2301 mt 2160 2334 L
2160 2334 mt 2244 2374 L
2244 2374 mt 2263 2383 L
2263 2383 mt 2328 2414 L
2328 2414 mt 2412 2453 L
2412 2453 mt 2436 2465 L
2436 2465 mt 2496 2493 L
2496 2493 mt 2580 2533 L
2580 2533 mt 2610 2547 L
2610 2547 mt 2664 2572 L
2664 2572 mt 2748 2611 L
2748 2611 mt 2784 2629 L
2784 2629 mt 2832 2650 L
2832 2650 mt 2855 2661 L
3146 2797 mt 3168 2806 L
3168 2806 mt 3252 2845 L
3252 2845 mt 3314 2874 L
3314 2874 mt 3336 2884 L
3336 2884 mt 3420 2922 L
3420 2922 mt 3492 2956 L
3492 2956 mt 3504 2961 L
3504 2961 mt 3588 2999 L
3588 2999 mt 3672 3037 L
3672 3037 mt 3672 3037 L
3672 3037 mt 3756 3075 L
/c18 { 0.000000 1.000000 1.000000 sr} bdef
c18
 480 1701 mt  534 1729 L
 534 1729 mt  564 1744 L
 564 1744 mt  648 1786 L
 648 1786 mt  697 1811 L
 697 1811 mt  732 1828 L
 732 1828 mt  816 1870 L
 816 1870 mt  860 1893 L
 860 1893 mt  900 1912 L
 900 1912 mt  984 1954 L
 984 1954 mt 1024 1974 L
1024 1974 mt 1068 1996 L
1068 1996 mt 1152 2038 L
1152 2038 mt 1189 2056 L
1189 2056 mt 1236 2079 L
1236 2079 mt 1320 2121 L
1320 2121 mt 1354 2138 L
1354 2138 mt 1404 2162 L
1404 2162 mt 1488 2204 L
1488 2204 mt 1520 2220 L
1520 2220 mt 1572 2245 L
1572 2245 mt 1656 2286 L
1656 2286 mt 1687 2301 L
1687 2301 mt 1740 2327 L
1740 2327 mt 1824 2368 L
1824 2368 mt 1855 2383 L
1855 2383 mt 1908 2408 L
1908 2408 mt 1992 2449 L
1992 2449 mt 2024 2465 L
2024 2465 mt 2076 2490 L
2076 2490 mt 2160 2530 L
2160 2530 mt 2194 2547 L
2194 2547 mt 2244 2570 L
2244 2570 mt 2328 2610 L
2328 2610 mt 2365 2629 L
2365 2629 mt 2412 2650 L
2412 2650 mt 2496 2690 L
2496 2690 mt 2537 2710 L
2537 2710 mt 2580 2730 L
2580 2730 mt 2664 2770 L
2664 2770 mt 2710 2792 L
2710 2792 mt 2748 2809 L
2748 2809 mt 2832 2849 L
2832 2849 mt 2885 2874 L
2885 2874 mt 2916 2888 L
2916 2888 mt 3000 2927 L
3000 2927 mt 3060 2956 L
3060 2956 mt 3084 2967 L
3084 2967 mt 3168 3005 L
3168 3005 mt 3236 3037 L
3236 3037 mt 3252 3044 L
3252 3044 mt 3336 3083 L
3336 3083 mt 3414 3119 L
3414 3119 mt 3420 3122 L
3420 3122 mt 3504 3160 L
3504 3160 mt 3588 3199 L
3588 3199 mt 3592 3201 L
3592 3201 mt 3672 3237 L
3672 3237 mt 3756 3275 L
/c19 { 0.187500 1.000000 0.812500 sr} bdef
c19
 480 1869 mt  525 1893 L
 525 1893 mt  564 1913 L
 564 1913 mt  648 1957 L
 648 1957 mt  681 1974 L
 681 1974 mt  732 2000 L
 732 2000 mt  816 2044 L
 816 2044 mt  839 2056 L
 839 2056 mt  900 2087 L
 900 2087 mt  984 2130 L
 984 2130 mt  999 2138 L
 999 2138 mt 1068 2173 L
1068 2173 mt 1152 2216 L
1152 2216 mt 1159 2220 L
1159 2220 mt 1236 2258 L
1236 2258 mt 1320 2301 L
1320 2301 mt 1321 2301 L
1321 2301 mt 1404 2343 L
1404 2343 mt 1484 2383 L
1484 2383 mt 1488 2385 L
1488 2385 mt 1572 2427 L
1572 2427 mt 1648 2465 L
1648 2465 mt 1656 2468 L
1656 2468 mt 1740 2510 L
1740 2510 mt 1814 2547 L
1814 2547 mt 1824 2551 L
1824 2551 mt 1908 2592 L
1908 2592 mt 1981 2629 L
1981 2629 mt 1992 2634 L
1992 2634 mt 2076 2675 L
2076 2675 mt 2149 2710 L
2149 2710 mt 2160 2716 L
2160 2716 mt 2244 2756 L
2244 2756 mt 2318 2792 L
2318 2792 mt 2328 2797 L
2328 2797 mt 2412 2837 L
2412 2837 mt 2488 2874 L
2488 2874 mt 2496 2877 L
2496 2877 mt 2580 2917 L
2580 2917 mt 2660 2956 L
2660 2956 mt 2664 2957 L
2664 2957 mt 2748 2997 L
2748 2997 mt 2832 3037 L
2832 3037 mt 2833 3037 L
2833 3037 mt 2916 3076 L
2916 3076 mt 3000 3116 L
3000 3116 mt 3007 3119 L
3007 3119 mt 3084 3155 L
3084 3155 mt 3168 3194 L
3168 3194 mt 3182 3201 L
3182 3201 mt 3252 3233 L
3252 3233 mt 3336 3272 L
3336 3272 mt 3359 3283 L
3359 3283 mt 3420 3310 L
3420 3310 mt 3504 3349 L
3504 3349 mt 3537 3364 L
3537 3364 mt 3588 3387 L
3588 3387 mt 3672 3426 L
3672 3426 mt 3716 3446 L
3716 3446 mt 3756 3464 L
/c20 { 0.312500 1.000000 0.687500 sr} bdef
c20
 480 2027 mt  532 2056 L
 532 2056 mt  564 2073 L
 564 2073 mt  648 2119 L
 648 2119 mt  684 2138 L
 684 2138 mt  732 2163 L
 732 2163 mt  816 2208 L
 816 2208 mt  837 2220 L
 837 2220 mt  900 2253 L
 900 2253 mt  984 2297 L
 984 2297 mt  992 2301 L
 992 2301 mt 1068 2341 L
1068 2341 mt 1149 2383 L
1149 2383 mt 1152 2384 L
1152 2384 mt 1236 2428 L
1236 2428 mt 1308 2465 L
1308 2465 mt 1320 2471 L
1320 2471 mt 1404 2514 L
1404 2514 mt 1468 2547 L
1468 2547 mt 1488 2557 L
1488 2557 mt 1572 2599 L
1572 2599 mt 1630 2629 L
1630 2629 mt 1656 2641 L
1656 2641 mt 1740 2683 L
1740 2683 mt 1793 2710 L
1793 2710 mt 1824 2725 L
1824 2725 mt 1908 2767 L
1908 2767 mt 1958 2792 L
1958 2792 mt 1992 2809 L
1992 2809 mt 2076 2850 L
2076 2850 mt 2124 2874 L
2124 2874 mt 2160 2891 L
2160 2891 mt 2244 2932 L
2244 2932 mt 2292 2956 L
2292 2956 mt 2328 2973 L
2328 2973 mt 2412 3014 L
2412 3014 mt 2461 3037 L
2461 3037 mt 2496 3054 L
2496 3054 mt 2580 3094 L
2580 3094 mt 2631 3119 L
2631 3119 mt 2664 3135 L
2664 3135 mt 2748 3175 L
2748 3175 mt 2803 3201 L
2803 3201 mt 2832 3214 L
2832 3214 mt 2916 3254 L
2916 3254 mt 2976 3283 L
2976 3283 mt 3000 3294 L
3000 3294 mt 3084 3333 L
3084 3333 mt 3150 3364 L
3150 3364 mt 3168 3372 L
3168 3372 mt 3252 3411 L
3252 3411 mt 3326 3446 L
3326 3446 mt 3336 3450 L
3336 3450 mt 3420 3489 L
3420 3489 mt 3504 3528 L
3504 3528 mt 3504 3528 L
3504 3528 mt 3588 3566 L
3588 3566 mt 3672 3605 L
3672 3605 mt 3682 3610 L
3682 3610 mt 3756 3643 L
/c21 { 0.437500 1.000000 0.562500 sr} bdef
c21
3491 3692 mt 3420 3658 L
3420 3658 mt 3336 3620 L
3336 3620 mt 3314 3610 L
3314 3610 mt 3252 3581 L
3252 3581 mt 3168 3541 L
3168 3541 mt 3138 3528 L
3138 3528 mt 3084 3502 L
3084 3502 mt 3000 3463 L
3000 3463 mt 2965 3446 L
2965 3446 mt 2916 3423 L
2916 3423 mt 2832 3383 L
2832 3383 mt 2792 3364 L
2792 3364 mt 2748 3343 L
2748 3343 mt 2664 3303 L
2664 3303 mt 2621 3283 L
2621 3283 mt 2580 3262 L
2580 3262 mt 2496 3222 L
2496 3222 mt 2452 3201 L
2452 3201 mt 2412 3181 L
2412 3181 mt 2328 3140 L
2328 3140 mt 2284 3119 L
2284 3119 mt 2244 3099 L
2244 3099 mt 2160 3058 L
2160 3058 mt 2118 3037 L
2118 3037 mt 2076 3016 L
2076 3016 mt 1992 2974 L
1992 2974 mt 1954 2956 L
1954 2956 mt 1908 2932 L
1908 2932 mt 1824 2890 L
1824 2890 mt 1791 2874 L
1791 2874 mt 1740 2848 L
1740 2848 mt 1656 2805 L
1656 2805 mt 1629 2792 L
1629 2792 mt 1572 2762 L
1572 2762 mt 1488 2719 L
1488 2719 mt 1470 2710 L
1470 2710 mt 1404 2676 L
1404 2676 mt 1320 2632 L
1320 2632 mt 1312 2629 L
1312 2629 mt 1275 2609 L
1003 2465 mt 1002 2465 L
1002 2465 mt  984 2455 L
 984 2455 mt  900 2410 L
 900 2410 mt  851 2383 L
 851 2383 mt  816 2364 L
 816 2364 mt  732 2318 L
 732 2318 mt  701 2301 L
 701 2301 mt  648 2272 L
 648 2272 mt  564 2225 L
 564 2225 mt  554 2220 L
 554 2220 mt  480 2178 L
/c22 { 0.625000 1.000000 0.375000 sr} bdef
c22
3145 3692 mt 3084 3662 L
3084 3662 mt 3000 3623 L
3000 3623 mt 2972 3610 L
2972 3610 mt 2916 3583 L
2916 3583 mt 2832 3543 L
2832 3543 mt 2800 3528 L
2800 3528 mt 2748 3503 L
2748 3503 mt 2664 3462 L
2664 3462 mt 2630 3446 L
2630 3446 mt 2580 3422 L
2580 3422 mt 2496 3381 L
2496 3381 mt 2461 3364 L
2461 3364 mt 2412 3340 L
2412 3340 mt 2328 3299 L
2328 3299 mt 2294 3283 L
2294 3283 mt 2244 3257 L
2244 3257 mt 2160 3216 L
2160 3216 mt 2129 3201 L
2129 3201 mt 2076 3174 L
2076 3174 mt 1992 3132 L
1992 3132 mt 1966 3119 L
1966 3119 mt 1908 3089 L
1908 3089 mt 1824 3047 L
1824 3047 mt 1805 3037 L
1805 3037 mt 1740 3004 L
1740 3004 mt 1656 2961 L
1656 2961 mt 1645 2956 L
1645 2956 mt 1572 2917 L
1572 2917 mt 1488 2874 L
1488 2874 mt 1487 2874 L
1487 2874 mt 1404 2830 L
1404 2830 mt 1332 2792 L
1332 2792 mt 1320 2786 L
1320 2786 mt 1236 2741 L
1236 2741 mt 1178 2710 L
1178 2710 mt 1152 2696 L
1152 2696 mt 1068 2651 L
1068 2651 mt 1027 2629 L
1027 2629 mt  984 2605 L
 984 2605 mt  900 2559 L
 900 2559 mt  878 2547 L
 878 2547 mt  816 2512 L
 816 2512 mt  732 2465 L
 732 2465 mt  731 2465 L
 731 2465 mt  648 2417 L
 648 2417 mt  588 2383 L
 588 2383 mt  564 2369 L
 564 2369 mt  480 2320 L
/c23 { 0.750000 1.000000 0.250000 sr} bdef
c23
2824 3692 mt 2748 3655 L
2748 3655 mt 2664 3614 L
2664 3614 mt 2654 3610 L
2654 3610 mt 2580 3573 L
2580 3573 mt 2496 3532 L
2496 3532 mt 2486 3528 L
2486 3528 mt 2412 3491 L
2412 3491 mt 2328 3450 L
2328 3450 mt 2320 3446 L
2320 3446 mt 2244 3408 L
2244 3408 mt 2160 3366 L
2160 3366 mt 2156 3364 L
2156 3364 mt 2076 3324 L
2076 3324 mt 1994 3283 L
1994 3283 mt 1992 3281 L
1992 3281 mt 1908 3238 L
1908 3238 mt 1834 3201 L
1834 3201 mt 1824 3196 L
1824 3196 mt 1740 3152 L
1740 3152 mt 1675 3119 L
1675 3119 mt 1656 3109 L
1656 3109 mt 1572 3065 L
1572 3065 mt 1519 3037 L
1519 3037 mt 1488 3021 L
1488 3021 mt 1404 2976 L
1404 2976 mt 1365 2956 L
1365 2956 mt 1320 2931 L
1320 2931 mt 1236 2886 L
1236 2886 mt 1213 2874 L
1213 2874 mt 1152 2840 L
1152 2840 mt 1068 2794 L
1068 2794 mt 1064 2792 L
1064 2792 mt  984 2747 L
 984 2747 mt  917 2710 L
 917 2710 mt  900 2700 L
 900 2700 mt  816 2653 L
 816 2653 mt  773 2629 L
 773 2629 mt  732 2605 L
 732 2605 mt  648 2556 L
 648 2556 mt  632 2547 L
 632 2547 mt  564 2506 L
 564 2506 mt  494 2465 L
 494 2465 mt  480 2456 L
/c24 { 0.875000 1.000000 0.125000 sr} bdef
c24
2527 3692 mt 2496 3676 L
2496 3676 mt 2412 3634 L
2412 3634 mt 2361 3610 L
2361 3610 mt 2328 3593 L
2328 3593 mt 2244 3551 L
2244 3551 mt 2198 3528 L
2198 3528 mt 2160 3509 L
2160 3509 mt 2076 3466 L
2076 3466 mt 2036 3446 L
2036 3446 mt 1992 3423 L
1992 3423 mt 1908 3380 L
1908 3380 mt 1877 3364 L
1877 3364 mt 1824 3337 L
1824 3337 mt 1740 3293 L
1740 3293 mt 1719 3283 L
1719 3283 mt 1656 3249 L
1656 3249 mt 1572 3205 L
1572 3205 mt 1564 3201 L
1564 3201 mt 1488 3160 L
1488 3160 mt 1411 3119 L
1411 3119 mt 1404 3115 L
1404 3115 mt 1320 3069 L
1320 3069 mt 1261 3037 L
1261 3037 mt 1236 3024 L
1236 3024 mt 1152 2977 L
1152 2977 mt 1113 2956 L
1113 2956 mt 1068 2930 L
1068 2930 mt  984 2883 L
 984 2883 mt  967 2874 L
 967 2874 mt  900 2835 L
 900 2835 mt  825 2792 L
 825 2792 mt  816 2787 L
 816 2787 mt  732 2737 L
 732 2737 mt  686 2710 L
 686 2710 mt  648 2687 L
 648 2687 mt  564 2637 L
 564 2637 mt  550 2629 L
 550 2629 mt  480 2585 L
/c25 { 1.000000 0.937500 0.000000 sr} bdef
c25
2253 3692 mt 2244 3687 L
2244 3687 mt 2160 3644 L
2160 3644 mt 2091 3610 L
2091 3610 mt 2076 3602 L
2076 3602 mt 1992 3558 L
1992 3558 mt 1932 3528 L
1932 3528 mt 1908 3515 L
1908 3515 mt 1824 3471 L
1824 3471 mt 1775 3446 L
1775 3446 mt 1740 3427 L
1740 3427 mt 1656 3383 L
1656 3383 mt 1621 3364 L
1621 3364 mt 1572 3338 L
1572 3338 mt 1488 3293 L
1488 3293 mt 1469 3283 L
1469 3283 mt 1404 3247 L
1404 3247 mt 1320 3201 L
1320 3201 mt 1319 3201 L
1319 3201 mt 1236 3154 L
1236 3154 mt 1172 3119 L
1172 3119 mt 1152 3108 L
1152 3108 mt 1068 3060 L
1068 3060 mt 1038 3043 L
 781 2893 mt  749 2874 L
 749 2874 mt  732 2864 L
 732 2864 mt  648 2812 L
 648 2812 mt  614 2792 L
 614 2792 mt  564 2760 L
 564 2760 mt  483 2710 L
 483 2710 mt  480 2708 L
/c26 { 1.000000 0.812500 0.000000 sr} bdef
c26
2000 3692 mt 1992 3687 L
1992 3687 mt 1908 3643 L
1908 3643 mt 1843 3610 L
1843 3610 mt 1824 3599 L
1824 3599 mt 1740 3555 L
1740 3555 mt 1689 3528 L
1689 3528 mt 1656 3510 L
1656 3510 mt 1572 3465 L
1572 3465 mt 1537 3446 L
1537 3446 mt 1488 3419 L
1488 3419 mt 1404 3373 L
1404 3373 mt 1388 3364 L
1388 3364 mt 1320 3326 L
1320 3326 mt 1241 3283 L
1241 3283 mt 1236 3279 L
1236 3279 mt 1152 3232 L
1152 3232 mt 1098 3201 L
1098 3201 mt 1068 3183 L
1068 3183 mt  984 3135 L
 984 3135 mt  957 3119 L
 957 3119 mt  900 3085 L
 900 3085 mt  819 3037 L
 819 3037 mt  816 3035 L
 816 3035 mt  732 2984 L
 732 2984 mt  686 2956 L
 686 2956 mt  648 2932 L
 648 2932 mt  564 2879 L
 564 2879 mt  556 2874 L
 556 2874 mt  480 2824 L
/c27 { 1.000000 0.625000 0.000000 sr} bdef
c27
1768 3692 mt 1740 3676 L
1740 3676 mt 1656 3631 L
1656 3631 mt 1616 3610 L
1616 3610 mt 1572 3585 L
1572 3585 mt 1488 3539 L
1488 3539 mt 1467 3528 L
1467 3528 mt 1404 3493 L
1404 3493 mt 1320 3446 L
1320 3446 mt 1320 3446 L
1320 3446 mt 1236 3398 L
1236 3398 mt 1177 3364 L
1177 3364 mt 1152 3350 L
1152 3350 mt 1068 3301 L
1068 3301 mt 1036 3283 L
1036 3283 mt  984 3251 L
 984 3251 mt  900 3201 L
 900 3201 mt  899 3201 L
 899 3201 mt  816 3150 L
 816 3150 mt  765 3119 L
 765 3119 mt  732 3098 L
 732 3098 mt  648 3045 L
 648 3045 mt  635 3037 L
 635 3037 mt  564 2991 L
 564 2991 mt  510 2956 L
 510 2956 mt  480 2936 L
/c28 { 1.000000 0.500000 0.000000 sr} bdef
c28
1555 3692 mt 1488 3654 L
1488 3654 mt 1408 3610 L
1408 3610 mt 1404 3607 L
1404 3607 mt 1320 3559 L
1320 3559 mt 1264 3528 L
1264 3528 mt 1236 3511 L
1236 3511 mt 1152 3463 L
1152 3463 mt 1124 3446 L
1124 3446 mt 1068 3413 L
1068 3413 mt  986 3364 L
 986 3364 mt  984 3363 L
 984 3363 mt  900 3312 L
 900 3312 mt  852 3283 L
 852 3283 mt  816 3260 L
 816 3260 mt  732 3208 L
 732 3208 mt  721 3201 L
 721 3201 mt  648 3153 L
 648 3153 mt  595 3119 L
 595 3119 mt  564 3098 L
 564 3098 mt  480 3042 L
/c29 { 1.000000 0.375000 0.000000 sr} bdef
c29
1361 3692 mt 1320 3668 L
1320 3668 mt 1236 3619 L
1236 3619 mt 1219 3610 L
1219 3610 mt 1152 3570 L
1152 3570 mt 1081 3528 L
1081 3528 mt 1068 3520 L
1068 3520 mt  984 3469 L
 984 3469 mt  946 3446 L
 946 3446 mt  900 3418 L
 900 3418 mt  869 3399 L
 627 3243 mt  564 3201 L
 564 3201 mt  563 3201 L
 563 3201 mt  480 3143 L
/c30 { 1.000000 0.187500 0.000000 sr} bdef
c30
1183 3692 mt 1152 3673 L
1152 3673 mt 1068 3622 L
1068 3622 mt 1047 3610 L
1047 3610 mt  984 3571 L
 984 3571 mt  914 3528 L
 914 3528 mt  900 3519 L
 900 3519 mt  816 3465 L
 816 3465 mt  786 3446 L
 786 3446 mt  732 3411 L
 732 3411 mt  661 3364 L
 661 3364 mt  648 3356 L
 648 3356 mt  564 3299 L
 564 3299 mt  541 3283 L
 541 3283 mt  480 3240 L
/c31 { 1.000000 0.062500 0.000000 sr} bdef
c31
1022 3692 mt  984 3668 L
 984 3668 mt  900 3615 L
 900 3615 mt  891 3610 L
 891 3610 mt  816 3561 L
 816 3561 mt  765 3528 L
 765 3528 mt  732 3506 L
 732 3506 mt  648 3450 L
 648 3450 mt  642 3446 L
 642 3446 mt  564 3392 L
 564 3392 mt  525 3364 L
 525 3364 mt  480 3332 L
/c32 { 0.937500 0.000000 0.000000 sr} bdef
c32
 876 3692 mt  816 3652 L
 816 3652 mt  751 3610 L
 751 3610 mt  732 3597 L
 732 3597 mt  648 3540 L
 648 3540 mt  631 3528 L
 631 3528 mt  564 3481 L
 564 3481 mt  515 3446 L
 515 3446 mt  480 3421 L
/c33 { 0.750000 0.000000 0.000000 sr} bdef
c33
 743 3692 mt  732 3684 L
 732 3684 mt  648 3626 L
 648 3626 mt  625 3610 L
 625 3610 mt  600 3592 L
 525 3539 mt  511 3528 L
 511 3528 mt  480 3505 L
/c34 { 0.625000 0.000000 0.000000 sr} bdef
c34
 624 3692 mt  564 3648 L
 564 3648 mt  511 3610 L
 511 3610 mt  480 3586 L
/c35 { 0.500000 0.000000 0.000000 sr} bdef
c35
 517 3692 mt  480 3664 L
0 sg
%%IncludeResource: font Helvetica
/Helvetica /ISOLatin1Encoding 120 FMSR

3329  800 mt  -316 rotate
(2.4) s
316 rotate
2927 1790 mt  -315 rotate
(2.5) s
315 rotate
2912 2700 mt  -315 rotate
(2.6) s
315 rotate
1053 2503 mt  -311 rotate
(2.7) s
311 rotate
 824 2929 mt  -308 rotate
(2.8) s
308 rotate
 665 3279 mt  -306 rotate
(2.9) s
306 rotate
 510 3561 mt  -303 rotate
(3) s
303 rotate
gr

0 sg
%%IncludeResource: font Symbol
/Symbol /ISOLatin1Encoding 120 FMSR

2012 3949 mt 
(f) s
%%IncludeResource: font Symbol
/Symbol /ISOLatin1Encoding 96 FMSR

2074 4009 mt 
(D) s
%%IncludeResource: font Helvetica
/Helvetica /ISOLatin1Encoding 96 FMSR

2132 4009 mt 
( Y) s
%%IncludeResource: font Symbol
/Symbol /ISOLatin1Encoding 120 FMSR

 136 2203 mt  -90 rotate
(f) s
90 rotate
%%IncludeResource: font Symbol
/Symbol /ISOLatin1Encoding 96 FMSR

 196 2141 mt  -90 rotate
(D) s
90 rotate
%%IncludeResource: font Helvetica
/Helvetica /ISOLatin1Encoding 96 FMSR

 196 2083 mt  -90 rotate
( V) s
90 rotate
%%IncludeResource: font Symbol
/Symbol /ISOLatin1Encoding 120 FMSR

2049  354 mt 
(s) s
%%IncludeResource: font Helvetica
/Helvetica /ISOLatin1Encoding 96 FMSR

2121  414 mt 
(Y) s
gs 480 503 3277 3190 rc
24 w
GR
2278 3692 mt 2244 3674 L
2244 3674 mt 2160 3632 L
2160 3632 mt 2116 3610 L
2116 3610 mt 2076 3589 L
2076 3589 mt 1992 3546 L
1992 3546 mt 1957 3528 L
1957 3528 mt 1908 3502 L
1908 3502 mt 1824 3459 L
1824 3459 mt 1799 3446 L
1799 3446 mt 1740 3415 L
1740 3415 mt 1656 3370 L
1656 3370 mt 1644 3364 L
1644 3364 mt 1572 3325 L
1572 3325 mt 1491 3283 L
1491 3283 mt 1488 3281 L
1488 3281 mt 1404 3235 L
1404 3235 mt 1341 3201 L
1341 3201 mt 1320 3189 L
1320 3189 mt 1236 3142 L
1236 3142 mt 1194 3119 L
1194 3119 mt 1152 3095 L
1152 3095 mt 1068 3048 L
1068 3048 mt 1049 3037 L
1049 3037 mt  984 3000 L
 984 3000 mt  907 2956 L
 907 2956 mt  900 2951 L
 900 2951 mt  816 2902 L
 816 2902 mt  769 2874 L
 769 2874 mt  732 2852 L
 732 2852 mt  648 2801 L
 648 2801 mt  633 2792 L
 633 2792 mt  564 2749 L
 564 2749 mt  502 2710 L
 502 2710 mt  480 2696 L
gr

24 w
4 w
GR
6 w
SO
 480 3692 mt 3756 3692 L
 480  502 mt 3756  502 L
 480 3692 mt  480  502 L
3756 3692 mt 3756  502 L
 480 3692 mt 3756 3692 L
 480 3692 mt  480  502 L
 480 3692 mt  480 3659 L
 480  503 mt  480  535 L
%%IncludeResource: font Helvetica
/Helvetica /ISOLatin1Encoding 120 FMSR

 447 3837 mt 
(0) s
1135 3692 mt 1135 3659 L
1135  503 mt 1135  535 L
1052 3837 mt 
(0.2) s
1790 3692 mt 1790 3659 L
1790  503 mt 1790  535 L
1707 3837 mt 
(0.4) s
2445 3692 mt 2445 3659 L
2445  503 mt 2445  535 L
2362 3837 mt 
(0.6) s
3100 3692 mt 3100 3659 L
3100  503 mt 3100  535 L
3017 3837 mt 
(0.8) s
3756 3692 mt 3756 3659 L
3756  503 mt 3756  535 L
3723 3837 mt 
(1) s
 480 3692 mt  512 3692 L
3756 3692 mt 3723 3692 L
 379 3736 mt 
(0) s
 480 3054 mt  512 3054 L
3756 3054 mt 3723 3054 L
 279 3098 mt 
(0.5) s
 480 2416 mt  512 2416 L
3756 2416 mt 3723 2416 L
 379 2460 mt 
(1) s
 480 1778 mt  512 1778 L
3756 1778 mt 3723 1778 L
 279 1822 mt 
(1.5) s
 480 1140 mt  512 1140 L
3756 1140 mt 3723 1140 L
 379 1184 mt 
(2) s
 480  503 mt  512  503 L
3756  503 mt 3723  503 L
 279  547 mt 
(2.5) s
 480 3692 mt 3756 3692 L
 480  502 mt 3756  502 L
 480 3692 mt  480  502 L
3756 3692 mt 3756  502 L
1 sg
0 3190 3276 0 0 -3190 4356 3692 4 MP
PP
-3276 0 0 3190 3276 0 0 -3190 4356 3692 5 MP stroke
gs 4356 503 3277 3190 rc
c8
4356 2721 mt 4440 2744 L
4440 2744 mt 4511 2792 L
4511 2792 mt 4524 2808 L
4524 2808 mt 4558 2874 L
4558 2874 mt 4551 2956 L
4551 2956 mt 4524 2986 L
4524 2986 mt 4440 3021 L
4440 3021 mt 4356 3006 L
c9
4356 2542 mt 4377 2547 L
4377 2547 mt 4440 2562 L
4440 2562 mt 4524 2600 L
4524 2600 mt 4570 2629 L
4570 2629 mt 4608 2657 L
4608 2657 mt 4665 2710 L
4665 2710 mt 4692 2744 L
4692 2744 mt 4725 2792 L
4725 2792 mt 4758 2874 L
4758 2874 mt 4764 2956 L
4764 2956 mt 4737 3037 L
4737 3037 mt 4692 3089 L
4692 3089 mt 4654 3119 L
4654 3119 mt 4608 3141 L
4608 3141 mt 4524 3162 L
4524 3162 mt 4440 3165 L
4440 3165 mt 4356 3150 L
c10
4356 2410 mt 4440 2430 L
4440 2430 mt 4524 2462 L
4524 2462 mt 4530 2465 L
4530 2465 mt 4608 2508 L
4608 2508 mt 4666 2547 L
4666 2547 mt 4692 2566 L
4692 2566 mt 4761 2629 L
4761 2629 mt 4776 2644 L
4776 2644 mt 4830 2710 L
4830 2710 mt 4860 2759 L
4860 2759 mt 4878 2792 L
4878 2792 mt 4906 2874 L
4906 2874 mt 4914 2956 L
4914 2956 mt 4899 3037 L
4899 3037 mt 4860 3110 L
4860 3110 mt 4854 3119 L
4854 3119 mt 4776 3187 L
4776 3187 mt 4754 3201 L
4754 3201 mt 4692 3228 L
4692 3228 mt 4608 3251 L
4608 3251 mt 4524 3261 L
4524 3261 mt 4440 3258 L
4440 3258 mt 4356 3242 L
/c36 { 0.000000 0.000000 0.937500 sr} bdef
c36
4356 2290 mt 4402 2301 L
4402 2301 mt 4440 2311 L
4440 2311 mt 4524 2341 L
4524 2341 mt 4608 2381 L
4608 2381 mt 4611 2383 L
4611 2383 mt 4692 2432 L
4692 2432 mt 4739 2465 L
4739 2465 mt 4776 2493 L
4776 2493 mt 4837 2547 L
4837 2547 mt 4860 2569 L
4860 2569 mt 4913 2629 L
4913 2629 mt 4944 2670 L
4944 2670 mt 4972 2710 L
4972 2710 mt 5014 2792 L
5014 2792 mt 5028 2835 L
5028 2835 mt 5040 2874 L
5040 2874 mt 5049 2956 L
5049 2956 mt 5038 3037 L
5038 3037 mt 5037 3040 L
4830 3273 mt 4812 3283 L
4812 3283 mt 4776 3297 L
4776 3297 mt 4692 3321 L
4692 3321 mt 4608 3335 L
4608 3335 mt 4524 3339 L
4524 3339 mt 4440 3333 L
4440 3333 mt 4356 3317 L
/c37 { 0.000000 0.062500 1.000000 sr} bdef
c37
4356 2176 mt 4440 2197 L
4440 2197 mt 4504 2220 L
4504 2220 mt 4524 2226 L
4524 2226 mt 4608 2264 L
4608 2264 mt 4677 2301 L
4677 2301 mt 4692 2310 L
4692 2310 mt 4776 2363 L
4776 2363 mt 4803 2383 L
4803 2383 mt 4860 2427 L
4860 2427 mt 4904 2465 L
4904 2465 mt 4944 2503 L
4944 2503 mt 4986 2547 L
4986 2547 mt 5028 2597 L
5028 2597 mt 5052 2629 L
5052 2629 mt 5104 2710 L
5104 2710 mt 5112 2726 L
5112 2726 mt 5142 2792 L
5142 2792 mt 5166 2874 L
5166 2874 mt 5175 2956 L
5175 2956 mt 5168 3037 L
5168 3037 mt 5141 3119 L
5141 3119 mt 5112 3167 L
5112 3167 mt 5089 3201 L
5089 3201 mt 5028 3260 L
5028 3260 mt 5000 3283 L
5000 3283 mt 4944 3316 L
4944 3316 mt 4860 3356 L
4860 3356 mt 4837 3364 L
4837 3364 mt 4776 3382 L
4776 3382 mt 4692 3398 L
4692 3398 mt 4608 3406 L
4608 3406 mt 4524 3406 L
4524 3406 mt 4440 3398 L
4440 3398 mt 4356 3382 L
/c38 { 0.000000 0.187500 1.000000 sr} bdef
c38
4356 2063 mt 4440 2085 L
4440 2085 mt 4524 2114 L
4524 2114 mt 4579 2138 L
4579 2138 mt 4608 2150 L
4608 2150 mt 4692 2193 L
4692 2193 mt 4737 2220 L
4737 2220 mt 4776 2242 L
4776 2242 mt 4860 2299 L
4860 2299 mt 4863 2301 L
4863 2301 mt 4944 2364 L
4944 2364 mt 4966 2383 L
4966 2383 mt 5028 2440 L
5028 2440 mt 5053 2465 L
5053 2465 mt 5112 2531 L
5112 2531 mt 5125 2547 L
5125 2547 mt 5185 2629 L
5185 2629 mt 5196 2647 L
5196 2647 mt 5232 2710 L
5232 2710 mt 5267 2792 L
5267 2792 mt 5280 2837 L
5280 2837 mt 5289 2874 L
5289 2874 mt 5298 2956 L
5298 2956 mt 5292 3037 L
5292 3037 mt 5280 3084 L
5280 3084 mt 5270 3119 L
5270 3119 mt 5226 3201 L
5226 3201 mt 5196 3237 L
5196 3237 mt 5154 3283 L
5154 3283 mt 5112 3316 L
5112 3316 mt 5039 3364 L
5039 3364 mt 5028 3370 L
5028 3370 mt 4944 3407 L
4944 3407 mt 4860 3435 L
4860 3435 mt 4815 3446 L
4815 3446 mt 4776 3454 L
4776 3454 mt 4692 3465 L
4692 3465 mt 4608 3469 L
4608 3469 mt 4524 3467 L
4524 3467 mt 4440 3458 L
4440 3458 mt 4377 3446 L
4377 3446 mt 4356 3442 L
/c39 { 0.000000 0.312500 1.000000 sr} bdef
c39
4356 1950 mt 4440 1973 L
4440 1973 mt 4443 1974 L
4443 1974 mt 4524 2002 L
4524 2002 mt 4608 2038 L
4608 2038 mt 4645 2056 L
4645 2056 mt 4692 2079 L
4692 2079 mt 4776 2125 L
4776 2125 mt 4796 2138 L
4796 2138 mt 4860 2178 L
4860 2178 mt 4920 2220 L
4920 2220 mt 4944 2236 L
4944 2236 mt 5026 2301 L
5026 2301 mt 5028 2303 L
5028 2303 mt 5112 2379 L
5112 2379 mt 5116 2383 L
5116 2383 mt 5194 2465 L
5194 2465 mt 5196 2467 L
5196 2467 mt 5260 2547 L
5260 2547 mt 5280 2576 L
5280 2576 mt 5314 2629 L
5314 2629 mt 5358 2710 L
5358 2710 mt 5364 2725 L
5364 2725 mt 5390 2792 L
5390 2792 mt 5411 2874 L
5411 2874 mt 5420 2956 L
5420 2956 mt 5415 3037 L
5415 3037 mt 5395 3119 L
5395 3119 mt 5364 3186 L
5364 3186 mt 5356 3201 L
5356 3201 mt 5295 3283 L
5295 3283 mt 5280 3298 L
5280 3298 mt 5202 3364 L
5202 3364 mt 5196 3369 L
5196 3369 mt 5112 3418 L
5112 3418 mt 5053 3446 L
5053 3446 mt 5028 3456 L
5028 3456 mt 4944 3483 L
4944 3483 mt 4860 3504 L
4860 3504 mt 4776 3518 L
4776 3518 mt 4692 3526 L
4692 3526 mt 4608 3528 L
4608 3528 mt 4524 3523 L
4524 3523 mt 4440 3512 L
4440 3512 mt 4356 3495 L
c14
4356 1836 mt 4440 1860 L
4440 1860 mt 4524 1890 L
4524 1890 mt 4530 1893 L
4530 1893 mt 4608 1925 L
4608 1925 mt 4692 1964 L
4692 1964 mt 4710 1974 L
4710 1974 mt 4776 2009 L
4776 2009 mt 4855 2056 L
4855 2056 mt 4860 2059 L
4860 2059 mt 4944 2113 L
4944 2113 mt 4978 2138 L
4978 2138 mt 5028 2174 L
5028 2174 mt 5085 2220 L
5085 2220 mt 5112 2242 L
5112 2242 mt 5178 2301 L
5178 2301 mt 5196 2318 L
5196 2318 mt 5260 2383 L
5260 2383 mt 5280 2405 L
5280 2405 mt 5331 2465 L
5331 2465 mt 5364 2508 L
5364 2508 mt 5391 2547 L
5391 2547 mt 5442 2629 L
5442 2629 mt 5448 2640 L
5448 2640 mt 5482 2710 L
5482 2710 mt 5513 2792 L
5513 2792 mt 5532 2871 L
5532 2871 mt 5532 2874 L
5532 2874 mt 5540 2956 L
5540 2956 mt 5536 3037 L
5536 3037 mt 5532 3058 L
5532 3058 mt 5518 3119 L
5518 3119 mt 5483 3201 L
5483 3201 mt 5448 3256 L
5448 3256 mt 5446 3259 L
5167 3476 mt 5112 3500 L
5112 3500 mt 5035 3528 L
5035 3528 mt 5028 3530 L
5028 3530 mt 4944 3551 L
4944 3551 mt 4860 3566 L
4860 3566 mt 4776 3576 L
4776 3576 mt 4692 3581 L
4692 3581 mt 4608 3580 L
4608 3580 mt 4524 3574 L
4524 3574 mt 4440 3563 L
4440 3563 mt 4356 3546 L
/c40 { 0.000000 0.625000 1.000000 sr} bdef
c40
4356 1719 mt 4387 1729 L
4387 1729 mt 4440 1745 L
4440 1745 mt 4524 1775 L
4524 1775 mt 4608 1810 L
4608 1810 mt 4609 1811 L
4609 1811 mt 4692 1849 L
4692 1849 mt 4775 1893 L
4775 1893 mt 4776 1893 L
4776 1893 mt 4860 1940 L
4860 1940 mt 4915 1974 L
4915 1974 mt 4944 1992 L
4944 1992 mt 5028 2049 L
5028 2049 mt 5037 2056 L
5037 2056 mt 5112 2111 L
5112 2111 mt 5145 2138 L
5145 2138 mt 5196 2180 L
5196 2180 mt 5241 2220 L
5241 2220 mt 5280 2256 L
5280 2256 mt 5326 2301 L
5326 2301 mt 5364 2342 L
5364 2342 mt 5400 2383 L
5400 2383 mt 5448 2441 L
5448 2441 mt 5466 2465 L
5466 2465 mt 5522 2547 L
5522 2547 mt 5532 2563 L
5532 2563 mt 5569 2629 L
5569 2629 mt 5607 2710 L
5607 2710 mt 5616 2735 L
5616 2735 mt 5635 2792 L
5635 2792 mt 5653 2874 L
5653 2874 mt 5661 2956 L
5661 2956 mt 5657 3037 L
5657 3037 mt 5640 3119 L
5640 3119 mt 5616 3184 L
5616 3184 mt 5609 3201 L
5609 3201 mt 5560 3283 L
5560 3283 mt 5532 3316 L
5532 3316 mt 5488 3364 L
5488 3364 mt 5448 3399 L
5448 3399 mt 5386 3446 L
5386 3446 mt 5364 3460 L
5364 3460 mt 5280 3506 L
5280 3506 mt 5235 3528 L
5235 3528 mt 5196 3543 L
5196 3543 mt 5112 3572 L
5112 3572 mt 5028 3595 L
5028 3595 mt 4958 3610 L
4958 3610 mt 4944 3612 L
4944 3612 mt 4860 3624 L
4860 3624 mt 4776 3631 L
4776 3631 mt 4692 3633 L
4692 3633 mt 4608 3631 L
4608 3631 mt 4524 3624 L
4524 3624 mt 4440 3612 L
4440 3612 mt 4427 3610 L
4427 3610 mt 4356 3594 L
/c41 { 0.000000 0.750000 1.000000 sr} bdef
c41
4356 1600 mt 4440 1627 L
4440 1627 mt 4493 1647 L
4493 1647 mt 4524 1658 L
4524 1658 mt 4608 1694 L
4608 1694 mt 4684 1729 L
4684 1729 mt 4692 1733 L
4692 1733 mt 4776 1775 L
4776 1775 mt 4840 1811 L
4840 1811 mt 4860 1821 L
4860 1821 mt 4944 1871 L
4944 1871 mt 4977 1893 L
4977 1893 mt 5028 1926 L
5028 1926 mt 5098 1974 L
5098 1974 mt 5112 1984 L
5112 1984 mt 5196 2048 L
5196 2048 mt 5206 2056 L
5206 2056 mt 5280 2117 L
5280 2117 mt 5304 2138 L
5304 2138 mt 5364 2193 L
5364 2193 mt 5391 2220 L
5391 2220 mt 5448 2278 L
5448 2278 mt 5470 2301 L
5470 2301 mt 5532 2374 L
5532 2374 mt 5539 2383 L
5539 2383 mt 5600 2465 L
5600 2465 mt 5616 2489 L
5616 2489 mt 5652 2547 L
5652 2547 mt 5696 2629 L
5696 2629 mt 5700 2635 L
5700 2635 mt 5732 2710 L
5732 2710 mt 5758 2792 L
5758 2792 mt 5775 2874 L
5775 2874 mt 5782 2956 L
5782 2956 mt 5779 3037 L
5779 3037 mt 5763 3119 L
5763 3119 mt 5733 3201 L
5733 3201 mt 5700 3263 L
5700 3263 mt 5688 3283 L
5688 3283 mt 5623 3364 L
5623 3364 mt 5616 3372 L
5616 3372 mt 5533 3446 L
5533 3446 mt 5532 3447 L
5532 3447 mt 5448 3503 L
5448 3503 mt 5405 3528 L
5405 3528 mt 5364 3548 L
5364 3548 mt 5280 3584 L
5280 3584 mt 5210 3610 L
5210 3610 mt 5196 3614 L
5196 3614 mt 5112 3637 L
5112 3637 mt 5028 3655 L
5028 3655 mt 4944 3668 L
4944 3668 mt 4860 3677 L
4860 3677 mt 4776 3682 L
4776 3682 mt 4692 3682 L
4692 3682 mt 4608 3678 L
4608 3678 mt 4524 3670 L
4524 3670 mt 4440 3657 L
4440 3657 mt 4356 3640 L
c17
4392 3692 mt 4356 3683 L
5136 3692 mt 5196 3677 L
5196 3677 mt 5280 3653 L
5280 3653 mt 5364 3624 L
5364 3624 mt 5401 3610 L
5401 3610 mt 5448 3588 L
5448 3588 mt 5532 3545 L
5532 3545 mt 5561 3528 L
5561 3528 mt 5616 3490 L
5616 3490 mt 5674 3446 L
5674 3446 mt 5700 3421 L
5700 3421 mt 5756 3364 L
5756 3364 mt 5784 3327 L
5784 3327 mt 5816 3283 L
5816 3283 mt 5858 3201 L
5858 3201 mt 5868 3173 L
5868 3173 mt 5886 3119 L
5886 3119 mt 5901 3037 L
5901 3037 mt 5904 2956 L
5904 2956 mt 5898 2874 L
5898 2874 mt 5882 2792 L
5882 2792 mt 5868 2743 L
5868 2743 mt 5857 2710 L
5857 2710 mt 5824 2629 L
5824 2629 mt 5784 2548 L
5784 2548 mt 5783 2547 L
5783 2547 mt 5734 2465 L
5734 2465 mt 5700 2415 L
5700 2415 mt 5677 2383 L
5677 2383 mt 5616 2306 L
5616 2306 mt 5612 2301 L
5612 2301 mt 5539 2220 L
5539 2220 mt 5532 2212 L
5532 2212 mt 5458 2138 L
5458 2138 mt 5448 2128 L
5448 2128 mt 5368 2056 L
5368 2056 mt 5364 2052 L
5364 2052 mt 5280 1982 L
5280 1982 mt 5270 1974 L
5270 1974 mt 5196 1918 L
5196 1918 mt 5161 1893 L
5161 1893 mt 5112 1858 L
5112 1858 mt 5041 1811 L
5041 1811 mt 5028 1802 L
5028 1802 mt 4944 1750 L
4944 1750 mt 4908 1729 L
4908 1729 mt 4860 1701 L
4860 1701 mt 4776 1656 L
4776 1656 mt 4759 1647 L
4759 1647 mt 4692 1613 L
4692 1613 mt 4608 1574 L
4608 1574 mt 4587 1566 L
4587 1566 mt 4524 1538 L
4524 1538 mt 4440 1506 L
4440 1506 mt 4374 1484 L
4374 1484 mt 4356 1477 L
c18
5368 3692 mt 5448 3663 L
5448 3663 mt 5532 3628 L
5532 3628 mt 5571 3610 L
5571 3610 mt 5616 3585 L
5616 3585 mt 5700 3535 L
5700 3535 mt 5710 3528 L
5710 3528 mt 5784 3469 L
5784 3469 mt 5811 3446 L
5811 3446 mt 5868 3386 L
5868 3386 mt 5887 3364 L
5887 3364 mt 5943 3283 L
5943 3283 mt 5952 3265 L
5952 3265 mt 5983 3201 L
5983 3201 mt 6009 3119 L
6009 3119 mt 6024 3037 L
6024 3037 mt 6028 2956 L
6028 2956 mt 6022 2874 L
6022 2874 mt 6007 2792 L
6007 2792 mt 5984 2710 L
5984 2710 mt 5953 2629 L
5953 2629 mt 5952 2625 L
5952 2625 mt 5914 2547 L
5914 2547 mt 5868 2465 L
5868 2465 mt 5868 2464 L
5868 2464 mt 5814 2383 L
5814 2383 mt 5784 2341 L
5784 2341 mt 5753 2301 L
5753 2301 mt 5700 2236 L
5700 2236 mt 5685 2220 L
5685 2220 mt 5616 2144 L
5616 2144 mt 5610 2138 L
5610 2138 mt 5532 2061 L
5532 2061 mt 5526 2056 L
5526 2056 mt 5448 1985 L
5448 1985 mt 5435 1974 L
5435 1974 mt 5364 1915 L
5364 1915 mt 5336 1893 L
5336 1893 mt 5299 1865 L
5071 1705 mt 5028 1677 L
5028 1677 mt 4979 1647 L
4979 1647 mt 4944 1626 L
4944 1626 mt 4860 1578 L
4860 1578 mt 4836 1566 L
4836 1566 mt 4776 1533 L
4776 1533 mt 4692 1491 L
4692 1491 mt 4675 1484 L
4675 1484 mt 4608 1452 L
4608 1452 mt 4524 1415 L
4524 1415 mt 4490 1402 L
4490 1402 mt 4440 1381 L
4440 1381 mt 4356 1351 L
/c42 { 0.125000 1.000000 0.875000 sr} bdef
c42
5558 3692 mt 5616 3666 L
5616 3666 mt 5700 3626 L
5700 3626 mt 5730 3610 L
5730 3610 mt 5784 3576 L
5784 3576 mt 5853 3528 L
5853 3528 mt 5868 3516 L
5868 3516 mt 5947 3446 L
5947 3446 mt 5952 3441 L
5952 3441 mt 6017 3364 L
6017 3364 mt 6036 3336 L
6036 3336 mt 6070 3283 L
6070 3283 mt 6108 3201 L
6108 3201 mt 6120 3164 L
6120 3164 mt 6134 3119 L
6134 3119 mt 6148 3037 L
6148 3037 mt 6152 2956 L
6152 2956 mt 6147 2874 L
6147 2874 mt 6134 2792 L
6134 2792 mt 6120 2739 L
6120 2739 mt 6112 2710 L
6112 2710 mt 6083 2629 L
6083 2629 mt 6046 2547 L
6046 2547 mt 6036 2526 L
6036 2526 mt 6003 2465 L
6003 2465 mt 5952 2383 L
5952 2383 mt 5952 2382 L
5952 2382 mt 5895 2301 L
5895 2301 mt 5868 2266 L
5868 2266 mt 5831 2220 L
5831 2220 mt 5784 2165 L
5784 2165 mt 5760 2138 L
5760 2138 mt 5700 2074 L
5700 2074 mt 5682 2056 L
5682 2056 mt 5616 1992 L
5616 1992 mt 5597 1974 L
5597 1974 mt 5532 1916 L
5532 1916 mt 5505 1893 L
5505 1893 mt 5448 1845 L
5448 1845 mt 5404 1811 L
5404 1811 mt 5364 1779 L
5364 1779 mt 5296 1729 L
5296 1729 mt 5280 1717 L
5280 1717 mt 5196 1658 L
5196 1658 mt 5179 1647 L
5179 1647 mt 5112 1602 L
5112 1602 mt 5052 1566 L
5052 1566 mt 5028 1550 L
5028 1550 mt 4944 1500 L
4944 1500 mt 4914 1484 L
4914 1484 mt 4860 1453 L
4860 1453 mt 4776 1408 L
4776 1408 mt 4763 1402 L
4763 1402 mt 4692 1366 L
4692 1366 mt 4608 1326 L
4608 1326 mt 4595 1320 L
4595 1320 mt 4524 1288 L
4524 1288 mt 4440 1253 L
4440 1253 mt 4402 1238 L
4402 1238 mt 4356 1220 L
/c43 { 0.250000 1.000000 0.750000 sr} bdef
c43
5730 3692 mt 5784 3665 L
5784 3665 mt 5868 3618 L
5868 3618 mt 5881 3610 L
5881 3610 mt 5952 3560 L
5952 3560 mt 5994 3528 L
5994 3528 mt 6036 3490 L
6036 3490 mt 6081 3446 L
6081 3446 mt 6120 3399 L
6120 3399 mt 6148 3364 L
6148 3364 mt 6198 3283 L
6198 3283 mt 6204 3270 L
6204 3270 mt 6235 3201 L
6235 3201 mt 6259 3119 L
6259 3119 mt 6273 3037 L
6273 3037 mt 6278 2956 L
6278 2956 mt 6274 2874 L
6274 2874 mt 6261 2792 L
6261 2792 mt 6241 2710 L
6241 2710 mt 6214 2629 L
6214 2629 mt 6204 2604 L
6204 2604 mt 6179 2547 L
6179 2547 mt 6138 2465 L
6138 2465 mt 6120 2432 L
6120 2432 mt 6091 2383 L
6091 2383 mt 6036 2301 L
6036 2301 mt 6036 2300 L
6036 2300 mt 5976 2220 L
5976 2220 mt 5952 2189 L
5952 2189 mt 5909 2138 L
5909 2138 mt 5868 2091 L
5868 2091 mt 5836 2056 L
5836 2056 mt 5784 2002 L
5784 2002 mt 5756 1974 L
5756 1974 mt 5700 1920 L
5700 1920 mt 5670 1893 L
5670 1893 mt 5616 1844 L
5616 1844 mt 5577 1811 L
5577 1811 mt 5532 1773 L
5532 1773 mt 5477 1729 L
5477 1729 mt 5448 1706 L
5448 1706 mt 5369 1647 L
5369 1647 mt 5364 1643 L
5364 1643 mt 5280 1583 L
5280 1583 mt 5253 1566 L
5253 1566 mt 5196 1526 L
5196 1526 mt 5129 1484 L
5129 1484 mt 5112 1472 L
5112 1472 mt 5028 1420 L
5028 1420 mt 4996 1402 L
4996 1402 mt 4944 1371 L
4944 1371 mt 4860 1324 L
4860 1324 mt 4852 1320 L
4852 1320 mt 4776 1279 L
4776 1279 mt 4696 1238 L
4696 1238 mt 4692 1236 L
4692 1236 mt 4608 1195 L
4608 1195 mt 4524 1157 L
4524 1157 mt 4524 1157 L
4524 1157 mt 4440 1120 L
4440 1120 mt 4356 1085 L
/c44 { 0.375000 1.000000 0.625000 sr} bdef
c44
5893 3692 mt 5952 3658 L
5952 3658 mt 6029 3610 L
6029 3610 mt 6036 3605 L
6036 3605 mt 6120 3539 L
6120 3539 mt 6133 3528 L
6133 3528 mt 6204 3458 L
6204 3458 mt 6215 3446 L
6215 3446 mt 6278 3364 L
6278 3364 mt 6288 3349 L
6288 3349 mt 6327 3283 L
6327 3283 mt 6362 3201 L
6362 3201 mt 6372 3168 L
6372 3168 mt 6386 3119 L
6386 3119 mt 6400 3037 L
6400 3037 mt 6405 2956 L
6405 2956 mt 6402 2874 L
6402 2874 mt 6390 2792 L
6390 2792 mt 6372 2710 L
6372 2710 mt 6372 2710 L
6372 2710 mt 6346 2629 L
6346 2629 mt 6314 2547 L
6314 2547 mt 6288 2491 L
6288 2491 mt 6275 2465 L
6275 2465 mt 6230 2383 L
6230 2383 mt 6204 2341 L
6204 2341 mt 6179 2301 L
6179 2301 mt 6122 2220 L
6122 2220 mt 6120 2217 L
6120 2217 mt 6058 2138 L
6058 2138 mt 6036 2110 L
6036 2110 mt 5989 2056 L
5989 2056 mt 5952 2014 L
5952 2014 mt 5914 1974 L
5914 1974 mt 5868 1927 L
5868 1927 mt 5833 1893 L
5833 1893 mt 5784 1846 L
5784 1846 mt 5746 1811 L
5746 1811 mt 5700 1770 L
5700 1770 mt 5652 1729 L
5652 1729 mt 5616 1698 L
5616 1698 mt 5552 1647 L
5552 1647 mt 5532 1631 L
5532 1631 mt 5448 1567 L
5448 1567 mt 5445 1566 L
5445 1566 mt 5364 1506 L
5364 1506 mt 5331 1484 L
5331 1484 mt 5280 1448 L
5280 1448 mt 5210 1402 L
5210 1402 mt 5196 1392 L
5196 1392 mt 5112 1339 L
5112 1339 mt 5080 1320 L
5080 1320 mt 5028 1288 L
5028 1288 mt 4944 1239 L
4944 1239 mt 4942 1238 L
4942 1238 mt 4860 1192 L
4860 1192 mt 4794 1157 L
4794 1157 mt 4776 1146 L
4776 1146 mt 4692 1103 L
4692 1103 mt 4636 1075 L
4636 1075 mt 4608 1061 L
4608 1061 mt 4524 1020 L
4524 1020 mt 4464  993 L
4464  993 mt 4440  982 L
4440  982 mt 4356  944 L
/c45 { 0.500000 1.000000 0.500000 sr} bdef
c45
6049 3692 mt 6120 3646 L
6120 3646 mt 6174 3610 L
6174 3610 mt 6204 3586 L
6204 3586 mt 6272 3528 L
6272 3528 mt 6288 3512 L
6288 3512 mt 6349 3446 L
6349 3446 mt 6372 3416 L
6372 3416 mt 6410 3364 L
6410 3364 mt 6456 3284 L
6456 3284 mt 6456 3283 L
6456 3283 mt 6491 3201 L
6491 3201 mt 6514 3119 L
6514 3119 mt 6529 3037 L
6529 3037 mt 6534 2956 L
6534 2956 mt 6531 2874 L
6531 2874 mt 6521 2792 L
6521 2792 mt 6504 2710 L
6504 2710 mt 6480 2629 L
6480 2629 mt 6456 2563 L
6456 2563 mt 6449 2547 L
6449 2547 mt 6413 2465 L
6413 2465 mt 6372 2386 L
6372 2386 mt 6370 2383 L
6370 2383 mt 6322 2301 L
6322 2301 mt 6288 2249 L
6288 2249 mt 6268 2220 L
6268 2220 mt 6208 2138 L
6208 2138 mt 6204 2132 L
6204 2132 mt 6142 2056 L
6142 2056 mt 6120 2029 L
6120 2029 mt 6071 1974 L
6071 1974 mt 6036 1935 L
6036 1935 mt 5995 1893 L
5995 1893 mt 5952 1849 L
5952 1849 mt 5913 1811 L
5913 1811 mt 5868 1768 L
5868 1768 mt 5825 1729 L
5825 1729 mt 5784 1693 L
5784 1693 mt 5731 1647 L
5731 1647 mt 5700 1621 L
5700 1621 mt 5631 1566 L
5631 1566 mt 5616 1553 L
5616 1553 mt 5532 1488 L
5532 1488 mt 5525 1484 L
5525 1484 mt 5489 1457 L
5180 1246 mt 5168 1238 L
5168 1238 mt 5112 1203 L
5112 1203 mt 5035 1157 L
5035 1157 mt 5028 1152 L
5028 1152 mt 4944 1103 L
4944 1103 mt 4894 1075 L
4894 1075 mt 4860 1055 L
4860 1055 mt 4776 1009 L
4776 1009 mt 4745  993 L
4745  993 mt 4692  964 L
4692  964 mt 4608  921 L
4608  921 mt 4588  911 L
4588  911 mt 4524  879 L
4524  879 mt 4440  838 L
4440  838 mt 4421  830 L
4421  830 mt 4356  798 L
/c46 { 0.687500 1.000000 0.312500 sr} bdef
c46
6201 3692 mt 6204 3690 L
6204 3690 mt 6288 3631 L
6288 3631 mt 6317 3610 L
6317 3610 mt 6372 3562 L
6372 3562 mt 6410 3528 L
6410 3528 mt 6456 3478 L
6456 3478 mt 6483 3446 L
6483 3446 mt 6540 3368 L
6540 3368 mt 6542 3364 L
6542 3364 mt 6587 3283 L
6587 3283 mt 6621 3201 L
6621 3201 mt 6624 3191 L
6624 3191 mt 6644 3119 L
6644 3119 mt 6658 3037 L
6658 3037 mt 6664 2956 L
6664 2956 mt 6663 2874 L
6663 2874 mt 6654 2792 L
6654 2792 mt 6638 2710 L
6638 2710 mt 6624 2659 L
6624 2659 mt 6615 2629 L
6615 2629 mt 6587 2547 L
6587 2547 mt 6552 2465 L
6552 2465 mt 6540 2439 L
6540 2439 mt 6512 2383 L
6512 2383 mt 6466 2301 L
6466 2301 mt 6456 2285 L
6456 2285 mt 6415 2220 L
6415 2220 mt 6372 2157 L
6372 2157 mt 6358 2138 L
6358 2138 mt 6296 2056 L
6296 2056 mt 6288 2046 L
6288 2046 mt 6229 1974 L
6229 1974 mt 6204 1946 L
6204 1946 mt 6156 1893 L
6156 1893 mt 6120 1854 L
6120 1854 mt 6078 1811 L
6078 1811 mt 6036 1768 L
6036 1768 mt 5995 1729 L
5995 1729 mt 5952 1688 L
5952 1688 mt 5907 1647 L
5907 1647 mt 5868 1612 L
5868 1612 mt 5813 1566 L
5813 1566 mt 5784 1541 L
5784 1541 mt 5714 1484 L
5714 1484 mt 5700 1472 L
5700 1472 mt 5616 1407 L
5616 1407 mt 5609 1402 L
5609 1402 mt 5532 1344 L
5532 1344 mt 5498 1320 L
5498 1320 mt 5448 1284 L
5448 1284 mt 5382 1238 L
5382 1238 mt 5364 1226 L
5364 1226 mt 5280 1170 L
5280 1170 mt 5259 1157 L
5259 1157 mt 5196 1115 L
5196 1115 mt 5131 1075 L
5131 1075 mt 5112 1063 L
5112 1063 mt 5028 1012 L
5028 1012 mt 4995  993 L
4995  993 mt 4944  962 L
4944  962 mt 4860  914 L
4860  914 mt 4854  911 L
4854  911 mt 4776  867 L
4776  867 mt 4706  830 L
4706  830 mt 4692  821 L
4692  821 mt 4608  776 L
4608  776 mt 4553  748 L
4553  748 mt 4524  732 L
4524  732 mt 4440  689 L
4440  689 mt 4394  666 L
4394  666 mt 4356  646 L
/c47 { 0.812500 1.000000 0.187500 sr} bdef
c47
4383  502 mt 4440  533 L
4440  533 mt 4524  580 L
4524  580 mt 4532  584 L
4532  584 mt 4608  626 L
4608  626 mt 4679  666 L
4679  666 mt 4692  673 L
4692  673 mt 4776  720 L
4776  720 mt 4824  748 L
4824  748 mt 4860  768 L
4860  768 mt 4944  817 L
4944  817 mt 4964  830 L
4964  830 mt 5028  867 L
5028  867 mt 5099  911 L
5099  911 mt 5112  919 L
5112  919 mt 5196  971 L
5196  971 mt 5229  993 L
5229  993 mt 5280 1025 L
5280 1025 mt 5354 1075 L
5354 1075 mt 5364 1081 L
5364 1081 mt 5448 1138 L
5448 1138 mt 5474 1157 L
5474 1157 mt 5532 1197 L
5532 1197 mt 5588 1238 L
5588 1238 mt 5616 1259 L
5616 1259 mt 5697 1320 L
5697 1320 mt 5700 1322 L
5700 1322 mt 5784 1388 L
5784 1388 mt 5800 1402 L
5800 1402 mt 5868 1457 L
5868 1457 mt 5899 1484 L
5899 1484 mt 5952 1529 L
5952 1529 mt 5993 1566 L
5993 1566 mt 6036 1605 L
6036 1605 mt 6081 1647 L
6081 1647 mt 6120 1684 L
6120 1684 mt 6165 1729 L
6165 1729 mt 6204 1769 L
6204 1769 mt 6243 1811 L
6243 1811 mt 6288 1859 L
6288 1859 mt 6317 1893 L
6317 1893 mt 6372 1957 L
6372 1957 mt 6386 1974 L
6386 1974 mt 6450 2056 L
6450 2056 mt 6456 2064 L
6456 2064 mt 6509 2138 L
6509 2138 mt 6540 2184 L
6540 2184 mt 6562 2220 L
6562 2220 mt 6611 2301 L
6611 2301 mt 6624 2324 L
6624 2324 mt 6655 2383 L
6655 2383 mt 6693 2465 L
6693 2465 mt 6708 2502 L
6708 2502 mt 6725 2547 L
6725 2547 mt 6752 2629 L
6752 2629 mt 6773 2710 L
6773 2710 mt 6787 2792 L
6787 2792 mt 6792 2834 L
6792 2834 mt 6795 2874 L
6795 2874 mt 6796 2956 L
6796 2956 mt 6792 3017 L
6792 3017 mt 6790 3037 L
6790 3037 mt 6775 3119 L
6775 3119 mt 6752 3201 L
6752 3201 mt 6719 3283 L
6719 3283 mt 6708 3304 L
6708 3304 mt 6675 3364 L
6675 3364 mt 6624 3439 L
6624 3439 mt 6619 3446 L
6619 3446 mt 6548 3528 L
6548 3528 mt 6540 3536 L
6540 3536 mt 6460 3610 L
6460 3610 mt 6456 3613 L
6456 3613 mt 6372 3676 L
6372 3676 mt 6350 3692 L
/c48 { 0.937500 1.000000 0.062500 sr} bdef
c48
4664  502 mt 4692  518 L
4692  518 mt 4776  567 L
4776  567 mt 4804  584 L
4804  584 mt 4860  617 L
4860  617 mt 4941  666 L
4941  666 mt 4944  667 L
4944  667 mt 5028  718 L
5028  718 mt 5075  748 L
5075  748 mt 5112  770 L
5112  770 mt 5196  823 L
5196  823 mt 5205  830 L
5205  830 mt 5280  877 L
5280  877 mt 5331  911 L
5331  911 mt 5364  933 L
5364  933 mt 5448  990 L
5448  990 mt 5453  993 L
5453  993 mt 5532 1048 L
5532 1048 mt 5569 1075 L
5569 1075 mt 5616 1108 L
5616 1108 mt 5681 1157 L
5681 1157 mt 5700 1170 L
5700 1170 mt 5784 1235 L
5784 1235 mt 5788 1238 L
5788 1238 mt 5868 1301 L
5868 1301 mt 5891 1320 L
5891 1320 mt 5952 1370 L
5952 1370 mt 5989 1402 L
5989 1402 mt 6036 1442 L
6036 1442 mt 6082 1484 L
6082 1484 mt 6120 1518 L
6120 1518 mt 6170 1566 L
6170 1566 mt 6204 1597 L
6204 1597 mt 6254 1647 L
6254 1647 mt 6288 1681 L
6288 1681 mt 6334 1729 L
6334 1729 mt 6372 1770 L
6372 1770 mt 6408 1811 L
6408 1811 mt 6456 1866 L
6456 1866 mt 6478 1893 L
6478 1893 mt 6540 1969 L
6540 1969 mt 6544 1974 L
6544 1974 mt 6604 2056 L
6604 2056 mt 6624 2084 L
6624 2084 mt 6660 2138 L
6660 2138 mt 6708 2213 L
6708 2213 mt 6711 2220 L
6711 2220 mt 6758 2301 L
6758 2301 mt 6792 2369 L
6792 2369 mt 6799 2383 L
6799 2383 mt 6835 2465 L
6835 2465 mt 6865 2547 L
6865 2547 mt 6876 2579 L
6876 2579 mt 6891 2629 L
6891 2629 mt 6910 2710 L
6910 2710 mt 6923 2792 L
6923 2792 mt 6930 2874 L
6930 2874 mt 6930 2956 L
6930 2956 mt 6923 3037 L
6923 3037 mt 6908 3119 L
6908 3119 mt 6885 3201 L
6885 3201 mt 6876 3224 L
6876 3224 mt 6852 3283 L
6852 3283 mt 6809 3364 L
6809 3364 mt 6792 3391 L
6792 3391 mt 6754 3446 L
6754 3446 mt 6708 3503 L
6708 3503 mt 6686 3528 L
6686 3528 mt 6624 3589 L
6624 3589 mt 6602 3610 L
6602 3610 mt 6540 3659 L
6540 3659 mt 6498 3692 L
c25
4928  502 mt 4944  512 L
4944  512 mt 5028  564 L
5028  564 mt 5060  584 L
5060  584 mt 5112  617 L
5112  617 mt 5189  666 L
5189  666 mt 5196  670 L
5196  670 mt 5280  725 L
5280  725 mt 5315  748 L
5315  748 mt 5364  780 L
5364  780 mt 5437  830 L
5437  830 mt 5448  837 L
5448  837 mt 5532  895 L
5532  895 mt 5555  911 L
5555  911 mt 5616  954 L
5616  954 mt 5669  993 L
5669  993 mt 5700 1016 L
5700 1016 mt 5779 1075 L
5779 1075 mt 5784 1079 L
5784 1079 mt 5868 1144 L
5868 1144 mt 5884 1157 L
5884 1157 mt 5952 1211 L
5952 1211 mt 5985 1238 L
5985 1238 mt 6036 1280 L
6036 1280 mt 6082 1320 L
6082 1320 mt 6120 1353 L
6120 1353 mt 6175 1402 L
6175 1402 mt 6204 1428 L
6204 1428 mt 6263 1484 L
6263 1484 mt 6288 1507 L
6288 1507 mt 6347 1566 L
6347 1566 mt 6372 1590 L
6372 1590 mt 6427 1647 L
6427 1647 mt 6456 1678 L
6456 1678 mt 6502 1729 L
6502 1729 mt 6540 1772 L
6540 1772 mt 6573 1811 L
6573 1811 mt 6624 1872 L
6624 1872 mt 6640 1893 L
6640 1893 mt 6702 1974 L
6702 1974 mt 6708 1982 L
6708 1982 mt 6760 2056 L
6760 2056 mt 6792 2104 L
6792 2104 mt 6813 2138 L
6813 2138 mt 6862 2220 L
6862 2220 mt 6876 2245 L
6876 2245 mt 6905 2301 L
6905 2301 mt 6944 2383 L
6944 2383 mt 6960 2419 L
6960 2419 mt 6978 2465 L
6978 2465 mt 7007 2547 L
7007 2547 mt 7031 2629 L
7031 2629 mt 7044 2687 L
7044 2687 mt 7049 2710 L
7049 2710 mt 7061 2792 L
7061 2792 mt 7064 2835 L
7048 3091 mt 7044 3115 L
7044 3115 mt 7043 3119 L
7043 3119 mt 7019 3201 L
7019 3201 mt 6987 3283 L
6987 3283 mt 6960 3336 L
6960 3336 mt 6945 3364 L
6945 3364 mt 6891 3446 L
6891 3446 mt 6876 3466 L
6876 3466 mt 6825 3528 L
6825 3528 mt 6792 3562 L
6792 3562 mt 6744 3610 L
6744 3610 mt 6708 3640 L
6708 3640 mt 6645 3692 L
c26
5180  502 mt 5196  512 L
5196  512 mt 5280  567 L
5280  567 mt 5305  584 L
5305  584 mt 5364  623 L
5364  623 mt 5427  666 L
5427  666 mt 5448  680 L
5448  680 mt 5532  738 L
5532  738 mt 5546  748 L
5546  748 mt 5616  797 L
5616  797 mt 5661  830 L
5661  830 mt 5700  858 L
5700  858 mt 5772  911 L
5772  911 mt 5784  920 L
5784  920 mt 5868  984 L
5868  984 mt 5880  993 L
5880  993 mt 5952 1049 L
5952 1049 mt 5984 1075 L
5984 1075 mt 6036 1117 L
6036 1117 mt 6084 1157 L
6084 1157 mt 6120 1187 L
6120 1187 mt 6180 1238 L
6180 1238 mt 6204 1259 L
6204 1259 mt 6272 1320 L
6272 1320 mt 6288 1335 L
6288 1335 mt 6359 1402 L
6359 1402 mt 6372 1413 L
6372 1413 mt 6443 1484 L
6443 1484 mt 6456 1496 L
6456 1496 mt 6523 1566 L
6523 1566 mt 6540 1583 L
6540 1583 mt 6599 1647 L
6599 1647 mt 6624 1675 L
6624 1675 mt 6671 1729 L
6671 1729 mt 6708 1773 L
6708 1773 mt 6739 1811 L
6739 1811 mt 6792 1879 L
6792 1879 mt 6802 1893 L
6802 1893 mt 6861 1974 L
6861 1974 mt 6876 1995 L
6876 1995 mt 6916 2056 L
6916 2056 mt 6960 2126 L
6960 2126 mt 6967 2138 L
6967 2138 mt 7013 2220 L
7013 2220 mt 7044 2279 L
7044 2279 mt 7055 2301 L
7055 2301 mt 7092 2383 L
7092 2383 mt 7124 2465 L
7124 2465 mt 7128 2477 L
7128 2477 mt 7151 2547 L
7151 2547 mt 7173 2629 L
7173 2629 mt 7189 2710 L
7189 2710 mt 7200 2792 L
7200 2792 mt 7204 2874 L
7204 2874 mt 7203 2956 L
7203 2956 mt 7194 3037 L
7194 3037 mt 7179 3119 L
7179 3119 mt 7155 3201 L
7155 3201 mt 7128 3272 L
7128 3272 mt 7123 3283 L
7123 3283 mt 7082 3364 L
7082 3364 mt 7044 3424 L
7044 3424 mt 7029 3446 L
7029 3446 mt 6965 3528 L
6965 3528 mt 6960 3534 L
6960 3534 mt 6887 3610 L
6887 3610 mt 6876 3619 L
6876 3619 mt 6792 3691 L
6792 3691 mt 6791 3692 L
/c49 { 1.000000 0.687500 0.000000 sr} bdef
c49
5424  502 mt 5448  518 L
5448  518 mt 5532  576 L
5532  576 mt 5543  584 L
5543  584 mt 5616  636 L
5616  636 mt 5658  666 L
5658  666 mt 5700  696 L
5700  696 mt 5770  748 L
5770  748 mt 5784  757 L
5784  757 mt 5868  820 L
5868  820 mt 5879  830 L
5879  830 mt 5952  885 L
5952  885 mt 5985  911 L
5985  911 mt 6036  951 L
6036  951 mt 6087  993 L
6087  993 mt 6120 1019 L
6120 1019 mt 6186 1075 L
6186 1075 mt 6204 1090 L
6204 1090 mt 6281 1157 L
6281 1157 mt 6288 1163 L
6288 1163 mt 6372 1238 L
6372 1238 mt 6372 1238 L
6372 1238 mt 6456 1316 L
6456 1316 mt 6460 1320 L
6460 1320 mt 6540 1398 L
6540 1398 mt 6543 1402 L
6543 1402 mt 6623 1484 L
6623 1484 mt 6624 1484 L
6624 1484 mt 6699 1566 L
6699 1566 mt 6708 1574 L
6708 1574 mt 6772 1647 L
6772 1647 mt 6792 1670 L
6792 1670 mt 6840 1729 L
6840 1729 mt 6876 1773 L
6876 1773 mt 6905 1811 L
6905 1811 mt 6960 1885 L
6960 1885 mt 6965 1893 L
6965 1893 mt 7022 1974 L
7022 1974 mt 7044 2008 L
7044 2008 mt 7074 2056 L
7074 2056 mt 7122 2138 L
7122 2138 mt 7128 2148 L
7128 2148 mt 7166 2220 L
7166 2220 mt 7205 2301 L
7205 2301 mt 7212 2316 L
7212 2316 mt 7240 2383 L
7240 2383 mt 7270 2465 L
7270 2465 mt 7296 2546 L
7296 2546 mt 7296 2547 L
7296 2547 mt 7316 2629 L
7316 2629 mt 7331 2710 L
7331 2710 mt 7341 2792 L
7341 2792 mt 7344 2874 L
7344 2874 mt 7342 2956 L
7342 2956 mt 7333 3037 L
7333 3037 mt 7317 3119 L
7317 3119 mt 7296 3192 L
7296 3192 mt 7293 3201 L
7293 3201 mt 7261 3283 L
7261 3283 mt 7220 3364 L
7220 3364 mt 7212 3378 L
7212 3378 mt 7169 3446 L
7169 3446 mt 7128 3500 L
7128 3500 mt 7106 3528 L
7106 3528 mt 7044 3595 L
7044 3595 mt 7030 3610 L
7030 3610 mt 6960 3673 L
6960 3673 mt 6938 3692 L
/c50 { 1.000000 0.562500 0.000000 sr} bdef
c50
5662  502 mt 5700  530 L
5700  530 mt 5774  584 L
5774  584 mt 5784  591 L
5784  591 mt 5868  654 L
5868  654 mt 5884  666 L
5884  666 mt 5952  717 L
5952  717 mt 5991  748 L
5991  748 mt 6036  783 L
6036  783 mt 6094  830 L
6094  830 mt 6120  850 L
6120  850 mt 6195  911 L
6195  911 mt 6204  918 L
6204  918 mt 6288  989 L
6288  989 mt 6292  993 L
6292  993 mt 6372 1062 L
6372 1062 mt 6386 1075 L
6386 1075 mt 6456 1137 L
6456 1137 mt 6476 1157 L
6476 1157 mt 6540 1216 L
6540 1216 mt 6563 1238 L
6563 1238 mt 6624 1297 L
6624 1297 mt 6647 1320 L
6647 1320 mt 6708 1382 L
6708 1382 mt 6727 1402 L
6727 1402 mt 6792 1471 L
6792 1471 mt 6803 1484 L
6803 1484 mt 6876 1565 L
6876 1565 mt 6876 1566 L
6876 1566 mt 6945 1647 L
6945 1647 mt 6960 1665 L
6960 1665 mt 7010 1729 L
7010 1729 mt 7044 1773 L
7044 1773 mt 7072 1811 L
7072 1811 mt 7128 1890 L
7128 1890 mt 7129 1893 L
7129 1893 mt 7183 1974 L
7183 1974 mt 7212 2021 L
7212 2021 mt 7233 2056 L
7233 2056 mt 7279 2138 L
7279 2138 mt 7296 2171 L
7296 2171 mt 7320 2220 L
7320 2220 mt 7358 2301 L
7358 2301 mt 7380 2356 L
7380 2356 mt 7391 2383 L
7391 2383 mt 7419 2465 L
7419 2465 mt 7443 2547 L
7443 2547 mt 7461 2629 L
7461 2629 mt 7464 2641 L
7464 2641 mt 7475 2710 L
7475 2710 mt 7483 2792 L
7483 2792 mt 7486 2874 L
7486 2874 mt 7483 2956 L
7483 2956 mt 7473 3037 L
7473 3037 mt 7464 3083 L
7464 3083 mt 7456 3119 L
7456 3119 mt 7432 3201 L
7432 3201 mt 7400 3283 L
7400 3283 mt 7380 3324 L
7380 3324 mt 7360 3364 L
7360 3364 mt 7309 3446 L
7309 3446 mt 7296 3464 L
7296 3464 mt 7248 3528 L
7248 3528 mt 7212 3568 L
7212 3568 mt 7174 3610 L
7174 3610 mt 7128 3653 L
7128 3653 mt 7085 3692 L
c29
5894  502 mt 5952  546 L
5952  546 mt 6001  584 L
6001  584 mt 6036  611 L
6036  611 mt 6106  666 L
6106  666 mt 6120  677 L
6120  677 mt 6204  744 L
6204  744 mt 6208  748 L
6208  748 mt 6288  813 L
6288  813 mt 6307  830 L
6307  830 mt 6372  884 L
6372  884 mt 6403  911 L
6403  911 mt 6456  958 L
6456  958 mt 6495  993 L
6495  993 mt 6540 1033 L
6540 1033 mt 6585 1075 L
6585 1075 mt 6624 1111 L
6624 1111 mt 6671 1157 L
6671 1157 mt 6708 1192 L
6708 1192 mt 6754 1238 L
6754 1238 mt 6792 1276 L
6792 1276 mt 6834 1320 L
6834 1320 mt 6876 1365 L
6876 1365 mt 6910 1402 L
6910 1402 mt 6960 1457 L
6960 1457 mt 6983 1484 L
6983 1484 mt 7044 1555 L
7044 1555 mt 7052 1566 L
7052 1566 mt 7118 1647 L
7118 1647 mt 7128 1659 L
7128 1659 mt 7181 1729 L
7181 1729 mt 7212 1772 L
7212 1772 mt 7239 1811 L
7239 1811 mt 7294 1893 L
7294 1893 mt 7296 1894 L
7296 1894 mt 7346 1974 L
7346 1974 mt 7380 2032 L
7380 2032 mt 7393 2056 L
7393 2056 mt 7437 2138 L
7437 2138 mt 7464 2193 L
7464 2193 mt 7476 2220 L
7476 2220 mt 7511 2301 L
7511 2301 mt 7542 2383 L
7542 2383 mt 7548 2399 L
7548 2399 mt 7569 2465 L
7569 2465 mt 7591 2547 L
7591 2547 mt 7608 2629 L
7608 2629 mt 7621 2710 L
7621 2710 mt 7628 2792 L
7628 2792 mt 7629 2844 L
7601 3100 mt 7597 3119 L
7597 3119 mt 7573 3201 L
7573 3201 mt 7548 3266 L
7548 3266 mt 7541 3283 L
7541 3283 mt 7501 3364 L
7501 3364 mt 7464 3425 L
7464 3425 mt 7451 3446 L
7451 3446 mt 7390 3528 L
7390 3528 mt 7380 3541 L
7380 3541 mt 7318 3610 L
7318 3610 mt 7296 3632 L
7296 3632 mt 7232 3692 L
/c51 { 1.000000 0.250000 0.000000 sr} bdef
c51
6123  502 mt 6204  567 L
6204  567 mt 6225  584 L
6225  584 mt 6288  635 L
6288  635 mt 6325  666 L
6325  666 mt 6372  705 L
6372  705 mt 6422  748 L
6422  748 mt 6456  776 L
6456  776 mt 6517  830 L
6517  830 mt 6540  849 L
6540  849 mt 6608  911 L
6608  911 mt 6624  925 L
6624  925 mt 6697  993 L
6697  993 mt 6708 1003 L
6708 1003 mt 6783 1075 L
6783 1075 mt 6792 1084 L
6792 1084 mt 6865 1157 L
6865 1157 mt 6876 1167 L
6876 1167 mt 6944 1238 L
6944 1238 mt 6960 1254 L
6960 1254 mt 7021 1320 L
7021 1320 mt 7044 1346 L
7044 1346 mt 7094 1402 L
7094 1402 mt 7128 1441 L
7128 1441 mt 7163 1484 L
7163 1484 mt 7212 1543 L
7212 1543 mt 7230 1566 L
7230 1566 mt 7293 1647 L
7293 1647 mt 7296 1651 L
7296 1651 mt 7352 1729 L
7352 1729 mt 7380 1769 L
7380 1769 mt 7408 1811 L
7408 1811 mt 7461 1893 L
7461 1893 mt 7464 1897 L
7464 1897 mt 7510 1974 L
7510 1974 mt 7548 2043 L
7548 2043 mt 7555 2056 L
7555 2056 mt 7596 2138 L
7596 2138 mt 7632 2216 L
7380 3692 mt 7464 3610 L
7464 3610 mt 7464 3610 L
7464 3610 mt 7535 3528 L
7535 3528 mt 7548 3510 L
7548 3510 mt 7594 3446 L
7594 3446 mt 7632 3384 L
/c52 { 1.000000 0.125000 0.000000 sr} bdef
c52
6348  502 mt 6372  521 L
6372  521 mt 6447  584 L
6447  584 mt 6456  592 L
6456  592 mt 6540  664 L
6540  664 mt 6542  666 L
6542  666 mt 6624  737 L
6624  737 mt 6635  748 L
6635  748 mt 6708  813 L
6708  813 mt 6726  830 L
6726  830 mt 6792  891 L
6792  891 mt 6813  911 L
6813  911 mt 6876  971 L
6876  971 mt 6898  993 L
6898  993 mt 6960 1054 L
6960 1054 mt 6980 1075 L
6980 1075 mt 7044 1141 L
7044 1141 mt 7059 1157 L
7059 1157 mt 7128 1231 L
7128 1231 mt 7135 1238 L
7135 1238 mt 7208 1320 L
7208 1320 mt 7212 1325 L
7212 1325 mt 7277 1402 L
7277 1402 mt 7296 1424 L
7296 1424 mt 7344 1484 L
7344 1484 mt 7380 1529 L
7380 1529 mt 7407 1566 L
7407 1566 mt 7464 1642 L
7464 1642 mt 7468 1647 L
7468 1647 mt 7525 1729 L
7525 1729 mt 7548 1764 L
7548 1764 mt 7578 1811 L
7578 1811 mt 7628 1893 L
7628 1893 mt 7632 1898 L
7529 3692 mt 7548 3673 L
7548 3673 mt 7611 3610 L
7611 3610 mt 7632 3585 L
/c53 { 1.000000 0.000000 0.000000 sr} bdef
c53
6572  502 mt 6624  547 L
6624  547 mt 6666  584 L
6666  584 mt 6708  621 L
6708  621 mt 6758  666 L
6758  666 mt 6792  697 L
6792  697 mt 6847  748 L
6847  748 mt 6876  774 L
6876  774 mt 6933  830 L
6933  830 mt 6960  855 L
6960  855 mt 7017  911 L
7017  911 mt 7044  937 L
7044  937 mt 7099  993 L
7099  993 mt 7128 1023 L
7128 1023 mt 7177 1075 L
7177 1075 mt 7212 1112 L
7212 1112 mt 7252 1157 L
7252 1157 mt 7296 1205 L
7296 1205 mt 7325 1238 L
7325 1238 mt 7380 1302 L
7380 1302 mt 7395 1320 L
7395 1320 mt 7462 1402 L
7462 1402 mt 7464 1404 L
7464 1404 mt 7526 1484 L
7526 1484 mt 7548 1513 L
7548 1513 mt 7586 1566 L
7586 1566 mt 7632 1630 L
/c54 { 0.875000 0.000000 0.000000 sr} bdef
c54
6794  502 mt 6876  576 L
6876  576 mt 6884  584 L
6884  584 mt 6960  654 L
6960  654 mt 6972  666 L
6972  666 mt 7044  734 L
7044  734 mt 7058  748 L
7058  748 mt 7128  816 L
7128  816 mt 7141  830 L
7141  830 mt 7212  901 L
7212  901 mt 7221  911 L
7221  911 mt 7292  985 L
7502 1222 mt 7516 1238 L
7516 1238 mt 7548 1277 L
7548 1277 mt 7583 1320 L
7583 1320 mt 7632 1382 L
c33
7015  502 mt 7044  529 L
7044  529 mt 7101  584 L
7101  584 mt 7128  609 L
7128  609 mt 7186  666 L
7186  666 mt 7212  691 L
7212  691 mt 7268  748 L
7268  748 mt 7296  776 L
7296  776 mt 7347  830 L
7347  830 mt 7380  863 L
7380  863 mt 7425  911 L
7425  911 mt 7464  954 L
7464  954 mt 7499  993 L
7499  993 mt 7548 1048 L
7548 1048 mt 7571 1075 L
7571 1075 mt 7632 1146 L
c34
7235  502 mt 7296  562 L
7296  562 mt 7318  584 L
7318  584 mt 7380  646 L
7380  646 mt 7399  666 L
7399  666 mt 7464  733 L
7464  733 mt 7478  748 L
7478  748 mt 7548  822 L
7548  822 mt 7554  830 L
7554  830 mt 7628  911 L
7628  911 mt 7632  915 L
c35
7454  502 mt 7464  512 L
7464  512 mt 7534  584 L
7534  584 mt 7548  598 L
7548  598 mt 7612  666 L
7612  666 mt 7632  687 L
0 sg
4945 3284 mt  -67 rotate
(0.06) s
67 rotate
5296 3493 mt  -59 rotate
(0.08) s
59 rotate
5106 1738 mt  -303 rotate
(0.1) s
303 rotate
5235 1278 mt  -304 rotate
(0.12) s
304 rotate
7099 3081 mt  -88 rotate
(0.14) s
88 rotate
7655 3091 mt  -87 rotate
(0.16) s
87 rotate
7314 1011 mt  -292 rotate
(0.18) s
292 rotate
gr

0 sg
%%IncludeResource: font Symbol
/Symbol /ISOLatin1Encoding 120 FMSR

5888 3949 mt 
(f) s
%%IncludeResource: font Symbol
/Symbol /ISOLatin1Encoding 96 FMSR

5950 4009 mt 
(D) s
%%IncludeResource: font Helvetica
/Helvetica /ISOLatin1Encoding 96 FMSR

6008 4009 mt 
( Y) s
%%IncludeResource: font Symbol
/Symbol /ISOLatin1Encoding 120 FMSR

4012 2203 mt  -90 rotate
(f) s
90 rotate
%%IncludeResource: font Symbol
/Symbol /ISOLatin1Encoding 96 FMSR

4072 2141 mt  -90 rotate
(D) s
90 rotate
%%IncludeResource: font Helvetica
/Helvetica /ISOLatin1Encoding 96 FMSR

4072 2083 mt  -90 rotate
( V) s
90 rotate
%%IncludeResource: font Symbol
/Symbol /ISOLatin1Encoding 120 FMSR

5931  347 mt 
(s) s
%%IncludeResource: font Symbol
/Symbol /ISOLatin1Encoding 96 FMSR

6003  407 mt 
(p) s
4 w
GR
6 w
SO
4356 3692 mt 7632 3692 L
4356  502 mt 7632  502 L
4356 3692 mt 4356  502 L
7632 3692 mt 7632  502 L
4356 3692 mt 7632 3692 L
4356 3692 mt 4356  502 L
4356 3692 mt 4356 3659 L
4356  503 mt 4356  535 L
%%IncludeResource: font Helvetica
/Helvetica /ISOLatin1Encoding 120 FMSR

4323 3837 mt 
(0) s
5011 3692 mt 5011 3659 L
5011  503 mt 5011  535 L
4928 3837 mt 
(0.2) s
5666 3692 mt 5666 3659 L
5666  503 mt 5666  535 L
5583 3837 mt 
(0.4) s
6321 3692 mt 6321 3659 L
6321  503 mt 6321  535 L
6238 3837 mt 
(0.6) s
6976 3692 mt 6976 3659 L
6976  503 mt 6976  535 L
6893 3837 mt 
(0.8) s
7632 3692 mt 7632 3659 L
7632  503 mt 7632  535 L
7599 3837 mt 
(1) s
4356 3692 mt 4388 3692 L
7632 3692 mt 7599 3692 L
4255 3736 mt 
(0) s
4356 3054 mt 4388 3054 L
7632 3054 mt 7599 3054 L
4155 3098 mt 
(0.5) s
4356 2416 mt 4388 2416 L
7632 2416 mt 7599 2416 L
4255 2460 mt 
(1) s
4356 1778 mt 4388 1778 L
7632 1778 mt 7599 1778 L
4155 1822 mt 
(1.5) s
4356 1140 mt 4388 1140 L
7632 1140 mt 7599 1140 L
4255 1184 mt 
(2) s
4356  503 mt 4388  503 L
7632  503 mt 7599  503 L
4155  547 mt 
(2.5) s
4356 3692 mt 7632 3692 L
4356  502 mt 7632  502 L
4356 3692 mt 4356  502 L
7632 3692 mt 7632  502 L
1 sg
0 3190 3276 0 0 -3190 8232 3692 4 MP
PP
-3276 0 0 3190 3276 0 0 -3190 8232 3692 5 MP stroke
gs 8232 503 3277 3190 rc
c8
8479  502 mt 8405  584 L
8405  584 mt 8400  591 L
8400  591 mt 8346  666 L
8346  666 mt 8316  711 L
8316  711 mt 8295  748 L
8295  748 mt 8255  830 L
8255  830 mt 8232  886 L
10582  502 mt 10584  505 L
10584  505 mt 10614  584 L
10614  584 mt 10632  666 L
10632  666 mt 10638  748 L
10638  748 mt 10632  830 L
10632  830 mt 10614  911 L
10614  911 mt 10586  993 L
10586  993 mt 10584  998 L
10584  998 mt 10546 1075 L
10546 1075 mt 10500 1149 L
10500 1149 mt 10495 1157 L
10495 1157 mt 10431 1238 L
10431 1238 mt 10416 1255 L
10416 1255 mt 10353 1320 L
10353 1320 mt 10332 1340 L
10332 1340 mt 10261 1402 L
10261 1402 mt 10248 1412 L
10248 1412 mt 10164 1474 L
10164 1474 mt 10151 1484 L
10151 1484 mt 10080 1528 L
10080 1528 mt 10018 1566 L
10018 1566 mt 9996 1578 L
9996 1578 mt 9912 1620 L
9912 1620 mt 9857 1647 L
9857 1647 mt 9828 1660 L
9828 1660 mt 9744 1694 L
9744 1694 mt 9660 1726 L
9660 1726 mt 9651 1729 L
9651 1729 mt 9576 1752 L
9576 1752 mt 9492 1775 L
9492 1775 mt 9408 1796 L
9408 1796 mt 9341 1811 L
9341 1811 mt 9324 1814 L
9324 1814 mt 9240 1827 L
9240 1827 mt 9156 1836 L
9156 1836 mt 9072 1843 L
9072 1843 mt 8988 1845 L
8988 1845 mt 8904 1843 L
8904 1843 mt 8820 1836 L
8820 1836 mt 8736 1824 L
8736 1824 mt 8674 1811 L
8674 1811 mt 8652 1805 L
8652 1805 mt 8568 1776 L
8568 1776 mt 8484 1738 L
8484 1738 mt 8468 1729 L
8468 1729 mt 8400 1682 L
8400 1682 mt 8359 1647 L
8359 1647 mt 8316 1602 L
8316 1602 mt 8288 1566 L
8288 1566 mt 8239 1484 L
8239 1484 mt 8232 1468 L
c9
8232 1930 mt 8291 1974 L
8291 1974 mt 8316 1991 L
8316 1991 mt 8400 2038 L
8400 2038 mt 8438 2056 L
8438 2056 mt 8484 2075 L
8484 2075 mt 8568 2104 L
8568 2104 mt 8652 2127 L
8652 2127 mt 8698 2138 L
8698 2138 mt 8736 2145 L
8736 2145 mt 8820 2158 L
8820 2158 mt 8904 2168 L
8904 2168 mt 8988 2175 L
8988 2175 mt 9072 2179 L
9072 2179 mt 9156 2180 L
9156 2180 mt 9240 2178 L
9240 2178 mt 9324 2175 L
9324 2175 mt 9408 2169 L
9408 2169 mt 9492 2162 L
9492 2162 mt 9576 2153 L
9576 2153 mt 9660 2142 L
9660 2142 mt 9685 2138 L
9685 2138 mt 9744 2128 L
9744 2128 mt 9828 2113 L
9828 2113 mt 9912 2096 L
9912 2096 mt 9996 2078 L
9996 2078 mt 10080 2058 L
10080 2058 mt 10088 2056 L
10088 2056 mt 10164 2035 L
10164 2035 mt 10248 2011 L
10248 2011 mt 10332 1986 L
10332 1986 mt 10370 1974 L
10370 1974 mt 10416 1958 L
10416 1958 mt 10500 1929 L
10500 1929 mt 10584 1898 L
10584 1898 mt 10598 1893 L
10598 1893 mt 10622 1883 L
11087 1659 mt 11088 1659 L
11088 1659 mt 11109 1647 L
11109 1647 mt 11172 1609 L
11172 1609 mt 11241 1566 L
11241 1566 mt 11256 1556 L
11256 1556 mt 11340 1498 L
11340 1498 mt 11360 1484 L
11360 1484 mt 11424 1435 L
11424 1435 mt 11467 1402 L
11467 1402 mt 11508 1367 L
c10
8232 2157 mt 8316 2209 L
8316 2209 mt 8336 2220 L
8336 2220 mt 8400 2250 L
8400 2250 mt 8484 2284 L
8484 2284 mt 8534 2301 L
8534 2301 mt 8568 2312 L
8568 2312 mt 8652 2335 L
8652 2335 mt 8736 2354 L
8736 2354 mt 8820 2370 L
8820 2370 mt 8904 2383 L
8904 2383 mt 8906 2383 L
8906 2383 mt 8988 2392 L
8988 2392 mt 9072 2400 L
9072 2400 mt 9156 2405 L
9156 2405 mt 9240 2408 L
9240 2408 mt 9324 2410 L
9324 2410 mt 9408 2410 L
9408 2410 mt 9492 2408 L
9492 2408 mt 9576 2405 L
9576 2405 mt 9660 2400 L
9660 2400 mt 9744 2394 L
9744 2394 mt 9828 2387 L
9828 2387 mt 9870 2383 L
9870 2383 mt 9912 2379 L
9912 2379 mt 9996 2368 L
9996 2368 mt 10080 2357 L
10080 2357 mt 10164 2344 L
10164 2344 mt 10248 2331 L
10248 2331 mt 10332 2317 L
10332 2317 mt 10415 2301 L
10415 2301 mt 10416 2301 L
10416 2301 mt 10500 2284 L
10500 2284 mt 10584 2265 L
10584 2265 mt 10668 2246 L
10668 2246 mt 10752 2226 L
10752 2226 mt 10775 2220 L
10775 2220 mt 10836 2203 L
10836 2203 mt 10920 2180 L
10920 2180 mt 11004 2156 L
11004 2156 mt 11065 2138 L
11065 2138 mt 11088 2131 L
11088 2131 mt 11172 2103 L
11172 2103 mt 11256 2075 L
11256 2075 mt 11311 2056 L
11311 2056 mt 11340 2045 L
11340 2045 mt 11424 2014 L
11424 2014 mt 11508 1982 L
c36
8232 2321 mt 8316 2368 L
8316 2368 mt 8346 2383 L
8346 2383 mt 8400 2408 L
8400 2408 mt 8484 2441 L
8484 2441 mt 8553 2465 L
8553 2465 mt 8568 2470 L
8568 2470 mt 8652 2493 L
8652 2493 mt 8736 2513 L
8736 2513 mt 8820 2531 L
8820 2531 mt 8904 2547 L
8904 2547 mt 8904 2547 L
8904 2547 mt 8988 2559 L
8988 2559 mt 9072 2569 L
9072 2569 mt 9156 2577 L
9156 2577 mt 9240 2583 L
9240 2583 mt 9324 2589 L
9324 2589 mt 9408 2592 L
9408 2592 mt 9492 2594 L
9492 2594 mt 9576 2595 L
9576 2595 mt 9660 2595 L
9660 2595 mt 9744 2593 L
9744 2593 mt 9828 2591 L
9828 2591 mt 9912 2587 L
9912 2587 mt 9996 2582 L
9996 2582 mt 10080 2576 L
10080 2576 mt 10164 2570 L
10164 2570 mt 10248 2562 L
10248 2562 mt 10332 2554 L
10332 2554 mt 10396 2547 L
10396 2547 mt 10416 2544 L
10416 2544 mt 10500 2534 L
10500 2534 mt 10584 2522 L
10584 2522 mt 10668 2509 L
10668 2509 mt 10752 2496 L
10752 2496 mt 10836 2482 L
10836 2482 mt 10920 2468 L
10920 2468 mt 10936 2465 L
10936 2465 mt 11004 2452 L
11004 2452 mt 11088 2435 L
11088 2435 mt 11172 2417 L
11172 2417 mt 11256 2399 L
11256 2399 mt 11327 2383 L
11327 2383 mt 11340 2380 L
11340 2380 mt 11424 2359 L
11424 2359 mt 11508 2338 L
c37
8232 2451 mt 8257 2465 L
8257 2465 mt 8316 2496 L
8316 2496 mt 8400 2536 L
8400 2536 mt 8426 2547 L
8426 2547 mt 8484 2569 L
8484 2569 mt 8568 2597 L
8568 2597 mt 8652 2623 L
8652 2623 mt 8671 2629 L
8671 2629 mt 8736 2645 L
8736 2645 mt 8820 2663 L
8820 2663 mt 8904 2680 L
8904 2680 mt 8988 2695 L
8988 2695 mt 9072 2708 L
9072 2708 mt 9090 2710 L
9090 2710 mt 9156 2718 L
9156 2718 mt 9240 2727 L
9240 2727 mt 9324 2735 L
9324 2735 mt 9408 2741 L
9408 2741 mt 9492 2746 L
9492 2746 mt 9576 2750 L
9576 2750 mt 9660 2753 L
9660 2753 mt 9744 2755 L
9744 2755 mt 9828 2755 L
9828 2755 mt 9912 2755 L
9912 2755 mt 9996 2754 L
9996 2754 mt 10080 2752 L
10080 2752 mt 10164 2749 L
10164 2749 mt 10248 2745 L
10248 2745 mt 10332 2741 L
10332 2741 mt 10416 2736 L
10416 2736 mt 10500 2730 L
10500 2730 mt 10584 2723 L
10584 2723 mt 10668 2716 L
10668 2716 mt 10724 2710 L
10724 2710 mt 10752 2707 L
10752 2707 mt 10836 2698 L
10836 2698 mt 10920 2688 L
10920 2688 mt 11004 2677 L
11004 2677 mt 11088 2666 L
11088 2666 mt 11172 2654 L
11172 2654 mt 11256 2642 L
11256 2642 mt 11340 2629 L
11340 2629 mt 11344 2629 L
11344 2629 mt 11424 2615 L
11424 2615 mt 11508 2600 L
c38
8232 2559 mt 8316 2604 L
8316 2604 mt 8366 2629 L
8366 2629 mt 8400 2643 L
8400 2643 mt 8484 2677 L
8484 2677 mt 8568 2707 L
8568 2707 mt 8577 2710 L
8577 2710 mt 8652 2733 L
8652 2733 mt 8736 2756 L
8736 2756 mt 8820 2776 L
8820 2776 mt 8889 2792 L
8889 2792 mt 8904 2795 L
8904 2795 mt 8988 2811 L
8988 2811 mt 9072 2825 L
9072 2825 mt 9156 2838 L
9156 2838 mt 9240 2849 L
9240 2849 mt 9324 2859 L
9324 2859 mt 9408 2868 L
9408 2868 mt 9468 2874 L
9468 2874 mt 9492 2876 L
9492 2876 mt 9576 2882 L
9576 2882 mt 9660 2887 L
9660 2887 mt 9744 2891 L
9744 2891 mt 9828 2894 L
9828 2894 mt 9912 2897 L
9912 2897 mt 9996 2899 L
9996 2899 mt 10080 2899 L
10080 2899 mt 10164 2899 L
10164 2899 mt 10227 2899 L
10892 2871 mt 10920 2869 L
10920 2869 mt 11004 2862 L
11004 2862 mt 11088 2855 L
11088 2855 mt 11172 2847 L
11172 2847 mt 11256 2838 L
11256 2838 mt 11340 2829 L
11340 2829 mt 11424 2820 L
11424 2820 mt 11508 2810 L
c39
8232 2653 mt 8316 2698 L
8316 2698 mt 8341 2710 L
8341 2710 mt 8400 2737 L
8400 2737 mt 8484 2771 L
8484 2771 mt 8539 2792 L
8539 2792 mt 8568 2802 L
8568 2802 mt 8652 2828 L
8652 2828 mt 8736 2853 L
8736 2853 mt 8813 2874 L
8813 2874 mt 8820 2875 L
8820 2875 mt 8904 2894 L
8904 2894 mt 8988 2912 L
8988 2912 mt 9072 2928 L
9072 2928 mt 9156 2943 L
9156 2943 mt 9235 2956 L
9235 2956 mt 9240 2956 L
9240 2956 mt 9324 2968 L
9324 2968 mt 9408 2978 L
9408 2978 mt 9492 2987 L
9492 2987 mt 9576 2995 L
9576 2995 mt 9660 3003 L
9660 3003 mt 9744 3009 L
9744 3009 mt 9828 3015 L
9828 3015 mt 9912 3020 L
9912 3020 mt 9996 3024 L
9996 3024 mt 10080 3027 L
10080 3027 mt 10164 3030 L
10164 3030 mt 10248 3031 L
10248 3031 mt 10332 3032 L
10332 3032 mt 10416 3033 L
10416 3033 mt 10500 3033 L
10500 3033 mt 10584 3032 L
10584 3032 mt 10668 3030 L
10668 3030 mt 10752 3028 L
10752 3028 mt 10836 3025 L
10836 3025 mt 10920 3022 L
10920 3022 mt 11004 3018 L
11004 3018 mt 11088 3014 L
11088 3014 mt 11172 3009 L
11172 3009 mt 11256 3004 L
11256 3004 mt 11340 2998 L
11340 2998 mt 11424 2992 L
11424 2992 mt 11508 2985 L
c14
8232 2735 mt 8316 2781 L
8316 2781 mt 8339 2792 L
8339 2792 mt 8400 2820 L
8400 2820 mt 8484 2855 L
8484 2855 mt 8533 2874 L
8533 2874 mt 8568 2886 L
8568 2886 mt 8652 2914 L
8652 2914 mt 8736 2940 L
8736 2940 mt 8792 2956 L
8792 2956 mt 8820 2963 L
8820 2963 mt 8904 2983 L
8904 2983 mt 8988 3002 L
8988 3002 mt 9072 3020 L
9072 3020 mt 9156 3036 L
9156 3036 mt 9161 3037 L
9161 3037 mt 9240 3050 L
9240 3050 mt 9324 3063 L
9324 3063 mt 9408 3075 L
9408 3075 mt 9492 3086 L
9492 3086 mt 9576 3097 L
9576 3097 mt 9660 3106 L
9660 3106 mt 9744 3114 L
9744 3114 mt 9795 3119 L
9795 3119 mt 9828 3122 L
9828 3122 mt 9912 3128 L
9912 3128 mt 9996 3134 L
9996 3134 mt 10080 3139 L
10080 3139 mt 10164 3143 L
10164 3143 mt 10248 3147 L
10248 3147 mt 10332 3150 L
10332 3150 mt 10416 3152 L
10416 3152 mt 10500 3154 L
10500 3154 mt 10584 3156 L
10584 3156 mt 10668 3157 L
10668 3157 mt 10752 3157 L
10752 3157 mt 10836 3156 L
10836 3156 mt 10920 3156 L
10920 3156 mt 11004 3154 L
11004 3154 mt 11088 3153 L
11088 3153 mt 11172 3150 L
11172 3150 mt 11256 3148 L
11256 3148 mt 11340 3144 L
11340 3144 mt 11424 3141 L
11424 3141 mt 11508 3137 L
c15
8232 2810 mt 8316 2855 L
8316 2855 mt 8354 2874 L
8354 2874 mt 8400 2895 L
8400 2895 mt 8484 2930 L
8484 2930 mt 8549 2956 L
8549 2956 mt 8568 2963 L
8568 2963 mt 8652 2991 L
8652 2991 mt 8736 3017 L
8736 3017 mt 8803 3037 L
8803 3037 mt 8820 3042 L
8820 3042 mt 8904 3063 L
8904 3063 mt 8988 3083 L
8988 3083 mt 9072 3102 L
9072 3102 mt 9151 3119 L
9151 3119 mt 9156 3120 L
9156 3120 mt 9240 3135 L
9240 3135 mt 9324 3150 L
9324 3150 mt 9408 3163 L
9408 3163 mt 9492 3176 L
9492 3176 mt 9576 3188 L
9576 3188 mt 9660 3199 L
9660 3199 mt 9678 3201 L
9678 3201 mt 9744 3208 L
9744 3208 mt 9828 3217 L
9828 3217 mt 9912 3225 L
9912 3225 mt 9996 3232 L
9996 3232 mt 10080 3239 L
10080 3239 mt 10164 3245 L
10164 3245 mt 10248 3251 L
10248 3251 mt 10332 3256 L
10332 3256 mt 10416 3260 L
10416 3260 mt 10500 3264 L
10500 3264 mt 10584 3267 L
10584 3267 mt 10668 3270 L
10668 3270 mt 10752 3272 L
10752 3272 mt 10836 3274 L
10836 3274 mt 10920 3275 L
10920 3275 mt 11004 3276 L
11004 3276 mt 11088 3276 L
11088 3276 mt 11172 3276 L
11172 3276 mt 11256 3275 L
11256 3275 mt 11340 3274 L
11340 3274 mt 11424 3272 L
11424 3272 mt 11508 3270 L
c16
8232 2878 mt 8316 2922 L
8316 2922 mt 8384 2956 L
8384 2956 mt 8400 2963 L
8400 2963 mt 8484 2998 L
8484 2998 mt 8568 3032 L
8568 3032 mt 8583 3037 L
8583 3037 mt 8652 3061 L
8652 3061 mt 8736 3088 L
8736 3088 mt 8820 3114 L
8820 3114 mt 8839 3119 L
8839 3119 mt 8904 3136 L
8904 3136 mt 8988 3157 L
8988 3157 mt 9072 3177 L
9072 3177 mt 9156 3196 L
9156 3196 mt 9178 3201 L
9178 3201 mt 9240 3213 L
9240 3213 mt 9324 3228 L
9324 3228 mt 9408 3243 L
9408 3243 mt 9492 3257 L
9492 3257 mt 9576 3270 L
9576 3270 mt 9660 3283 L
9660 3283 mt 9660 3283 L
9660 3283 mt 9744 3293 L
9744 3293 mt 9828 3303 L
9828 3303 mt 9912 3313 L
9912 3313 mt 9996 3322 L
9996 3322 mt 10080 3330 L
10080 3330 mt 10164 3338 L
10164 3338 mt 10204 3341 L
10866 3379 mt 10920 3381 L
10920 3381 mt 11004 3384 L
11004 3384 mt 11088 3386 L
11088 3386 mt 11172 3387 L
11172 3387 mt 11256 3388 L
11256 3388 mt 11340 3389 L
11340 3389 mt 11424 3389 L
11424 3389 mt 11508 3389 L
c41
8232 2939 mt 8262 2956 L
8262 2956 mt 8316 2984 L
8316 2984 mt 8400 3025 L
8400 3025 mt 8427 3037 L
8427 3037 mt 8484 3061 L
8484 3061 mt 8568 3095 L
8568 3095 mt 8633 3119 L
8633 3119 mt 8652 3126 L
8652 3126 mt 8736 3153 L
8736 3153 mt 8820 3179 L
8820 3179 mt 8893 3201 L
8893 3201 mt 8904 3204 L
8904 3204 mt 8988 3225 L
8988 3225 mt 9072 3246 L
9072 3246 mt 9156 3266 L
9156 3266 mt 9231 3283 L
9231 3283 mt 9240 3284 L
9240 3284 mt 9324 3301 L
9324 3301 mt 9408 3316 L
9408 3316 mt 9492 3331 L
9492 3331 mt 9576 3346 L
9576 3346 mt 9660 3359 L
9660 3359 mt 9695 3364 L
9695 3364 mt 9744 3371 L
9744 3371 mt 9828 3383 L
9828 3383 mt 9912 3393 L
9912 3393 mt 9996 3403 L
9996 3403 mt 10080 3413 L
10080 3413 mt 10164 3422 L
10164 3422 mt 10248 3430 L
10248 3430 mt 10332 3438 L
10332 3438 mt 10416 3446 L
10416 3446 mt 10419 3446 L
10419 3446 mt 10500 3452 L
10500 3452 mt 10584 3458 L
10584 3458 mt 10668 3464 L
10668 3464 mt 10752 3469 L
10752 3469 mt 10836 3474 L
10836 3474 mt 10920 3478 L
10920 3478 mt 11004 3482 L
11004 3482 mt 11088 3485 L
11088 3485 mt 11172 3488 L
11172 3488 mt 11256 3491 L
11256 3491 mt 11340 3493 L
11340 3493 mt 11424 3495 L
11424 3495 mt 11508 3497 L
c17
8232 2995 mt 8307 3037 L
8307 3037 mt 8316 3042 L
8316 3042 mt 8400 3082 L
8400 3082 mt 8481 3119 L
8481 3119 mt 8484 3120 L
8484 3120 mt 8568 3153 L
8568 3153 mt 8652 3185 L
8652 3185 mt 8697 3201 L
8697 3201 mt 8736 3214 L
8736 3214 mt 8820 3240 L
8820 3240 mt 8904 3265 L
8904 3265 mt 8965 3283 L
8965 3283 mt 8988 3289 L
8988 3289 mt 9072 3310 L
9072 3310 mt 9156 3330 L
9156 3330 mt 9240 3350 L
9240 3350 mt 9307 3364 L
9307 3364 mt 9324 3368 L
9324 3368 mt 9408 3384 L
9408 3384 mt 9492 3400 L
9492 3400 mt 9576 3415 L
9576 3415 mt 9660 3430 L
9660 3430 mt 9744 3443 L
9744 3443 mt 9761 3446 L
9761 3446 mt 9828 3456 L
9828 3456 mt 9912 3468 L
9912 3468 mt 9996 3479 L
9996 3479 mt 10080 3489 L
10080 3489 mt 10164 3500 L
10164 3500 mt 10248 3509 L
10248 3509 mt 10332 3518 L
10332 3518 mt 10416 3527 L
10416 3527 mt 10425 3528 L
10425 3528 mt 10500 3535 L
10500 3535 mt 10584 3542 L
10584 3542 mt 10668 3549 L
10668 3549 mt 10752 3555 L
10752 3555 mt 10836 3561 L
10836 3561 mt 10920 3567 L
10920 3567 mt 11004 3572 L
11004 3572 mt 11088 3577 L
11088 3577 mt 11172 3581 L
11172 3581 mt 11256 3585 L
11256 3585 mt 11340 3589 L
11340 3589 mt 11424 3592 L
11424 3592 mt 11508 3595 L
c18
8232 3048 mt 8316 3094 L
8316 3094 mt 8365 3119 L
8365 3119 mt 8400 3136 L
8400 3136 mt 8484 3173 L
8484 3173 mt 8548 3201 L
8548 3201 mt 8568 3209 L
8568 3209 mt 8652 3240 L
8652 3240 mt 8736 3270 L
8736 3270 mt 8774 3283 L
8774 3283 mt 8820 3297 L
8820 3297 mt 8904 3322 L
8904 3322 mt 8988 3347 L
8988 3347 mt 9052 3364 L
9052 3364 mt 9072 3370 L
9072 3370 mt 9156 3390 L
9156 3390 mt 9240 3410 L
9240 3410 mt 9324 3429 L
9324 3429 mt 9400 3446 L
9400 3446 mt 9408 3448 L
9408 3448 mt 9492 3464 L
9492 3464 mt 9576 3480 L
9576 3480 mt 9660 3495 L
9660 3495 mt 9744 3510 L
9744 3510 mt 9828 3524 L
9828 3524 mt 9853 3528 L
9853 3528 mt 9912 3537 L
9912 3537 mt 9996 3549 L
9996 3549 mt 10080 3560 L
10080 3560 mt 10164 3571 L
10164 3571 mt 10248 3582 L
10248 3582 mt 10332 3592 L
10332 3592 mt 10416 3602 L
10416 3602 mt 10486 3610 L
10486 3610 mt 10500 3611 L
10500 3611 mt 10584 3619 L
10584 3619 mt 10668 3627 L
10668 3627 mt 10752 3635 L
10752 3635 mt 10836 3642 L
10836 3642 mt 10920 3649 L
10920 3649 mt 11004 3655 L
11004 3655 mt 11088 3661 L
11088 3661 mt 11172 3667 L
11172 3667 mt 11256 3672 L
11256 3672 mt 11340 3677 L
11340 3677 mt 11424 3682 L
11424 3682 mt 11508 3686 L
c42
10582 3692 mt 10500 3682 L
10500 3682 mt 10416 3672 L
10416 3672 mt 10332 3661 L
10332 3661 mt 10248 3650 L
10248 3650 mt 10164 3638 L
10164 3638 mt 10080 3626 L
10080 3626 mt 9996 3614 L
9996 3614 mt 9967 3610 L
9967 3610 mt 9912 3601 L
9912 3601 mt 9828 3586 L
9828 3586 mt 9744 3572 L
9744 3572 mt 9660 3556 L
9660 3556 mt 9576 3541 L
9576 3541 mt 9510 3528 L
9510 3528 mt 9492 3524 L
9492 3524 mt 9408 3506 L
9408 3506 mt 9324 3487 L
9324 3487 mt 9240 3467 L
9240 3467 mt 9156 3447 L
9156 3447 mt 9152 3446 L
9152 3446 mt 9117 3437 L
8569 3260 mt 8568 3259 L
8568 3259 mt 8484 3224 L
8484 3224 mt 8432 3201 L
8432 3201 mt 8400 3186 L
8400 3186 mt 8316 3144 L
8316 3144 mt 8270 3119 L
8270 3119 mt 8232 3097 L
c43
10097 3692 mt 10080 3689 L
10080 3689 mt 9996 3675 L
9996 3675 mt 9912 3660 L
9912 3660 mt 9828 3645 L
9828 3645 mt 9744 3630 L
9744 3630 mt 9660 3615 L
9660 3615 mt 9635 3610 L
9635 3610 mt 9576 3597 L
9576 3597 mt 9492 3579 L
9492 3579 mt 9408 3561 L
9408 3561 mt 9324 3542 L
9324 3542 mt 9266 3528 L
9266 3528 mt 9240 3521 L
9240 3521 mt 9156 3499 L
9156 3499 mt 9072 3476 L
9072 3476 mt 8988 3453 L
8988 3453 mt 8965 3446 L
8965 3446 mt 8904 3427 L
8904 3427 mt 8820 3400 L
8820 3400 mt 8736 3371 L
8736 3371 mt 8716 3364 L
8716 3364 mt 8652 3340 L
8652 3340 mt 8568 3307 L
8568 3307 mt 8509 3283 L
8509 3283 mt 8484 3272 L
8484 3272 mt 8400 3232 L
8400 3232 mt 8336 3201 L
8336 3201 mt 8316 3191 L
8316 3191 mt 8232 3143 L
c21
9774 3692 mt 9744 3686 L
9744 3686 mt 9660 3668 L
9660 3668 mt 9576 3650 L
9576 3650 mt 9492 3632 L
9492 3632 mt 9408 3613 L
9408 3613 mt 9393 3610 L
9393 3610 mt 9324 3592 L
9324 3592 mt 9240 3571 L
9240 3571 mt 9156 3549 L
9156 3549 mt 9078 3528 L
9078 3528 mt 9072 3526 L
9072 3526 mt 8988 3500 L
8988 3500 mt 8904 3474 L
8904 3474 mt 8820 3447 L
8820 3447 mt 8816 3446 L
8816 3446 mt 8736 3417 L
8736 3417 mt 8652 3386 L
8652 3386 mt 8597 3364 L
8597 3364 mt 8568 3352 L
8568 3352 mt 8484 3316 L
8484 3316 mt 8411 3283 L
8411 3283 mt 8400 3277 L
8400 3277 mt 8316 3234 L
8316 3234 mt 8256 3201 L
8256 3201 mt 8232 3187 L
/c55 { 0.562500 1.000000 0.437500 sr} bdef
c55
9532 3692 mt 9492 3682 L
9492 3682 mt 9408 3661 L
9408 3661 mt 9324 3640 L
9324 3640 mt 9240 3619 L
9240 3619 mt 9205 3610 L
9205 3610 mt 9156 3596 L
9156 3596 mt 9072 3571 L
9072 3571 mt 8988 3546 L
8988 3546 mt 8929 3528 L
8929 3528 mt 8904 3520 L
8904 3520 mt 8820 3491 L
8820 3491 mt 8736 3461 L
8736 3461 mt 8695 3446 L
8695 3446 mt 8652 3429 L
8652 3429 mt 8568 3395 L
8568 3395 mt 8497 3364 L
8497 3364 mt 8484 3359 L
8484 3359 mt 8400 3318 L
8400 3318 mt 8329 3283 L
8329 3283 mt 8316 3276 L
8316 3276 mt 8232 3228 L
c46
9341 3692 mt 9324 3687 L
9324 3687 mt 9240 3664 L
9240 3664 mt 9156 3640 L
9156 3640 mt 9072 3616 L
9072 3616 mt 9051 3610 L
9051 3610 mt 8988 3589 L
8988 3589 mt 8904 3562 L
8904 3562 mt 8896 3559 L
8393 3355 mt 8316 3314 L
8316 3314 mt 8259 3283 L
8259 3283 mt 8232 3267 L
c47
9185 3692 mt 9156 3683 L
9156 3683 mt 9072 3657 L
9072 3657 mt 8988 3630 L
8988 3630 mt 8923 3610 L
8923 3610 mt 8904 3603 L
8904 3603 mt 8820 3573 L
8820 3573 mt 8736 3542 L
8736 3542 mt 8699 3528 L
8699 3528 mt 8652 3509 L
8652 3509 mt 8568 3473 L
8568 3473 mt 8505 3446 L
8505 3446 mt 8484 3436 L
8484 3436 mt 8400 3395 L
8400 3395 mt 8339 3364 L
8339 3364 mt 8316 3352 L
8316 3352 mt 8232 3303 L
c48
9054 3692 mt 8988 3669 L
8988 3669 mt 8904 3641 L
8904 3641 mt 8820 3612 L
8820 3612 mt 8814 3610 L
8814 3610 mt 8736 3579 L
8736 3579 mt 8652 3546 L
8652 3546 mt 8608 3528 L
8608 3528 mt 8568 3510 L
8568 3510 mt 8484 3472 L
8484 3472 mt 8429 3446 L
8429 3446 mt 8400 3431 L
8400 3431 mt 8316 3387 L
8316 3387 mt 8276 3364 L
8276 3364 mt 8232 3338 L
c25
8942 3692 mt 8904 3678 L
8904 3678 mt 8820 3647 L
8820 3647 mt 8736 3616 L
8736 3616 mt 8720 3610 L
8720 3610 mt 8652 3581 L
8652 3581 mt 8568 3545 L
8568 3545 mt 8529 3528 L
8529 3528 mt 8484 3507 L
8484 3507 mt 8400 3465 L
8400 3465 mt 8363 3446 L
8363 3446 mt 8316 3420 L
8316 3420 mt 8232 3372 L
c26
8843 3692 mt 8820 3682 L
8820 3682 mt 8736 3649 L
8736 3649 mt 8652 3616 L
8652 3616 mt 8638 3610 L
8638 3610 mt 8568 3578 L
8568 3578 mt 8484 3540 L
8484 3540 mt 8459 3528 L
8459 3528 mt 8400 3498 L
8400 3498 mt 8316 3453 L
8316 3453 mt 8303 3446 L
8303 3446 mt 8232 3404 L
c49
8757 3692 mt 8736 3683 L
8736 3683 mt 8652 3647 L
8652 3647 mt 8568 3611 L
8568 3611 mt 8564 3610 L
8564 3610 mt 8484 3571 L
8484 3571 mt 8400 3530 L
8400 3530 mt 8396 3528 L
8396 3528 mt 8316 3483 L
8316 3483 mt 8251 3446 L
8251 3446 mt 8232 3435 L
c27
8681 3692 mt 8652 3679 L
8652 3679 mt 8568 3641 L
8568 3641 mt 8500 3610 L
8500 3610 mt 8484 3602 L
8484 3602 mt 8400 3559 L
8400 3559 mt 8341 3528 L
8341 3528 mt 8316 3514 L
8316 3514 mt 8232 3464 L
c28
8613 3692 mt 8568 3671 L
8568 3671 mt 8484 3631 L
8484 3631 mt 8442 3610 L
8442 3610 mt 8400 3588 L
8400 3588 mt 8316 3542 L
8316 3542 mt 8291 3528 L
8291 3528 mt 8232 3492 L
c29
8550 3692 mt 8484 3659 L
8484 3659 mt 8400 3616 L
8400 3616 mt 8388 3610 L
8388 3610 mt 8316 3569 L
8316 3569 mt 8245 3528 L
8245 3528 mt 8232 3520 L
c51
8494 3692 mt 8484 3686 L
8484 3686 mt 8400 3642 L
8400 3642 mt 8340 3610 L
8340 3610 mt 8316 3596 L
8316 3596 mt 8232 3546 L
c52
8444 3692 mt 8400 3668 L
8400 3668 mt 8316 3622 L
8316 3622 mt 8296 3610 L
8296 3610 mt 8232 3570 L
c53
8395 3692 mt 8316 3646 L
8316 3646 mt 8255 3610 L
8255 3610 mt 8232 3595 L
c54
8353 3692 mt 8316 3670 L
8316 3670 mt 8232 3619 L
/c56 { 0.687500 0.000000 0.000000 sr} bdef
c56
8312 3692 mt 8232 3641 L
/c57 { 0.562500 0.000000 0.000000 sr} bdef
c57
8276 3692 mt 8232 3663 L
c35
8241 3692 mt 8232 3686 L
0 sg
10785 1910 mt  -45 rotate
(0.025) s
45 rotate
10414 2943 mt  -5 rotate
(0.026) s
5 rotate
10380 3385 mt  -352 rotate
(0.027) s
352 rotate
8691 3301 mt  -325 rotate
(0.028) s
325 rotate
8498 3393 mt  -318 rotate
(0.029) s
318 rotate
gr

0 sg
%%IncludeResource: font Symbol
/Symbol /ISOLatin1Encoding 120 FMSR

9764 3949 mt 
(f) s
%%IncludeResource: font Symbol
/Symbol /ISOLatin1Encoding 96 FMSR

9826 4009 mt 
(D) s
%%IncludeResource: font Helvetica
/Helvetica /ISOLatin1Encoding 96 FMSR

9884 4009 mt 
( Y) s
%%IncludeResource: font Symbol
/Symbol /ISOLatin1Encoding 120 FMSR

7888 2203 mt  -90 rotate
(f) s
90 rotate
%%IncludeResource: font Symbol
/Symbol /ISOLatin1Encoding 96 FMSR

7948 2141 mt  -90 rotate
(D) s
90 rotate
%%IncludeResource: font Helvetica
/Helvetica /ISOLatin1Encoding 96 FMSR

7948 2083 mt  -90 rotate
( V) s
90 rotate
%%IncludeResource: font Helvetica
/Helvetica /ISOLatin1Encoding 120 FMSR

9762  408 mt 
(loss) s
gs 8232 503 3277 3190 rc
24 w
GR
8232 2667 mt 8310 2710 L
8310 2710 mt 8316 2713 L
8316 2713 mt 8400 2751 L
8400 2751 mt 8484 2786 L
8484 2786 mt 8498 2792 L
8498 2792 mt 8568 2816 L
8568 2816 mt 8652 2843 L
8652 2843 mt 8736 2869 L
8736 2869 mt 8755 2874 L
8755 2874 mt 8820 2890 L
8820 2890 mt 8904 2910 L
8904 2910 mt 8988 2928 L
8988 2928 mt 9072 2944 L
9072 2944 mt 9133 2956 L
9133 2956 mt 9156 2959 L
9156 2959 mt 9240 2972 L
9240 2972 mt 9324 2984 L
9324 2984 mt 9408 2995 L
9408 2995 mt 9492 3004 L
9492 3004 mt 9576 3013 L
9576 3013 mt 9660 3021 L
9660 3021 mt 9744 3028 L
9744 3028 mt 9828 3034 L
9828 3034 mt 9880 3037 L
9880 3037 mt 9912 3039 L
9912 3039 mt 9996 3043 L
9996 3043 mt 10080 3047 L
10080 3047 mt 10164 3049 L
10164 3049 mt 10248 3051 L
10248 3051 mt 10332 3053 L
10332 3053 mt 10416 3054 L
10416 3054 mt 10500 3054 L
10500 3054 mt 10584 3053 L
10584 3053 mt 10668 3052 L
10668 3052 mt 10752 3051 L
10752 3051 mt 10836 3049 L
10836 3049 mt 10920 3046 L
10920 3046 mt 11004 3043 L
11004 3043 mt 11088 3039 L
11088 3039 mt 11123 3037 L
11123 3037 mt 11172 3035 L
11172 3035 mt 11256 3030 L
11256 3030 mt 11340 3024 L
11340 3024 mt 11424 3018 L
11424 3018 mt 11508 3012 L
6 w
SO
gr

  30   30 8988 1157 PO
  30   30 8988 1157 FO
gs 8232 503 3277 3190 rc
gr

4 w
GR
6 w
SO
8232 3692 mt 11508 3692 L
8232  502 mt 11508  502 L
8232 3692 mt 8232  502 L
11508 3692 mt 11508  502 L
8232 3692 mt 11508 3692 L
8232 3692 mt 8232  502 L
8232 3692 mt 8232 3659 L
8232  503 mt 8232  535 L
8199 3837 mt 
(0) s
8887 3692 mt 8887 3659 L
8887  503 mt 8887  535 L
8804 3837 mt 
(0.2) s
9542 3692 mt 9542 3659 L
9542  503 mt 9542  535 L
9459 3837 mt 
(0.4) s
10197 3692 mt 10197 3659 L
10197  503 mt 10197  535 L
10114 3837 mt 
(0.6) s
10852 3692 mt 10852 3659 L
10852  503 mt 10852  535 L
10769 3837 mt 
(0.8) s
11508 3692 mt 11508 3659 L
11508  503 mt 11508  535 L
11475 3837 mt 
(1) s
8232 3692 mt 8264 3692 L
11508 3692 mt 11475 3692 L
8131 3736 mt 
(0) s
8232 3054 mt 8264 3054 L
11508 3054 mt 11475 3054 L
8031 3098 mt 
(0.5) s
8232 2416 mt 8264 2416 L
11508 2416 mt 11475 2416 L
8131 2460 mt 
(1) s
8232 1778 mt 8264 1778 L
11508 1778 mt 11475 1778 L
8031 1822 mt 
(1.5) s
8232 1140 mt 8264 1140 L
11508 1140 mt 11475 1140 L
8131 1184 mt 
(2) s
8232  503 mt 8264  503 L
11508  503 mt 11475  503 L
8031  547 mt 
(2.5) s
8232 3692 mt 11508 3692 L
8232  502 mt 11508  502 L
8232 3692 mt 8232  502 L
11508 3692 mt 11508  502 L

end %%Color Dict

eplot
%%EndObject

epage
end

showpage

%%Trailer
%%EOF
