%!PS-Adobe-2.0 EPSF-2.0
%% This is a Stata generated postscript file
%%BoundingBox: 0 0 396 360
%%HiResBoundingBox: 0.000 0.000 396.000 360.000
%%DocumentNeededResources: font Helvetica
/xratio 0.012375 def
/yratio 0.012375 def
/Sbgfill {
	/y1 exch def
	/x1 exch def
	/y0 exch def
	/x0 exch def
	x0 y0 moveto
	x0 y1 lineto x1 y1 lineto x1 y0 lineto x0 y0 lineto
	fill
} def
/Spt {
	yratio mul
	/yp exch def
	xratio mul
	/xp exch def
	Slrgb setrgbcolor
	xp yp .5 0 360 arc fill
} def
/Sln {
	yratio mul
	/y1p exch def
	xratio mul
	/x1p exch def
	yratio mul
	/y0p exch def
	xratio mul
	/x0p exch def
	Slw setlinewidth
	Slrgb setrgbcolor
	x0p y0p M x1p y1p lineto S
} def
/Scrv {
	yratio mul
	/y3p exch def
	xratio mul
	/x3p exch def
	yratio mul
	/y2p exch def
	xratio mul
	/x2p exch def
	yratio mul
	/y1p exch def
	xratio mul
	/x1p exch def
	Slw setlinewidth
	Slrgb setrgbcolor
	x1p y1p x2p y2p x3p y3p curveto
	stroke
} def
/Stxtl {
	/sp exch def
	yratio mul
	/sizep exch def
	dup
	/anglep exch def
	0 exch sub
	/angle2p exch def
	yratio mul
	/y0p exch def
	xratio mul
	/x0p exch def
	Strgb setrgbcolor
	x0p y0p M anglep rotate sizep fntsize sp show stroke angle2p rotate
} def
/Stxtc {
	/sp exch def
	yratio mul
	/sizep exch def
	dup
	/anglep exch def
	0 exch sub
	/angle2p exch def
	yratio mul
	/y0p exch def
	xratio mul
	/x0p exch def
	Strgb setrgbcolor
	x0p y0p M anglep rotate sizep fntsize sp stringwidth exch -2 div exch rm sp show stroke angle2p rotate
} def
/Stxtr {
	/sp exch def
	yratio mul
	/sizep exch def
	dup
	/anglep exch def
	0 exch sub
	/angle2p exch def
	yratio mul
	/y0p exch def
	xratio mul
	/x0p exch def
	Strgb setrgbcolor
	x0p y0p M anglep rotate sizep fntsize sp stringwidth 1 index -1 mul exch rm pop sp show stroke angle2p rotate
} def
/Srect {
	/sfill exch def
	/sstroke exch def
	yratio mul
	/y1 exch def
	xratio mul
	/x1 exch def
	yratio mul
	/y0 exch def
	xratio mul
	/x0 exch def
	newpath x0 y0 moveto x0 y1 lineto x1 y1 lineto x1 y0 lineto x0 y0 lineto closepath
	sfill Sfill
	sstroke Sstroke
} def
/Sellipse {
	/sfill exch def
	/sstroke exch def
	yratio mul
	/yrad exch def
	xratio mul
	/xrad exch def
	yratio mul
	/y exch def
	xratio mul
	/x exch def
	/savematrix matrix currentmatrix def
	x y translate
	xrad yrad scale
	0 0 1 0 360 arc
	savematrix setmatrix
	sfill Sfill
	sstroke Sstroke
} def
/Stri {
	/sfill exch def
	/sstroke exch def
	xratio mul
	/r exch def
	yratio mul
	/y0 exch def
	xratio mul
	/x0 exch def
	/xcen x0 def
	y0 r add
	/ytop exch def
	r 2 div
	y0 exch sub
	/ybot exch def
	r 3 sqrt 2 div mul dup
	xcen exch sub
	/xleft exch def
	xcen add
	/xright exch def
	newpath xcen ytop moveto xright ybot lineto xleft ybot lineto xcen ytop lineto closepath
	sfill Sfill
	sstroke Sstroke
} def
/Soldtri {
	/sfill exch def
	xratio mul
	/r exch def
	yratio mul
	/y0 exch def
	xratio mul
	/x0 exch def
	x0 r sub
	/x1 exch def
	y0 r sub
	/y1 exch def
	x0 r add
	/x2 exch def
	y0 r sub
	/y2 exch def
	/x3 x0 def
	y0 r add
	/y3 exch def
	newpath x1 y1 moveto x2 y2 lineto x3 y3 lineto x1 y1 lineto closepath
	sfill 1 eq {
		Ssrgb setrgbcolor
		gsave
		fill
		grestore
	} if
	Slw setlinewidth
	Slrgb setrgbcolor
	stroke
} def
/Sdia {
	/sfill exch def
	/sstroke exch def
	xratio mul
	/r exch def
	yratio mul
	/y exch def
	xratio mul
	/x exch def
	x r sub
	/x0 exch def
	/y0 y def
	/x1 x def
	y r sub
	/y1 exch def
	x r add
	/x2 exch def
	/y2 y def
	/x3 x def
	y r add
	/y3 exch def
	newpath x0 y0 moveto x1 y1 lineto x2 y2 lineto x3 y3 lineto closepath
	sfill Sfill
	sstroke Sstroke
} def
/Scc {
	/sfill exch def
	/sstroke exch def
	xratio mul
	/r0 exch def
	yratio mul
	/y0 exch def
	xratio mul
	/x0 exch def
	x0 y0 r0 0 360 arc closepath
	sfill Sfill
	sstroke Sstroke
} def
/Spie {
	/sfill exch def
	/salign exch def
	/a1 exch def
	/a0 exch def
	xratio mul
	/r exch def
	yratio mul
	/y exch def
	xratio mul
	/x exch def
	/Pie {
		x y moveto x y r a0 a1 arc closepath
	} def
	newpath Pie
	sfill Sfill
	Slrgb setrgbcolor
	salign 0 eq {
		gsave
		Slw 2 mul setlinewidth
		clip
		stroke
		grestore
	} if
	salign 1 eq {
		Slw setlinewidth
		stroke
	} if
	salign 2 eq {
		gsave
		Slw 2 mul setlinewidth
		strokepath
		pathbbox
		/ury exch def
		/urx exch def
		/lly exch def
		/llx exch def
		newpath llx lly moveto llx ury lineto urx ury lineto urx lly lineto closepath
		Pie
		eoclip
		newpath Pie
		stroke
		grestore
	} if
	newpath
} def
/Splu {
	xratio mul
	/r exch def
	yratio mul
	/y exch def
	xratio mul
	/x exch def
	x r sub
	/x0 exch def
	x r add
	/x1 exch def
	x0 y M x1 y L
	y r sub
	/y0 exch def
	y r add
	/y1 exch def
	x y0 M x y1 L
} def
/Scro {
	xratio mul
	/r exch def
	yratio mul
	/y exch def
	xratio mul
	/x exch def
	x r sub
	/x0 exch def
	y r sub
	/y0 exch def
	x r add
	/x1 exch def
	y r add
	/y1 exch def
	x0 y0 M x1 y1 L
	x r add
	/x0 exch def
	y r sub
	/y0 exch def
	x r sub
	/x1 exch def
	y r add
	/y1 exch def
	x0 y0 M x1 y1 L
} def
/Sm {
	yratio mul
	/y exch def
	xratio mul
	/x exch def
	x y M
} def
/Sl {
	yratio mul
	/y exch def
	xratio mul
	/x exch def
	x y L
} def
/SPl {
	yratio mul
	/y exch def
	xratio mul
	/x exch def
	x y PL
} def
/Sarr {
	/sfill exch def
	xratio mul
	/r exch def
	yratio mul
	/y exch def
	xratio mul
	/x exch def
	y r add
	/ytop exch def
	y r sub
	/ybot exch def
	gsave
	Slrgb setrgbcolor
	sfill 0 eq {
		r 2 mul 3 div dup
		x exch sub
		/xleft exch def
		x add
		/xright exch def
		newpath xleft y moveto x ytop lineto xright y lineto x ytop moveto x ybot lineto
		Lcs
		1 setlinejoin
	} {
		r 2 div dup
		x exch sub
		/xleft exch def
		x add
		/xright exch def
		newpath xleft y moveto x ytop lineto xright y lineto x ytop closepath moveto x ybot lineto
		gsave
		fill
		grestore
	} ifelse
	Slw setlinewidth
	stroke
	grestore
} def
/Spipe {
	xratio mul
	/r exch def
	yratio mul
	/y exch def
	xratio mul
	/x exch def
	y r sub
	/y0 exch def
	y r add
	/y1 exch def
	x y0 M x y1 L
} def
/Sv {
	xratio mul
	/r exch def
	yratio mul
	/y0 exch def
	xratio mul
	/x0 exch def
	/xcen x0 def
	y0 r add
	/ytop exch def
	r 2 div
	y0 exch sub
	/ybot exch def
	r 3 sqrt 2 div mul dup
	xcen exch sub
	/xleft exch def
	xcen add
	/xright exch def
	newpath xleft ytop moveto xcen ybot lineto xright ytop lineto
	Slw setlinewidth
	Slrgb setrgbcolor
	stroke
} def
/Lcs {
	currentlinecap
	1 setlinecap
} def
/Lcr {
	setlinecap
} def
/Sbp {
	newpath
} def
/Sep {
	/sfill exch def
	closepath
	/salign exch def
	Lcs
	salign 0 eq {
		sfill Sfill
		gsave
		Slw 2 mul setlinewidth
		clip
		Slrgb setrgbcolor
		stroke
		grestore
	} if
	salign 1 eq {
		sfill Sfill
		sstroke Sstroke
	} if
	salign 2 eq {
		gsave
		Slw 2 mul setlinewidth
		Slrgb setrgbcolor
		stroke
		grestore
		sfill Sfill
	} if
	newpath
	Lcr
} def
/Stransrot {
	/anglep exch def
	yratio mul
	/y exch def
	xratio mul
	/x exch def
	x y translate
	anglep rotate
	x neg y neg translate
} def
/cp {currentpoint} def 
/M {moveto} def 
/rm {rmoveto} def 
/S {stroke} def 
/L {Slw setlinewidth Slrgb setrgbcolor lineto Lcs S Lcr} def 
/PL {Slw setlinewidth Slrgb setrgbcolor lineto} def 
/MF-Helvetica {
  /newfontname exch def
  /fontname exch def
  /fontdict fontname findfont def
  /newfont fontdict maxlength dict def
  fontdict {
  exch dup /FID eq {pop pop} {exch newfont 3 1 roll put} ifelse
  } forall
  newfont /FontName newfontname put
  newfont /Encoding ISOLatin1Encoding put
  newfontname newfont definefont pop
} def
/Helvetica /Helvetica-0 MF-Helvetica
/Slw 0.120 def
0.918 0.949 0.953 setrgbcolor
0 0 396.000 360.000 Sbgfill
/Sfill {
	/sfill exch def
	sfill 1 eq {
		Ssrgb setrgbcolor
		gsave
		fill
		grestore
	} if
} def
/Sstroke {
	/sstroke exch def
	sstroke 1 eq {
		Slw setlinewidth
		Slrgb setrgbcolor
		stroke
	} if
	newpath
} def
/Slrgb {1.000 1.000 1.000} def
/Strgb {1.000 1.000 1.000} def
/Ssrgb {1.000 1.000 1.000} def
/Ssrgb {0.918 0.949 0.953} def
/Slw 0.720 def
/Slrgb {0.918 0.949 0.953} def
0 0 31999 29090 0 1 Srect
29 29 31970 29061 1 0 Srect
/Ssrgb {1.000 1.000 1.000} def
/Slrgb {1.000 1.000 1.000} def
3947 3947 30981 28072 0 1 Srect
3976 3976 30952 28043 1 0 Srect
/Slrgb {0.000 0.000 0.000} def
/Strgb {0.000 0.000 0.000} def
/Slw 1.080 def
/Slrgb {0.918 0.949 0.953} def
3947 6042 30981 6042 Sln
/Slw 0.720 def
/Slrgb {0.000 0.000 0.000} def
/Slw 1.080 def
/Slrgb {0.918 0.949 0.953} def
3947 11389 30981 11389 Sln
/Slw 0.720 def
/Slrgb {0.000 0.000 0.000} def
/Slw 1.080 def
/Slrgb {0.918 0.949 0.953} def
3947 16737 30981 16737 Sln
/Slw 0.720 def
/Slrgb {0.000 0.000 0.000} def
/Slw 1.080 def
/Slrgb {0.918 0.949 0.953} def
3947 22084 30981 22084 Sln
/Slw 0.720 def
/Slrgb {0.000 0.000 0.000} def
/Slw 1.080 def
/Slrgb {0.918 0.949 0.953} def
3947 27432 30981 27432 Sln
/Slw 0.720 def
/Slrgb {0.000 0.000 0.000} def
/Slw 1.080 def
/Slrgb {0.102 0.278 0.435} def
/Ssrgb {0.102 0.278 0.435} def
10990 10985 266 0 1 Scc 
10990 10985 222 1 0 Scc 
11706 13159 266 0 1 Scc 
11706 13159 222 1 0 Scc 
11566 15410 266 0 1 Scc 
11566 15410 222 1 0 Scc 
10287 14001 266 0 1 Scc 
10287 14001 222 1 0 Scc 
9742 13469 266 0 1 Scc 
9742 13469 222 1 0 Scc 
9330 10600 266 0 1 Scc 
9330 10600 222 1 0 Scc 
10094 9948 266 0 1 Scc 
10094 9948 222 1 0 Scc 
10879 9218 266 0 1 Scc 
10879 9218 222 1 0 Scc 
12223 9124 266 0 1 Scc 
12223 9124 222 1 0 Scc 
14308 10736 266 0 1 Scc 
14308 10736 222 1 0 Scc 
16593 11945 266 0 1 Scc 
16593 11945 222 1 0 Scc 
19674 16215 266 0 1 Scc 
19674 16215 222 1 0 Scc 
21024 15907 266 0 1 Scc 
21024 15907 222 1 0 Scc 
23155 18736 266 0 1 Scc 
23155 18736 222 1 0 Scc 
24314 23049 266 0 1 Scc 
24314 23049 222 1 0 Scc 
21924 19632 266 0 1 Scc 
21924 19632 222 1 0 Scc 
19213 16338 266 0 1 Scc 
19213 16338 222 1 0 Scc 
18122 19637 266 0 1 Scc 
18122 19637 222 1 0 Scc 
14098 13565 266 0 1 Scc 
14098 13565 222 1 0 Scc 
11567 9162 266 0 1 Scc 
11567 9162 222 1 0 Scc 
11511 10004 266 0 1 Scc 
11511 10004 222 1 0 Scc 
11762 13985 266 0 1 Scc 
11762 13985 222 1 0 Scc 
9356 8908 266 0 1 Scc 
9356 8908 222 1 0 Scc 
10062 10867 266 0 1 Scc 
10062 10867 222 1 0 Scc 
9775 6236 266 0 1 Scc 
9775 6236 222 1 0 Scc 
12052 8544 266 0 1 Scc 
12052 8544 222 1 0 Scc 
14130 14825 266 0 1 Scc 
14130 14825 222 1 0 Scc 
13237 12060 266 0 1 Scc 
13237 12060 222 1 0 Scc 
13455 12317 266 0 1 Scc 
13455 12317 222 1 0 Scc 
14480 16456 266 0 1 Scc 
14480 16456 222 1 0 Scc 
12893 12961 266 0 1 Scc 
12893 12961 222 1 0 Scc 
12223 15049 266 0 1 Scc 
12223 15049 222 1 0 Scc 
10713 13608 266 0 1 Scc 
10713 13608 222 1 0 Scc 
9757 11186 266 0 1 Scc 
9757 11186 222 1 0 Scc 
9334 7908 266 0 1 Scc 
9334 7908 222 1 0 Scc 
11372 14440 266 0 1 Scc 
11372 14440 222 1 0 Scc 
9712 9659 266 0 1 Scc 
9712 9659 222 1 0 Scc 
10353 8517 266 0 1 Scc 
10353 8517 222 1 0 Scc 
11978 10084 266 0 1 Scc 
11978 10084 222 1 0 Scc 
13348 11081 266 0 1 Scc 
13348 11081 222 1 0 Scc 
14166 11512 266 0 1 Scc 
14166 11512 222 1 0 Scc 
15691 13980 266 0 1 Scc 
15691 13980 222 1 0 Scc 
16339 14629 266 0 1 Scc 
16339 14629 222 1 0 Scc 
16971 18423 266 0 1 Scc 
16971 18423 222 1 0 Scc 
15087 16651 266 0 1 Scc 
15087 16651 222 1 0 Scc 
13390 14418 266 0 1 Scc 
13390 14418 222 1 0 Scc 
11903 9718 266 0 1 Scc 
11903 9718 222 1 0 Scc 
12640 10870 266 0 1 Scc 
12640 10870 222 1 0 Scc 
12402 10793 266 0 1 Scc 
12402 10793 222 1 0 Scc 
12550 11635 266 0 1 Scc 
12550 11635 222 1 0 Scc 
12501 10726 266 0 1 Scc 
12501 10726 222 1 0 Scc 
13471 11932 266 0 1 Scc 
13471 11932 222 1 0 Scc 
14320 15319 266 0 1 Scc 
14320 15319 222 1 0 Scc 
13638 16974 266 0 1 Scc 
13638 16974 222 1 0 Scc 
11371 11605 266 0 1 Scc 
11371 11605 222 1 0 Scc 
12432 19407 266 0 1 Scc 
12432 19407 222 1 0 Scc 
9635 14041 266 0 1 Scc 
9635 14041 222 1 0 Scc 
9374 11849 266 0 1 Scc 
9374 11849 222 1 0 Scc 
10501 14327 266 0 1 Scc 
10501 14327 222 1 0 Scc 
10878 11084 266 0 1 Scc 
10878 11084 222 1 0 Scc 
11875 9140 266 0 1 Scc 
11875 9140 222 1 0 Scc 
13764 10424 266 0 1 Scc 
13764 10424 222 1 0 Scc 
15126 13306 266 0 1 Scc 
15126 13306 222 1 0 Scc 
15010 12539 266 0 1 Scc 
15010 12539 222 1 0 Scc 
15154 9835 266 0 1 Scc 
15154 9835 222 1 0 Scc 
17956 16215 266 0 1 Scc 
17956 16215 222 1 0 Scc 
18022 17798 266 0 1 Scc 
18022 17798 222 1 0 Scc 
16676 18597 266 0 1 Scc 
16676 18597 222 1 0 Scc 
13899 13386 266 0 1 Scc 
13899 13386 222 1 0 Scc 
13790 14004 266 0 1 Scc 
13790 14004 222 1 0 Scc 
12769 16421 266 0 1 Scc 
12769 16421 222 1 0 Scc 
10194 12921 266 0 1 Scc 
10194 12921 222 1 0 Scc 
9536 14940 266 0 1 Scc 
9536 14940 222 1 0 Scc 
8601 9940 266 0 1 Scc 
8601 9940 222 1 0 Scc 
10294 13052 266 0 1 Scc 
10294 13052 222 1 0 Scc 
10319 13744 266 0 1 Scc 
10319 13744 222 1 0 Scc 
10257 13555 266 0 1 Scc 
10257 13555 222 1 0 Scc 
10279 13319 266 0 1 Scc 
10279 13319 222 1 0 Scc 
10474 12790 266 0 1 Scc 
10474 12790 222 1 0 Scc 
10947 16242 266 0 1 Scc 
10947 16242 222 1 0 Scc 
9687 14159 266 0 1 Scc 
9687 14159 222 1 0 Scc 
9734 15448 266 0 1 Scc 
9734 15448 222 1 0 Scc 
9345 13391 266 0 1 Scc 
9345 13391 222 1 0 Scc 
10035 12795 266 0 1 Scc 
10035 12795 222 1 0 Scc 
10577 11373 266 0 1 Scc 
10577 11373 222 1 0 Scc 
11600 12231 266 0 1 Scc 
11600 12231 222 1 0 Scc 
11654 9490 266 0 1 Scc 
11654 9490 222 1 0 Scc 
13225 10378 266 0 1 Scc 
13225 10378 222 1 0 Scc 
15105 13287 266 0 1 Scc 
15105 13287 222 1 0 Scc 
16104 14333 266 0 1 Scc 
16104 14333 222 1 0 Scc 
16891 15482 266 0 1 Scc 
16891 15482 222 1 0 Scc 
17173 13961 266 0 1 Scc 
17173 13961 222 1 0 Scc 
19166 20276 266 0 1 Scc 
19166 20276 222 1 0 Scc 
16943 17153 266 0 1 Scc 
16943 17153 222 1 0 Scc 
15457 17020 266 0 1 Scc 
15457 17020 222 1 0 Scc 
12790 9143 266 0 1 Scc 
12790 9143 222 1 0 Scc 
14145 9822 266 0 1 Scc 
14145 9822 222 1 0 Scc 
15207 14648 266 0 1 Scc 
15207 14648 222 1 0 Scc 
14141 12811 266 0 1 Scc 
14141 12811 222 1 0 Scc 
13937 13378 266 0 1 Scc 
13937 13378 222 1 0 Scc 
13831 10640 266 0 1 Scc 
13831 10640 222 1 0 Scc 
15478 12474 266 0 1 Scc 
15478 12474 222 1 0 Scc 
15540 8731 266 0 1 Scc 
15540 8731 222 1 0 Scc 
18847 13073 266 0 1 Scc 
18847 13073 222 1 0 Scc 
20819 13533 266 0 1 Scc 
20819 13533 222 1 0 Scc 
23841 15964 266 0 1 Scc 
23841 15964 222 1 0 Scc 
26226 17247 266 0 1 Scc 
26226 17247 222 1 0 Scc 
29725 22399 266 0 1 Scc 
29725 22399 222 1 0 Scc 
30340 26354 266 0 1 Scc 
30340 26354 222 1 0 Scc 
26679 20905 266 0 1 Scc 
26679 20905 222 1 0 Scc 
23738 18886 266 0 1 Scc 
23738 18886 222 1 0 Scc 
20721 16913 266 0 1 Scc 
20721 16913 222 1 0 Scc 
16656 12333 266 0 1 Scc 
16656 12333 222 1 0 Scc 
13378 9520 266 0 1 Scc 
13378 9520 222 1 0 Scc 
11849 8595 266 0 1 Scc 
11849 8595 222 1 0 Scc 
10875 8795 266 0 1 Scc 
10875 8795 222 1 0 Scc 
9922 8191 266 0 1 Scc 
9922 8191 222 1 0 Scc 
9673 7897 266 0 1 Scc 
9673 7897 222 1 0 Scc 
9761 6632 266 0 1 Scc 
9761 6632 222 1 0 Scc 
10835 7712 266 0 1 Scc 
10835 7712 222 1 0 Scc 
11676 7723 266 0 1 Scc 
11676 7723 222 1 0 Scc 
13173 9926 266 0 1 Scc 
13173 9926 222 1 0 Scc 
13997 10523 266 0 1 Scc 
13997 10523 222 1 0 Scc 
14996 12087 266 0 1 Scc 
14996 12087 222 1 0 Scc 
14845 9186 266 0 1 Scc 
14845 9186 222 1 0 Scc 
16689 12290 266 0 1 Scc 
16689 12290 222 1 0 Scc 
16808 10627 266 0 1 Scc 
16808 10627 222 1 0 Scc 
17828 10940 266 0 1 Scc 
17828 10940 222 1 0 Scc 
19120 13180 266 0 1 Scc 
19120 13180 222 1 0 Scc 
20068 15172 266 0 1 Scc 
20068 15172 222 1 0 Scc 
19043 12787 266 0 1 Scc 
19043 12787 222 1 0 Scc 
19123 13111 266 0 1 Scc 
19123 13111 222 1 0 Scc 
19184 15124 266 0 1 Scc 
19184 15124 222 1 0 Scc 
17325 12950 266 0 1 Scc 
17325 12950 222 1 0 Scc 
15671 12782 266 0 1 Scc 
15671 12782 222 1 0 Scc 
13453 6731 266 0 1 Scc 
13453 6731 222 1 0 Scc 
14388 11044 266 0 1 Scc 
14388 11044 222 1 0 Scc 
13063 11258 266 0 1 Scc 
13063 11258 222 1 0 Scc 
11899 13587 266 0 1 Scc 
11899 13587 222 1 0 Scc 
9196 9394 266 0 1 Scc 
9196 9394 222 1 0 Scc 
9484 14111 266 0 1 Scc 
9484 14111 222 1 0 Scc 
7826 14207 266 0 1 Scc 
7826 14207 222 1 0 Scc 
7545 13079 266 0 1 Scc 
7545 13079 222 1 0 Scc 
9579 12948 266 0 1 Scc 
9579 12948 222 1 0 Scc 
13360 16370 266 0 1 Scc 
13360 16370 222 1 0 Scc 
15815 18054 266 0 1 Scc 
15815 18054 222 1 0 Scc 
17603 18180 266 0 1 Scc 
17603 18180 222 1 0 Scc 
18780 17854 266 0 1 Scc 
18780 17854 222 1 0 Scc 
18871 20814 266 0 1 Scc 
18871 20814 222 1 0 Scc 
16505 16445 266 0 1 Scc 
16505 16445 222 1 0 Scc 
15599 14661 266 0 1 Scc 
15599 14661 222 1 0 Scc 
14889 17335 266 0 1 Scc 
14889 17335 222 1 0 Scc 
12373 13766 266 0 1 Scc 
12373 13766 222 1 0 Scc 
11596 13466 266 0 1 Scc 
11596 13466 222 1 0 Scc 
11034 15359 266 0 1 Scc 
11034 15359 222 1 0 Scc 
9802 17084 266 0 1 Scc 
9802 17084 222 1 0 Scc 
8623 13752 266 0 1 Scc 
8623 13752 222 1 0 Scc 
9950 12592 266 0 1 Scc 
9950 12592 222 1 0 Scc 
11469 11859 266 0 1 Scc 
11469 11859 222 1 0 Scc 
12201 14426 266 0 1 Scc 
12201 14426 222 1 0 Scc 
10670 12940 266 0 1 Scc 
10670 12940 222 1 0 Scc 
9186 9883 266 0 1 Scc 
9186 9883 222 1 0 Scc 
8509 9065 266 0 1 Scc 
8509 9065 222 1 0 Scc 
7689 8218 266 0 1 Scc 
7689 8218 222 1 0 Scc 
7298 9298 266 0 1 Scc 
7298 9298 222 1 0 Scc 
6544 9105 266 0 1 Scc 
6544 9105 222 1 0 Scc 
5889 6477 266 0 1 Scc 
5889 6477 222 1 0 Scc 
6721 5699 266 0 1 Scc 
6721 5699 222 1 0 Scc 
8685 7274 266 0 1 Scc 
8685 7274 222 1 0 Scc 
10572 8191 266 0 1 Scc 
10572 8191 222 1 0 Scc 
12732 7755 266 0 1 Scc 
12732 7755 222 1 0 Scc 
16868 10255 266 0 1 Scc 
16868 10255 222 1 0 Scc 
22470 17341 266 0 1 Scc 
22470 17341 222 1 0 Scc 
25268 19504 266 0 1 Scc 
25268 19504 222 1 0 Scc 
27351 23910 266 0 1 Scc 
27351 23910 222 1 0 Scc 
26510 24608 266 0 1 Scc 
26510 24608 222 1 0 Scc 
23323 21734 266 0 1 Scc 
23323 21734 222 1 0 Scc 
18328 15413 266 0 1 Scc 
18328 15413 222 1 0 Scc 
15098 12268 266 0 1 Scc 
15098 12268 222 1 0 Scc 
12464 13870 266 0 1 Scc 
12464 13870 222 1 0 Scc 
8653 12306 266 0 1 Scc 
8653 12306 222 1 0 Scc 
5761 9656 266 0 1 Scc 
5761 9656 222 1 0 Scc 
5029 9226 266 0 1 Scc 
5029 9226 222 1 0 Scc 
5257 11255 266 0 1 Scc 
5257 11255 222 1 0 Scc 
4587 7367 266 0 1 Scc 
4587 7367 222 1 0 Scc 
6184 9918 266 0 1 Scc 
6184 9918 222 1 0 Scc 
6311 5948 266 0 1 Scc 
6311 5948 222 1 0 Scc 
8195 6958 266 0 1 Scc 
8195 6958 222 1 0 Scc 
9353 4587 266 0 1 Scc 
9353 4587 222 1 0 Scc 
13111 9493 266 0 1 Scc 
13111 9493 222 1 0 Scc 
16033 14044 266 0 1 Scc 
16033 14044 222 1 0 Scc 
17361 15025 266 0 1 Scc 
17361 15025 222 1 0 Scc 
19132 21720 266 0 1 Scc 
19132 21720 222 1 0 Scc 
16664 17867 266 0 1 Scc 
16664 17867 222 1 0 Scc 
14630 16918 266 0 1 Scc 
14630 16918 222 1 0 Scc 
11514 11704 266 0 1 Scc 
11514 11704 222 1 0 Scc 
10251 6892 266 0 1 Scc 
10251 6892 222 1 0 Scc 
10351 7544 266 0 1 Scc 
10351 7544 222 1 0 Scc 
11286 11226 266 0 1 Scc 
11286 11226 222 1 0 Scc 
10817 12124 266 0 1 Scc 
10817 12124 222 1 0 Scc 
10186 10806 266 0 1 Scc 
10186 10806 222 1 0 Scc 
/Slrgb {0.565 0.208 0.231} def
4587 7630 Sm
17464 15239 Sl
17464 15239 Sm
30340 22847 Sl
/Slw 0.720 def
/Slrgb {0.000 0.000 0.000} def
3947 3947 3947 28072 Sln
3947 6042 3543 6042 Sln
3038 6042 0
/Helvetica-0 findfont 1010 yratio mul scalefont setfont
(-.2) stringwidth pop add
2 div xratio div
dup 4 3 roll exch 90.000 cos mul sub 3 1 roll 90.000 sin mul sub 2 copy
/fntsize {/Helvetica-0 findfont exch scalefont setfont } def
90.000 1010
(-.2) Stxtl
(-.2) stringwidth pop xratio div
dup 4 3 roll exch 90.000 cos mul add 3 1 roll 90.000 sin mul add 2 copy
pop pop pop pop
3947 11389 3543 11389 Sln
3038 11389 0
/Helvetica-0 findfont 1010 yratio mul scalefont setfont
(0) stringwidth pop add
2 div xratio div
dup 4 3 roll exch 90.000 cos mul sub 3 1 roll 90.000 sin mul sub 2 copy
/fntsize {/Helvetica-0 findfont exch scalefont setfont } def
90.000 1010
(0) Stxtl
(0) stringwidth pop xratio div
dup 4 3 roll exch 90.000 cos mul add 3 1 roll 90.000 sin mul add 2 copy
pop pop pop pop
3947 16737 3543 16737 Sln
3038 16737 0
/Helvetica-0 findfont 1010 yratio mul scalefont setfont
(.2) stringwidth pop add
2 div xratio div
dup 4 3 roll exch 90.000 cos mul sub 3 1 roll 90.000 sin mul sub 2 copy
/fntsize {/Helvetica-0 findfont exch scalefont setfont } def
90.000 1010
(.2) Stxtl
(.2) stringwidth pop xratio div
dup 4 3 roll exch 90.000 cos mul add 3 1 roll 90.000 sin mul add 2 copy
pop pop pop pop
3947 22084 3543 22084 Sln
3038 22084 0
/Helvetica-0 findfont 1010 yratio mul scalefont setfont
(.4) stringwidth pop add
2 div xratio div
dup 4 3 roll exch 90.000 cos mul sub 3 1 roll 90.000 sin mul sub 2 copy
/fntsize {/Helvetica-0 findfont exch scalefont setfont } def
90.000 1010
(.4) Stxtl
(.4) stringwidth pop xratio div
dup 4 3 roll exch 90.000 cos mul add 3 1 roll 90.000 sin mul add 2 copy
pop pop pop pop
3947 27432 3543 27432 Sln
3038 27432 0
/Helvetica-0 findfont 1010 yratio mul scalefont setfont
(.6) stringwidth pop add
2 div xratio div
dup 4 3 roll exch 90.000 cos mul sub 3 1 roll 90.000 sin mul sub 2 copy
/fntsize {/Helvetica-0 findfont exch scalefont setfont } def
90.000 1010
(.6) Stxtl
(.6) stringwidth pop xratio div
dup 4 3 roll exch 90.000 cos mul add 3 1 roll 90.000 sin mul add 2 copy
pop pop pop pop
1927 16010 0
/Helvetica-0 findfont 1010 yratio mul scalefont setfont
(1-year return forecast) stringwidth pop add
2 div xratio div
dup 4 3 roll exch 90.000 cos mul sub 3 1 roll 90.000 sin mul sub 2 copy
/fntsize {/Helvetica-0 findfont exch scalefont setfont } def
90.000 1010
(1-year return forecast) Stxtl
(1-year return forecast) stringwidth pop xratio div
dup 4 3 roll exch 90.000 cos mul add 3 1 roll 90.000 sin mul add 2 copy
pop pop pop pop
3947 3947 30981 3947 Sln
5382 3947 5382 3543 Sln
5382 2634 0
/Helvetica-0 findfont 1010 yratio mul scalefont setfont
(3.6) stringwidth pop add
2 div xratio div
dup 4 3 roll exch 0.000 cos mul sub 3 1 roll 0.000 sin mul sub 2 copy
/fntsize {/Helvetica-0 findfont exch scalefont setfont } def
0.000 1010
(3.6) Stxtl
(3.6) stringwidth pop xratio div
dup 4 3 roll exch 0.000 cos mul add 3 1 roll 0.000 sin mul add 2 copy
pop pop pop pop
9978 3947 9978 3543 Sln
9978 2634 0
/Helvetica-0 findfont 1010 yratio mul scalefont setfont
(3.8) stringwidth pop add
2 div xratio div
dup 4 3 roll exch 0.000 cos mul sub 3 1 roll 0.000 sin mul sub 2 copy
/fntsize {/Helvetica-0 findfont exch scalefont setfont } def
0.000 1010
(3.8) Stxtl
(3.8) stringwidth pop xratio div
dup 4 3 roll exch 0.000 cos mul add 3 1 roll 0.000 sin mul add 2 copy
pop pop pop pop
14573 3947 14573 3543 Sln
14573 2634 0
/Helvetica-0 findfont 1010 yratio mul scalefont setfont
(4) stringwidth pop add
2 div xratio div
dup 4 3 roll exch 0.000 cos mul sub 3 1 roll 0.000 sin mul sub 2 copy
/fntsize {/Helvetica-0 findfont exch scalefont setfont } def
0.000 1010
(4) Stxtl
(4) stringwidth pop xratio div
dup 4 3 roll exch 0.000 cos mul add 3 1 roll 0.000 sin mul add 2 copy
pop pop pop pop
19169 3947 19169 3543 Sln
19169 2634 0
/Helvetica-0 findfont 1010 yratio mul scalefont setfont
(4.2) stringwidth pop add
2 div xratio div
dup 4 3 roll exch 0.000 cos mul sub 3 1 roll 0.000 sin mul sub 2 copy
/fntsize {/Helvetica-0 findfont exch scalefont setfont } def
0.000 1010
(4.2) Stxtl
(4.2) stringwidth pop xratio div
dup 4 3 roll exch 0.000 cos mul add 3 1 roll 0.000 sin mul add 2 copy
pop pop pop pop
23765 3947 23765 3543 Sln
23765 2634 0
/Helvetica-0 findfont 1010 yratio mul scalefont setfont
(4.4) stringwidth pop add
2 div xratio div
dup 4 3 roll exch 0.000 cos mul sub 3 1 roll 0.000 sin mul sub 2 copy
/fntsize {/Helvetica-0 findfont exch scalefont setfont } def
0.000 1010
(4.4) Stxtl
(4.4) stringwidth pop xratio div
dup 4 3 roll exch 0.000 cos mul add 3 1 roll 0.000 sin mul add 2 copy
pop pop pop pop
28361 3947 28361 3543 Sln
28361 2634 0
/Helvetica-0 findfont 1010 yratio mul scalefont setfont
(4.6) stringwidth pop add
2 div xratio div
dup 4 3 roll exch 0.000 cos mul sub 3 1 roll 0.000 sin mul sub 2 copy
/fntsize {/Helvetica-0 findfont exch scalefont setfont } def
0.000 1010
(4.6) Stxtl
(4.6) stringwidth pop xratio div
dup 4 3 roll exch 0.000 cos mul add 3 1 roll 0.000 sin mul add 2 copy
pop pop pop pop
17464 1523 0
/Helvetica-0 findfont 1010 yratio mul scalefont setfont
(log P/D ratio) stringwidth pop add
2 div xratio div
dup 4 3 roll exch 0.000 cos mul sub 3 1 roll 0.000 sin mul sub 2 copy
/fntsize {/Helvetica-0 findfont exch scalefont setfont } def
0.000 1010
(log P/D ratio) Stxtl
(log P/D ratio) stringwidth pop xratio div
dup 4 3 roll exch 0.000 cos mul add 3 1 roll 0.000 sin mul add 2 copy
pop pop pop pop
S showpage
%%EOF
