%!PS-Adobe-3.0 EPSF-3.0
%%Creator: MATLAB, The MathWorks, Inc. Version 7.14.0.739 (R2012a). Operating System: Darwin 12.4.0 Darwin Kernel Version 12.4.0: Wed May  1 17:57:12 PDT 2013; root:xnu-2050.24.15~1/RELEASE_X86_64 x86_64.
%%Title: /Users/fckw/Dropbox/PhD/finfric/simrun.eps
%%CreationDate: 07/14/2013  19:33:01
%%DocumentNeededFonts: Helvetica
%%DocumentProcessColors: Cyan Magenta Yellow Black
%%LanguageLevel: 2
%%Pages: 1
%%BoundingBox:  -162   186   774   606
%%EndComments

%%BeginProlog
% MathWorks dictionary
/MathWorks 160 dict begin
% definition operators
/bdef {bind def} bind def
/ldef {load def} bind def
/xdef {exch def} bdef
/xstore {exch store} bdef
% operator abbreviations
/c  /clip ldef
/cc /concat ldef
/cp /closepath ldef
/gr /grestore ldef
/gs /gsave ldef
/mt /moveto ldef
/np /newpath ldef
/cm /currentmatrix ldef
/sm /setmatrix ldef
/rm /rmoveto ldef
/rl /rlineto ldef
/s {show newpath} bdef
/sc {setcmykcolor} bdef
/sr /setrgbcolor ldef
/sg /setgray ldef
/w /setlinewidth ldef
/j /setlinejoin ldef
/cap /setlinecap ldef
/rc {rectclip} bdef
/rf {rectfill} bdef
% page state control
/pgsv () def
/bpage {/pgsv save def} bdef
/epage {pgsv restore} bdef
/bplot /gsave ldef
/eplot {stroke grestore} bdef
% orientation switch
/portraitMode 0 def /landscapeMode 1 def /rotateMode 2 def
% coordinate system mappings
/dpi2point 0 def
% font control
/FontSize 0 def
/FMS {/FontSize xstore findfont [FontSize 0 0 FontSize neg 0 0]
  makefont setfont} bdef
/reencode {exch dup where {pop load} {pop StandardEncoding} ifelse
  exch dup 3 1 roll findfont dup length dict begin
  { 1 index /FID ne {def}{pop pop} ifelse } forall
  /Encoding exch def currentdict end definefont pop} bdef
/isroman {findfont /CharStrings get /Agrave known} bdef
/FMSR {3 1 roll 1 index dup isroman {reencode} {pop pop} ifelse
  exch FMS} bdef
/csm {1 dpi2point div -1 dpi2point div scale neg translate
 dup landscapeMode eq {pop -90 rotate}
  {rotateMode eq {90 rotate} if} ifelse} bdef
% line types: solid, dotted, dashed, dotdash
/SO { [] 0 setdash } bdef
/DO { [.5 dpi2point mul 4 dpi2point mul] 0 setdash } bdef
/DA { [6 dpi2point mul] 0 setdash } bdef
/DD { [.5 dpi2point mul 4 dpi2point mul 6 dpi2point mul 4
  dpi2point mul] 0 setdash } bdef
% macros for lines and objects
/L {lineto stroke} bdef
/MP {3 1 roll moveto 1 sub {rlineto} repeat} bdef
/AP {{rlineto} repeat} bdef
/PDlw -1 def
/W {/PDlw currentlinewidth def setlinewidth} def
/PP {closepath eofill} bdef
/DP {closepath stroke} bdef
/MR {4 -2 roll moveto dup  0 exch rlineto exch 0 rlineto
  neg 0 exch rlineto closepath} bdef
/FR {MR stroke} bdef
/PR {MR fill} bdef
/L1i {{currentfile picstr readhexstring pop} image} bdef
/tMatrix matrix def
/MakeOval {newpath tMatrix currentmatrix pop translate scale
0 0 1 0 360 arc tMatrix setmatrix} bdef
/FO {MakeOval stroke} bdef
/PO {MakeOval fill} bdef
/PD {currentlinewidth 2 div 0 360 arc fill
   PDlw -1 eq not {PDlw w /PDlw -1 def} if} def
/FA {newpath tMatrix currentmatrix pop translate scale
  0 0 1 5 -2 roll arc tMatrix setmatrix stroke} bdef
/PA {newpath tMatrix currentmatrix pop	translate 0 0 moveto scale
  0 0 1 5 -2 roll arc closepath tMatrix setmatrix fill} bdef
/FAn {newpath tMatrix currentmatrix pop translate scale
  0 0 1 5 -2 roll arcn tMatrix setmatrix stroke} bdef
/PAn {newpath tMatrix currentmatrix pop translate 0 0 moveto scale
  0 0 1 5 -2 roll arcn closepath tMatrix setmatrix fill} bdef
/vradius 0 def /hradius 0 def /lry 0 def
/lrx 0 def /uly 0 def /ulx 0 def /rad 0 def
/MRR {/vradius xdef /hradius xdef /lry xdef /lrx xdef /uly xdef
  /ulx xdef newpath tMatrix currentmatrix pop ulx hradius add uly
  vradius add translate hradius vradius scale 0 0 1 180 270 arc 
  tMatrix setmatrix lrx hradius sub uly vradius add translate
  hradius vradius scale 0 0 1 270 360 arc tMatrix setmatrix
  lrx hradius sub lry vradius sub translate hradius vradius scale
  0 0 1 0 90 arc tMatrix setmatrix ulx hradius add lry vradius sub
  translate hradius vradius scale 0 0 1 90 180 arc tMatrix setmatrix
  closepath} bdef
/FRR {MRR stroke } bdef
/PRR {MRR fill } bdef
/MlrRR {/lry xdef /lrx xdef /uly xdef /ulx xdef /rad lry uly sub 2 div def
  newpath tMatrix currentmatrix pop ulx rad add uly rad add translate
  rad rad scale 0 0 1 90 270 arc tMatrix setmatrix lrx rad sub lry rad
  sub translate rad rad scale 0 0 1 270 90 arc tMatrix setmatrix
  closepath} bdef
/FlrRR {MlrRR stroke } bdef
/PlrRR {MlrRR fill } bdef
/MtbRR {/lry xdef /lrx xdef /uly xdef /ulx xdef /rad lrx ulx sub 2 div def
  newpath tMatrix currentmatrix pop ulx rad add uly rad add translate
  rad rad scale 0 0 1 180 360 arc tMatrix setmatrix lrx rad sub lry rad
  sub translate rad rad scale 0 0 1 0 180 arc tMatrix setmatrix
  closepath} bdef
/FtbRR {MtbRR stroke } bdef
/PtbRR {MtbRR fill } bdef
/stri 6 array def /dtri 6 array def
/smat 6 array def /dmat 6 array def
/tmat1 6 array def /tmat2 6 array def /dif 3 array def
/asub {/ind2 exch def /ind1 exch def dup dup
  ind1 get exch ind2 get sub exch } bdef
/tri_to_matrix {
  2 0 asub 3 1 asub 4 0 asub 5 1 asub
  dup 0 get exch 1 get 7 -1 roll astore } bdef
/compute_transform {
  dmat dtri tri_to_matrix tmat1 invertmatrix 
  smat stri tri_to_matrix tmat2 concatmatrix } bdef
/ds {stri astore pop} bdef
/dt {dtri astore pop} bdef
/db {2 copy /cols xdef /rows xdef mul dup 3 mul string
  currentfile 
  3 index 0 eq {/ASCIIHexDecode filter}
  {/ASCII85Decode filter 3 index 2 eq {/RunLengthDecode filter} if }
  ifelse exch readstring pop
  dup 0 3 index getinterval /rbmap xdef
  dup 2 index dup getinterval /gbmap xdef
  1 index dup 2 mul exch getinterval /bbmap xdef pop pop}bdef
/it {gs np dtri aload pop moveto lineto lineto cp c
  cols rows 8 compute_transform 
  rbmap gbmap bbmap true 3 colorimage gr}bdef
/il {newpath moveto lineto stroke}bdef
currentdict end def
%%EndProlog

%%BeginSetup
MathWorks begin

0 cap

end
%%EndSetup

%%Page: 1 1
%%BeginPageSetup
%%PageBoundingBox:  -162   186   774   606
MathWorks begin
bpage
%%EndPageSetup

%%BeginObject: obj1
bplot

/dpi2point 12 def
portraitMode -1944 7272 csm

    0     0 11232  5033 rc
85 dict begin %Colortable dictionary
/c0 { 0.000000 0.000000 0.000000 sr} bdef
/c1 { 1.000000 1.000000 1.000000 sr} bdef
/c2 { 0.900000 0.000000 0.000000 sr} bdef
/c3 { 0.000000 0.820000 0.000000 sr} bdef
/c4 { 0.000000 0.000000 0.800000 sr} bdef
/c5 { 0.910000 0.820000 0.320000 sr} bdef
/c6 { 1.000000 0.260000 0.820000 sr} bdef
/c7 { 0.000000 0.820000 0.820000 sr} bdef
c0
1 j
1 sg
   0    0 11233 5034 rf
6 w
0 1718 1751 0 0 -1718 1460 2095 4 MP
PP
-1751 0 0 1718 1751 0 0 -1718 1460 2095 5 MP stroke
4 w
DO
SO
6 w
0 sg
1460 2095 mt 3211 2095 L
1460  377 mt 3211  377 L
1460 2095 mt 1460  377 L
3211 2095 mt 3211  377 L
1460 2095 mt 3211 2095 L
1460 2095 mt 1460  377 L
1460 2095 mt 1460 2077 L
1460  377 mt 1460  394 L
%%IncludeResource: font Helvetica
/Helvetica /ISOLatin1Encoding 120 FMSR

1427 2240 mt 
(0) s
2043 2095 mt 2043 2077 L
2043  377 mt 2043  394 L
1943 2240 mt 
(100) s
2627 2095 mt 2627 2077 L
2627  377 mt 2627  394 L
2527 2240 mt 
(200) s
3211 2095 mt 3211 2077 L
3211  377 mt 3211  394 L
3111 2240 mt 
(300) s
1460 2095 mt 1477 2095 L
3211 2095 mt 3193 2095 L
1189 2139 mt 
(-0.2) s
1460 1751 mt 1477 1751 L
3211 1751 mt 3193 1751 L
1189 1795 mt 
(-0.1) s
1460 1407 mt 1477 1407 L
3211 1407 mt 3193 1407 L
1359 1451 mt 
(0) s
1460 1064 mt 1477 1064 L
3211 1064 mt 3193 1064 L
1259 1108 mt 
(0.1) s
1460  720 mt 1477  720 L
3211  720 mt 3193  720 L
1259  764 mt 
(0.2) s
1460  377 mt 1477  377 L
3211  377 mt 3193  377 L
1259  421 mt 
(0.3) s
1460 2095 mt 3211 2095 L
1460  377 mt 3211  377 L
1460 2095 mt 1460  377 L
3211 2095 mt 3211  377 L
gs 1460 377 1752 1719 rc
DO
6 1 6 0 6 1 6 0 6 0 6 2 5 2 6 2 
6 2 6 -1 6 1 6 0 5 -1 6 -2 6 -2 6 -1 
6 0 6 -1 5 1 6 1 6 1 6 1 6 1 6 1 
5 -1 6 -1 6 1 6 0 6 -1 6 2 5 1 6 2 
6 1 6 1 6 1 6 1 5 2 6 2 6 -1 6 1 
6 -1 6 -2 5 -2 6 -2 6 -4 6 -2 6 -4 6 -2 
5 -3 6 0 6 0 6 0 6 1 6 1 6 2 5 1 
6 1 6 0 6 1 6 0 6 -2 5 -1 6 -1 6 0 
6 -1 6 0 6 -1 5 1 6 0 6 -1 6 -4 6 -3 
6 -2 5 -2 6 -3 6 -2 6 -3 6 -3 6 -1 5 -2 
6 -2 6 1 6 1 6 2 6 1 5 2 6 3 6 3 
6 1 6 1 6 0 5 -1 6 0 6 0 6 0 6 1 
6 0 5 1 6 2 6 1 6 0 6 3 6 3 6 4 
5 4 6 4 6 4 6 3 6 2 6 1 5 1 6 1 
6 -1 6 1 6 2 6 2 5 -1 6 -1 6 -2 6 -1 
6 -2 6 -2 5 -1 6 -1 6 -3 6 -1 6 -2 6 -2 
5 -3 6 -2 6 -1 6 0 6 0 6 0 5 1 6 1 
6 0 6 1 6 0 6 0 5 0 6 -2 6 -1 6 -2 
6 -2 6 -2 5 -4 6 -3 6 -4 6 -5 6 -6 6 -5 
6 -4 5 -4 6 -2 6 -4 6 -3 6 -3 6 -3 5 -3 
6 -4 6 -5 6 -6 6 -6 6 -4 5 -3 6 -4 6 -3 
6 -3 6 -3 6 -3 5 -3 6 -2 6 -1 6 -2 6 -1 
6 0 5 1 6 0 6 0 6 1 6 0 6 1 5 1 
6 -1 6 0 6 -1 6 0 6 1 5 0 6 0 6 0 
6 0 6 2 6 1 5 2 6 2 6 2 6 0 6 0 
6 1 6 1 5 1 6 0 6 -2 6 -1 6 0 6 1 
5 0 6 -1 6 1 6 1 6 2 6 3 5 2 6 0 
6 1 6 0 6 2 6 1 5 0 6 0 6 0 6 0 
6 0 6 2 5 1 6 1 6 2 6 1 6 2 6 2 
5 2 6 0 6 1 6 0 6 1 6 1 5 0 6 0 
6 0 6 0 6 0 6 0 5 1 6 1 6 1 6 1 
6 1 6 0 6 -1 5 -2 6 -2 6 -2 6 -1 6 -2 
6 -1 5 0 6 -1 6 -1 6 0 6 -2 6 -1 5 0 
6 1 6 0 6 0 6 1 6 -1 5 0 6 -1 6 -1 
6 -2 6 -3 6 -2 5 -1 6 0 6 0 6 0 6 1 
6 1 5 2 6 3 6 3 6 4 6 2 6 3 5 2 
6 0 6 1 6 -1 6 0 6 -1 5 0 6 0 6 -1 
6 0 6 -1 6 -1 1465 1407 300 MP stroke
DA
/c8 { 0.000000 0.000000 1.000000 sr} bdef
c8
6 8 6 -4 6 4 6 0 6 -12 6 1 5 0 6 4 
6 14 6 -7 6 11 6 -1 5 9 6 -3 6 -6 6 -2 
6 -2 6 -7 5 -3 6 -3 6 0 6 5 6 3 6 13 
5 -6 6 -5 6 1 6 5 6 -12 6 0 5 -2 6 2 
6 6 6 -2 6 1 6 -7 5 9 6 9 6 -3 6 9 
6 7 6 3 5 0 6 8 6 -12 6 7 6 -9 6 -1 
5 -14 6 -6 6 1 6 -9 6 5 6 -6 6 5 5 0 
6 6 6 0 6 2 6 14 6 -3 5 -2 6 -7 6 2 
6 1 6 -1 6 -11 5 5 6 16 6 10 6 -5 6 -6 
6 -1 5 2 6 -6 6 5 6 -1 6 -10 6 -1 5 -2 
6 -18 6 -2 6 0 6 -1 6 -5 5 -2 6 4 6 7 
6 4 6 12 6 3 5 -3 6 -10 6 7 6 -2 6 1 
6 -9 5 -1 6 8 6 0 6 -11 6 -6 6 0 6 -2 
5 4 6 1 6 13 6 5 6 7 6 3 5 5 6 10 
6 -15 6 -1 6 3 6 17 5 2 6 1 6 2 6 4 
6 -5 6 -7 5 5 6 8 6 -8 6 1 6 4 6 0 
5 -6 6 -7 6 -4 6 -3 6 -3 6 -6 5 7 6 3 
6 -2 6 4 6 0 6 4 5 9 6 -3 6 6 6 -1 
6 0 6 11 5 -1 6 0 6 7 6 -1 6 -3 6 -12 
6 -3 5 -13 6 10 6 -4 6 -6 6 5 6 -12 5 11 
6 7 6 6 6 -6 6 -18 6 -3 5 -2 6 -2 6 -6 
6 -3 6 -2 6 1 5 -13 6 0 6 1 6 -7 6 -10 
6 -3 5 3 6 -4 6 4 6 0 6 -7 6 7 5 3 
6 4 6 -2 6 -4 6 -1 6 1 5 -2 6 1 6 -2 
6 -4 6 -6 6 3 5 1 6 -2 6 11 6 5 6 -11 
6 3 6 6 5 0 6 14 6 -7 6 -6 6 -3 6 3 
5 1 6 -3 6 -8 6 -7 6 0 6 7 5 6 6 3 
6 2 6 -7 6 3 6 5 5 4 6 -1 6 0 6 -5 
6 -6 6 6 5 -5 6 0 6 3 6 -2 6 -8 6 11 
5 14 6 -12 6 10 6 -4 6 -1 6 6 5 1 6 -5 
6 6 6 1 6 -5 6 -5 5 5 6 -4 6 -2 6 4 
6 6 6 12 6 4 5 -1 6 -2 6 -7 6 3 6 -1 
6 -13 5 9 6 -5 6 1 6 7 6 -8 6 -5 5 -5 
6 3 6 2 6 0 6 4 6 -2 5 0 6 9 6 3 
6 2 6 -8 6 -5 5 -2 6 -8 6 -2 6 -6 6 7 
6 -10 5 -6 6 -5 6 3 6 8 6 -1 6 11 5 10 
6 -1 6 5 6 4 6 1 6 -8 5 3 6 3 6 -1 
6 4 6 -3 6 -6 1465 1407 300 MP stroke
SO
/c9 { 1.000000 0.000000 0.000000 sr} bdef
c9
6 7 6 6 6 7 6 7 6 7 6 9 5 7 6 3 
6 0 6 -4 6 -3 6 -6 5 -5 6 -4 6 -1 6 3 
6 5 6 7 5 10 6 10 6 10 6 8 6 5 6 5 
5 4 6 7 6 8 6 9 6 10 6 11 5 11 6 9 
6 6 6 4 6 2 6 -1 5 -4 6 -10 6 -14 6 -17 
6 -21 6 -22 5 -23 6 -22 6 -20 6 -16 6 -13 6 -7 
5 -4 6 1 6 3 6 3 6 4 6 1 6 0 5 -3 
6 -6 6 -9 6 -12 6 -14 6 -17 5 -16 6 -15 6 -15 
6 -16 6 -18 6 -18 5 -21 6 -24 6 -29 6 -28 6 -25 
6 -22 5 -20 6 -17 6 -14 6 -10 6 -4 6 2 5 6 
6 13 6 18 6 20 6 21 6 22 5 23 6 22 6 20 
6 17 6 17 6 17 5 20 6 25 6 28 6 30 6 35 
6 37 5 42 6 44 6 46 6 49 6 53 6 54 6 53 
5 51 6 46 6 42 6 36 6 32 6 30 5 27 6 25 
6 23 6 25 6 20 6 17 5 11 6 10 6 10 6 9 
6 10 6 11 5 12 6 10 6 10 6 13 6 13 6 15 
5 17 6 20 6 22 6 23 6 23 6 22 5 19 6 15 
6 10 6 6 6 2 6 -4 5 -10 6 -15 6 -20 6 -24 
6 -28 6 -33 5 -38 6 -39 6 -42 6 -43 6 -42 6 -40 
6 -38 5 -39 6 -38 6 -43 6 -42 6 -44 6 -47 5 -47 
6 -51 6 -51 6 -49 6 -44 6 -39 5 -36 6 -34 6 -31 
6 -28 6 -26 6 -22 5 -19 6 -15 6 -12 6 -10 6 -6 
6 -4 5 -3 6 -4 6 -3 6 -4 6 -4 6 -3 5 -6 
6 -5 6 -5 6 -3 6 -1 6 0 5 2 6 2 6 4 
6 5 6 7 6 6 5 5 6 3 6 2 6 -1 6 -2 
6 0 6 -2 5 -3 6 -3 6 -3 6 0 6 4 6 5 
5 7 6 8 6 12 6 14 6 14 6 11 5 9 6 8 
6 7 6 8 6 9 6 8 5 8 6 8 6 10 6 12 
6 15 6 15 5 16 6 16 6 15 6 15 6 14 6 12 
5 8 6 6 6 7 6 5 6 5 6 5 5 2 6 3 
6 3 6 2 6 1 6 2 5 2 6 -2 6 -3 6 -6 
6 -10 6 -15 6 -17 5 -17 6 -16 6 -14 6 -12 6 -12 
6 -10 5 -8 6 -9 6 -9 6 -9 6 -8 6 -5 5 -5 
6 -5 6 -6 6 -8 6 -8 6 -10 5 -10 6 -9 6 -10 
6 -7 6 -4 6 2 5 7 6 10 6 15 6 17 6 20 
6 20 5 23 6 22 6 20 6 16 6 11 6 6 5 2 
6 -2 6 -3 6 -4 6 -5 6 -4 5 -3 6 -4 6 -5 
6 -4 6 -3 6 -1 1465 1407 300 MP stroke
gr

c9
0 sg
2295  282 mt 
(P) s
1 sg
0 1718 1751 0 0 -1718 3775 2095 4 MP
PP
-1751 0 0 1718 1751 0 0 -1718 3775 2095 5 MP stroke
4 w
DO
SO
6 w
0 sg
3775 2095 mt 5526 2095 L
3775  377 mt 5526  377 L
3775 2095 mt 3775  377 L
5526 2095 mt 5526  377 L
3775 2095 mt 5526 2095 L
3775 2095 mt 3775  377 L
3775 2095 mt 3775 2077 L
3775  377 mt 3775  394 L
3742 2240 mt 
(0) s
4358 2095 mt 4358 2077 L
4358  377 mt 4358  394 L
4258 2240 mt 
(100) s
4942 2095 mt 4942 2077 L
4942  377 mt 4942  394 L
4842 2240 mt 
(200) s
5526 2095 mt 5526 2077 L
5526  377 mt 5526  394 L
5426 2240 mt 
(300) s
3775 2095 mt 3792 2095 L
5526 2095 mt 5508 2095 L
3504 2139 mt 
(-0.4) s
3775 1751 mt 3792 1751 L
5526 1751 mt 5508 1751 L
3504 1795 mt 
(-0.2) s
3775 1407 mt 3792 1407 L
5526 1407 mt 5508 1407 L
3674 1451 mt 
(0) s
3775 1064 mt 3792 1064 L
5526 1064 mt 5508 1064 L
3574 1108 mt 
(0.2) s
3775  720 mt 3792  720 L
5526  720 mt 5508  720 L
3574  764 mt 
(0.4) s
3775  377 mt 3792  377 L
5526  377 mt 5508  377 L
3574  421 mt 
(0.6) s
3775 2095 mt 5526 2095 L
3775  377 mt 5526  377 L
3775 2095 mt 3775  377 L
5526 2095 mt 5526  377 L
gs 3775 377 1752 1719 rc
DO
6 21 6 -10 6 11 6 -1 6 -32 6 0 5 -3 6 9 
6 36 6 -18 6 29 6 -1 5 24 6 -6 6 -15 6 -4 
6 -7 6 -19 5 -8 6 -9 6 0 6 11 6 7 6 35 
5 -15 6 -14 6 3 6 11 6 -30 6 -3 5 -6 6 3 
6 15 6 -6 6 -1 6 -20 5 23 6 24 6 -10 6 23 
6 21 6 7 5 4 6 23 6 -29 6 21 6 -24 6 1 
5 -38 6 -14 6 1 6 -23 6 10 6 -15 6 10 5 0 
6 15 6 0 6 3 6 37 6 -7 5 -4 6 -17 6 3 
6 4 6 -4 6 -28 5 12 6 42 6 30 6 -12 6 -13 
6 -1 5 8 6 -14 6 13 6 1 6 -26 6 -1 5 -4 
6 -45 6 -7 6 -2 6 -3 6 -15 5 -7 6 7 6 17 
6 11 6 29 6 8 5 -6 6 -26 6 17 6 -6 6 1 
6 -24 5 -5 6 21 6 -2 6 -28 6 -20 6 -3 6 -11 
5 7 6 0 6 31 6 11 6 16 6 6 5 11 6 26 
6 -42 6 -6 6 7 6 43 5 6 6 4 6 5 6 10 
6 -12 6 -17 5 11 6 22 6 -19 6 3 6 10 6 2 
5 -16 6 -16 6 -10 6 -10 6 -10 6 -16 5 15 6 7 
6 -7 6 10 6 -1 6 10 5 22 6 -6 6 14 6 -1 
6 2 6 29 5 0 6 2 6 21 6 1 6 -2 6 -28 
6 -7 5 -33 6 28 6 -6 6 -15 6 16 6 -30 5 30 
6 24 6 19 6 -11 6 -44 6 -3 5 -4 6 -1 6 -14 
6 -4 6 -4 6 5 5 -32 6 3 6 3 6 -15 6 -26 
6 -8 5 8 6 -12 6 11 6 0 6 -18 6 17 5 9 
6 11 6 -5 6 -10 6 -4 6 5 5 -6 6 4 6 -7 
6 -10 6 -17 6 6 5 1 6 -4 6 28 6 13 6 -30 
6 7 6 16 5 0 6 37 6 -16 6 -16 6 -7 6 6 
5 6 6 -10 6 -22 6 -19 6 -2 6 18 5 16 6 7 
6 4 6 -19 6 6 6 14 5 11 6 -3 6 0 6 -12 
6 -17 6 15 5 -14 6 -1 6 6 6 -6 6 -23 6 27 
5 37 6 -33 6 25 6 -9 6 -5 6 17 5 2 6 -15 
6 16 6 2 6 -11 6 -15 5 13 6 -11 6 -8 6 10 
6 16 6 31 6 13 5 -1 6 -5 6 -17 6 10 6 -3 
6 -32 5 22 6 -11 6 3 6 19 6 -19 6 -13 5 -14 
6 7 6 6 6 -1 6 13 6 -6 5 1 6 24 6 9 
6 8 6 -18 6 -13 5 -4 6 -21 6 -6 6 -15 6 16 
6 -27 5 -17 6 -16 6 5 6 20 6 -5 6 27 5 25 
6 -2 6 12 6 11 6 4 6 -23 5 10 6 6 6 -2 
6 11 6 -6 6 -16 3780 1407 300 MP stroke
DA
c8
6 28 6 -13 6 15 6 -4 6 -47 6 -1 5 -3 6 16 
6 50 6 -24 6 42 6 1 5 35 6 -9 6 -22 6 -6 
6 -12 6 -28 5 -13 6 -13 6 0 6 17 6 13 6 49 
5 -23 6 -20 6 6 6 13 6 -45 6 -5 5 -8 6 5 
6 21 6 -10 6 -3 6 -27 5 35 6 34 6 -13 6 36 
6 32 6 12 5 8 6 31 6 -38 6 29 6 -33 6 -2 
5 -55 6 -21 6 -1 6 -32 6 12 6 -21 6 14 5 1 
6 22 6 0 6 8 6 53 6 -10 5 -7 6 -24 6 5 
6 5 6 -7 6 -39 5 22 6 63 6 43 6 -17 6 -18 
6 -1 5 11 6 -18 6 21 6 -1 6 -36 6 -1 5 -11 
6 -65 6 -11 6 -3 6 -7 6 -23 5 -11 6 11 6 25 
6 19 6 43 6 11 5 -11 6 -36 6 24 6 -9 6 0 
6 -36 5 -5 6 30 6 -7 6 -44 6 -29 6 -7 6 -16 
5 8 6 2 6 45 6 17 6 23 6 10 5 18 6 33 
6 -61 6 -8 6 15 6 62 5 9 6 7 6 9 6 15 
6 -20 6 -22 5 19 6 31 6 -27 6 7 6 15 6 2 
5 -23 6 -23 6 -17 6 -14 6 -16 6 -21 5 22 6 8 
6 -9 6 15 6 0 6 17 5 32 6 -6 6 20 6 0 
6 7 6 42 5 3 6 7 6 32 6 2 6 -4 6 -39 
6 -12 5 -43 6 41 6 -10 6 -18 6 21 6 -38 5 47 
6 38 6 28 6 -19 6 -61 6 -3 5 -5 6 -2 6 -20 
6 -5 6 -3 6 4 5 -45 6 5 6 4 6 -25 6 -38 
6 -11 5 10 6 -16 6 15 6 -2 6 -24 6 25 5 14 
6 17 6 -10 6 -14 6 -5 6 6 5 -9 6 6 6 -12 
6 -17 6 -23 6 8 5 0 6 -4 6 41 6 16 6 -44 
6 12 6 23 5 4 6 52 6 -25 6 -23 6 -9 6 9 
5 6 6 -16 6 -34 6 -29 6 -2 6 27 5 24 6 10 
6 3 6 -26 6 10 6 21 5 15 6 -5 6 0 6 -20 
6 -23 6 19 5 -20 6 -2 6 8 6 -12 6 -30 6 41 
5 49 6 -44 6 34 6 -14 6 -5 6 25 5 2 6 -21 
6 23 6 3 6 -19 6 -20 5 18 6 -17 6 -12 6 16 
6 27 6 46 6 19 5 0 6 -9 6 -23 6 15 6 -7 
6 -45 5 32 6 -15 6 6 6 26 6 -28 6 -22 5 -19 
6 11 6 8 6 0 6 18 6 -8 5 5 6 35 6 14 
6 12 6 -28 6 -19 5 -6 6 -32 6 -10 6 -21 6 21 
6 -42 5 -28 6 -23 6 8 6 27 6 -5 6 41 5 35 
6 -2 6 20 6 15 6 4 6 -32 5 15 6 9 6 -1 
6 16 6 -10 6 -24 3780 1407 300 MP stroke
SO
c9
6 83 6 -46 6 38 6 14 6 -109 6 23 5 11 6 34 
6 156 6 -80 6 109 6 -27 5 73 6 -38 6 -74 6 -30 
6 -27 6 -71 5 -19 6 -23 6 8 6 48 6 9 6 128 
5 -62 6 -58 6 0 6 54 6 -108 6 5 5 -4 6 23 
6 78 6 -4 6 37 6 -52 5 104 6 120 6 -32 6 89 
6 75 6 16 5 -20 6 74 6 -150 6 57 6 -122 6 -6 
5 -150 6 -60 6 17 6 -79 6 59 6 -43 6 59 5 13 
6 74 6 13 6 4 6 141 6 -30 5 -10 6 -61 6 17 
6 22 6 14 6 -91 5 42 6 137 6 96 6 -63 6 -71 
6 -36 5 8 6 -93 6 10 6 -29 6 -136 6 -41 5 -28 
6 -185 6 -33 6 -11 6 -5 6 -44 5 -15 6 33 6 65 
6 25 6 88 6 8 5 -34 6 -124 6 46 6 -47 6 -1 
6 -101 5 -38 6 65 6 -8 6 -96 6 -56 6 23 6 -9 
5 69 6 27 6 150 6 62 6 81 6 39 5 44 6 131 
6 -128 6 12 6 39 6 176 5 30 6 19 6 16 6 44 
6 -37 6 -61 5 34 6 90 6 -79 6 3 6 24 6 0 
5 -58 6 -54 6 -26 6 -12 6 -2 6 -32 5 91 6 65 
6 10 6 84 6 34 6 70 5 121 6 6 6 86 6 27 
6 21 6 125 5 11 6 2 6 72 6 -11 6 -7 6 -108 
6 -4 5 -127 6 118 6 -12 6 -56 6 85 6 -119 5 98 
6 57 6 38 6 -59 6 -189 6 -33 5 -40 6 -25 6 -77 
6 -39 6 -44 6 4 5 -146 6 -15 6 -3 6 -63 6 -102 
6 -36 5 37 6 -51 6 40 6 10 6 -72 6 60 5 20 
6 33 6 -31 6 -47 6 -24 6 10 5 -36 6 10 6 -28 
6 -30 6 -55 6 33 5 19 6 -19 6 102 6 63 6 -112 
6 26 6 60 5 -26 6 126 6 -75 6 -71 6 -40 6 5 
5 8 6 -38 6 -72 6 -58 6 0 6 71 5 59 6 23 
6 21 6 -69 6 17 6 43 5 30 6 -26 6 -3 6 -44 
6 -70 6 61 5 -45 6 0 6 37 6 3 6 -75 6 98 
5 159 6 -128 6 104 6 -26 6 -19 6 67 5 19 6 -62 
6 63 6 16 6 -28 6 -48 5 72 6 -15 6 -9 6 57 
6 62 6 109 6 38 5 -14 6 -24 6 -79 6 29 6 -4 
6 -136 5 88 6 -47 6 -7 6 70 6 -74 6 -44 5 -47 
6 32 6 28 6 -8 6 51 6 -24 5 -12 6 65 6 -1 
6 5 6 -97 6 -78 5 -28 6 -96 6 -27 6 -75 6 70 
6 -91 5 -37 6 -28 6 43 6 113 6 0 6 112 5 109 
6 -7 6 46 6 34 6 23 6 -91 5 37 6 19 6 -19 
6 35 6 -22 6 -66 3780 1407 300 MP stroke
gr

c9
0 sg
4633  282 mt 
(I) s
1 sg
0 1718 1751 0 0 -1718 6090 2095 4 MP
PP
-1751 0 0 1718 1751 0 0 -1718 6090 2095 5 MP stroke
4 w
DO
SO
6 w
0 sg
6090 2095 mt 7841 2095 L
6090  377 mt 7841  377 L
6090 2095 mt 6090  377 L
7841 2095 mt 7841  377 L
6090 2095 mt 7841 2095 L
6090 2095 mt 6090  377 L
6090 2095 mt 6090 2077 L
6090  377 mt 6090  394 L
6057 2240 mt 
(0) s
6673 2095 mt 6673 2077 L
6673  377 mt 6673  394 L
6573 2240 mt 
(100) s
7257 2095 mt 7257 2077 L
7257  377 mt 7257  394 L
7157 2240 mt 
(200) s
7841 2095 mt 7841 2077 L
7841  377 mt 7841  394 L
7741 2240 mt 
(300) s
6090 2095 mt 6107 2095 L
7841 2095 mt 7823 2095 L
5819 2139 mt 
(-0.1) s
6090 1665 mt 6107 1665 L
7841 1665 mt 7823 1665 L
5989 1709 mt 
(0) s
6090 1236 mt 6107 1236 L
7841 1236 mt 7823 1236 L
5889 1280 mt 
(0.1) s
6090  806 mt 6107  806 L
7841  806 mt 7823  806 L
5889  850 mt 
(0.2) s
6090  377 mt 6107  377 L
7841  377 mt 7823  377 L
5889  421 mt 
(0.3) s
6090 2095 mt 7841 2095 L
6090  377 mt 7841  377 L
6090 2095 mt 6090  377 L
7841 2095 mt 7841  377 L
gs 6090 377 1752 1719 rc
DO
6 38 6 -18 6 19 6 0 6 -59 6 1 5 -4 6 17 
6 66 6 -34 6 52 6 -2 5 43 6 -11 6 -27 6 -8 
6 -13 6 -34 5 -14 6 -16 6 1 6 21 6 12 6 62 
5 -27 6 -25 6 5 6 21 6 -55 6 -5 5 -10 6 6 
6 28 6 -12 6 0 6 -35 5 41 6 44 6 -19 6 42 
6 37 6 13 5 5 6 41 6 -53 6 36 6 -43 6 1 
5 -69 6 -26 6 2 6 -40 6 17 6 -27 6 19 5 0 
6 27 6 0 6 6 6 67 6 -13 5 -9 6 -30 6 6 
6 6 6 -6 6 -51 5 22 6 75 6 53 6 -22 6 -25 
6 -3 5 14 6 -27 6 24 6 0 6 -47 6 -2 5 -8 
6 -82 6 -12 6 -3 6 -5 6 -27 5 -12 6 14 6 31 
6 21 6 52 6 14 5 -11 6 -46 6 30 6 -11 6 3 
6 -43 5 -8 6 38 6 -3 6 -51 6 -35 6 -3 6 -19 
5 14 6 1 6 58 6 20 6 28 6 12 5 21 6 46 
6 -75 6 -10 6 13 6 77 5 10 6 7 6 9 6 18 
6 -24 6 -30 5 19 6 40 6 -36 6 6 6 17 6 1 
5 -28 6 -29 6 -20 6 -16 6 -18 6 -29 5 27 6 12 
6 -12 6 19 6 -3 6 19 5 39 6 -10 6 24 6 -3 
6 3 6 51 5 -1 6 3 6 36 6 -1 6 -6 6 -52 
6 -14 5 -60 6 50 6 -13 6 -28 6 28 6 -54 5 52 
6 42 6 32 6 -23 6 -79 6 -7 5 -9 6 -4 6 -26 
6 -8 6 -7 6 7 5 -59 6 5 6 6 6 -29 6 -47 
6 -14 5 15 6 -22 6 20 6 0 6 -32 6 31 5 16 
6 21 6 -10 6 -19 6 -6 6 9 5 -12 6 8 6 -12 
6 -19 6 -28 6 11 5 2 6 -7 6 51 6 23 6 -54 
6 13 6 29 5 1 6 66 6 -29 6 -29 6 -12 6 11 
5 9 6 -17 6 -39 6 -34 6 -3 6 33 5 29 6 13 
6 7 6 -33 6 11 6 26 5 19 6 -6 6 2 6 -22 
6 -30 6 26 5 -24 6 -1 6 12 6 -12 6 -39 6 49 
5 66 6 -59 6 45 6 -16 6 -9 6 31 5 4 6 -27 
6 29 6 4 6 -21 6 -26 5 24 6 -20 6 -15 6 19 
6 30 6 55 6 23 5 -2 6 -10 6 -31 6 18 6 -6 
6 -59 5 40 6 -19 6 4 6 35 6 -35 6 -25 5 -25 
6 13 6 11 6 -2 6 23 6 -11 5 3 6 42 6 15 
6 15 6 -34 6 -24 5 -6 6 -39 6 -11 6 -27 6 30 
6 -48 5 -31 6 -27 6 10 6 37 6 -8 6 49 5 46 
6 -4 6 23 6 18 6 7 6 -41 5 18 6 10 6 -3 
6 20 6 -11 6 -30 6095 1665 300 MP stroke
DA
c8
6 38 6 -18 6 20 6 -1 6 -57 6 2 5 -2 6 17 
6 66 6 -33 6 52 6 -2 5 42 6 -11 6 -28 6 -8 
6 -13 6 -34 5 -13 6 -15 6 2 6 21 6 13 6 62 
5 -27 6 -25 6 6 6 21 6 -54 6 -4 5 -9 6 7 
6 29 6 -10 6 1 6 -34 5 43 6 44 6 -18 6 41 
6 37 6 13 5 3 6 40 6 -54 6 35 6 -44 6 0 
5 -69 6 -26 6 2 6 -39 6 18 6 -25 6 19 5 2 
6 27 6 1 6 6 6 66 6 -13 5 -8 6 -31 6 6 
6 6 6 -5 6 -50 5 22 6 74 6 51 6 -23 6 -25 
6 -5 5 13 6 -27 6 22 6 -2 6 -47 6 -3 5 -9 
6 -81 6 -12 6 -2 6 -4 6 -25 5 -11 6 15 6 32 
6 22 6 52 6 14 5 -11 6 -45 6 30 6 -11 6 4 
6 -42 5 -7 6 39 6 -3 6 -49 6 -32 6 -1 6 -16 
5 17 6 4 6 60 6 23 6 30 6 14 5 21 6 47 
6 -73 6 -7 6 15 6 77 5 11 6 7 6 9 6 18 
6 -23 6 -29 5 19 6 40 6 -36 6 6 6 17 6 1 
5 -28 6 -28 6 -19 6 -16 6 -16 6 -27 5 29 6 13 
6 -11 6 21 6 -1 6 20 5 39 6 -10 6 25 6 -2 
6 3 6 49 5 -1 6 1 6 34 6 -2 6 -8 6 -53 
6 -15 5 -60 6 48 6 -14 6 -29 6 27 6 -55 5 51 
6 39 6 28 6 -25 6 -81 6 -9 5 -11 6 -6 6 -28 
6 -9 6 -9 6 5 5 -60 6 4 6 4 6 -29 6 -47 
6 -15 5 15 6 -22 6 20 6 0 6 -32 6 31 5 16 
6 20 6 -12 6 -18 6 -7 6 9 5 -12 6 8 6 -13 
6 -18 6 -28 6 11 5 3 6 -6 6 50 6 24 6 -54 
6 13 6 29 5 1 6 65 6 -31 6 -29 6 -12 6 11 
5 9 6 -18 6 -39 6 -33 6 -2 6 34 5 30 6 13 
6 7 6 -32 6 11 6 26 5 19 6 -7 6 1 6 -21 
6 -29 6 26 5 -23 6 -1 6 13 6 -11 6 -38 6 50 
5 66 6 -58 6 45 6 -16 6 -8 6 31 5 4 6 -27 
6 29 6 4 6 -20 6 -26 5 25 6 -19 6 -14 6 19 
6 30 6 55 6 21 5 -2 6 -11 6 -32 6 17 6 -6 
6 -59 5 39 6 -20 6 4 6 34 6 -35 6 -25 5 -24 
6 13 6 10 6 -2 6 23 6 -11 5 2 6 41 6 14 
6 13 6 -35 6 -25 5 -7 6 -39 6 -10 6 -27 6 30 
6 -48 5 -29 6 -25 6 12 6 39 6 -7 6 50 5 46 
6 -4 6 23 6 18 6 7 6 -42 5 19 6 10 6 -4 
6 20 6 -12 6 -30 6095 1665 300 MP stroke
SO
c9
6 41 6 -13 6 22 6 2 6 -52 6 7 5 1 6 20 
6 64 6 -33 6 49 6 -4 5 38 6 -14 6 -27 6 -7 
6 -10 6 -30 5 -7 6 -9 6 6 6 26 6 17 6 62 
5 -25 6 -20 6 10 6 24 6 -48 6 2 5 -3 6 12 
6 31 6 -9 6 1 6 -33 5 40 6 37 6 -24 6 32 
6 25 6 0 5 -7 6 26 6 -62 6 25 6 -50 6 -5 
5 -69 6 -25 6 3 6 -36 6 19 6 -24 6 19 5 1 
6 24 6 -4 6 2 6 56 6 -21 5 -17 6 -37 6 -2 
6 -2 6 -16 6 -57 5 14 6 61 6 35 6 -37 6 -37 
6 -14 5 2 6 -34 6 16 6 -6 6 -46 6 -1 5 -6 
6 -71 6 0 6 10 6 8 6 -12 5 4 6 29 6 43 
6 34 6 62 6 24 5 0 6 -29 6 46 6 7 6 22 
6 -19 5 17 6 63 6 21 6 -21 6 -2 6 27 6 14 
5 43 6 30 6 82 6 41 6 48 6 29 5 37 6 57 
6 -59 6 6 6 27 6 84 5 17 6 12 6 14 6 22 
6 -19 6 -23 5 26 6 43 6 -29 6 12 6 22 6 8 
5 -19 6 -19 6 -8 6 -4 6 -6 6 -15 5 37 6 18 
6 -6 6 22 6 -2 6 16 5 32 6 -19 6 12 6 -17 
6 -13 6 29 5 -23 6 -20 6 10 6 -27 6 -32 6 -75 
6 -38 5 -79 6 26 6 -39 6 -51 6 0 6 -78 5 25 
6 11 6 0 6 -53 6 -103 6 -29 5 -30 6 -25 6 -44 
6 -24 6 -22 6 -8 5 -68 6 -5 6 -2 6 -35 6 -50 
6 -15 5 12 6 -23 6 18 6 -3 6 -32 6 29 5 13 
6 16 6 -13 6 -20 6 -6 6 8 5 -10 6 9 6 -11 
6 -15 6 -24 6 15 5 6 6 -4 6 51 6 21 6 -52 
6 14 6 27 5 1 6 61 6 -31 6 -28 6 -9 6 14 
5 12 6 -13 6 -32 6 -25 6 7 6 40 5 34 6 17 
6 10 6 -27 6 17 6 30 5 23 6 -2 6 7 6 -16 
6 -20 6 34 5 -15 6 8 6 20 6 -3 6 -29 6 56 
5 67 6 -52 6 47 6 -13 6 -5 6 33 5 4 6 -24 
6 30 6 4 6 -20 6 -24 5 23 6 -19 6 -16 6 17 
6 24 6 46 6 12 5 -13 6 -19 6 -38 6 10 6 -14 
6 -62 5 34 6 -24 6 0 6 27 6 -39 6 -28 5 -25 
6 10 6 7 6 -6 6 18 6 -16 5 -1 6 35 6 10 
6 8 6 -36 6 -23 5 -3 6 -33 6 -2 6 -17 6 39 
6 -36 5 -17 6 -13 6 23 6 45 6 1 6 53 5 45 
6 -4 6 22 6 15 6 3 6 -43 5 17 6 7 6 -5 
6 17 6 -14 6 -30 6095 1665 300 MP stroke
gr

c9
0 sg
6925  282 mt 
(Y) s
1 sg
0 1718 1752 0 0 -1718 8405 2095 4 MP
PP
-1752 0 0 1718 1752 0 0 -1718 8405 2095 5 MP stroke
4 w
DO
SO
6 w
0 sg
8405 2095 mt 10157 2095 L
8405  377 mt 10157  377 L
8405 2095 mt 8405  377 L
10157 2095 mt 10157  377 L
8405 2095 mt 10157 2095 L
8405 2095 mt 8405  377 L
8405 2095 mt 8405 2077 L
8405  377 mt 8405  394 L
8372 2240 mt 
(0) s
8989 2095 mt 8989 2077 L
8989  377 mt 8989  394 L
8889 2240 mt 
(100) s
9573 2095 mt 9573 2077 L
9573  377 mt 9573  394 L
9473 2240 mt 
(200) s
10157 2095 mt 10157 2077 L
10157  377 mt 10157  394 L
10057 2240 mt 
(300) s
8405 2095 mt 8422 2095 L
10157 2095 mt 10139 2095 L
8067 2139 mt 
(-0.05) s
8405 1665 mt 8422 1665 L
10157 1665 mt 10139 1665 L
8304 1709 mt 
(0) s
8405 1236 mt 8422 1236 L
10157 1236 mt 10139 1236 L
8137 1280 mt 
(0.05) s
8405  806 mt 8422  806 L
10157  806 mt 10139  806 L
8204  850 mt 
(0.1) s
8405  377 mt 8422  377 L
10157  377 mt 10139  377 L
8137  421 mt 
(0.15) s
8405 2095 mt 10157 2095 L
8405  377 mt 10157  377 L
8405 2095 mt 8405  377 L
10157 2095 mt 10157  377 L
gs 8405 377 1753 1719 rc
DO
6 66 6 -31 6 35 6 -2 6 -102 6 1 5 -6 6 29 
6 115 6 -59 6 92 6 -3 5 75 6 -19 6 -48 6 -14 
6 -22 6 -61 5 -24 6 -28 6 1 6 37 6 21 6 110 
5 -49 6 -43 6 9 6 36 6 -96 6 -9 6 -18 5 11 
6 49 6 -20 6 0 6 -62 6 72 5 77 6 -33 6 73 
6 66 6 23 6 8 5 72 6 -93 6 64 6 -76 6 2 
6 -121 5 -47 6 3 6 -70 6 31 6 -47 6 32 6 1 
5 48 6 -1 6 11 6 117 6 -23 6 -14 5 -55 6 11 
6 11 6 -11 6 -89 6 39 5 131 6 93 6 -38 6 -43 
6 -7 6 25 5 -47 6 42 6 0 6 -82 6 -4 6 -15 
6 -143 5 -21 6 -5 6 -10 6 -46 6 -22 6 25 5 54 
6 37 6 92 6 25 6 -20 6 -81 5 53 6 -20 6 6 
6 -76 6 -14 6 67 5 -6 6 -90 6 -60 6 -7 6 -33 
6 24 6 2 5 102 6 35 6 51 6 21 6 35 6 82 
5 -132 6 -17 6 23 6 135 6 18 6 12 5 15 6 32 
6 -42 6 -53 6 34 6 70 5 -63 6 10 6 30 6 3 
6 -50 6 -51 6 -35 5 -29 6 -32 6 -50 6 48 6 20 
6 -22 5 34 6 -4 6 33 6 69 6 -19 6 43 5 -5 
6 6 6 88 6 -1 6 5 6 63 5 -2 6 -10 6 -92 
6 -23 6 -106 6 88 6 -23 5 -50 6 50 6 -96 6 93 
6 73 6 56 5 -40 6 -139 6 -13 6 -15 6 -7 6 -46 
5 -14 6 -13 6 13 6 -103 6 7 6 11 5 -50 6 -83 
6 -25 6 26 6 -38 6 34 6 1 5 -56 6 54 6 29 
6 36 6 -18 6 -32 5 -11 6 15 6 -20 6 14 6 -22 
6 -32 5 -51 6 20 6 4 6 -13 6 90 6 41 5 -96 
6 24 6 51 6 2 6 115 6 -51 6 -51 5 -21 6 19 
6 17 6 -31 6 -69 6 -60 5 -5 6 59 6 51 6 23 
6 12 6 -57 5 19 6 45 6 34 6 -10 6 2 6 -39 
5 -52 6 46 6 -42 6 -3 6 21 6 -20 6 -70 5 86 
6 117 6 -103 6 79 6 -29 6 -15 5 55 6 7 6 -49 
6 51 6 8 6 -37 5 -46 6 42 6 -34 6 -27 6 34 
6 52 5 97 6 39 6 -2 6 -18 6 -54 6 31 6 -10 
5 -104 6 71 6 -35 6 8 6 61 6 -61 5 -44 6 -43 
6 22 6 19 6 -4 6 41 5 -19 6 5 6 74 6 27 
6 26 6 -60 5 -43 6 -10 6 -69 6 -18 6 -48 6 53 
6 -86 5 -54 6 -47 6 17 6 66 6 -14 6 86 5 80 
6 -7 6 41 6 32 6 12 6 -73 5 33 6 18 6 -6 
6 35 6 -19 6 -53 8410 1665 300 MP stroke
DA
c8
6 66 6 -30 6 35 6 -1 6 -101 6 3 5 -4 6 31 
6 116 6 -58 6 91 6 -3 5 74 6 -21 6 -48 6 -15 
6 -22 6 -60 5 -22 6 -27 6 3 6 38 6 22 6 110 
5 -49 6 -43 6 10 6 36 6 -94 6 -8 6 -14 5 12 
6 51 6 -19 6 3 6 -60 6 75 5 78 6 -33 6 74 
6 65 6 22 6 7 5 69 6 -95 6 61 6 -77 6 -1 
6 -120 5 -47 6 5 6 -69 6 32 6 -45 6 34 6 3 
5 49 6 1 6 11 6 116 6 -23 6 -15 5 -54 6 11 
6 11 6 -10 6 -88 6 40 5 130 6 90 6 -41 6 -44 
6 -9 6 23 5 -49 6 39 6 -2 6 -83 6 -6 6 -16 
6 -143 5 -19 6 -4 6 -8 6 -44 6 -19 6 27 5 56 
6 38 6 92 6 25 6 -20 6 -80 5 54 6 -19 6 7 
6 -74 6 -13 6 69 5 -5 6 -86 6 -56 6 -2 6 -28 
6 29 6 8 5 106 6 38 6 54 6 24 6 38 6 83 
5 -129 6 -13 6 26 6 136 6 20 6 13 5 15 6 32 
6 -41 6 -52 6 35 6 69 5 -62 6 10 6 29 6 3 
6 -49 6 -50 6 -33 5 -28 6 -28 6 -48 6 51 6 23 
6 -19 5 36 6 -2 6 35 6 70 6 -18 6 44 5 -4 
6 5 6 87 6 -2 6 2 6 60 5 -4 6 -14 6 -94 
6 -26 6 -106 6 86 6 -25 5 -51 6 47 6 -97 6 89 
6 69 6 50 5 -44 6 -143 6 -16 6 -18 6 -11 6 -49 
5 -17 6 -16 6 10 6 -105 6 5 6 9 5 -52 6 -83 
6 -26 6 27 6 -39 6 34 6 0 5 -55 6 54 6 28 
6 35 6 -20 6 -32 5 -12 6 14 6 -20 6 13 6 -21 
6 -32 5 -50 6 20 6 5 6 -11 6 89 6 41 5 -95 
6 24 6 51 6 1 6 114 6 -53 6 -52 5 -21 6 19 
6 16 6 -32 6 -68 6 -58 5 -3 6 60 6 51 6 24 
6 12 6 -57 5 20 6 45 6 34 6 -11 6 2 6 -39 
5 -51 6 46 6 -40 6 -2 6 23 6 -19 6 -67 5 87 
6 116 6 -101 6 79 6 -28 6 -14 5 55 6 7 6 -48 
6 51 6 7 6 -35 5 -45 6 42 6 -33 6 -24 6 34 
6 53 5 96 6 37 6 -4 6 -19 6 -56 6 30 6 -11 
5 -104 6 70 6 -36 6 8 6 59 6 -62 5 -44 6 -43 
6 23 6 19 6 -4 6 40 5 -19 6 4 6 72 6 25 
6 23 6 -62 5 -44 6 -12 6 -69 6 -18 6 -48 6 54 
6 -84 5 -52 6 -43 6 19 6 69 6 -12 6 88 5 81 
6 -7 6 41 6 32 6 11 6 -73 5 33 6 17 6 -6 
6 34 6 -20 6 -53 8410 1665 300 MP stroke
SO
c9
6 71 6 -23 6 40 6 3 6 -91 6 11 5 2 6 36 
6 112 6 -58 6 86 6 -7 5 67 6 -24 6 -48 6 -13 
6 -17 6 -52 5 -13 6 -17 6 12 6 45 6 30 6 110 
5 -45 6 -35 6 18 6 41 6 -83 6 2 6 -4 5 20 
6 55 6 -15 6 1 6 -57 6 70 5 65 6 -43 6 57 
6 45 6 -1 6 -13 5 46 6 -110 6 45 6 -87 6 -10 
6 -122 5 -43 6 5 6 -63 6 34 6 -42 6 33 6 1 
5 42 6 -7 6 3 6 100 6 -38 6 -30 5 -65 6 -3 
6 -4 6 -27 6 -101 6 24 5 108 6 62 6 -65 6 -65 
6 -26 6 4 5 -59 6 28 6 -10 6 -83 6 -1 6 -10 
6 -125 5 1 6 17 6 14 6 -21 6 7 6 50 5 77 
6 58 6 109 6 43 6 0 6 -51 5 81 6 12 6 40 
6 -35 6 31 6 110 5 38 6 -37 6 -5 6 49 6 23 
6 77 6 53 5 143 6 74 6 83 6 52 6 64 6 101 
5 -104 6 10 6 48 6 147 6 30 6 22 5 25 6 38 
6 -33 6 -40 6 45 6 76 5 -52 6 21 6 40 6 14 
6 -34 6 -33 6 -14 5 -7 6 -11 6 -27 6 65 6 33 
6 -11 5 38 6 -3 6 29 6 55 6 -34 6 21 5 -29 
6 -23 6 52 6 -41 6 -35 6 17 5 -47 6 -57 6 -132 
6 -66 6 -139 6 45 6 -68 5 -90 6 1 6 -138 6 44 
6 20 6 -1 5 -92 6 -182 6 -52 6 -52 6 -44 6 -77 
5 -43 6 -39 6 -14 6 -120 6 -7 6 -5 5 -61 6 -87 
6 -28 6 22 6 -40 6 30 6 -5 5 -56 6 51 6 23 
6 29 6 -24 6 -34 5 -11 6 14 6 -18 6 16 6 -18 
6 -27 5 -42 6 26 6 10 6 -6 6 90 6 37 5 -93 
6 25 6 48 6 2 6 107 6 -55 6 -49 5 -16 6 24 
6 22 6 -24 6 -56 6 -43 5 11 6 71 6 59 6 31 
6 18 6 -47 5 29 6 53 6 40 6 -3 6 11 6 -27 
5 -35 6 59 6 -25 6 13 6 36 6 -6 6 -51 5 99 
6 118 6 -91 6 82 6 -24 6 -7 5 57 6 8 6 -44 
6 53 6 7 6 -35 5 -42 6 41 6 -34 6 -27 6 29 
6 42 5 81 6 20 6 -21 6 -35 6 -66 6 18 6 -25 
5 -109 6 60 6 -43 6 0 6 49 6 -69 5 -49 6 -45 
6 18 6 12 6 -10 6 31 5 -27 6 -3 6 63 6 16 
6 15 6 -63 5 -41 6 -6 6 -57 6 -5 6 -28 6 68 
6 -64 5 -30 6 -22 6 39 6 81 6 0 6 94 5 80 
6 -8 6 38 6 27 6 5 6 -74 5 29 6 13 6 -9 
6 29 6 -24 6 -53 8410 1665 300 MP stroke
gr

c9
0 sg
9247  282 mt 
(L) s
1 sg
0 1717 1751 0 0 -1717 1460 4479 4 MP
PP
-1751 0 0 1717 1751 0 0 -1717 1460 4479 5 MP stroke
4 w
DO
SO
6 w
0 sg
1460 4479 mt 3211 4479 L
1460 2762 mt 3211 2762 L
1460 4479 mt 1460 2762 L
3211 4479 mt 3211 2762 L
1460 4479 mt 3211 4479 L
1460 4479 mt 1460 2762 L
1460 4479 mt 1460 4461 L
1460 2762 mt 1460 2779 L
1427 4624 mt 
(0) s
2043 4479 mt 2043 4461 L
2043 2762 mt 2043 2779 L
1943 4624 mt 
(100) s
2627 4479 mt 2627 4461 L
2627 2762 mt 2627 2779 L
2527 4624 mt 
(200) s
3211 4479 mt 3211 4461 L
3211 2762 mt 3211 2779 L
3111 4624 mt 
(300) s
1460 4479 mt 1477 4479 L
3211 4479 mt 3193 4479 L
1122 4523 mt 
(-0.05) s
1460 4049 mt 1477 4049 L
3211 4049 mt 3193 4049 L
1359 4093 mt 
(0) s
1460 3620 mt 1477 3620 L
3211 3620 mt 3193 3620 L
1192 3664 mt 
(0.05) s
1460 3191 mt 1477 3191 L
3211 3191 mt 3193 3191 L
1259 3235 mt 
(0.1) s
1460 2762 mt 1477 2762 L
3211 2762 mt 3193 2762 L
1192 2806 mt 
(0.15) s
1460 4479 mt 3211 4479 L
1460 2762 mt 3211 2762 L
1460 4479 mt 1460 2762 L
3211 4479 mt 3211 2762 L
gs 1460 2762 1752 1718 rc
DO
6 0 6 0 6 0 6 0 6 0 6 0 5 0 6 0 
6 0 6 0 6 0 6 0 5 0 6 0 6 0 6 0 
6 0 6 0 5 0 6 0 6 0 6 0 6 0 6 0 
5 0 6 0 6 0 6 0 6 0 6 0 5 0 6 0 
6 0 6 0 6 0 6 0 5 0 6 0 6 0 6 0 
6 0 6 0 5 0 6 0 6 0 6 0 6 0 6 0 
5 0 6 0 6 0 6 0 6 0 6 0 6 0 5 0 
6 0 6 0 6 0 6 0 6 0 5 0 6 0 6 0 
6 0 6 0 6 0 5 0 6 0 6 0 6 0 6 0 
6 0 5 0 6 0 6 0 6 0 6 0 6 0 5 0 
6 0 6 0 6 0 6 0 6 0 5 0 6 0 6 0 
6 0 6 0 6 0 5 0 6 0 6 0 6 0 6 0 
6 0 5 0 6 0 6 0 6 0 6 0 6 0 6 0 
5 0 6 0 6 0 6 0 6 0 6 0 5 0 6 0 
6 0 6 0 6 0 6 0 5 0 6 0 6 0 6 0 
6 0 6 0 5 0 6 0 6 0 6 0 6 0 6 0 
5 0 6 0 6 0 6 0 6 0 6 0 5 0 6 0 
6 0 6 0 6 0 6 0 5 0 6 0 6 0 6 0 
6 0 6 0 5 0 6 0 6 0 6 0 6 0 6 0 
6 0 5 0 6 0 6 0 6 0 6 0 6 0 5 0 
6 0 6 0 6 0 6 0 6 0 5 0 6 0 6 0 
6 0 6 0 6 0 5 0 6 0 6 0 6 0 6 0 
6 0 5 0 6 0 6 0 6 0 6 0 6 0 5 0 
6 0 6 0 6 0 6 0 6 0 5 0 6 0 6 0 
6 0 6 0 6 0 5 0 6 0 6 0 6 0 6 0 
6 0 6 0 5 0 6 0 6 0 6 0 6 0 6 0 
5 0 6 0 6 0 6 0 6 0 6 0 5 0 6 0 
6 0 6 0 6 0 6 0 5 0 6 0 6 0 6 0 
6 0 6 0 5 0 6 0 6 0 6 0 6 0 6 0 
5 0 6 0 6 0 6 0 6 0 6 0 5 0 6 0 
6 0 6 0 6 0 6 0 5 0 6 0 6 0 6 0 
6 0 6 0 6 0 5 0 6 0 6 0 6 0 6 0 
6 0 5 0 6 0 6 0 6 0 6 0 6 0 5 0 
6 0 6 0 6 0 6 0 6 0 5 0 6 0 6 0 
6 0 6 0 6 0 5 0 6 0 6 0 6 0 6 0 
6 0 5 0 6 0 6 0 6 0 6 0 6 0 5 0 
6 0 6 0 6 0 6 0 6 0 5 0 6 0 6 0 
6 0 6 0 6 0 1465 4049 300 MP stroke
DA
c8
6 17 6 -9 6 6 6 31 6 1 6 15 5 5 6 -18 
6 30 6 -28 6 8 6 -27 5 2 6 2 6 -7 6 0 
6 13 6 5 5 12 6 8 6 0 6 5 6 -25 6 20 
5 6 6 -5 6 -7 6 30 6 1 6 14 5 8 6 -2 
6 19 6 7 6 28 6 -11 5 -5 6 21 6 -20 6 -14 
6 -9 6 -13 5 -35 6 12 6 -43 6 7 6 -23 6 20 
5 -3 6 -4 6 23 6 -7 6 24 6 -3 6 12 5 -4 
6 10 6 1 6 -29 6 10 6 -5 5 8 6 -9 6 -3 
6 1 6 24 6 -14 5 -30 6 -23 6 0 6 -9 6 -17 
6 -22 5 -2 6 -30 6 -14 6 5 6 -20 6 -7 5 30 
6 -4 6 7 6 10 6 23 6 17 5 9 6 4 6 7 
6 -15 6 2 6 4 5 19 6 -19 6 13 6 -1 6 26 
6 6 5 -8 6 15 6 33 6 25 6 20 6 35 6 21 
5 32 6 1 6 23 6 7 6 13 6 4 5 -12 6 47 
6 4 6 8 6 -23 6 10 5 -4 6 -7 6 -14 6 6 
6 6 6 -17 5 -20 6 14 6 -16 6 -15 6 -9 6 2 
5 2 6 2 6 6 6 11 6 19 6 -6 5 8 6 16 
6 -3 6 11 6 -3 6 -13 5 8 6 -17 6 -2 6 -9 
6 -35 6 -9 5 -21 6 -40 6 -23 6 -28 6 -6 6 -26 
6 6 5 -49 6 -5 6 -8 6 -36 6 12 6 -51 5 -35 
6 -41 6 -23 6 -1 6 -37 6 -21 5 -23 6 -12 6 -21 
6 -18 6 -24 6 10 5 -25 6 -14 6 1 6 10 6 -3 
6 -8 5 14 6 -11 6 4 6 17 6 -16 6 -1 5 -10 
6 3 6 3 6 -2 6 -6 6 6 5 -6 6 7 6 9 
6 16 6 0 6 11 5 13 6 -16 6 0 6 30 6 -9 
6 -7 6 6 5 -33 6 16 6 2 6 -1 6 -8 6 -4 
5 8 6 17 6 17 6 10 6 -2 6 1 5 4 6 2 
6 20 6 -4 6 -5 6 -3 5 5 6 -3 6 11 6 14 
6 -10 6 21 5 6 6 3 6 17 6 29 6 -14 6 -14 
5 41 6 -25 6 18 6 5 6 -11 6 4 5 15 6 -16 
6 4 6 10 6 12 6 -10 5 19 6 11 6 -2 6 -4 
6 -20 6 -10 6 -8 5 -9 6 2 6 -22 6 -4 6 19 
6 -32 5 12 6 -10 6 -21 6 13 6 1 6 7 5 -7 
6 -1 6 3 6 -12 6 6 6 -6 5 -23 6 -11 6 -19 
6 2 6 -7 6 -9 5 11 6 -2 6 14 6 -14 6 33 
6 18 5 26 6 14 6 6 6 29 6 -8 6 -3 5 14 
6 -9 6 -6 6 -5 6 17 6 -16 5 -3 6 0 6 -14 
6 2 6 8 6 -6 1465 4049 300 MP stroke
SO
c9
6 10 6 3 6 6 6 2 6 3 6 15 5 15 6 15 
6 13 6 -1 6 6 6 -4 5 -4 6 -13 6 -10 6 -5 
6 -4 6 0 5 6 6 9 6 12 6 13 6 8 6 6 
5 -6 6 -1 6 4 6 3 6 -1 6 11 5 11 6 13 
6 12 6 7 6 9 6 9 5 16 6 8 6 -2 6 3 
6 -7 6 -13 5 -17 6 -18 6 -27 6 -16 6 -24 6 -15 
5 -15 6 -2 6 4 6 3 6 12 6 8 6 14 5 10 
6 9 6 5 6 4 6 4 6 -10 5 -7 6 -6 6 0 
6 -2 6 -1 6 -1 5 8 6 4 6 -10 6 -21 6 -17 
6 -12 5 -11 6 -14 6 -9 6 -13 6 -14 6 -4 5 -2 
6 -1 6 15 6 19 6 19 6 22 5 27 6 29 6 28 
6 22 6 18 6 8 5 6 6 8 6 17 6 12 6 15 
6 14 5 24 6 25 6 18 6 19 6 30 6 37 6 38 
5 43 6 39 6 40 6 29 6 24 6 19 5 15 6 13 
6 2 6 18 6 18 6 16 5 0 6 -3 6 -4 6 -7 
6 -11 6 -6 5 -2 6 -6 6 -14 6 -8 6 -10 6 -13 
5 -14 6 -10 6 -4 6 -1 6 2 6 5 5 10 6 5 
6 1 6 3 6 -2 6 -2 5 -6 6 -16 6 -14 6 -20 
6 -21 6 -22 5 -33 6 -35 6 -36 6 -45 6 -45 6 -46 
6 -36 5 -34 6 -24 6 -34 6 -33 6 -28 6 -34 5 -25 
6 -36 6 -45 6 -51 6 -48 6 -34 5 -32 6 -31 6 -31 
6 -25 6 -25 6 -23 5 -25 6 -14 6 -15 6 -15 6 -10 
6 -1 5 3 6 0 6 3 6 1 6 1 6 7 5 0 
6 -2 6 -6 6 -4 6 0 6 2 5 -1 6 3 6 1 
6 4 6 7 6 14 5 12 6 11 6 13 6 4 6 -1 
6 9 6 8 5 1 6 2 6 -11 6 -5 6 1 6 3 
5 1 6 0 6 3 6 12 6 19 6 19 5 13 6 8 
6 5 6 4 6 11 6 9 5 3 6 0 6 2 6 2 
6 5 6 13 5 7 6 12 6 12 6 11 6 13 6 20 
5 12 6 -2 6 10 6 1 6 4 6 6 5 0 6 -1 
6 4 6 -2 6 -2 6 2 5 7 6 2 6 6 6 9 
6 4 6 -1 6 -13 5 -17 6 -17 6 -15 6 -10 6 -12 
6 -13 5 0 6 -8 6 -6 6 -5 6 -13 6 -5 5 -1 
6 4 6 2 6 -1 6 0 6 -5 5 -3 6 -3 6 -12 
6 -14 6 -18 6 -11 5 -6 6 -4 6 4 6 5 6 11 
6 6 5 16 6 22 6 28 6 26 6 19 6 21 5 11 
6 2 6 3 6 -2 6 -5 6 -7 5 1 6 -2 6 -5 
6 -4 6 -8 6 -6 1465 4049 300 MP stroke
gr

c9
0 sg
2292 2667 mt 
(N) s
1431 4534 mt 
( ) s
3183 2816 mt 
( ) s
1 sg
0 1717 1751 0 0 -1717 3775 4479 4 MP
PP
-1751 0 0 1717 1751 0 0 -1717 3775 4479 5 MP stroke
4 w
DO
SO
6 w
0 sg
3775 4479 mt 5526 4479 L
3775 2762 mt 5526 2762 L
3775 4479 mt 3775 2762 L
5526 4479 mt 5526 2762 L
3775 4479 mt 5526 4479 L
3775 4479 mt 3775 2762 L
3775 4479 mt 3775 4461 L
3775 2762 mt 3775 2779 L
3742 4624 mt 
(0) s
4358 4479 mt 4358 4461 L
4358 2762 mt 4358 2779 L
4258 4624 mt 
(100) s
4942 4479 mt 4942 4461 L
4942 2762 mt 4942 2779 L
4842 4624 mt 
(200) s
5526 4479 mt 5526 4461 L
5526 2762 mt 5526 2779 L
5426 4624 mt 
(300) s
3775 4479 mt 3792 4479 L
5526 4479 mt 5508 4479 L
3604 4523 mt 
(-6) s
3775 4192 mt 3792 4192 L
5526 4192 mt 5508 4192 L
3604 4236 mt 
(-4) s
3775 3906 mt 3792 3906 L
5526 3906 mt 5508 3906 L
3604 3950 mt 
(-2) s
3775 3620 mt 3792 3620 L
5526 3620 mt 5508 3620 L
3674 3664 mt 
(0) s
3775 3334 mt 3792 3334 L
5526 3334 mt 5508 3334 L
3674 3378 mt 
(2) s
3775 3048 mt 3792 3048 L
5526 3048 mt 5508 3048 L
3674 3092 mt 
(4) s
3775 2762 mt 3792 2762 L
5526 2762 mt 5508 2762 L
3674 2806 mt 
(6) s
3775 2708 mt 
(x 10) s
%%IncludeResource: font Helvetica
/Helvetica /ISOLatin1Encoding 80 FMSR

4001 2634 mt 
(-3) s
3775 4479 mt 5526 4479 L
3775 2762 mt 5526 2762 L
3775 4479 mt 3775 2762 L
5526 4479 mt 5526 2762 L
gs 3775 2762 1752 1718 rc
DO
6 40 6 -20 6 22 6 -2 6 -65 6 -2 5 -7 6 16 
6 71 6 -37 6 57 6 -1 5 50 6 -10 6 -28 6 -8 
6 -13 6 -38 5 -16 6 -19 6 -2 6 21 6 13 6 69 
5 -29 6 -28 6 6 6 23 6 -61 6 -8 5 -12 6 4 
6 29 6 -14 6 -2 6 -41 5 43 6 48 6 -21 6 46 
6 43 6 17 5 9 6 49 6 -54 6 44 6 -43 6 4 
5 -74 6 -29 6 2 6 -45 6 18 6 -32 6 19 5 -1 
6 29 6 -1 6 6 6 74 6 -12 5 -7 6 -33 6 7 
6 7 6 -5 6 -56 5 23 6 84 6 61 6 -20 6 -23 
6 -1 5 19 6 -26 6 30 6 4 6 -48 6 -1 5 -7 
6 -89 6 -15 6 -5 6 -7 6 -32 5 -17 6 11 6 32 
6 21 6 57 6 17 5 -12 6 -51 6 33 6 -13 6 4 
6 -49 5 -11 6 40 6 -5 6 -58 6 -42 6 -9 6 -26 
5 9 6 -4 6 59 6 19 6 29 6 12 5 21 6 51 
6 -83 6 -13 6 12 6 84 5 13 6 9 6 12 6 23 
6 -24 6 -32 5 23 6 47 6 -37 6 9 6 21 6 6 
5 -28 6 -31 6 -21 6 -18 6 -20 6 -33 5 29 6 12 
6 -14 6 21 6 -3 6 21 5 44 6 -10 6 30 6 -1 
6 7 6 59 5 5 6 8 6 46 6 6 6 1 6 -51 
6 -10 5 -62 6 60 6 -10 6 -27 6 36 6 -56 5 62 
6 52 6 43 6 -16 6 -81 6 -3 5 -4 6 1 6 -25 
6 -5 6 -4 6 12 5 -61 6 7 6 9 6 -29 6 -51 
6 -17 5 16 6 -25 6 21 6 0 6 -36 6 33 5 18 
6 24 6 -11 6 -20 6 -7 6 9 5 -13 6 9 6 -14 
6 -22 6 -34 6 10 5 0 6 -10 6 55 6 25 6 -61 
6 13 6 32 5 0 6 74 6 -31 6 -31 6 -13 6 12 
5 10 6 -19 6 -44 6 -41 6 -6 6 34 5 30 6 13 
6 7 6 -37 6 10 6 28 5 21 6 -6 6 1 6 -24 
6 -35 6 27 5 -27 6 -4 6 11 6 -14 6 -47 6 50 
5 73 6 -65 6 48 6 -19 6 -10 6 33 5 5 6 -31 
6 32 6 5 6 -23 6 -30 5 25 6 -23 6 -18 6 19 
6 32 6 62 6 27 5 1 6 -8 6 -32 6 22 6 -5 
6 -64 5 45 6 -21 6 6 6 40 6 -37 6 -27 5 -27 
6 13 6 12 6 -3 6 26 6 -11 5 3 6 48 6 20 
6 19 6 -34 6 -25 5 -6 6 -42 6 -12 6 -32 6 33 
6 -56 5 -37 6 -34 6 6 6 37 6 -13 6 51 5 49 
6 -5 6 26 6 20 6 9 6 -45 5 20 6 12 6 -3 
6 24 6 -11 6 -33 3780 3620 300 MP stroke
DA
c8
6 491 6 -329 6 184 6 496 6 -528 6 36 5 -177 6 -422 
6 880 6 -755 6 485 6 -390 5 481 6 140 6 -173 6 35 
6 188 6 -193 5 18 6 -147 6 -180 6 79 6 -429 6 800 
5 -34 6 -269 6 -129 6 658 6 -446 6 37 5 -139 6 -192 
6 351 6 -105 6 306 6 -675 5 -11 6 557 6 -533 6 47 
6 228 6 73 5 -309 6 829 6 -791 6 702 6 -391 6 604 
5 -383 6 -258 6 367 6 -514 6 392 6 -403 6 159 5 -228 
6 241 6 -53 6 -521 6 704 6 -40 5 192 6 -327 6 2 
6 106 6 384 6 -644 5 -450 6 214 6 661 6 18 6 -185 
6 -151 5 353 6 -438 6 211 6 405 6 -394 6 53 5 631 
6 -627 6 -81 6 19 6 182 6 -135 5 -230 6 -145 6 94 
6 -267 6 345 6 226 5 300 6 -677 6 370 6 -132 6 406 
6 -318 5 -405 6 373 6 406 6 -156 6 -279 6 128 6 -290 
5 110 6 -494 6 343 6 -72 6 153 6 -68 5 -223 6 1068 
6 -590 6 -202 6 -548 6 596 5 34 6 -13 6 -77 6 367 
6 52 6 -440 5 -170 6 666 6 -369 6 -91 6 134 6 261 
5 3 6 -91 6 -32 6 6 6 88 6 -494 5 141 6 213 
6 -280 6 194 6 -185 6 -172 5 445 6 -308 6 243 6 -50 
6 -407 6 457 5 -26 6 -286 6 331 6 47 6 403 6 -348 
6 400 5 -969 6 566 6 124 6 -493 6 726 6 -943 5 115 
6 98 6 482 6 493 6 -649 6 13 5 -40 6 194 6 -164 
6 -6 6 -127 6 574 5 -561 6 -12 6 300 6 155 6 -295 
6 -261 5 324 6 -365 6 173 6 278 6 -557 6 140 5 -35 
6 277 6 64 6 -108 6 -130 6 175 5 -172 6 179 6 50 
6 83 6 -355 6 79 5 82 6 -507 6 251 6 685 6 -605 
6 -134 6 252 5 -563 6 847 6 -12 6 -158 6 -200 6 17 
5 237 6 181 6 -56 6 -281 6 -315 6 44 5 146 6 58 
6 346 6 -389 6 -127 6 65 5 224 6 -64 6 201 6 61 
6 -491 6 436 5 -198 6 -121 6 206 6 242 6 -781 6 -136 
5 1097 6 -910 6 543 6 -75 6 -345 6 242 5 279 6 -504 
6 227 6 216 6 41 6 -441 5 382 6 -46 6 -300 6 -85 
6 -216 6 301 6 217 5 74 6 178 6 -431 6 213 6 461 
6 -881 5 534 6 -217 6 -257 6 611 6 -93 6 -12 5 -332 
6 21 6 118 6 -222 6 301 6 -121 5 -337 6 240 6 16 
6 424 6 -90 6 -164 5 281 6 -256 6 144 6 -511 6 697 
6 -174 5 -44 6 -323 6 -243 6 405 6 -501 6 44 5 443 
6 -238 6 50 6 105 6 423 6 -535 5 79 6 120 6 -202 
6 273 6 167 6 -272 3780 3620 300 MP stroke
SO
c9
6 7 6 -4 6 -3 6 14 6 -4 6 -3 5 -4 6 -23 
6 12 6 -15 6 5 6 -8 5 6 6 11 6 5 6 4 
6 10 6 2 5 3 6 0 6 -7 6 1 6 -16 6 9 
5 9 6 1 6 -7 6 14 6 -1 6 0 5 -3 6 -12 
6 0 6 -8 6 5 6 -16 5 -19 6 2 6 -13 6 -11 
6 -3 6 3 5 -10 6 22 6 -7 6 18 6 0 6 20 
5 9 6 -3 6 10 6 -9 6 4 6 -9 6 -4 5 -11 
6 -4 6 -1 6 -20 6 3 6 0 5 6 6 -4 6 -5 
6 -5 6 9 6 -7 5 -18 6 -14 6 7 6 10 6 5 
6 -1 5 14 6 1 6 6 6 21 6 8 6 5 5 27 
6 7 6 3 6 2 6 7 6 3 5 -4 6 -7 6 0 
6 -8 6 2 6 7 5 21 6 -2 6 11 6 3 6 18 
6 10 5 -4 6 5 6 16 6 11 6 -2 6 3 6 -8 
5 -2 6 -19 6 -6 6 -10 6 -4 6 -3 5 -18 6 16 
6 -2 6 -4 6 -23 6 -3 5 -2 6 -1 6 -5 6 5 
6 9 6 -3 5 -11 6 12 6 2 6 -1 6 2 6 9 
5 9 6 4 6 2 6 -1 6 4 6 -13 5 -10 6 -3 
6 -15 6 -7 6 -12 6 -20 5 -4 6 -16 6 -7 6 -7 
6 -20 6 -5 5 -3 6 -12 6 -1 6 -3 6 11 6 -4 
6 14 5 -20 6 -3 6 4 6 -16 6 12 6 -15 5 -9 
6 -7 6 5 6 24 6 3 6 4 5 2 6 9 6 5 
6 7 6 -2 6 20 5 3 6 0 6 8 6 14 6 4 
6 -5 5 7 6 -6 6 -3 6 10 6 -8 6 -2 5 -4 
6 4 6 7 6 4 6 -1 6 6 5 -1 6 4 6 4 
6 7 6 -5 6 -3 5 3 6 -13 6 -10 6 15 6 -4 
6 -8 6 6 5 -16 6 10 6 11 6 7 6 1 6 0 
5 6 6 10 6 7 6 1 6 -9 6 -7 5 -2 6 -3 
6 10 6 -1 6 -4 6 -3 5 5 6 2 6 7 6 11 
6 -8 6 7 5 1 6 -5 6 -1 6 10 6 -12 6 -22 
5 18 6 -14 6 3 6 3 6 -8 6 -4 5 9 6 -8 
6 -3 6 3 6 6 6 -11 5 -1 6 -1 6 -9 6 -9 
6 -15 6 -6 6 2 5 2 6 10 6 -4 6 -1 6 19 
6 -13 5 6 6 2 6 -10 6 9 6 4 6 6 5 -5 
6 -5 6 1 6 -8 6 3 6 2 5 -8 6 3 6 1 
6 15 6 12 6 6 5 15 6 5 6 13 6 -9 6 13 
6 4 5 3 6 -6 6 -17 6 0 6 -15 6 -16 5 1 
6 -6 6 -5 6 -4 6 12 6 -5 5 -2 6 3 6 -5 
6 3 6 9 6 0 3780 3620 300 MP stroke
gr

c9
0 sg
%%IncludeResource: font Helvetica
/Helvetica /ISOLatin1Encoding 120 FMSR

4607 2667 mt 
(R) s
1 sg
0 1717 1751 0 0 -1717 6090 4479 4 MP
PP
-1751 0 0 1717 1751 0 0 -1717 6090 4479 5 MP stroke
4 w
DO
SO
6 w
0 sg
6090 4479 mt 7841 4479 L
6090 2762 mt 7841 2762 L
6090 4479 mt 6090 2762 L
7841 4479 mt 7841 2762 L
6090 4479 mt 7841 4479 L
6090 4479 mt 6090 2762 L
6090 4479 mt 6090 4461 L
6090 2762 mt 6090 2779 L
6057 4624 mt 
(0) s
6673 4479 mt 6673 4461 L
6673 2762 mt 6673 2779 L
6573 4624 mt 
(100) s
7257 4479 mt 7257 4461 L
7257 2762 mt 7257 2779 L
7157 4624 mt 
(200) s
7841 4479 mt 7841 4461 L
7841 2762 mt 7841 2779 L
7741 4624 mt 
(300) s
6090 4479 mt 6107 4479 L
7841 4479 mt 7823 4479 L
5819 4523 mt 
(-0.1) s
6090 4049 mt 6107 4049 L
7841 4049 mt 7823 4049 L
5989 4093 mt 
(0) s
6090 3620 mt 6107 3620 L
7841 3620 mt 7823 3620 L
5889 3664 mt 
(0.1) s
6090 3191 mt 6107 3191 L
7841 3191 mt 7823 3191 L
5889 3235 mt 
(0.2) s
6090 2762 mt 6107 2762 L
7841 2762 mt 7823 2762 L
5889 2806 mt 
(0.3) s
6090 4479 mt 7841 4479 L
6090 2762 mt 7841 2762 L
6090 4479 mt 6090 2762 L
7841 4479 mt 7841 2762 L
gs 6090 2762 1752 1718 rc
DO
6 33 6 -15 6 17 6 -1 6 -51 6 1 5 -3 6 15 
6 57 6 -29 6 46 6 -2 5 37 6 -10 6 -24 6 -7 
6 -11 6 -30 5 -11 6 -14 6 0 6 19 6 11 6 54 
5 -25 6 -21 6 5 6 17 6 -47 6 -4 5 -9 6 6 
6 24 6 -10 6 1 6 -31 5 36 6 38 6 -16 6 36 
6 33 6 10 5 4 6 35 6 -46 6 31 6 -38 6 0 
5 -60 6 -23 6 2 6 -35 6 16 6 -24 6 17 5 0 
6 24 6 0 6 5 6 58 6 -12 5 -7 6 -27 6 5 
6 5 6 -5 6 -44 5 20 6 64 6 46 6 -20 6 -21 
6 -4 5 12 6 -24 6 20 6 0 6 -41 6 -2 5 -8 
6 -70 6 -11 6 -2 6 -4 6 -23 5 -10 6 12 6 27 
6 19 6 45 6 12 5 -9 6 -41 6 27 6 -10 6 3 
6 -37 5 -7 6 33 6 -3 6 -44 6 -29 6 -3 6 -16 
5 13 6 2 6 50 6 18 6 26 6 10 5 18 6 40 
6 -65 6 -8 6 11 6 67 5 9 6 6 6 7 6 15 
6 -20 6 -27 5 17 6 34 6 -31 6 4 6 14 6 2 
5 -25 6 -26 6 -17 6 -15 6 -15 6 -25 5 24 6 10 
6 -11 6 17 6 -2 6 16 5 34 6 -9 6 21 6 -3 
6 2 6 43 5 -1 6 2 6 31 6 -2 6 -6 6 -46 
6 -12 5 -53 6 43 6 -12 6 -25 6 24 6 -48 5 45 
6 36 6 26 6 -20 6 -70 6 -7 5 -8 6 -4 6 -23 
6 -8 6 -6 6 5 5 -51 6 4 6 5 6 -25 6 -41 
6 -13 5 13 6 -18 6 17 6 0 6 -28 6 27 5 15 
6 18 6 -10 6 -15 6 -6 6 8 5 -10 6 7 6 -11 
6 -16 6 -25 6 10 5 2 6 -6 6 45 6 20 6 -47 
6 12 6 25 5 1 6 57 6 -25 6 -26 6 -10 6 10 
5 8 6 -15 6 -34 6 -30 6 -2 6 30 5 25 6 12 
6 6 6 -29 6 10 6 23 5 16 6 -5 6 1 6 -19 
6 -25 6 22 5 -20 6 -1 6 10 6 -9 6 -34 6 42 
5 58 6 -51 6 39 6 -14 6 -7 6 27 5 4 6 -25 
6 26 6 3 6 -17 6 -23 5 21 6 -17 6 -13 6 17 
6 25 6 48 6 20 5 -2 6 -9 6 -27 6 15 6 -5 
6 -52 5 35 6 -17 6 4 6 30 6 -31 6 -22 5 -21 
6 12 6 9 6 -2 6 20 6 -9 5 2 6 36 6 14 
6 12 6 -30 6 -21 5 -6 6 -34 6 -9 6 -23 6 26 
6 -42 5 -26 6 -23 6 9 6 33 6 -7 6 43 5 40 
6 -3 6 20 6 16 6 6 6 -37 5 17 6 8 6 -2 
6 17 6 -10 6 -26 6095 4049 300 MP stroke
DA
c8
6 36 6 -16 6 19 6 -1 6 -55 6 2 5 -2 6 18 
6 62 6 -31 6 49 6 -1 5 40 6 -12 6 -26 6 -8 
6 -12 6 -33 5 -12 6 -14 6 1 6 21 6 13 6 59 
5 -27 6 -23 6 6 6 18 6 -51 6 -4 5 -8 6 7 
6 28 6 -10 6 1 6 -32 5 41 6 42 6 -17 6 40 
6 36 6 11 5 4 6 37 6 -51 6 33 6 -42 6 -1 
5 -66 6 -25 6 2 6 -37 6 17 6 -24 6 19 5 2 
6 26 6 0 6 7 6 63 6 -13 5 -8 6 -29 6 6 
6 5 6 -6 6 -46 5 22 6 71 6 48 6 -22 6 -24 
6 -5 5 12 6 -26 6 21 6 -2 6 -45 6 -3 5 -10 
6 -77 6 -11 6 -2 6 -4 6 -24 5 -10 6 15 6 31 
6 21 6 50 6 13 5 -11 6 -43 6 29 6 -11 6 3 
6 -40 5 -6 6 37 6 -3 6 -47 6 -30 6 -1 6 -15 
5 16 6 4 6 58 6 21 6 30 6 13 5 21 6 44 
6 -70 6 -7 6 15 6 74 5 11 6 7 6 9 6 16 
6 -22 6 -28 5 19 6 37 6 -33 6 6 6 15 6 1 
5 -27 6 -27 6 -18 6 -15 6 -16 6 -25 5 27 6 13 
6 -10 6 19 6 0 6 19 5 38 6 -10 6 24 6 -2 
6 3 6 47 5 -1 6 2 6 32 6 -3 6 -8 6 -51 
6 -14 5 -57 6 46 6 -14 6 -27 6 25 6 -52 5 49 
6 37 6 27 6 -25 6 -78 6 -8 5 -10 6 -6 6 -27 
6 -10 6 -8 6 4 5 -56 6 3 6 4 6 -29 6 -45 
6 -13 5 13 6 -20 6 18 6 0 6 -30 6 30 5 15 
6 19 6 -11 6 -18 6 -6 6 8 5 -11 6 7 6 -12 
6 -18 6 -26 6 11 5 2 6 -5 6 48 6 22 6 -51 
6 13 6 27 5 2 6 61 6 -29 6 -28 6 -11 6 10 
5 8 6 -17 6 -37 6 -32 6 -1 6 32 5 29 6 12 
6 6 6 -30 6 11 6 25 5 18 6 -6 6 1 6 -21 
6 -28 6 25 5 -22 6 -1 6 12 6 -10 6 -36 6 48 
5 62 6 -54 6 43 6 -16 6 -7 6 30 5 3 6 -25 
6 27 6 4 6 -20 6 -23 5 22 6 -18 6 -13 6 19 
6 29 6 52 6 21 5 -3 6 -11 6 -29 6 16 6 -7 
6 -56 5 38 6 -19 6 4 6 31 6 -33 6 -24 5 -23 
6 12 6 10 6 -2 6 22 6 -10 5 2 6 39 6 14 
6 12 6 -34 6 -24 5 -7 6 -37 6 -10 6 -25 6 28 
6 -46 5 -28 6 -23 6 11 6 37 6 -6 6 48 5 44 
6 -4 6 23 6 17 6 6 6 -40 5 18 6 10 6 -4 
6 19 6 -11 6 -29 6095 4049 300 MP stroke
SO
c9
6 6 6 9 6 10 6 -7 6 -8 6 -7 5 -6 6 7 
6 -6 6 2 6 4 6 11 5 11 6 5 6 7 6 8 
6 3 6 1 5 0 6 0 6 4 6 6 6 19 6 11 
5 1 6 7 6 15 6 0 6 -2 6 -2 5 -3 6 2 
6 -5 6 -10 6 -23 6 -16 5 -8 6 -21 6 -16 6 -8 
6 -9 6 -9 5 4 6 -7 6 5 6 3 6 6 6 -3 
5 -6 6 1 6 -7 6 -3 6 -10 6 -9 6 -10 5 -9 
6 -12 6 -14 6 0 6 -5 6 -12 5 -18 6 -16 6 -13 
6 -16 6 -32 6 -27 5 -7 6 4 6 -7 6 -13 6 -8 
6 2 5 0 6 10 6 18 6 11 6 17 6 25 5 9 
6 12 6 19 6 19 6 12 6 9 5 12 6 18 6 21 
6 31 6 34 6 29 5 21 6 34 6 37 6 38 6 32 
6 33 5 47 6 49 6 34 6 26 6 29 6 22 6 21 
5 17 6 23 6 22 6 20 6 16 6 17 5 25 6 1 
6 -7 6 -2 6 15 6 11 5 6 6 7 6 11 6 5 
6 -3 6 5 5 17 6 7 6 8 6 16 6 19 6 14 
5 8 6 8 6 5 6 1 6 -7 6 -4 5 -3 6 -14 
6 -15 6 -21 6 -23 6 -20 5 -29 6 -30 6 -34 6 -40 
6 -30 6 -32 5 -37 6 -27 6 -27 6 -28 6 -38 6 -39 
6 -48 5 -34 6 -33 6 -45 6 -37 6 -49 6 -38 5 -22 
6 -15 6 -19 6 -35 6 -29 6 -19 5 -16 6 -17 6 -14 
6 -9 6 -2 6 -12 5 -6 6 4 6 -1 6 -9 6 -9 
6 0 5 -5 6 -2 6 0 6 -10 6 -2 6 4 5 7 
6 4 6 0 6 1 6 6 6 5 5 7 6 7 6 2 
6 -4 6 -1 6 -1 5 -5 6 6 6 10 6 -9 6 -7 
6 4 6 2 5 17 6 11 6 2 6 4 6 11 6 17 
5 13 6 4 6 -3 6 -1 6 8 6 13 5 11 6 11 
6 1 6 3 6 13 6 16 5 14 6 15 6 10 6 5 
6 14 6 9 5 7 6 10 6 5 6 -8 6 3 6 19 
5 -1 6 4 6 2 6 -3 6 5 6 5 5 -5 6 2 
6 4 6 -3 6 -12 6 -5 5 -11 6 -20 6 -17 6 -13 
6 -3 6 -1 6 -5 5 -7 6 -13 6 -4 6 -2 6 -17 
6 -5 5 -5 6 -6 6 6 6 -3 6 -10 6 -13 5 -8 
6 -5 6 -8 6 -3 6 -6 6 -7 5 5 6 12 6 16 
6 10 6 10 6 16 5 12 6 14 6 12 6 22 6 13 
6 1 5 -3 6 -2 6 3 6 -6 6 -2 6 6 5 -3 
6 -1 6 2 6 2 6 -10 6 -4 5 1 6 -1 6 4 
6 3 6 -5 6 -2 6095 4049 300 MP stroke
gr

c9
0 sg
6922 2667 mt 
(C) s
1 sg
0 1717 1752 0 0 -1717 8405 4479 4 MP
PP
-1752 0 0 1717 1752 0 0 -1717 8405 4479 5 MP stroke
4 w
DO
SO
6 w
0 sg
8405 4479 mt 10157 4479 L
8405 2762 mt 10157 2762 L
8405 4479 mt 8405 2762 L
10157 4479 mt 10157 2762 L
8405 4479 mt 10157 4479 L
8405 4479 mt 8405 2762 L
8405 4479 mt 8405 4461 L
8405 2762 mt 8405 2779 L
8372 4624 mt 
(0) s
8989 4479 mt 8989 4461 L
8989 2762 mt 8989 2779 L
8889 4624 mt 
(100) s
9573 4479 mt 9573 4461 L
9573 2762 mt 9573 2779 L
9473 4624 mt 
(200) s
10157 4479 mt 10157 4461 L
10157 2762 mt 10157 2779 L
10057 4624 mt 
(300) s
8405 4479 mt 8422 4479 L
10157 4479 mt 10139 4479 L
8067 4523 mt 
(-0.04) s
8405 4049 mt 8422 4049 L
10157 4049 mt 10139 4049 L
8067 4093 mt 
(-0.02) s
8405 3620 mt 8422 3620 L
10157 3620 mt 10139 3620 L
8304 3664 mt 
(0) s
8405 3191 mt 8422 3191 L
10157 3191 mt 10139 3191 L
8137 3235 mt 
(0.02) s
8405 2762 mt 8422 2762 L
10157 2762 mt 10139 2762 L
8137 2806 mt 
(0.04) s
8405 4479 mt 10157 4479 L
8405 2762 mt 10157 2762 L
8405 4479 mt 8405 2762 L
10157 4479 mt 10157 2762 L
gs 8405 2762 1753 1718 rc
DO
6 124 6 -60 6 64 6 -4 6 -197 6 -5 5 -18 6 49 
6 217 6 -114 6 175 6 -4 5 148 6 -30 6 -87 6 -24 
6 -40 6 -115 5 -48 6 -57 6 -5 6 66 6 39 6 209 
5 -90 6 -82 6 17 6 68 6 -184 6 -21 6 -38 5 14 
6 90 6 -42 6 -3 6 -124 6 132 5 144 6 -64 6 139 
6 130 6 50 6 25 5 147 6 -167 6 132 6 -134 6 11 
6 -225 5 -88 6 6 6 -136 6 56 6 -95 6 57 6 -1 
5 87 6 -1 6 18 6 224 6 -37 6 -24 5 -101 6 22 
6 22 6 -18 6 -170 6 72 5 252 6 184 6 -62 6 -72 
6 -5 6 54 5 -79 6 87 6 10 6 -147 6 -3 6 -23 
6 -270 5 -43 6 -14 6 -23 6 -95 6 -49 6 38 5 96 
6 65 6 174 6 49 6 -35 6 -155 5 100 6 -38 6 10 
6 -147 6 -32 6 123 5 -15 6 -174 6 -125 6 -25 6 -76 
6 32 6 -10 5 181 6 59 6 90 6 36 6 65 6 155 
5 -252 6 -37 6 38 6 255 6 38 6 27 5 34 6 66 
6 -72 6 -97 6 68 6 139 5 -112 6 25 6 63 6 14 
6 -86 6 -93 6 -64 5 -54 6 -61 6 -99 6 88 6 38 
6 -44 5 64 6 -9 6 63 6 134 6 -32 6 88 5 -2 
6 17 6 177 6 11 6 22 6 135 5 16 6 -2 6 -158 
6 -32 6 -190 6 177 6 -32 5 -83 6 105 6 -172 6 187 
6 153 6 126 5 -54 6 -249 6 -11 6 -16 6 -1 6 -76 
5 -17 6 -15 6 34 6 -188 6 20 6 26 5 -89 6 -155 
6 -50 6 49 6 -74 6 63 6 0 5 -109 6 101 6 54 
6 71 6 -33 6 -60 5 -22 6 28 6 -38 6 26 6 -42 
6 -65 5 -101 6 31 6 2 6 -30 6 166 6 78 5 -184 
6 40 6 95 6 2 6 223 6 -94 6 -96 5 -39 6 36 
6 32 6 -59 6 -133 6 -120 5 -18 6 104 6 93 6 41 
6 22 6 -113 5 33 6 84 6 64 6 -20 6 4 6 -74 
5 -103 6 83 6 -83 6 -11 6 36 6 -43 6 -140 5 156 
6 218 6 -196 6 146 6 -56 6 -30 5 102 6 14 6 -94 
6 97 6 14 6 -69 5 -90 6 76 6 -68 6 -54 6 60 
6 96 5 186 6 82 6 1 6 -27 6 -97 6 64 6 -14 
5 -196 6 137 6 -64 6 18 6 119 6 -112 5 -82 6 -83 
6 41 6 36 6 -9 6 79 5 -35 6 11 6 143 6 58 
6 57 6 -106 5 -76 6 -18 6 -128 6 -36 6 -94 6 98 
6 -167 5 -110 6 -101 6 20 6 114 6 -36 6 156 5 149 
6 -15 6 78 6 63 6 25 6 -138 5 63 6 35 6 -9 
6 70 6 -33 6 -100 8410 3620 300 MP stroke
DA
c8
6 124 6 -60 6 64 6 -4 6 -197 6 -5 5 -18 6 49 
6 217 6 -114 6 175 6 -4 5 148 6 -30 6 -87 6 -24 
6 -40 6 -115 5 -48 6 -57 6 -5 6 66 6 39 6 209 
5 -90 6 -82 6 17 6 68 6 -184 6 -21 6 -38 5 14 
6 90 6 -42 6 -3 6 -124 6 132 5 144 6 -64 6 139 
6 130 6 50 6 25 5 147 6 -167 6 132 6 -134 6 11 
6 -225 5 -88 6 6 6 -136 6 56 6 -95 6 57 6 -1 
5 87 6 -1 6 18 6 224 6 -37 6 -24 5 -101 6 22 
6 22 6 -18 6 -170 6 72 5 252 6 184 6 -62 6 -72 
6 -5 6 54 5 -79 6 87 6 10 6 -147 6 -3 6 -23 
6 -270 5 -43 6 -14 6 -23 6 -95 6 -49 6 38 5 96 
6 65 6 174 6 49 6 -35 6 -155 5 100 6 -38 6 10 
6 -147 6 -32 6 123 5 -15 6 -174 6 -125 6 -25 6 -76 
6 32 6 -10 5 181 6 59 6 90 6 36 6 65 6 155 
5 -252 6 -37 6 38 6 255 6 38 6 27 5 34 6 66 
6 -72 6 -97 6 68 6 139 5 -112 6 25 6 63 6 14 
6 -86 6 -93 6 -64 5 -54 6 -61 6 -99 6 88 6 38 
6 -44 5 64 6 -9 6 63 6 134 6 -32 6 88 5 -2 
6 17 6 177 6 11 6 22 6 135 5 16 6 -2 6 -158 
6 -32 6 -190 6 177 6 -32 5 -83 6 105 6 -172 6 187 
6 153 6 126 5 -54 6 -249 6 -11 6 -16 6 -1 6 -76 
5 -17 6 -15 6 34 6 -188 6 20 6 26 5 -89 6 -155 
6 -50 6 49 6 -74 6 63 6 0 5 -109 6 101 6 54 
6 71 6 -33 6 -60 5 -22 6 28 6 -38 6 26 6 -42 
6 -65 5 -101 6 31 6 2 6 -30 6 166 6 78 5 -184 
6 40 6 95 6 2 6 223 6 -94 6 -96 5 -39 6 36 
6 32 6 -59 6 -133 6 -120 5 -18 6 104 6 93 6 41 
6 22 6 -113 5 33 6 84 6 64 6 -20 6 4 6 -74 
5 -103 6 83 6 -83 6 -11 6 36 6 -43 6 -140 5 156 
6 218 6 -196 6 146 6 -56 6 -30 5 102 6 14 6 -94 
6 97 6 14 6 -69 5 -90 6 76 6 -68 6 -54 6 60 
6 96 5 186 6 82 6 1 6 -27 6 -97 6 64 6 -14 
5 -196 6 137 6 -64 6 18 6 119 6 -112 5 -82 6 -83 
6 41 6 36 6 -9 6 79 5 -35 6 11 6 143 6 58 
6 57 6 -106 5 -76 6 -18 6 -128 6 -36 6 -94 6 98 
6 -167 5 -110 6 -101 6 20 6 114 6 -36 6 156 5 149 
6 -15 6 78 6 63 6 25 6 -138 5 63 6 35 6 -9 
6 70 6 -33 6 -100 8410 3620 300 MP stroke
SO
c9
6 124 6 -60 6 64 6 -4 6 -197 6 -5 5 -18 6 49 
6 217 6 -114 6 175 6 -4 5 148 6 -30 6 -87 6 -24 
6 -40 6 -115 5 -48 6 -57 6 -5 6 66 6 39 6 209 
5 -90 6 -82 6 17 6 68 6 -184 6 -21 6 -38 5 14 
6 90 6 -42 6 -3 6 -124 6 132 5 144 6 -64 6 139 
6 130 6 50 6 25 5 147 6 -167 6 132 6 -134 6 11 
6 -225 5 -88 6 6 6 -136 6 56 6 -95 6 57 6 -1 
5 87 6 -1 6 18 6 224 6 -37 6 -24 5 -101 6 22 
6 22 6 -18 6 -170 6 72 5 252 6 184 6 -62 6 -72 
6 -5 6 54 5 -79 6 87 6 10 6 -147 6 -3 6 -23 
6 -270 5 -43 6 -14 6 -23 6 -95 6 -49 6 38 5 96 
6 65 6 174 6 49 6 -35 6 -155 5 100 6 -38 6 10 
6 -147 6 -32 6 123 5 -15 6 -174 6 -125 6 -25 6 -76 
6 32 6 -10 5 181 6 59 6 90 6 36 6 65 6 155 
5 -252 6 -37 6 38 6 255 6 38 6 27 5 34 6 66 
6 -72 6 -97 6 68 6 139 5 -112 6 25 6 63 6 14 
6 -86 6 -93 6 -64 5 -54 6 -61 6 -99 6 88 6 38 
6 -44 5 64 6 -9 6 63 6 134 6 -32 6 88 5 -2 
6 17 6 177 6 11 6 22 6 135 5 16 6 -2 6 -158 
6 -32 6 -190 6 177 6 -32 5 -83 6 105 6 -172 6 187 
6 153 6 126 5 -54 6 -249 6 -11 6 -16 6 -1 6 -76 
5 -17 6 -15 6 34 6 -188 6 20 6 26 5 -89 6 -155 
6 -50 6 49 6 -74 6 63 6 0 5 -109 6 101 6 54 
6 71 6 -33 6 -60 5 -22 6 28 6 -38 6 26 6 -42 
6 -65 5 -101 6 31 6 2 6 -30 6 166 6 78 5 -184 
6 40 6 95 6 2 6 223 6 -94 6 -96 5 -39 6 36 
6 32 6 -59 6 -133 6 -120 5 -18 6 104 6 93 6 41 
6 22 6 -113 5 33 6 84 6 64 6 -20 6 4 6 -74 
5 -103 6 83 6 -83 6 -11 6 36 6 -43 6 -140 5 156 
6 218 6 -196 6 146 6 -56 6 -30 5 102 6 14 6 -94 
6 97 6 14 6 -69 5 -90 6 76 6 -68 6 -54 6 60 
6 96 5 186 6 82 6 1 6 -27 6 -97 6 64 6 -14 
5 -196 6 137 6 -64 6 18 6 119 6 -112 5 -82 6 -83 
6 41 6 36 6 -9 6 79 5 -35 6 11 6 143 6 58 
6 57 6 -106 5 -76 6 -18 6 -128 6 -36 6 -94 6 98 
6 -167 5 -110 6 -101 6 20 6 114 6 -36 6 156 5 149 
6 -15 6 78 6 63 6 25 6 -138 5 63 6 35 6 -9 
6 70 6 -33 6 -100 8410 3620 300 MP stroke
gr

c9
0 sg
9240 2667 mt 
(A) s
1 sg
0 480 1074 0 0 -480 1508 3314 4 MP
PP
-1074 0 0 480 1074 0 0 -480 1508 3314 5 MP stroke
4 w
DO
SO
6 w
0 sg
1508 3314 mt 2582 3314 L
1508 2834 mt 2582 2834 L
1508 3314 mt 1508 2834 L
2582 3314 mt 2582 2834 L
1508 3314 mt 2582 3314 L
1508 3314 mt 1508 2834 L
1508 3314 mt 2582 3314 L
1508 2834 mt 2582 2834 L
1508 3314 mt 1508 2834 L
2582 3314 mt 2582 2834 L
1959 2968 mt 
(frictionless) s
gs 1508 2834 1075 481 rc
DO
347 0 1577 2925 2 MP stroke
SO
gr

1959 3117 mt 
(RE) s
gs 1508 2834 1075 481 rc
DA
c8
347 0 1577 3074 2 MP stroke
SO
gr

c8
0 sg
1959 3265 mt 
(learning) s
gs 1508 2834 1075 481 rc
c9
347 0 1577 3222 2 MP stroke
gr

c9

end %%Color Dict

eplot
%%EndObject

epage
end

showpage

%%Trailer
%%EOF
