%!PS-Adobe-2.0 EPSF-2.0
%% This is a Stata generated postscript file
%%BoundingBox: 0 0 396 360
%%HiResBoundingBox: 0.000 0.000 396.000 360.000
%%DocumentNeededResources: font Helvetica
/xratio 0.012375 def
/yratio 0.012375 def
/Sbgfill {
	/y1 exch def
	/x1 exch def
	/y0 exch def
	/x0 exch def
	x0 y0 moveto
	x0 y1 lineto x1 y1 lineto x1 y0 lineto x0 y0 lineto
	fill
} def
/Spt {
	yratio mul
	/yp exch def
	xratio mul
	/xp exch def
	Slrgb setrgbcolor
	xp yp .5 0 360 arc fill
} def
/Sln {
	yratio mul
	/y1p exch def
	xratio mul
	/x1p exch def
	yratio mul
	/y0p exch def
	xratio mul
	/x0p exch def
	Slw setlinewidth
	Slrgb setrgbcolor
	x0p y0p M x1p y1p lineto S
} def
/Scrv {
	yratio mul
	/y3p exch def
	xratio mul
	/x3p exch def
	yratio mul
	/y2p exch def
	xratio mul
	/x2p exch def
	yratio mul
	/y1p exch def
	xratio mul
	/x1p exch def
	Slw setlinewidth
	Slrgb setrgbcolor
	x1p y1p x2p y2p x3p y3p curveto
	stroke
} def
/Stxtl {
	/sp exch def
	yratio mul
	/sizep exch def
	dup
	/anglep exch def
	0 exch sub
	/angle2p exch def
	yratio mul
	/y0p exch def
	xratio mul
	/x0p exch def
	Strgb setrgbcolor
	x0p y0p M anglep rotate sizep fntsize sp show stroke angle2p rotate
} def
/Stxtc {
	/sp exch def
	yratio mul
	/sizep exch def
	dup
	/anglep exch def
	0 exch sub
	/angle2p exch def
	yratio mul
	/y0p exch def
	xratio mul
	/x0p exch def
	Strgb setrgbcolor
	x0p y0p M anglep rotate sizep fntsize sp stringwidth exch -2 div exch rm sp show stroke angle2p rotate
} def
/Stxtr {
	/sp exch def
	yratio mul
	/sizep exch def
	dup
	/anglep exch def
	0 exch sub
	/angle2p exch def
	yratio mul
	/y0p exch def
	xratio mul
	/x0p exch def
	Strgb setrgbcolor
	x0p y0p M anglep rotate sizep fntsize sp stringwidth 1 index -1 mul exch rm pop sp show stroke angle2p rotate
} def
/Srect {
	/sfill exch def
	/sstroke exch def
	yratio mul
	/y1 exch def
	xratio mul
	/x1 exch def
	yratio mul
	/y0 exch def
	xratio mul
	/x0 exch def
	newpath x0 y0 moveto x0 y1 lineto x1 y1 lineto x1 y0 lineto x0 y0 lineto closepath
	sfill Sfill
	sstroke Sstroke
} def
/Sellipse {
	/sfill exch def
	/sstroke exch def
	yratio mul
	/yrad exch def
	xratio mul
	/xrad exch def
	yratio mul
	/y exch def
	xratio mul
	/x exch def
	/savematrix matrix currentmatrix def
	x y translate
	xrad yrad scale
	0 0 1 0 360 arc
	savematrix setmatrix
	sfill Sfill
	sstroke Sstroke
} def
/Stri {
	/sfill exch def
	/sstroke exch def
	xratio mul
	/r exch def
	yratio mul
	/y0 exch def
	xratio mul
	/x0 exch def
	/xcen x0 def
	y0 r add
	/ytop exch def
	r 2 div
	y0 exch sub
	/ybot exch def
	r 3 sqrt 2 div mul dup
	xcen exch sub
	/xleft exch def
	xcen add
	/xright exch def
	newpath xcen ytop moveto xright ybot lineto xleft ybot lineto xcen ytop lineto closepath
	sfill Sfill
	sstroke Sstroke
} def
/Soldtri {
	/sfill exch def
	xratio mul
	/r exch def
	yratio mul
	/y0 exch def
	xratio mul
	/x0 exch def
	x0 r sub
	/x1 exch def
	y0 r sub
	/y1 exch def
	x0 r add
	/x2 exch def
	y0 r sub
	/y2 exch def
	/x3 x0 def
	y0 r add
	/y3 exch def
	newpath x1 y1 moveto x2 y2 lineto x3 y3 lineto x1 y1 lineto closepath
	sfill 1 eq {
		Ssrgb setrgbcolor
		gsave
		fill
		grestore
	} if
	Slw setlinewidth
	Slrgb setrgbcolor
	stroke
} def
/Sdia {
	/sfill exch def
	/sstroke exch def
	xratio mul
	/r exch def
	yratio mul
	/y exch def
	xratio mul
	/x exch def
	x r sub
	/x0 exch def
	/y0 y def
	/x1 x def
	y r sub
	/y1 exch def
	x r add
	/x2 exch def
	/y2 y def
	/x3 x def
	y r add
	/y3 exch def
	newpath x0 y0 moveto x1 y1 lineto x2 y2 lineto x3 y3 lineto closepath
	sfill Sfill
	sstroke Sstroke
} def
/Scc {
	/sfill exch def
	/sstroke exch def
	xratio mul
	/r0 exch def
	yratio mul
	/y0 exch def
	xratio mul
	/x0 exch def
	x0 y0 r0 0 360 arc closepath
	sfill Sfill
	sstroke Sstroke
} def
/Spie {
	/sfill exch def
	/salign exch def
	/a1 exch def
	/a0 exch def
	xratio mul
	/r exch def
	yratio mul
	/y exch def
	xratio mul
	/x exch def
	/Pie {
		x y moveto x y r a0 a1 arc closepath
	} def
	newpath Pie
	sfill Sfill
	Slrgb setrgbcolor
	salign 0 eq {
		gsave
		Slw 2 mul setlinewidth
		clip
		stroke
		grestore
	} if
	salign 1 eq {
		Slw setlinewidth
		stroke
	} if
	salign 2 eq {
		gsave
		Slw 2 mul setlinewidth
		strokepath
		pathbbox
		/ury exch def
		/urx exch def
		/lly exch def
		/llx exch def
		newpath llx lly moveto llx ury lineto urx ury lineto urx lly lineto closepath
		Pie
		eoclip
		newpath Pie
		stroke
		grestore
	} if
	newpath
} def
/Splu {
	xratio mul
	/r exch def
	yratio mul
	/y exch def
	xratio mul
	/x exch def
	x r sub
	/x0 exch def
	x r add
	/x1 exch def
	x0 y M x1 y L
	y r sub
	/y0 exch def
	y r add
	/y1 exch def
	x y0 M x y1 L
} def
/Scro {
	xratio mul
	/r exch def
	yratio mul
	/y exch def
	xratio mul
	/x exch def
	x r sub
	/x0 exch def
	y r sub
	/y0 exch def
	x r add
	/x1 exch def
	y r add
	/y1 exch def
	x0 y0 M x1 y1 L
	x r add
	/x0 exch def
	y r sub
	/y0 exch def
	x r sub
	/x1 exch def
	y r add
	/y1 exch def
	x0 y0 M x1 y1 L
} def
/Sm {
	yratio mul
	/y exch def
	xratio mul
	/x exch def
	x y M
} def
/Sl {
	yratio mul
	/y exch def
	xratio mul
	/x exch def
	x y L
} def
/SPl {
	yratio mul
	/y exch def
	xratio mul
	/x exch def
	x y PL
} def
/Sarr {
	/sfill exch def
	xratio mul
	/r exch def
	yratio mul
	/y exch def
	xratio mul
	/x exch def
	y r add
	/ytop exch def
	y r sub
	/ybot exch def
	gsave
	Slrgb setrgbcolor
	sfill 0 eq {
		r 2 mul 3 div dup
		x exch sub
		/xleft exch def
		x add
		/xright exch def
		newpath xleft y moveto x ytop lineto xright y lineto x ytop moveto x ybot lineto
		Lcs
		1 setlinejoin
	} {
		r 2 div dup
		x exch sub
		/xleft exch def
		x add
		/xright exch def
		newpath xleft y moveto x ytop lineto xright y lineto x ytop closepath moveto x ybot lineto
		gsave
		fill
		grestore
	} ifelse
	Slw setlinewidth
	stroke
	grestore
} def
/Spipe {
	xratio mul
	/r exch def
	yratio mul
	/y exch def
	xratio mul
	/x exch def
	y r sub
	/y0 exch def
	y r add
	/y1 exch def
	x y0 M x y1 L
} def
/Sv {
	xratio mul
	/r exch def
	yratio mul
	/y0 exch def
	xratio mul
	/x0 exch def
	/xcen x0 def
	y0 r add
	/ytop exch def
	r 2 div
	y0 exch sub
	/ybot exch def
	r 3 sqrt 2 div mul dup
	xcen exch sub
	/xleft exch def
	xcen add
	/xright exch def
	newpath xleft ytop moveto xcen ybot lineto xright ytop lineto
	Slw setlinewidth
	Slrgb setrgbcolor
	stroke
} def
/Lcs {
	currentlinecap
	1 setlinecap
} def
/Lcr {
	setlinecap
} def
/Sbp {
	newpath
} def
/Sep {
	/sfill exch def
	closepath
	/salign exch def
	Lcs
	salign 0 eq {
		sfill Sfill
		gsave
		Slw 2 mul setlinewidth
		clip
		Slrgb setrgbcolor
		stroke
		grestore
	} if
	salign 1 eq {
		sfill Sfill
		sstroke Sstroke
	} if
	salign 2 eq {
		gsave
		Slw 2 mul setlinewidth
		Slrgb setrgbcolor
		stroke
		grestore
		sfill Sfill
	} if
	newpath
	Lcr
} def
/Stransrot {
	/anglep exch def
	yratio mul
	/y exch def
	xratio mul
	/x exch def
	x y translate
	anglep rotate
	x neg y neg translate
} def
/cp {currentpoint} def 
/M {moveto} def 
/rm {rmoveto} def 
/S {stroke} def 
/L {Slw setlinewidth Slrgb setrgbcolor lineto Lcs S Lcr} def 
/PL {Slw setlinewidth Slrgb setrgbcolor lineto} def 
/MF-Helvetica {
  /newfontname exch def
  /fontname exch def
  /fontdict fontname findfont def
  /newfont fontdict maxlength dict def
  fontdict {
  exch dup /FID eq {pop pop} {exch newfont 3 1 roll put} ifelse
  } forall
  newfont /FontName newfontname put
  newfont /Encoding ISOLatin1Encoding put
  newfontname newfont definefont pop
} def
/Helvetica /Helvetica-0 MF-Helvetica
/Slw 0.120 def
0.918 0.949 0.953 setrgbcolor
0 0 396.000 360.000 Sbgfill
/Sfill {
	/sfill exch def
	sfill 1 eq {
		Ssrgb setrgbcolor
		gsave
		fill
		grestore
	} if
} def
/Sstroke {
	/sstroke exch def
	sstroke 1 eq {
		Slw setlinewidth
		Slrgb setrgbcolor
		stroke
	} if
	newpath
} def
/Slrgb {1.000 1.000 1.000} def
/Strgb {1.000 1.000 1.000} def
/Ssrgb {1.000 1.000 1.000} def
/Ssrgb {0.918 0.949 0.953} def
/Slw 0.720 def
/Slrgb {0.918 0.949 0.953} def
0 0 31999 29090 0 1 Srect
29 29 31970 29061 1 0 Srect
/Ssrgb {1.000 1.000 1.000} def
/Slrgb {1.000 1.000 1.000} def
3947 3947 30981 28072 0 1 Srect
3976 3976 30952 28043 1 0 Srect
/Slrgb {0.000 0.000 0.000} def
/Strgb {0.000 0.000 0.000} def
/Slw 1.080 def
/Slrgb {0.918 0.949 0.953} def
3947 4587 30981 4587 Sln
/Slw 0.720 def
/Slrgb {0.000 0.000 0.000} def
/Slw 1.080 def
/Slrgb {0.918 0.949 0.953} def
3947 10298 30981 10298 Sln
/Slw 0.720 def
/Slrgb {0.000 0.000 0.000} def
/Slw 1.080 def
/Slrgb {0.918 0.949 0.953} def
3947 16010 30981 16010 Sln
/Slw 0.720 def
/Slrgb {0.000 0.000 0.000} def
/Slw 1.080 def
/Slrgb {0.918 0.949 0.953} def
3947 21721 30981 21721 Sln
/Slw 0.720 def
/Slrgb {0.000 0.000 0.000} def
/Slw 1.080 def
/Slrgb {0.102 0.278 0.435} def
/Ssrgb {0.102 0.278 0.435} def
10990 15582 266 0 1 Scc 
10990 15582 222 1 0 Scc 
11706 14817 266 0 1 Scc 
11706 14817 222 1 0 Scc 
11566 15316 266 0 1 Scc 
11566 15316 222 1 0 Scc 
10287 16663 266 0 1 Scc 
10287 16663 222 1 0 Scc 
9742 17896 266 0 1 Scc 
9742 17896 222 1 0 Scc 
9330 19476 266 0 1 Scc 
9330 19476 222 1 0 Scc 
10094 20295 266 0 1 Scc 
10094 20295 222 1 0 Scc 
10879 21400 266 0 1 Scc 
10879 21400 222 1 0 Scc 
12223 20973 266 0 1 Scc 
12223 20973 222 1 0 Scc 
14308 20559 266 0 1 Scc 
14308 20559 222 1 0 Scc 
16593 19548 266 0 1 Scc 
16593 19548 222 1 0 Scc 
19674 15914 266 0 1 Scc 
19674 15914 222 1 0 Scc 
21024 13803 266 0 1 Scc 
21024 13803 222 1 0 Scc 
23155 12215 266 0 1 Scc 
23155 12215 222 1 0 Scc 
24314 9662 266 0 1 Scc 
24314 9662 222 1 0 Scc 
21924 10723 266 0 1 Scc 
21924 10723 222 1 0 Scc 
19213 12751 266 0 1 Scc 
19213 12751 222 1 0 Scc 
18122 13852 266 0 1 Scc 
18122 13852 222 1 0 Scc 
14098 15145 266 0 1 Scc 
14098 15145 222 1 0 Scc 
11567 16566 266 0 1 Scc 
11567 16566 222 1 0 Scc 
11511 15967 266 0 1 Scc 
11511 15967 222 1 0 Scc 
11762 16906 266 0 1 Scc 
11762 16906 222 1 0 Scc 
9356 19307 266 0 1 Scc 
9356 19307 222 1 0 Scc 
10062 18080 266 0 1 Scc 
10062 18080 222 1 0 Scc 
9775 18405 266 0 1 Scc 
9775 18405 222 1 0 Scc 
12052 17413 266 0 1 Scc 
12052 17413 222 1 0 Scc 
14130 14741 266 0 1 Scc 
14130 14741 222 1 0 Scc 
13237 15211 266 0 1 Scc 
13237 15211 222 1 0 Scc 
13455 14207 266 0 1 Scc 
13455 14207 222 1 0 Scc 
14480 13294 266 0 1 Scc 
14480 13294 222 1 0 Scc 
12893 14561 266 0 1 Scc 
12893 14561 222 1 0 Scc 
12223 16035 266 0 1 Scc 
12223 16035 222 1 0 Scc 
10713 16135 266 0 1 Scc 
10713 16135 222 1 0 Scc 
9757 17150 266 0 1 Scc 
9757 17150 222 1 0 Scc 
9334 18073 266 0 1 Scc 
9334 18073 222 1 0 Scc 
11372 17509 266 0 1 Scc 
11372 17509 222 1 0 Scc 
9712 18904 266 0 1 Scc 
9712 18904 222 1 0 Scc 
10353 19264 266 0 1 Scc 
10353 19264 222 1 0 Scc 
11978 18485 266 0 1 Scc 
11978 18485 222 1 0 Scc 
13348 17983 266 0 1 Scc 
13348 17983 222 1 0 Scc 
14166 16063 266 0 1 Scc 
14166 16063 222 1 0 Scc 
15691 14084 266 0 1 Scc 
15691 14084 222 1 0 Scc 
16339 13071 266 0 1 Scc 
16339 13071 222 1 0 Scc 
16971 13386 266 0 1 Scc 
16971 13386 222 1 0 Scc 
15087 14936 266 0 1 Scc 
15087 14936 222 1 0 Scc 
13390 16448 266 0 1 Scc 
13390 16448 222 1 0 Scc 
11903 17394 266 0 1 Scc 
11903 17394 222 1 0 Scc 
12640 17386 266 0 1 Scc 
12640 17386 222 1 0 Scc 
12402 17630 266 0 1 Scc 
12402 17630 222 1 0 Scc 
12550 16786 266 0 1 Scc 
12550 16786 222 1 0 Scc 
12501 15287 266 0 1 Scc 
12501 15287 222 1 0 Scc 
13471 15343 266 0 1 Scc 
13471 15343 222 1 0 Scc 
14320 13178 266 0 1 Scc 
14320 13178 222 1 0 Scc 
13638 13684 266 0 1 Scc 
13638 13684 222 1 0 Scc 
11371 15907 266 0 1 Scc 
11371 15907 222 1 0 Scc 
12432 15479 266 0 1 Scc 
12432 15479 222 1 0 Scc 
9635 17892 266 0 1 Scc 
9635 17892 222 1 0 Scc 
9374 18874 266 0 1 Scc 
9374 18874 222 1 0 Scc 
10501 18854 266 0 1 Scc 
10501 18854 222 1 0 Scc 
10878 18679 266 0 1 Scc 
10878 18679 222 1 0 Scc 
11875 18024 266 0 1 Scc 
11875 18024 222 1 0 Scc 
13764 18694 266 0 1 Scc 
13764 18694 222 1 0 Scc 
15126 17725 266 0 1 Scc 
15126 17725 222 1 0 Scc 
15010 16885 266 0 1 Scc 
15010 16885 222 1 0 Scc 
15154 15067 266 0 1 Scc 
15154 15067 222 1 0 Scc 
17956 13044 266 0 1 Scc 
17956 13044 222 1 0 Scc 
18022 12801 266 0 1 Scc 
18022 12801 222 1 0 Scc 
16676 12464 266 0 1 Scc 
16676 12464 222 1 0 Scc 
13899 14207 266 0 1 Scc 
13899 14207 222 1 0 Scc 
13790 14113 266 0 1 Scc 
13790 14113 222 1 0 Scc 
12769 15542 266 0 1 Scc 
12769 15542 222 1 0 Scc 
10194 16926 266 0 1 Scc 
10194 16926 222 1 0 Scc 
9536 16915 266 0 1 Scc 
9536 16915 222 1 0 Scc 
8601 17381 266 0 1 Scc 
8601 17381 222 1 0 Scc 
10294 16391 266 0 1 Scc 
10294 16391 222 1 0 Scc 
10319 16516 266 0 1 Scc 
10319 16516 222 1 0 Scc 
10257 15866 266 0 1 Scc 
10257 15866 222 1 0 Scc 
10279 15913 266 0 1 Scc 
10279 15913 222 1 0 Scc 
10474 15681 266 0 1 Scc 
10474 15681 222 1 0 Scc 
10947 15761 266 0 1 Scc 
10947 15761 222 1 0 Scc 
9687 16796 266 0 1 Scc 
9687 16796 222 1 0 Scc 
9734 17321 266 0 1 Scc 
9734 17321 222 1 0 Scc 
9345 17602 266 0 1 Scc 
9345 17602 222 1 0 Scc 
10035 18192 266 0 1 Scc 
10035 18192 222 1 0 Scc 
10577 19009 266 0 1 Scc 
10577 19009 222 1 0 Scc 
11600 18983 266 0 1 Scc 
11600 18983 222 1 0 Scc 
11654 19308 266 0 1 Scc 
11654 19308 222 1 0 Scc 
13225 18248 266 0 1 Scc 
13225 18248 222 1 0 Scc 
15105 18031 266 0 1 Scc 
15105 18031 222 1 0 Scc 
16104 15923 266 0 1 Scc 
16104 15923 222 1 0 Scc 
16891 14598 266 0 1 Scc 
16891 14598 222 1 0 Scc 
17173 13156 266 0 1 Scc 
17173 13156 222 1 0 Scc 
19166 12963 266 0 1 Scc 
19166 12963 222 1 0 Scc 
16943 15650 266 0 1 Scc 
16943 15650 222 1 0 Scc 
15457 16131 266 0 1 Scc 
15457 16131 222 1 0 Scc 
12790 17784 266 0 1 Scc 
12790 17784 222 1 0 Scc 
14145 16765 266 0 1 Scc 
14145 16765 222 1 0 Scc 
15207 16438 266 0 1 Scc 
15207 16438 222 1 0 Scc 
14141 16996 266 0 1 Scc 
14141 16996 222 1 0 Scc 
13937 18911 266 0 1 Scc 
13937 18911 222 1 0 Scc 
13831 20276 266 0 1 Scc 
13831 20276 222 1 0 Scc 
15478 21020 266 0 1 Scc 
15478 21020 222 1 0 Scc 
15540 22100 266 0 1 Scc 
15540 22100 222 1 0 Scc 
18847 21585 266 0 1 Scc 
18847 21585 222 1 0 Scc 
20819 20395 266 0 1 Scc 
20819 20395 222 1 0 Scc 
23841 16117 266 0 1 Scc 
23841 16117 222 1 0 Scc 
26226 12986 266 0 1 Scc 
26226 12986 222 1 0 Scc 
29725 9514 266 0 1 Scc 
29725 9514 222 1 0 Scc 
30340 7557 266 0 1 Scc 
30340 7557 222 1 0 Scc 
26679 9217 266 0 1 Scc 
26679 9217 222 1 0 Scc 
23738 10790 266 0 1 Scc 
23738 10790 222 1 0 Scc 
20721 12673 266 0 1 Scc 
20721 12673 222 1 0 Scc 
16656 14568 266 0 1 Scc 
16656 14568 222 1 0 Scc 
13378 15687 266 0 1 Scc 
13378 15687 222 1 0 Scc 
11849 16172 266 0 1 Scc 
11849 16172 222 1 0 Scc 
10875 16918 266 0 1 Scc 
10875 16918 222 1 0 Scc 
9922 17581 266 0 1 Scc 
9922 17581 222 1 0 Scc 
9673 18405 266 0 1 Scc 
9673 18405 222 1 0 Scc 
9761 18689 266 0 1 Scc 
9761 18689 222 1 0 Scc 
10835 18436 266 0 1 Scc 
10835 18436 222 1 0 Scc 
11676 17630 266 0 1 Scc 
11676 17630 222 1 0 Scc 
13173 17691 266 0 1 Scc 
13173 17691 222 1 0 Scc 
13997 17222 266 0 1 Scc 
13997 17222 222 1 0 Scc 
14996 17342 266 0 1 Scc 
14996 17342 222 1 0 Scc 
14845 18427 266 0 1 Scc 
14845 18427 222 1 0 Scc 
16689 17799 266 0 1 Scc 
16689 17799 222 1 0 Scc 
16808 17175 266 0 1 Scc 
16808 17175 222 1 0 Scc 
17828 16552 266 0 1 Scc 
17828 16552 222 1 0 Scc 
19120 15635 266 0 1 Scc 
19120 15635 222 1 0 Scc 
20068 14174 266 0 1 Scc 
20068 14174 222 1 0 Scc 
19043 14091 266 0 1 Scc 
19043 14091 222 1 0 Scc 
19123 12899 266 0 1 Scc 
19123 12899 222 1 0 Scc 
19184 13747 266 0 1 Scc 
19184 13747 222 1 0 Scc 
17325 14402 266 0 1 Scc 
17325 14402 222 1 0 Scc 
15671 14683 266 0 1 Scc 
15671 14683 222 1 0 Scc 
13453 14562 266 0 1 Scc 
13453 14562 222 1 0 Scc 
14388 13890 266 0 1 Scc 
14388 13890 222 1 0 Scc 
13063 13558 266 0 1 Scc 
13063 13558 222 1 0 Scc 
11899 14055 266 0 1 Scc 
11899 14055 222 1 0 Scc 
9196 16798 266 0 1 Scc 
9196 16798 222 1 0 Scc 
9484 18688 266 0 1 Scc 
9484 18688 222 1 0 Scc 
7826 20757 266 0 1 Scc 
7826 20757 222 1 0 Scc 
7545 21416 266 0 1 Scc 
7545 21416 222 1 0 Scc 
9579 20220 266 0 1 Scc 
9579 20220 222 1 0 Scc 
13360 17955 266 0 1 Scc 
13360 17955 222 1 0 Scc 
15815 15321 266 0 1 Scc 
15815 15321 222 1 0 Scc 
17603 14178 266 0 1 Scc 
17603 14178 222 1 0 Scc 
18780 13770 266 0 1 Scc 
18780 13770 222 1 0 Scc 
18871 12983 266 0 1 Scc 
18871 12983 222 1 0 Scc 
16505 14171 266 0 1 Scc 
16505 14171 222 1 0 Scc 
15599 14483 266 0 1 Scc 
15599 14483 222 1 0 Scc 
14889 14262 266 0 1 Scc 
14889 14262 222 1 0 Scc 
12373 14930 266 0 1 Scc 
12373 14930 222 1 0 Scc 
11596 15918 266 0 1 Scc 
11596 15918 222 1 0 Scc 
11034 16861 266 0 1 Scc 
11034 16861 222 1 0 Scc 
9802 17690 266 0 1 Scc 
9802 17690 222 1 0 Scc 
8623 17247 266 0 1 Scc 
8623 17247 222 1 0 Scc 
9950 15598 266 0 1 Scc 
9950 15598 222 1 0 Scc 
11469 14551 266 0 1 Scc 
11469 14551 222 1 0 Scc 
12201 14007 266 0 1 Scc 
12201 14007 222 1 0 Scc 
10670 14984 266 0 1 Scc 
10670 14984 222 1 0 Scc 
9186 15650 266 0 1 Scc 
9186 15650 222 1 0 Scc 
8509 15655 266 0 1 Scc 
8509 15655 222 1 0 Scc 
7689 16425 266 0 1 Scc 
7689 16425 222 1 0 Scc 
7298 17532 266 0 1 Scc 
7298 17532 222 1 0 Scc 
6544 18890 266 0 1 Scc 
6544 18890 222 1 0 Scc 
5889 20411 266 0 1 Scc 
5889 20411 222 1 0 Scc 
6721 22129 266 0 1 Scc 
6721 22129 222 1 0 Scc 
8685 23922 266 0 1 Scc 
8685 23922 222 1 0 Scc 
10572 23859 266 0 1 Scc 
10572 23859 222 1 0 Scc 
12732 23323 266 0 1 Scc 
12732 23323 222 1 0 Scc 
16868 19745 266 0 1 Scc 
16868 19745 222 1 0 Scc 
22470 14086 266 0 1 Scc 
22470 14086 222 1 0 Scc 
25268 9991 266 0 1 Scc 
25268 9991 222 1 0 Scc 
27351 7547 266 0 1 Scc 
27351 7547 222 1 0 Scc 
26510 7992 266 0 1 Scc 
26510 7992 222 1 0 Scc 
23323 9210 266 0 1 Scc 
23323 9210 222 1 0 Scc 
18328 11207 266 0 1 Scc 
18328 11207 222 1 0 Scc 
15098 12852 266 0 1 Scc 
15098 12852 222 1 0 Scc 
12464 14007 266 0 1 Scc 
12464 14007 222 1 0 Scc 
8653 15327 266 0 1 Scc 
8653 15327 222 1 0 Scc 
5761 17313 266 0 1 Scc 
5761 17313 222 1 0 Scc 
5029 17430 266 0 1 Scc 
5029 17430 222 1 0 Scc 
5257 18164 266 0 1 Scc 
5257 18164 222 1 0 Scc 
4587 18983 266 0 1 Scc 
4587 18983 222 1 0 Scc 
6184 20279 266 0 1 Scc 
6184 20279 222 1 0 Scc 
6311 21959 266 0 1 Scc 
6311 21959 222 1 0 Scc 
8195 21426 266 0 1 Scc 
8195 21426 222 1 0 Scc 
9353 21509 266 0 1 Scc 
9353 21509 222 1 0 Scc 
13111 17043 266 0 1 Scc 
13111 17043 222 1 0 Scc 
16033 13756 266 0 1 Scc 
16033 13756 222 1 0 Scc 
17361 11407 266 0 1 Scc 
17361 11407 222 1 0 Scc 
19132 9945 266 0 1 Scc 
19132 9945 222 1 0 Scc 
16664 12879 266 0 1 Scc 
16664 12879 222 1 0 Scc 
14630 15436 266 0 1 Scc 
14630 15436 222 1 0 Scc 
11514 17326 266 0 1 Scc 
11514 17326 222 1 0 Scc 
10251 17691 266 0 1 Scc 
10251 17691 222 1 0 Scc 
10351 17129 266 0 1 Scc 
10351 17129 222 1 0 Scc 
11286 15731 266 0 1 Scc 
11286 15731 222 1 0 Scc 
10817 15797 266 0 1 Scc 
10817 15797 222 1 0 Scc 
10186 17464 266 0 1 Scc 
10186 17464 222 1 0 Scc 
/Slrgb {0.565 0.208 0.231} def
4587 20191 Sm
17464 14605 Sl
17464 14605 Sm
30340 9018 Sl
/Slw 0.720 def
/Slrgb {0.000 0.000 0.000} def
3947 3947 3947 28072 Sln
3947 4587 3543 4587 Sln
3038 4587 0
/Helvetica-0 findfont 1010 yratio mul scalefont setfont
(-100) stringwidth pop add
2 div xratio div
dup 4 3 roll exch 90.000 cos mul sub 3 1 roll 90.000 sin mul sub 2 copy
/fntsize {/Helvetica-0 findfont exch scalefont setfont } def
90.000 1010
(-100) Stxtl
(-100) stringwidth pop xratio div
dup 4 3 roll exch 90.000 cos mul add 3 1 roll 90.000 sin mul add 2 copy
pop pop pop pop
3947 10298 3543 10298 Sln
3038 10298 0
/Helvetica-0 findfont 1010 yratio mul scalefont setfont
(-50) stringwidth pop add
2 div xratio div
dup 4 3 roll exch 90.000 cos mul sub 3 1 roll 90.000 sin mul sub 2 copy
/fntsize {/Helvetica-0 findfont exch scalefont setfont } def
90.000 1010
(-50) Stxtl
(-50) stringwidth pop xratio div
dup 4 3 roll exch 90.000 cos mul add 3 1 roll 90.000 sin mul add 2 copy
pop pop pop pop
3947 16010 3543 16010 Sln
3038 16010 0
/Helvetica-0 findfont 1010 yratio mul scalefont setfont
(0) stringwidth pop add
2 div xratio div
dup 4 3 roll exch 90.000 cos mul sub 3 1 roll 90.000 sin mul sub 2 copy
/fntsize {/Helvetica-0 findfont exch scalefont setfont } def
90.000 1010
(0) Stxtl
(0) stringwidth pop xratio div
dup 4 3 roll exch 90.000 cos mul add 3 1 roll 90.000 sin mul add 2 copy
pop pop pop pop
3947 21721 3543 21721 Sln
3038 21721 0
/Helvetica-0 findfont 1010 yratio mul scalefont setfont
(50) stringwidth pop add
2 div xratio div
dup 4 3 roll exch 90.000 cos mul sub 3 1 roll 90.000 sin mul sub 2 copy
/fntsize {/Helvetica-0 findfont exch scalefont setfont } def
90.000 1010
(50) Stxtl
(50) stringwidth pop xratio div
dup 4 3 roll exch 90.000 cos mul add 3 1 roll 90.000 sin mul add 2 copy
pop pop pop pop
3947 27432 3543 27432 Sln
3038 27432 0
/Helvetica-0 findfont 1010 yratio mul scalefont setfont
(100) stringwidth pop add
2 div xratio div
dup 4 3 roll exch 90.000 cos mul sub 3 1 roll 90.000 sin mul sub 2 copy
/fntsize {/Helvetica-0 findfont exch scalefont setfont } def
90.000 1010
(100) Stxtl
(100) stringwidth pop xratio div
dup 4 3 roll exch 90.000 cos mul add 3 1 roll 90.000 sin mul add 2 copy
pop pop pop pop
1927 16010 0
/Helvetica-0 findfont 1010 yratio mul scalefont setfont
(1-year realised return) stringwidth pop add
2 div xratio div
dup 4 3 roll exch 90.000 cos mul sub 3 1 roll 90.000 sin mul sub 2 copy
/fntsize {/Helvetica-0 findfont exch scalefont setfont } def
90.000 1010
(1-year realised return) Stxtl
(1-year realised return) stringwidth pop xratio div
dup 4 3 roll exch 90.000 cos mul add 3 1 roll 90.000 sin mul add 2 copy
pop pop pop pop
3947 3947 30981 3947 Sln
5382 3947 5382 3543 Sln
5382 2634 0
/Helvetica-0 findfont 1010 yratio mul scalefont setfont
(3.6) stringwidth pop add
2 div xratio div
dup 4 3 roll exch 0.000 cos mul sub 3 1 roll 0.000 sin mul sub 2 copy
/fntsize {/Helvetica-0 findfont exch scalefont setfont } def
0.000 1010
(3.6) Stxtl
(3.6) stringwidth pop xratio div
dup 4 3 roll exch 0.000 cos mul add 3 1 roll 0.000 sin mul add 2 copy
pop pop pop pop
9978 3947 9978 3543 Sln
9978 2634 0
/Helvetica-0 findfont 1010 yratio mul scalefont setfont
(3.8) stringwidth pop add
2 div xratio div
dup 4 3 roll exch 0.000 cos mul sub 3 1 roll 0.000 sin mul sub 2 copy
/fntsize {/Helvetica-0 findfont exch scalefont setfont } def
0.000 1010
(3.8) Stxtl
(3.8) stringwidth pop xratio div
dup 4 3 roll exch 0.000 cos mul add 3 1 roll 0.000 sin mul add 2 copy
pop pop pop pop
14573 3947 14573 3543 Sln
14573 2634 0
/Helvetica-0 findfont 1010 yratio mul scalefont setfont
(4) stringwidth pop add
2 div xratio div
dup 4 3 roll exch 0.000 cos mul sub 3 1 roll 0.000 sin mul sub 2 copy
/fntsize {/Helvetica-0 findfont exch scalefont setfont } def
0.000 1010
(4) Stxtl
(4) stringwidth pop xratio div
dup 4 3 roll exch 0.000 cos mul add 3 1 roll 0.000 sin mul add 2 copy
pop pop pop pop
19169 3947 19169 3543 Sln
19169 2634 0
/Helvetica-0 findfont 1010 yratio mul scalefont setfont
(4.2) stringwidth pop add
2 div xratio div
dup 4 3 roll exch 0.000 cos mul sub 3 1 roll 0.000 sin mul sub 2 copy
/fntsize {/Helvetica-0 findfont exch scalefont setfont } def
0.000 1010
(4.2) Stxtl
(4.2) stringwidth pop xratio div
dup 4 3 roll exch 0.000 cos mul add 3 1 roll 0.000 sin mul add 2 copy
pop pop pop pop
23765 3947 23765 3543 Sln
23765 2634 0
/Helvetica-0 findfont 1010 yratio mul scalefont setfont
(4.4) stringwidth pop add
2 div xratio div
dup 4 3 roll exch 0.000 cos mul sub 3 1 roll 0.000 sin mul sub 2 copy
/fntsize {/Helvetica-0 findfont exch scalefont setfont } def
0.000 1010
(4.4) Stxtl
(4.4) stringwidth pop xratio div
dup 4 3 roll exch 0.000 cos mul add 3 1 roll 0.000 sin mul add 2 copy
pop pop pop pop
28361 3947 28361 3543 Sln
28361 2634 0
/Helvetica-0 findfont 1010 yratio mul scalefont setfont
(4.6) stringwidth pop add
2 div xratio div
dup 4 3 roll exch 0.000 cos mul sub 3 1 roll 0.000 sin mul sub 2 copy
/fntsize {/Helvetica-0 findfont exch scalefont setfont } def
0.000 1010
(4.6) Stxtl
(4.6) stringwidth pop xratio div
dup 4 3 roll exch 0.000 cos mul add 3 1 roll 0.000 sin mul add 2 copy
pop pop pop pop
17464 1523 0
/Helvetica-0 findfont 1010 yratio mul scalefont setfont
(log P/D ratio) stringwidth pop add
2 div xratio div
dup 4 3 roll exch 0.000 cos mul sub 3 1 roll 0.000 sin mul sub 2 copy
/fntsize {/Helvetica-0 findfont exch scalefont setfont } def
0.000 1010
(log P/D ratio) Stxtl
(log P/D ratio) stringwidth pop xratio div
dup 4 3 roll exch 0.000 cos mul add 3 1 roll 0.000 sin mul add 2 copy
pop pop pop pop
S showpage
%%EOF
