%!PS-Adobe-3.0 EPSF-3.0
%%Creator: MATLAB, The MathWorks, Inc. Version 8.3.0.532 (R2014a). Operating System: Darwin 14.0.0 Darwin Kernel Version 14.0.0: Fri Sep 19 00:26:44 PDT 2014; root:xnu-2782.1.97~2/RELEASE_X86_64 x86_64.
%%Title: /Users/fckw/Dropbox/PhD/jmp/paper/spainirf.eps
%%CreationDate: 12/12/2014  11:04:24
%%DocumentNeededFonts: Helvetica
%%DocumentProcessColors: Cyan Magenta Yellow Black
%%LanguageLevel: 2
%%Pages: 1
%%BoundingBox:     0    -1   603   396
%%EndComments

%%BeginProlog
% MathWorks dictionary
/MathWorks 160 dict begin
% definition operators
/bdef {bind def} bind def
/ldef {load def} bind def
/xdef {exch def} bdef
/xstore {exch store} bdef
% operator abbreviations
/c  /clip ldef
/cc /concat ldef
/cp /closepath ldef
/gr /grestore ldef
/gs /gsave ldef
/mt /moveto ldef
/np /newpath ldef
/cm /currentmatrix ldef
/sm /setmatrix ldef
/rm /rmoveto ldef
/rl /rlineto ldef
/s {show newpath} bdef
/sc {setcmykcolor} bdef
/sr /setrgbcolor ldef
/sg /setgray ldef
/w /setlinewidth ldef
/j /setlinejoin ldef
/cap /setlinecap ldef
/rc {rectclip} bdef
/rf {rectfill} bdef
% page state control
/pgsv () def
/bpage {/pgsv save def} bdef
/epage {pgsv restore} bdef
/bplot /gsave ldef
/eplot {stroke grestore} bdef
% orientation switch
/portraitMode 0 def /landscapeMode 1 def /rotateMode 2 def
% coordinate system mappings
/dpi2point 0 def
% font control
/FontSize 0 def
/FMS {/FontSize xstore findfont [FontSize 0 0 FontSize neg 0 0]
  makefont setfont} bdef
/reencode {exch dup where {pop load} {pop StandardEncoding} ifelse
  exch dup 3 1 roll findfont dup length dict begin
  { 1 index /FID ne {def}{pop pop} ifelse } forall
  /Encoding exch def currentdict end definefont pop} bdef
/isroman {findfont /CharStrings get /Agrave known} bdef
/FMSR {3 1 roll 1 index dup isroman {reencode} {pop pop} ifelse
  exch FMS} bdef
/csm {1 dpi2point div -1 dpi2point div scale neg translate
 dup landscapeMode eq {pop -90 rotate}
  {rotateMode eq {90 rotate} if} ifelse} bdef
% line types: solid, dotted, dashed, dotdash
/dom { dpi2point 1 currentlinewidth 0.08 mul add mul mul } bdef/dam { dpi2point 2 currentlinewidth 0.04 mul add mul mul } bdef/SO { [] 0 setdash 0 setlinecap } bdef/DO { [1 dom 1.2 dom] 0 setdash 0 setlinecap } bdef/DA { [4 dam 1.5 dam] 0 setdash 0 setlinecap } bdef/DD { [1 dom 1.2 dom 4 dam 1.2 dom] 0 setdash 0 setlinecap } bdef/GR { [0 dpi2point mul 4 dpi2point mul] 0 setdash 1 setlinecap } bdef% macros for lines and objects
/L {lineto stroke} bdef
/MP {3 1 roll moveto 1 sub {rlineto} repeat} bdef
/AP {{rlineto} repeat} bdef
/PDlw -1 def
/W {/PDlw currentlinewidth def setlinewidth} def
/PP {closepath eofill} bdef
/DP {closepath stroke} bdef
/MR {4 -2 roll moveto dup  0 exch rlineto exch 0 rlineto
  neg 0 exch rlineto closepath} bdef
/FR {MR stroke} bdef
/PR {MR fill} bdef
/L1i {{currentfile picstr readhexstring pop} image} bdef
/tMatrix matrix def
/MakeOval {newpath tMatrix currentmatrix pop translate scale
0 0 1 0 360 arc tMatrix setmatrix} bdef
/FO {MakeOval stroke} bdef
/PO {MakeOval fill} bdef
/PD {currentlinewidth 2 div 0 360 arc fill
   PDlw -1 eq not {PDlw w /PDlw -1 def} if} def
/FA {newpath tMatrix currentmatrix pop translate scale
  0 0 1 5 -2 roll arc tMatrix setmatrix stroke} bdef
/PA {newpath tMatrix currentmatrix pop	translate 0 0 moveto scale
  0 0 1 5 -2 roll arc closepath tMatrix setmatrix fill} bdef
/FAn {newpath tMatrix currentmatrix pop translate scale
  0 0 1 5 -2 roll arcn tMatrix setmatrix stroke} bdef
/PAn {newpath tMatrix currentmatrix pop translate 0 0 moveto scale
  0 0 1 5 -2 roll arcn closepath tMatrix setmatrix fill} bdef
/vradius 0 def /hradius 0 def /lry 0 def
/lrx 0 def /uly 0 def /ulx 0 def /rad 0 def
/MRR {/vradius xdef /hradius xdef /lry xdef /lrx xdef /uly xdef
  /ulx xdef newpath tMatrix currentmatrix pop ulx hradius add uly
  vradius add translate hradius vradius scale 0 0 1 180 270 arc 
  tMatrix setmatrix lrx hradius sub uly vradius add translate
  hradius vradius scale 0 0 1 270 360 arc tMatrix setmatrix
  lrx hradius sub lry vradius sub translate hradius vradius scale
  0 0 1 0 90 arc tMatrix setmatrix ulx hradius add lry vradius sub
  translate hradius vradius scale 0 0 1 90 180 arc tMatrix setmatrix
  closepath} bdef
/FRR {MRR stroke } bdef
/PRR {MRR fill } bdef
/MlrRR {/lry xdef /lrx xdef /uly xdef /ulx xdef /rad lry uly sub 2 div def
  newpath tMatrix currentmatrix pop ulx rad add uly rad add translate
  rad rad scale 0 0 1 90 270 arc tMatrix setmatrix lrx rad sub lry rad
  sub translate rad rad scale 0 0 1 270 90 arc tMatrix setmatrix
  closepath} bdef
/FlrRR {MlrRR stroke } bdef
/PlrRR {MlrRR fill } bdef
/MtbRR {/lry xdef /lrx xdef /uly xdef /ulx xdef /rad lrx ulx sub 2 div def
  newpath tMatrix currentmatrix pop ulx rad add uly rad add translate
  rad rad scale 0 0 1 180 360 arc tMatrix setmatrix lrx rad sub lry rad
  sub translate rad rad scale 0 0 1 0 180 arc tMatrix setmatrix
  closepath} bdef
/FtbRR {MtbRR stroke } bdef
/PtbRR {MtbRR fill } bdef
/stri 6 array def /dtri 6 array def
/smat 6 array def /dmat 6 array def
/tmat1 6 array def /tmat2 6 array def /dif 3 array def
/asub {/ind2 exch def /ind1 exch def dup dup
  ind1 get exch ind2 get sub exch } bdef
/tri_to_matrix {
  2 0 asub 3 1 asub 4 0 asub 5 1 asub
  dup 0 get exch 1 get 7 -1 roll astore } bdef
/compute_transform {
  dmat dtri tri_to_matrix tmat1 invertmatrix 
  smat stri tri_to_matrix tmat2 concatmatrix } bdef
/ds {stri astore pop} bdef
/dt {dtri astore pop} bdef
/db {2 copy /cols xdef /rows xdef mul dup 3 mul string
  currentfile 
  3 index 0 eq {/ASCIIHexDecode filter}
  {/ASCII85Decode filter 3 index 2 eq {/RunLengthDecode filter} if }
  ifelse exch readstring pop
  dup 0 3 index getinterval /rbmap xdef
  dup 2 index dup getinterval /gbmap xdef
  1 index dup 2 mul exch getinterval /bbmap xdef pop pop}bdef
/it {gs np dtri aload pop moveto lineto lineto cp c
  cols rows 8 compute_transform 
  rbmap gbmap bbmap true 3 colorimage gr}bdef
/il {newpath moveto lineto stroke}bdef
currentdict end def
%%EndProlog

%%BeginSetup
MathWorks begin

0 cap

end
%%EndSetup

%%Page: 1 1
%%BeginPageSetup
%%PageBoundingBox:     0    -1   603   396
MathWorks begin
bpage
%%EndPageSetup

%%BeginObject: obj1
bplot

/dpi2point 12 def
portraitMode 0000 4752 csm

    0     0  7244  4765 rc
85 dict begin %Colortable dictionary
/c0 { 0.000000 0.000000 0.000000 sr} bdef
/c1 { 1.000000 1.000000 1.000000 sr} bdef
/c2 { 0.900000 0.000000 0.000000 sr} bdef
/c3 { 0.000000 0.820000 0.000000 sr} bdef
/c4 { 0.000000 0.000000 0.800000 sr} bdef
/c5 { 0.910000 0.820000 0.320000 sr} bdef
/c6 { 1.000000 0.260000 0.820000 sr} bdef
/c7 { 0.000000 0.820000 0.820000 sr} bdef
c0
1 j
1 sg
   0    0 7245 4766 rf
6 w
0 1843 1328 0 0 -1843 264 2050 4 MP
PP
-1328 0 0 1843 1328 0 0 -1843 264 2050 5 MP stroke
4 w
DO
6 w
SO
0 sg
 264 2050 mt 1592 2050 L
 264  207 mt 1592  207 L
 264 2050 mt  264  207 L
1592 2050 mt 1592  207 L
 264 2050 mt 1592 2050 L
 264 2050 mt  264  207 L
 264 2050 mt  264 2031 L
 264  207 mt  264  225 L
%%IncludeResource: font Helvetica
/Helvetica /ISOLatin1Encoding 120 FMSR

 231 2195 mt 
(0) s
 928 2050 mt  928 2031 L
 928  207 mt  928  225 L
 862 2195 mt 
(20) s
1592 2050 mt 1592 2031 L
1592  207 mt 1592  225 L
1526 2195 mt 
(40) s
 264 2050 mt  282 2050 L
1592 2050 mt 1573 2050 L
  93 2094 mt 
(-1) s
 264 1681 mt  282 1681 L
1592 1681 mt 1573 1681 L
 163 1725 mt 
(0) s
 264 1312 mt  282 1312 L
1592 1312 mt 1573 1312 L
 163 1356 mt 
(1) s
 264  944 mt  282  944 L
1592  944 mt 1573  944 L
 163  988 mt 
(2) s
 264  575 mt  282  575 L
1592  575 mt 1573  575 L
 163  619 mt 
(3) s
 264  207 mt  282  207 L
1592  207 mt 1573  207 L
 163  251 mt 
(4) s
 264 2050 mt 1592 2050 L
 264  207 mt 1592  207 L
 264 2050 mt  264  207 L
1592 2050 mt 1592  207 L
gs 264 207 1329 1844 rc
34 0 33 0 33 0 33 0 33 0 34 0 33 0 33 0 
33 0 33 0 34 0 33 0 33 0 33 0 33 0 34 0 
33 0 33 0 33 0 33 0 34 0 33 0 33 0 33 0 
33 0 34 0 33 0 33 0 33 0 33 0 34 0 33 0 
33 0 33 0 33 0 34 0 33 0 33 0 33 0 297 1681 40 MP stroke
12 w
34 0 33 0 33 0 33 0 33 0 34 0 33 0 33 0 
33 0 33 0 34 0 33 0 33 0 33 0 33 0 34 0 
33 0 33 0 33 0 33 0 34 0 33 0 33 0 33 0 
33 0 34 0 33 0 33 0 33 0 33 0 34 0 33 0 
33 0 33 0 33 0 34 0 33 0 33 0 33 0 297 1681 40 MP stroke
24 w
DA
/c8 { 0.000000 0.000000 1.000000 sr} bdef
c8
34 1 33 0 33 0 33 0 33 0 34 0 33 0 33 1 
33 0 33 0 34 0 33 1 33 0 33 0 33 0 34 1 
33 0 33 0 33 1 33 0 34 1 33 0 33 1 33 1 
33 0 34 1 33 1 33 1 33 2 33 1 34 2 33 1 
33 2 33 2 33 2 34 2 33 0 33 -28 33 0 297 1681 40 MP stroke
SO
/c9 { 1.000000 0.000000 0.000000 sr} bdef
c9
34 -14 33 -16 33 -16 33 -16 33 -16 34 -16 33 -14 33 -14 
33 -11 33 -8 34 -6 33 -1 33 4 33 10 33 16 34 23 
33 32 33 42 33 51 33 63 34 75 33 88 33 102 33 115 
33 129 34 141 33 151 33 154 33 148 33 128 34 88 33 23 
33 -71 33 -188 33 -309 34 -390 33 -342 33 -19 33 0 297 1681 40 MP stroke
gr

24 w
c9
0 sg
 601  112 mt 
(Stock prices) s
6 w
1 sg
0 1843 1328 0 0 -1843 2044 2050 4 MP
PP
-1328 0 0 1843 1328 0 0 -1843 2044 2050 5 MP stroke
4 w
DO
6 w
SO
0 sg
2044 2050 mt 3372 2050 L
2044  207 mt 3372  207 L
2044 2050 mt 2044  207 L
3372 2050 mt 3372  207 L
2044 2050 mt 3372 2050 L
2044 2050 mt 2044  207 L
2044 2050 mt 2044 2031 L
2044  207 mt 2044  225 L
2011 2195 mt 
(0) s
2708 2050 mt 2708 2031 L
2708  207 mt 2708  225 L
2642 2195 mt 
(20) s
3372 2050 mt 3372 2031 L
3372  207 mt 3372  225 L
3306 2195 mt 
(40) s
2044 2050 mt 2062 2050 L
3372 2050 mt 3353 2050 L
1773 2094 mt 
(-0.5) s
2044 1589 mt 2062 1589 L
3372 1589 mt 3353 1589 L
1943 1633 mt 
(0) s
2044 1128 mt 2062 1128 L
3372 1128 mt 3353 1128 L
1843 1172 mt 
(0.5) s
2044  667 mt 2062  667 L
3372  667 mt 3353  667 L
1943  711 mt 
(1) s
2044  207 mt 2062  207 L
3372  207 mt 3353  207 L
1843  251 mt 
(1.5) s
2044 2050 mt 3372 2050 L
2044  207 mt 3372  207 L
2044 2050 mt 2044  207 L
3372 2050 mt 3372  207 L
gs 2044 207 1329 1844 rc
34 0 33 0 33 0 33 0 33 0 34 0 33 0 33 0 
33 0 33 0 34 0 33 0 33 0 33 0 33 0 34 0 
33 0 33 0 33 0 33 0 34 0 33 0 33 0 33 0 
33 0 34 0 33 0 33 0 33 0 33 0 34 0 33 0 
33 0 33 0 33 0 34 0 33 0 33 0 33 0 2077 1589 40 MP stroke
12 w
34 0 33 0 33 0 33 0 33 0 34 0 33 0 33 0 
33 0 33 0 34 0 33 0 33 0 33 0 33 0 34 0 
33 0 33 0 33 0 33 0 34 0 33 0 33 0 33 0 
33 0 34 0 33 0 33 0 33 0 33 0 34 0 33 0 
33 0 33 0 33 0 34 0 33 0 33 0 33 0 2077 1589 40 MP stroke
24 w
DA
c8
34 3 33 3 33 4 33 3 33 4 34 4 33 4 33 5 
33 5 33 5 34 6 33 7 33 7 33 8 33 9 34 9 
33 11 33 13 33 14 33 16 34 18 33 21 33 23 33 28 
33 32 34 38 33 43 33 51 33 58 33 68 34 75 33 81 
33 78 33 53 33 -18 34 -196 33 -599 33 -50 33 0 2077 1589 40 MP stroke
SO
c9
34 -8 33 -8 33 -9 33 -10 33 -10 34 -10 33 -11 33 -10 
33 -10 33 -9 34 -8 33 -6 33 -5 33 -1 33 1 34 4 
33 9 33 13 33 19 33 24 34 31 33 38 33 47 33 56 
33 66 34 80 33 94 33 113 33 132 33 152 34 168 33 171 
33 146 33 71 33 -87 34 -370 33 -824 33 -47 33 0 2077 1589 40 MP stroke
gr

24 w
c9
0 sg
2444  112 mt 
(Dividends) s
6 w
1 sg
0 1843 1328 0 0 -1843 3824 2050 4 MP
PP
-1328 0 0 1843 1328 0 0 -1843 3824 2050 5 MP stroke
4 w
DO
6 w
SO
0 sg
3824 2050 mt 5152 2050 L
3824  207 mt 5152  207 L
3824 2050 mt 3824  207 L
5152 2050 mt 5152  207 L
3824 2050 mt 5152 2050 L
3824 2050 mt 3824  207 L
3824 2050 mt 3824 2031 L
3824  207 mt 3824  225 L
3791 2195 mt 
(0) s
4488 2050 mt 4488 2031 L
4488  207 mt 4488  225 L
4422 2195 mt 
(20) s
5152 2050 mt 5152 2031 L
5152  207 mt 5152  225 L
5086 2195 mt 
(40) s
3824 2050 mt 3842 2050 L
5152 2050 mt 5133 2050 L
3486 2094 mt 
(-0.05) s
3824 1742 mt 3842 1742 L
5152 1742 mt 5133 1742 L
3486 1786 mt 
(-0.04) s
3824 1435 mt 3842 1435 L
5152 1435 mt 5133 1435 L
3486 1479 mt 
(-0.03) s
3824 1128 mt 3842 1128 L
5152 1128 mt 5133 1128 L
3486 1172 mt 
(-0.02) s
3824  821 mt 3842  821 L
5152  821 mt 5133  821 L
3486  865 mt 
(-0.01) s
3824  514 mt 3842  514 L
5152  514 mt 5133  514 L
3723  558 mt 
(0) s
3824  207 mt 3842  207 L
5152  207 mt 5133  207 L
3556  251 mt 
(0.01) s
3824 2050 mt 5152 2050 L
3824  207 mt 5152  207 L
3824 2050 mt 3824  207 L
5152 2050 mt 5152  207 L
gs 3824 207 1329 1844 rc
34 0 33 0 33 0 33 0 33 0 34 0 33 0 33 0 
33 0 33 0 34 0 33 0 33 0 33 0 33 0 34 0 
33 0 33 0 33 0 33 0 34 0 33 0 33 0 33 0 
33 0 34 0 33 0 33 0 33 0 33 0 34 0 33 0 
33 0 33 0 33 0 34 0 33 0 33 0 33 0 3857 514 40 MP stroke
12 w
34 0 33 0 33 -1 33 -1 33 -1 34 -1 33 -1 33 -2 
33 -2 33 -3 34 -4 33 -4 33 -5 33 -6 33 -8 34 -9 
33 -11 33 -13 33 -17 33 -19 34 -24 33 -30 33 -35 33 -43 
33 -52 34 -64 33 -77 33 -93 33 -111 33 -132 34 -152 33 -167 
33 -167 33 -124 33 15 34 364 33 1170 33 -155 33 0 3857 514 40 MP stroke
24 w
DA
c8
34 -2 33 -2 33 -3 33 -2 33 -3 34 -4 33 -3 33 -5 
33 -4 33 -5 34 -6 33 -7 33 -8 33 -9 33 -10 34 -12 
33 -14 33 -16 33 -19 33 -22 34 -27 33 -31 33 -37 33 -43 
33 -53 34 -62 33 -73 33 -88 33 -103 33 -120 34 -136 33 -147 
33 -142 33 -98 33 38 34 373 33 1140 33 -197 33 0 3857 514 40 MP stroke
SO
c9
34 -10 33 -11 33 -14 33 -16 33 -17 34 -20 33 -22 33 -24 
33 -26 33 -28 34 -29 33 -30 33 -31 33 -31 33 -31 34 -30 
33 -28 33 -24 33 -20 33 -14 34 -8 33 2 33 11 33 22 
33 30 34 37 33 38 33 28 33 5 33 -38 34 -99 33 -172 
33 -238 33 -250 33 -125 34 274 33 1154 33 -195 33 0 3857 514 40 MP stroke
gr

24 w
c9
0 sg
4244  112 mt 
(Real rate) s
6 w
1 sg
0 1843 1328 0 0 -1843 5603 2050 4 MP
PP
-1328 0 0 1843 1328 0 0 -1843 5603 2050 5 MP stroke
4 w
DO
6 w
SO
0 sg
5603 2050 mt 6931 2050 L
5603  207 mt 6931  207 L
5603 2050 mt 5603  207 L
6931 2050 mt 6931  207 L
5603 2050 mt 6931 2050 L
5603 2050 mt 5603  207 L
5603 2050 mt 5603 2031 L
5603  207 mt 5603  225 L
5570 2195 mt 
(0) s
6267 2050 mt 6267 2031 L
6267  207 mt 6267  225 L
6201 2195 mt 
(20) s
6931 2050 mt 6931 2031 L
6931  207 mt 6931  225 L
6865 2195 mt 
(40) s
5603 2050 mt 5621 2050 L
6931 2050 mt 6912 2050 L
5265 2094 mt 
(-0.12) s
5603 1742 mt 5621 1742 L
6931 1742 mt 6912 1742 L
5332 1786 mt 
(-0.1) s
5603 1435 mt 5621 1435 L
6931 1435 mt 6912 1435 L
5265 1479 mt 
(-0.08) s
5603 1128 mt 5621 1128 L
6931 1128 mt 6912 1128 L
5265 1172 mt 
(-0.06) s
5603  821 mt 5621  821 L
6931  821 mt 6912  821 L
5265  865 mt 
(-0.04) s
5603  514 mt 5621  514 L
6931  514 mt 6912  514 L
5265  558 mt 
(-0.02) s
5603  207 mt 5621  207 L
6931  207 mt 6912  207 L
5502  251 mt 
(0) s
5603 2050 mt 6931 2050 L
5603  207 mt 6931  207 L
5603 2050 mt 5603  207 L
6931 2050 mt 6931  207 L
gs 5603 207 1329 1844 rc
34 0 33 0 33 0 33 0 33 0 34 0 33 0 33 0 
33 0 33 0 34 0 33 0 33 0 33 0 33 0 34 0 
33 0 33 0 33 0 33 0 34 0 33 0 33 0 33 0 
33 0 34 0 33 0 33 0 33 0 33 0 34 0 33 0 
33 0 33 0 33 0 34 0 33 0 33 0 33 0 5636 207 40 MP stroke
12 w
34 0 33 0 33 0 33 0 33 0 34 -1 33 0 33 -1 
33 -1 33 -1 34 -1 33 -2 33 -3 33 -2 33 -4 34 -4 
33 -5 33 -6 33 -8 33 -9 34 -11 33 -13 33 -17 33 -19 
33 -24 34 -30 33 -35 33 -44 33 -53 33 -64 34 -79 33 -97 
33 -119 33 -148 33 -186 34 -236 33 -310 33 1548 33 0 5636 207 40 MP stroke
24 w
DA
c8
34 -1 33 -2 33 -2 33 -2 33 -2 34 -2 33 -2 33 -3 
33 -3 33 -3 34 -4 33 -4 33 -5 33 -5 33 -6 34 -6 
33 -8 33 -9 33 -10 33 -12 34 -13 33 -16 33 -19 33 -22 
33 -27 34 -31 33 -36 33 -44 33 -53 33 -62 34 -75 33 -91 
33 -110 33 -134 33 -167 34 -212 33 -281 33 1514 33 0 5636 207 40 MP stroke
SO
c9
34 -5 33 -6 33 -7 33 -9 33 -10 34 -12 33 -13 33 -15 
33 -16 33 -18 34 -20 33 -21 33 -22 33 -23 33 -23 34 -24 
33 -24 33 -23 33 -22 33 -20 34 -16 33 -12 33 -7 33 0 
33 7 34 17 33 26 33 34 33 37 33 35 34 20 33 -13 
33 -70 33 -154 33 -261 34 -371 33 -440 33 1509 33 0 5636 207 40 MP stroke
gr

24 w
c9
0 sg
6056  112 mt 
(Inflation) s
6 w
1 sg
0 1843 1328 0 0 -1843 264 4609 4 MP
PP
-1328 0 0 1843 1328 0 0 -1843 264 4609 5 MP stroke
4 w
DO
6 w
SO
0 sg
 264 4609 mt 1592 4609 L
 264 2766 mt 1592 2766 L
 264 4609 mt  264 2766 L
1592 4609 mt 1592 2766 L
 264 4609 mt 1592 4609 L
 264 4609 mt  264 2766 L
 264 4609 mt  264 4590 L
 264 2766 mt  264 2784 L
 231 4754 mt 
(0) s
 928 4609 mt  928 4590 L
 928 2766 mt  928 2784 L
 862 4754 mt 
(20) s
1592 4609 mt 1592 4590 L
1592 2766 mt 1592 2784 L
1526 4754 mt 
(40) s
 264 4609 mt  282 4609 L
1592 4609 mt 1573 4609 L
  -7 4653 mt 
(-0.2) s
 264 4240 mt  282 4240 L
1592 4240 mt 1573 4240 L
 163 4284 mt 
(0) s
 264 3871 mt  282 3871 L
1592 3871 mt 1573 3871 L
  63 3915 mt 
(0.2) s
 264 3503 mt  282 3503 L
1592 3503 mt 1573 3503 L
  63 3547 mt 
(0.4) s
 264 3134 mt  282 3134 L
1592 3134 mt 1573 3134 L
  63 3178 mt 
(0.6) s
 264 2766 mt  282 2766 L
1592 2766 mt 1573 2766 L
  63 2810 mt 
(0.8) s
 264 4609 mt 1592 4609 L
 264 2766 mt 1592 2766 L
 264 4609 mt  264 2766 L
1592 4609 mt 1592 2766 L
gs 264 2766 1329 1844 rc
34 0 33 0 33 0 33 0 33 0 34 0 33 0 33 0 
33 0 33 0 34 0 33 0 33 0 33 0 33 0 34 0 
33 0 33 0 33 0 33 0 34 0 33 0 33 0 33 0 
33 0 34 0 33 0 33 0 33 0 33 0 34 0 33 0 
33 0 33 0 33 0 34 0 33 0 33 0 33 0 297 4240 40 MP stroke
12 w
34 3 33 3 33 3 33 2 33 3 34 2 33 3 33 3 
33 2 33 3 34 3 33 3 33 2 33 3 33 3 34 4 
33 3 33 4 33 5 33 5 34 5 33 7 33 7 33 9 
33 10 34 13 33 14 33 18 33 21 33 26 34 30 33 35 
33 41 33 43 33 41 34 23 33 -26 33 -580 33 0 297 4240 40 MP stroke
24 w
DA
c8
34 3 33 2 33 3 33 3 33 3 34 3 33 3 33 4 
33 3 33 4 34 5 33 5 33 5 33 5 33 6 34 7 
33 7 33 9 33 9 33 10 34 12 33 13 33 15 33 17 
33 20 34 23 33 26 33 31 33 36 33 42 34 48 33 56 
33 63 33 67 33 65 34 46 33 -10 33 -753 33 0 297 4240 40 MP stroke
SO
c9
34 -8 33 -9 33 -8 33 -9 33 -8 34 -7 33 -6 33 -5 
33 -3 33 -1 34 1 33 5 33 9 33 12 33 18 34 23 
33 29 33 35 33 43 33 49 34 58 33 66 33 74 33 83 
33 92 34 98 33 106 33 109 33 109 33 104 34 89 33 64 
33 24 33 -30 33 -94 34 -158 33 -194 33 -753 33 0 297 4240 40 MP stroke
gr

24 w
c9
0 sg
 747 2671 mt 
(Output) s
6 w
1 sg
0 1843 1328 0 0 -1843 2044 4609 4 MP
PP
-1328 0 0 1843 1328 0 0 -1843 2044 4609 5 MP stroke
4 w
DO
6 w
SO
0 sg
2044 4609 mt 3372 4609 L
2044 2766 mt 3372 2766 L
2044 4609 mt 2044 2766 L
3372 4609 mt 3372 2766 L
2044 4609 mt 3372 4609 L
2044 4609 mt 2044 2766 L
2044 4609 mt 2044 4590 L
2044 2766 mt 2044 2784 L
2011 4754 mt 
(0) s
2708 4609 mt 2708 4590 L
2708 2766 mt 2708 2784 L
2642 4754 mt 
(20) s
3372 4609 mt 3372 4590 L
3372 2766 mt 3372 2784 L
3306 4754 mt 
(40) s
2044 4609 mt 2062 4609 L
3372 4609 mt 3353 4609 L
1773 4653 mt 
(-0.5) s
2044 4240 mt 2062 4240 L
3372 4240 mt 3353 4240 L
1943 4284 mt 
(0) s
2044 3871 mt 2062 3871 L
3372 3871 mt 3353 3871 L
1843 3915 mt 
(0.5) s
2044 3503 mt 2062 3503 L
3372 3503 mt 3353 3503 L
1943 3547 mt 
(1) s
2044 3134 mt 2062 3134 L
3372 3134 mt 3353 3134 L
1843 3178 mt 
(1.5) s
2044 2766 mt 2062 2766 L
3372 2766 mt 3353 2766 L
1943 2810 mt 
(2) s
2044 4609 mt 3372 4609 L
2044 2766 mt 3372 2766 L
2044 4609 mt 2044 2766 L
3372 4609 mt 3372 2766 L
gs 2044 2766 1329 1844 rc
34 0 33 0 33 0 33 0 33 0 34 0 33 0 33 0 
33 0 33 0 34 0 33 0 33 0 33 0 33 0 34 0 
33 0 33 0 33 0 33 0 34 0 33 0 33 0 33 0 
33 0 34 0 33 0 33 0 33 0 33 0 34 0 33 0 
33 0 33 0 33 0 34 0 33 0 33 0 33 0 2077 4240 40 MP stroke
12 w
34 3 33 2 33 3 33 2 33 2 34 3 33 2 33 2 
33 2 33 2 34 2 33 2 33 1 33 1 33 2 34 1 
33 0 33 1 33 0 33 0 34 -1 33 -1 33 -1 33 -2 
33 -3 34 -4 33 -4 33 -5 33 -7 33 -8 34 -10 33 -12 
33 -14 33 -17 33 -20 34 -23 33 -24 33 -23 33 0 2077 4240 40 MP stroke
24 w
DA
c8
34 1 33 1 33 1 33 1 33 1 34 1 33 1 33 1 
33 1 33 1 34 2 33 1 33 1 33 1 33 2 34 1 
33 2 33 1 33 2 33 2 34 1 33 2 33 2 33 2 
33 2 34 2 33 2 33 2 33 2 33 2 34 1 33 2 
33 2 33 1 33 1 34 0 33 -2 33 -97 33 0 2077 4240 40 MP stroke
SO
c9
34 -19 33 -22 33 -23 33 -24 33 -25 34 -26 33 -27 33 -26 
33 -25 33 -24 34 -21 33 -18 33 -14 33 -8 33 -2 34 6 
33 15 33 25 33 38 33 51 34 67 33 83 33 101 33 121 
33 142 34 160 33 178 33 188 33 190 33 174 34 136 33 68 
33 -36 33 -168 33 -310 34 -406 33 -358 33 -99 33 0 2077 4240 40 MP stroke
gr

24 w
c9
0 sg
2416 2671 mt 
(Investment) s
6 w
1 sg
0 1843 1328 0 0 -1843 3824 4609 4 MP
PP
-1328 0 0 1843 1328 0 0 -1843 3824 4609 5 MP stroke
4 w
DO
6 w
SO
0 sg
3824 4609 mt 5152 4609 L
3824 2766 mt 5152 2766 L
3824 4609 mt 3824 2766 L
5152 4609 mt 5152 2766 L
3824 4609 mt 5152 4609 L
3824 4609 mt 3824 2766 L
3824 4609 mt 3824 4590 L
3824 2766 mt 3824 2784 L
3791 4754 mt 
(0) s
4488 4609 mt 4488 4590 L
4488 2766 mt 4488 2784 L
4422 4754 mt 
(20) s
5152 4609 mt 5152 4590 L
5152 2766 mt 5152 2784 L
5086 4754 mt 
(40) s
3824 4609 mt 3842 4609 L
5152 4609 mt 5133 4609 L
3723 4653 mt 
(0) s
3824 4240 mt 3842 4240 L
5152 4240 mt 5133 4240 L
3623 4284 mt 
(0.1) s
3824 3871 mt 3842 3871 L
5152 3871 mt 5133 3871 L
3623 3915 mt 
(0.2) s
3824 3503 mt 3842 3503 L
5152 3503 mt 5133 3503 L
3623 3547 mt 
(0.3) s
3824 3134 mt 3842 3134 L
5152 3134 mt 5133 3134 L
3623 3178 mt 
(0.4) s
3824 2766 mt 3842 2766 L
5152 2766 mt 5133 2766 L
3623 2810 mt 
(0.5) s
3824 4609 mt 5152 4609 L
3824 2766 mt 5152 2766 L
3824 4609 mt 3824 2766 L
5152 4609 mt 5152 2766 L
gs 3824 2766 1329 1844 rc
34 0 33 0 33 0 33 0 33 0 34 0 33 0 33 0 
33 0 33 0 34 0 33 0 33 0 33 0 33 0 34 0 
33 0 33 0 33 0 33 0 34 0 33 0 33 0 33 0 
33 0 34 0 33 0 33 0 33 0 33 0 34 0 33 0 
33 0 33 0 33 0 34 0 33 0 33 0 33 0 3857 4609 40 MP stroke
12 w
34 2 33 2 33 2 33 2 33 2 34 3 33 2 33 3 
33 3 33 3 34 4 33 4 33 5 33 5 33 7 34 8 
33 8 33 11 33 12 33 15 34 18 33 21 33 26 33 30 
33 37 34 45 33 54 33 64 33 79 33 94 34 112 33 133 
33 152 33 167 33 166 34 122 33 -19 33 -1653 33 0 3857 4609 40 MP stroke
24 w
DA
c8
34 5 33 5 33 6 33 5 33 6 34 7 33 7 33 7 
33 8 33 9 34 9 33 10 33 11 33 13 33 13 34 15 
33 16 33 19 33 20 33 24 34 26 33 30 33 35 33 40 
33 46 34 54 33 62 33 73 33 86 33 99 34 116 33 134 
33 151 33 162 33 158 34 114 33 -24 33 -1730 33 0 3857 4609 40 MP stroke
SO
c9
34 1 33 3 33 5 33 6 33 8 34 11 33 13 33 17 
33 20 33 23 34 28 33 31 33 36 33 41 33 45 34 49 
33 54 33 59 33 62 33 65 34 68 33 69 33 70 33 69 
33 68 34 65 33 62 33 59 33 59 33 61 34 69 33 81 
33 98 33 112 33 109 34 61 33 -79 33 -1729 33 0 3857 4609 40 MP stroke
gr

24 w
c9
0 sg
4134 2671 mt 
(Consumption) s
6 w
1 sg
0 1843 1328 0 0 -1843 5603 4609 4 MP
PP
-1328 0 0 1843 1328 0 0 -1843 5603 4609 5 MP stroke
4 w
DO
6 w
SO
0 sg
5603 4609 mt 6931 4609 L
5603 2766 mt 6931 2766 L
5603 4609 mt 5603 2766 L
6931 4609 mt 6931 2766 L
5603 4609 mt 6931 4609 L
5603 4609 mt 5603 2766 L
5603 4609 mt 5603 4590 L
5603 2766 mt 5603 2784 L
5570 4754 mt 
(0) s
6267 4609 mt 6267 4590 L
6267 2766 mt 6267 2784 L
6201 4754 mt 
(20) s
6931 4609 mt 6931 4590 L
6931 2766 mt 6931 2784 L
6865 4754 mt 
(40) s
5603 4609 mt 5621 4609 L
6931 4609 mt 6912 4609 L
5332 4653 mt 
(-0.4) s
5603 4148 mt 5621 4148 L
6931 4148 mt 6912 4148 L
5332 4192 mt 
(-0.2) s
5603 3687 mt 5621 3687 L
6931 3687 mt 6912 3687 L
5502 3731 mt 
(0) s
5603 3226 mt 5621 3226 L
6931 3226 mt 6912 3226 L
5402 3270 mt 
(0.2) s
5603 2766 mt 5621 2766 L
6931 2766 mt 6912 2766 L
5402 2810 mt 
(0.4) s
5603 4609 mt 6931 4609 L
5603 2766 mt 6931 2766 L
5603 4609 mt 5603 2766 L
6931 4609 mt 6931 2766 L
gs 5603 2766 1329 1844 rc
34 0 33 0 33 0 33 0 33 0 34 0 33 0 33 0 
33 0 33 0 34 0 33 0 33 0 33 0 33 0 34 0 
33 0 33 0 33 0 33 0 34 0 33 0 33 0 33 0 
33 0 34 0 33 0 33 0 33 0 33 0 34 0 33 0 
33 0 33 0 33 0 34 0 33 0 33 0 33 0 5636 3687 40 MP stroke
12 w
34 -5 33 -6 33 -7 33 -7 33 -7 34 -8 33 -9 33 -10 
33 -10 33 -11 34 -12 33 -13 33 -13 33 -14 33 -15 34 -16 
33 -17 33 -17 33 -18 33 -18 34 -19 33 -19 33 -18 33 -18 
33 -18 34 -15 33 -14 33 -11 33 -7 33 -2 34 4 33 10 
33 15 33 17 33 7 34 -29 33 -126 33 497 33 0 5636 3687 40 MP stroke
24 w
DA
c8
34 -8 33 -8 33 -8 33 -9 33 -10 34 -10 33 -10 33 -11 
33 -11 33 -11 34 -12 33 -12 33 -13 33 -13 33 -13 34 -13 
33 -13 33 -13 33 -12 33 -12 34 -12 33 -10 33 -8 33 -6 
33 -3 34 0 33 5 33 10 33 18 33 26 34 36 33 46 
33 57 33 62 33 54 34 16 33 -95 33 175 33 0 5636 3687 40 MP stroke
SO
c9
34 -32 33 -35 33 -36 33 -39 33 -40 34 -41 33 -41 33 -42 
33 -40 33 -39 34 -37 33 -33 33 -29 33 -23 33 -16 34 -8 
33 2 33 13 33 25 33 39 34 55 33 71 33 90 33 108 
33 129 34 147 33 166 33 180 33 187 33 182 34 160 33 114 
33 38 33 -73 33 -210 34 -349 33 -436 33 174 33 0 5636 3687 40 MP stroke
gr

24 w
c9
0 sg
5934 2671 mt 
(Employment) s
5586 4652 mt 
( ) s
6915 2808 mt 
( ) s
6 w
1 sg
0 563 983 0 0 -563 6205 3522 4 MP
PP
-983 0 0 563 983 0 0 -563 6205 3522 5 MP stroke
4 w
DO
6 w
SO
0 sg
6205 3522 mt 7188 3522 L
6205 2959 mt 7188 2959 L
6205 3522 mt 6205 2959 L
7188 3522 mt 7188 2959 L
6205 3522 mt 7188 3522 L
6205 3522 mt 6205 2959 L
6205 3522 mt 7188 3522 L
6205 2959 mt 7188 2959 L
6205 3522 mt 6205 2959 L
7188 3522 mt 7188 2959 L
6673 3109 mt 
(fric.less) s
gs 6205 2959 984 564 rc
12 w
360 0 6276 3066 2 MP stroke
gr

12 w
6673 3283 mt 
(RE) s
gs 6205 2959 984 564 rc
24 w
DA
c8
360 0 6276 3240 2 MP stroke
gr

24 w
SO
c8
0 sg
6673 3457 mt 
(learning) s
gs 6205 2959 984 564 rc
c9
360 0 6276 3414 2 MP stroke
6 w
gr

6 w
c9

end %%Color Dict

eplot
%%EndObject

epage
end

showpage

%%Trailer
%%EOF
